A = floor(rand(10,10)*50);
A = diag(diag(A)) + diag(diag(A,-1),-1) + diag(diag(A,-1),1)
A =
    45    44     0     0     0     0     0     0     0     0
    44    30    42     0     0     0     0     0     0     0
     0    42    35    25     0     0     0     0     0     0
     0     0    25    36     7     0     0     0     0     0
     0     0     0     7     6     8     0     0     0     0
     0     0     0     0     8    14    21     0     0     0
     0     0     0     0     0    21    46     2     0     0
     0     0     0     0     0     0     2    33    26     0
     0     0     0     0     0     0     0    26    33     9
     0     0     0     0     0     0     0     0     9    24

[autov, polinomio]= radiciTriangSimm(A,10^-6,200)

autov =
  Columns 1 through 6
    -2.886924673099271e+01    -3.170991961271287e+00     4.760084522635770e+00     
    1.043069291192664e+01     2.213053079734813e+01     2.504499538298783e+01
  Columns 7 through 10
     5.582608907854144e+01     5.651424540629746e+01     6.053526661194395e+01
     9.879833398068701e+01

polinomio =
  Columns 1 through 6
     1.000000000000000e+00    -3.020000000000000e+02     3.468800000000000e+04    
    -1.809372000000000e+06     3.142657000000000e+07     8.680723310000000e+08
  Columns 7 through 11
    -4.668960495200000e+10     7.147807283280000e+11    -3.516419462765000e+12
    -4.911272179605000e+12     4.753619563887000e+13

%% CONFRONTO COI RISULTATI DI MATLAB    
det (A-eye(10,10)*x)
ans =
    x^10 - 302*x^9 + 34688*x^8 - 1809372*x^7 + 31426570*x^6 + 868072331*x^5 
    - 46689604952*x^4 + 714780728328*x^3 - 3516419462765*x^2
    - 4911272179605*x + 47536195638870
 
eig(A)
ans =
    -2.886924673099274e+01
    -3.170991961271278e+00
     4.760084522635777e+00
     1.043069291192664e+01
     2.213053079734806e+01
     2.504499538298841e+01
     5.582608907863117e+01
     5.651424540613377e+01
     6.053526661191278e+01
     9.879833398068737e+01
