%!PS-Adobe-3.0 EPSF-3.0
%%Creator: MATLAB, The MathWorks, Inc. Version 8.0.0.783 (R2012b). Operating System: Microsoft Windows 7.
%%Title: C:\SILVIA\UniversitÓ\Presenti\Calcolo numerico\Silvia Balzani - esercitazioni\esCalcoloNumerico\Consegne\esercizi\Esercitazione06\esercitazione06e01.eps
%%CreationDate: 10/30/2015  15:26:15
%%DocumentNeededFonts: Helvetica
%%DocumentProcessColors: Cyan Magenta Yellow Black
%%LanguageLevel: 2
%%Pages: 1
%%BoundingBox:    87   262   507   578
%%EndComments

%%BeginProlog
% MathWorks dictionary
/MathWorks 160 dict begin
% definition operators
/bdef {bind def} bind def
/ldef {load def} bind def
/xdef {exch def} bdef
/xstore {exch store} bdef
% operator abbreviations
/c  /clip ldef
/cc /concat ldef
/cp /closepath ldef
/gr /grestore ldef
/gs /gsave ldef
/mt /moveto ldef
/np /newpath ldef
/cm /currentmatrix ldef
/sm /setmatrix ldef
/rm /rmoveto ldef
/rl /rlineto ldef
/s {show newpath} bdef
/sc {setcmykcolor} bdef
/sr /setrgbcolor ldef
/sg /setgray ldef
/w /setlinewidth ldef
/j /setlinejoin ldef
/cap /setlinecap ldef
/rc {rectclip} bdef
/rf {rectfill} bdef
% page state control
/pgsv () def
/bpage {/pgsv save def} bdef
/epage {pgsv restore} bdef
/bplot /gsave ldef
/eplot {stroke grestore} bdef
% orientation switch
/portraitMode 0 def /landscapeMode 1 def /rotateMode 2 def
% coordinate system mappings
/dpi2point 0 def
% font control
/FontSize 0 def
/FMS {/FontSize xstore findfont [FontSize 0 0 FontSize neg 0 0]
  makefont setfont} bdef
/ISOLatin1Encoding where {pop /WindowsLatin1Encoding 256 array bdef
ISOLatin1Encoding WindowsLatin1Encoding copy pop
/.notdef/.notdef/quotesinglbase/florin/quotedblbase/ellipsis/dagger
/daggerdbl/circumflex/perthousand/Scaron/guilsinglleft/OE/.notdef/.notdef
/.notdef/.notdef/quoteleft/quoteright/quotedblleft/quotedblright/bullet
/endash/emdash/tilde/trademark/scaron/guilsinglright/oe/.notdef/.notdef
/Ydieresis WindowsLatin1Encoding 128 32 getinterval astore pop}
{/WindowsLatin1Encoding StandardEncoding bdef} ifelse
/reencode {exch dup where {pop load} {pop StandardEncoding} ifelse
  exch dup 3 1 roll findfont dup length dict begin
  { 1 index /FID ne {def}{pop pop} ifelse } forall
  /Encoding exch def currentdict end definefont pop} bdef
/isroman {findfont /CharStrings get /Agrave known} bdef
/FMSR {3 1 roll 1 index dup isroman {reencode} {pop pop} ifelse
  exch FMS} bdef
/csm {1 dpi2point div -1 dpi2point div scale neg translate
 dup landscapeMode eq {pop -90 rotate}
  {rotateMode eq {90 rotate} if} ifelse} bdef
% line types: solid, dotted, dashed, dotdash
/SO { [] 0 setdash } bdef
/DO { [.5 dpi2point mul 4 dpi2point mul] 0 setdash } bdef
/DA { [6 dpi2point mul] 0 setdash } bdef
/DD { [.5 dpi2point mul 4 dpi2point mul 6 dpi2point mul 4
  dpi2point mul] 0 setdash } bdef
% macros for lines and objects
/L {lineto stroke} bdef
/MP {3 1 roll moveto 1 sub {rlineto} repeat} bdef
/AP {{rlineto} repeat} bdef
/PDlw -1 def
/W {/PDlw currentlinewidth def setlinewidth} def
/PP {closepath eofill} bdef
/DP {closepath stroke} bdef
/MR {4 -2 roll moveto dup  0 exch rlineto exch 0 rlineto
  neg 0 exch rlineto closepath} bdef
/FR {MR stroke} bdef
/PR {MR fill} bdef
/L1i {{currentfile picstr readhexstring pop} image} bdef
/tMatrix matrix def
/MakeOval {newpath tMatrix currentmatrix pop translate scale
0 0 1 0 360 arc tMatrix setmatrix} bdef
/FO {MakeOval stroke} bdef
/PO {MakeOval fill} bdef
/PD {currentlinewidth 2 div 0 360 arc fill
   PDlw -1 eq not {PDlw w /PDlw -1 def} if} def
/FA {newpath tMatrix currentmatrix pop translate scale
  0 0 1 5 -2 roll arc tMatrix setmatrix stroke} bdef
/PA {newpath tMatrix currentmatrix pop	translate 0 0 moveto scale
  0 0 1 5 -2 roll arc closepath tMatrix setmatrix fill} bdef
/FAn {newpath tMatrix currentmatrix pop translate scale
  0 0 1 5 -2 roll arcn tMatrix setmatrix stroke} bdef
/PAn {newpath tMatrix currentmatrix pop translate 0 0 moveto scale
  0 0 1 5 -2 roll arcn closepath tMatrix setmatrix fill} bdef
/vradius 0 def /hradius 0 def /lry 0 def
/lrx 0 def /uly 0 def /ulx 0 def /rad 0 def
/MRR {/vradius xdef /hradius xdef /lry xdef /lrx xdef /uly xdef
  /ulx xdef newpath tMatrix currentmatrix pop ulx hradius add uly
  vradius add translate hradius vradius scale 0 0 1 180 270 arc 
  tMatrix setmatrix lrx hradius sub uly vradius add translate
  hradius vradius scale 0 0 1 270 360 arc tMatrix setmatrix
  lrx hradius sub lry vradius sub translate hradius vradius scale
  0 0 1 0 90 arc tMatrix setmatrix ulx hradius add lry vradius sub
  translate hradius vradius scale 0 0 1 90 180 arc tMatrix setmatrix
  closepath} bdef
/FRR {MRR stroke } bdef
/PRR {MRR fill } bdef
/MlrRR {/lry xdef /lrx xdef /uly xdef /ulx xdef /rad lry uly sub 2 div def
  newpath tMatrix currentmatrix pop ulx rad add uly rad add translate
  rad rad scale 0 0 1 90 270 arc tMatrix setmatrix lrx rad sub lry rad
  sub translate rad rad scale 0 0 1 270 90 arc tMatrix setmatrix
  closepath} bdef
/FlrRR {MlrRR stroke } bdef
/PlrRR {MlrRR fill } bdef
/MtbRR {/lry xdef /lrx xdef /uly xdef /ulx xdef /rad lrx ulx sub 2 div def
  newpath tMatrix currentmatrix pop ulx rad add uly rad add translate
  rad rad scale 0 0 1 180 360 arc tMatrix setmatrix lrx rad sub lry rad
  sub translate rad rad scale 0 0 1 0 180 arc tMatrix setmatrix
  closepath} bdef
/FtbRR {MtbRR stroke } bdef
/PtbRR {MtbRR fill } bdef
/stri 6 array def /dtri 6 array def
/smat 6 array def /dmat 6 array def
/tmat1 6 array def /tmat2 6 array def /dif 3 array def
/asub {/ind2 exch def /ind1 exch def dup dup
  ind1 get exch ind2 get sub exch } bdef
/tri_to_matrix {
  2 0 asub 3 1 asub 4 0 asub 5 1 asub
  dup 0 get exch 1 get 7 -1 roll astore } bdef
/compute_transform {
  dmat dtri tri_to_matrix tmat1 invertmatrix 
  smat stri tri_to_matrix tmat2 concatmatrix } bdef
/ds {stri astore pop} bdef
/dt {dtri astore pop} bdef
/db {2 copy /cols xdef /rows xdef mul dup 3 mul string
  currentfile 
  3 index 0 eq {/ASCIIHexDecode filter}
  {/ASCII85Decode filter 3 index 2 eq {/RunLengthDecode filter} if }
  ifelse exch readstring pop
  dup 0 3 index getinterval /rbmap xdef
  dup 2 index dup getinterval /gbmap xdef
  1 index dup 2 mul exch getinterval /bbmap xdef pop pop}bdef
/it {gs np dtri aload pop moveto lineto lineto cp c
  cols rows 8 compute_transform 
  rbmap gbmap bbmap true 3 colorimage gr}bdef
/il {newpath moveto lineto stroke}bdef
currentdict end def
%%EndProlog

%%BeginSetup
MathWorks begin

0 cap

end
%%EndSetup

%%Page: 1 1
%%BeginPageSetup
%%PageBoundingBox:    87   262   507   578
MathWorks begin
bpage
%%EndPageSetup

%%BeginObject: obj1
bplot

/dpi2point 12 def
portraitMode 1044 6936 csm

    0     0  5045  3782 rc
86 dict begin %Colortable dictionary
/c0 { 0.000000 0.000000 0.000000 sr} bdef
/c1 { 1.000000 1.000000 1.000000 sr} bdef
/c2 { 0.900000 0.000000 0.000000 sr} bdef
/c3 { 0.000000 0.820000 0.000000 sr} bdef
/c4 { 0.000000 0.000000 0.800000 sr} bdef
/c5 { 0.910000 0.820000 0.320000 sr} bdef
/c6 { 1.000000 0.260000 0.820000 sr} bdef
/c7 { 0.000000 0.820000 0.820000 sr} bdef
c0
1 j
1 sg
   0    0 5046 3783 rf
6 w
0 3083 3910 0 0 -3083 656 3366 4 MP
PP
-3910 0 0 3083 3910 0 0 -3083 656 3366 5 MP stroke
4 w
DO
SO
6 w
0 sg
 656  283 mt 4566  283 L
 656 3366 mt 4566 3366 L
4566 3366 mt 4566  283 L
 656 3366 mt  656  283 L
 656 3366 mt 4566 3366 L
 656 3366 mt  656  283 L
 656 3366 mt  656 3326 L
 656  284 mt  656  323 L
%%IncludeResource: font Helvetica
/Helvetica /WindowsLatin1Encoding 120 FMSR

 623 3511 mt 
(0) s
1144 3366 mt 1144 3326 L
1144  284 mt 1144  323 L
1078 3511 mt 
(50) s
1633 3366 mt 1633 3326 L
1633  284 mt 1633  323 L
1533 3511 mt 
(100) s
2122 3366 mt 2122 3326 L
2122  284 mt 2122  323 L
2022 3511 mt 
(150) s
2611 3366 mt 2611 3326 L
2611  284 mt 2611  323 L
2511 3511 mt 
(200) s
3099 3366 mt 3099 3326 L
3099  284 mt 3099  323 L
2999 3511 mt 
(250) s
3588 3366 mt 3588 3326 L
3588  284 mt 3588  323 L
3488 3511 mt 
(300) s
4077 3366 mt 4077 3326 L
4077  284 mt 4077  323 L
3977 3511 mt 
(350) s
4566 3366 mt 4566 3326 L
4566  284 mt 4566  323 L
4466 3511 mt 
(400) s
 656 3366 mt  695 3366 L
4566 3366 mt 4526 3366 L
 555 3410 mt 
(4) s
 656 3057 mt  695 3057 L
4566 3057 mt 4526 3057 L
 555 3101 mt 
(6) s
 656 2749 mt  695 2749 L
4566 2749 mt 4526 2749 L
 555 2793 mt 
(8) s
 656 2441 mt  695 2441 L
4566 2441 mt 4526 2441 L
 488 2485 mt 
(10) s
 656 2133 mt  695 2133 L
4566 2133 mt 4526 2133 L
 488 2177 mt 
(12) s
 656 1825 mt  695 1825 L
4566 1825 mt 4526 1825 L
 488 1869 mt 
(14) s
 656 1516 mt  695 1516 L
4566 1516 mt 4526 1516 L
 488 1560 mt 
(16) s
 656 1208 mt  695 1208 L
4566 1208 mt 4526 1208 L
 488 1252 mt 
(18) s
 656  900 mt  695  900 L
4566  900 mt 4526  900 L
 488  944 mt 
(20) s
 656  592 mt  695  592 L
4566  592 mt 4526  592 L
 488  636 mt 
(22) s
 656  284 mt  695  284 L
4566  284 mt 4526  284 L
 488  328 mt 
(24) s
 656  283 mt 4566  283 L
 656 3366 mt 4566 3366 L
4566 3366 mt 4566  283 L
 656 3366 mt  656  283 L
gs 656 284 3911 3083 rc
/c8 { 1.000000 0.000000 0.000000 sr} bdef
c8
0 32 1 16 0 15 1 16 0 31 1 15 0 15 1 15 
0 15 1 14 0 29 1 15 0 14 1 14 0 28 1 14 
0 13 1 14 0 26 1 14 0 13 1 13 0 25 1 13 
0 12 1 13 0 24 1 12 0 12 1 12 0 12 1 12 
0 23 1 11 0 11 1 11 0 22 1 11 0 11 1 11 
0 20 1 11 0 10 1 10 0 20 1 10 0 10 1 9 
0 19 1 10 0 9 1 9 0 9 1 9 0 18 1 9 
0 8 1 9 0 17 1 8 0 8 1 8 0 16 1 8 
0 8 1 7 0 15 1 8 0 7 1 7 0 15 1 7 
0 6 1 7 0 7 1 7 0 13 1 6 0 7 1 6 
0 12 1 6 0 6 1 6 0 11 1 6 0 6 1 5 
0 11 1 5 0 5 1 6 0 10 1 5 0 4 1 5 
0 10 1 4 0 5 1 4 0 4 1 5 0 8 1 4 
0 4 1 4 0 8 1 4 0 3 1 4 0 7 1 3 
0 4 1 3 0 7 1 3 0 3 1 3 0 6 1 2 
0 3 1 3 0 3 1 2 0 5 1 3 0 2 1 2 
0 5 1 2 0 2 1 2 0 4 1 2 0 1 1 2 
0 3 1 2 0 2 1 1 0 3 1 1 0 2 1 1 
0 1 1 1 0 2 1 1 0 1 1 1 0 2 2 2 
1 1 1 1 1 1 1 1 1 0 1 0 1 0 1 -1 
1 0 1 -1 1 -1 0 -2 2 -2 0 -1 1 -1 0 -1 
1 -1 0 -2 1 -1 0 -1 1 -1 0 -1 1 -1 0 -2 
1 -1 0 -2 1 -1 0 -3 1 -1 0 -2 1 -1 0 -3 
1 -2 0 -1 1 -2 0 -3 1 -2 0 -2 1 -2 0 -3 
1 -2 0 -2 1 -2 0 -2 1 -2 0 -4 1 -2 0 -2 
1 -2 0 -5 1 -2 0 -2 1 -3 0 -4 1 -3 0 -2 
1 -2 0 -5 1 -3 0 -2 1 -3 0 -5 1 -3 0 -2 
1 -3 0 -3 1 -2 0 -6 1 -2 0 -3 1 -3 0 -6 
1 -3 0 -3 1 -2 0 -6 1 -3 0 -3 1 -3 0 -7 
1 -3 0 -3 1 -3 0 -6 1 -3 0 -4 1 -3 0 -3 
1 -3 0 -7 1 -3 0 -4 1 -3 0 -7 1 -3 0 -3 
1 -4 0 -7 1 -3 0 -4 1 -3 0 -7 1 -4 0 -4 
1 -3 0 -7 1 -4 0 -4 1 -3 0 -4 1 -4 0 -7 
1 -4 0 -4 1 -3 0 -8 1 -4 0 -4 1 -3 0 -8 
1 -4 0 -4 1 -4 0 -8 1 -4 0 -3 1 -4 0 -8 
1 -4 0 -4 1 -4 0 -4 1 -4 0 -8 1 -5 0 -4 
1 -4 0 -8 1 -4 0 -4 1 -4 0 -8 1 -5 0 -4 
1 -4 0 -8 1 -4 4066 972 300 MP stroke
0 -5 1 -4 0 -8 1 -4 0 -5 1 -4 0 -4 1 -4 
0 -9 1 -4 0 -4 1 -5 0 -8 1 -5 0 -4 1 -4 
0 -9 1 -4 0 -5 1 -4 0 -9 1 -4 0 -4 1 -5 
0 -9 1 -4 0 -4 1 -5 0 -4 1 -4 0 -9 1 -5 
0 -4 1 -4 0 -9 1 -5 0 -4 1 -5 0 -9 1 -4 
0 -4 1 -5 0 -9 1 -4 0 -5 1 -4 0 -9 1 -4 
0 -5 1 -4 0 -9 1 -5 0 -4 1 -5 0 -4 1 -5 
0 -9 1 -4 0 -5 1 -4 0 -9 1 -5 0 -4 1 -5 
0 -9 1 -4 0 -4 1 -5 0 -9 1 -4 0 -5 1 -4 
0 -9 1 -5 0 -4 1 -5 0 -4 1 -5 0 -9 1 -4 
0 -5 1 -4 0 -9 1 -5 0 -4 1 -4 0 -9 1 -5 
0 -4 1 -5 0 -9 1 -4 0 -5 1 -4 0 -9 1 -4 
0 -5 1 -4 0 -5 1 -4 0 -9 1 -4 0 -5 1 -4 
0 -9 1 -4 0 -5 1 -4 0 -9 1 -4 0 -5 1 -4 
0 -9 1 -4 0 -5 1 -4 0 -9 1 -4 0 -4 1 -5 
0 -4 1 -4 0 -9 1 -4 0 -5 1 -4 0 -9 1 -4 
0 -4 1 -4 0 -9 1 -4 0 -4 1 -5 0 -8 1 -5 
0 -4 1 -4 0 -8 1 -5 0 -4 1 -4 0 -4 1 -5 
0 -8 1 -4 0 -4 1 -4 0 -9 1 -4 0 -4 1 -4 
0 -9 1 -4 0 -4 1 -4 0 -8 1 -4 0 -4 1 -4 
0 -9 1 -4 0 -4 1 -4 0 -4 1 -4 0 -8 1 -4 
0 -4 1 -4 0 -8 1 -4 0 -4 1 -4 0 -8 1 -4 
0 -4 1 -4 0 -8 1 -4 0 -3 1 -4 0 -8 1 -4 
0 -4 1 -4 0 -4 1 -4 0 -7 1 -4 0 -4 1 -4 
0 -7 1 -4 0 -4 1 -4 0 -7 1 -4 0 -4 1 -4 
0 -7 1 -4 0 -4 1 -3 0 -8 1 -3 0 -4 1 -4 
0 -3 1 -4 0 -7 1 -4 0 -4 1 -3 0 -8 1 -3 
0 -4 1 -3 0 -8 1 -3 0 -4 1 -3 0 -7 1 -4 
0 -3 1 -4 0 -7 1 -3 0 -4 1 -3 0 -4 1 -3 
0 -7 1 -3 0 -4 1 -3 0 -7 1 -4 0 -3 1 -3 
0 -7 1 -3 0 -4 1 -3 0 -7 1 -3 0 -3 1 -4 
0 -6 1 -3 0 -4 1 -3 0 -3 1 -3 0 -7 1 -3 
0 -3 1 -3 0 -7 1 -3 0 -3 1 -3 0 -7 1 -3 
0 -3 1 -3 0 -6 1 -3 0 -3 1 -3 0 -7 1 -3 
0 -3 1 -3 0 -3 1 -3 0 -6 1 -3 0 -3 1 -3 
0 -5 1 -3 0 -3 1 -3 0 -6 1 -3 0 -3 1 -3 
0 -6 1 -2 0 -3 1 -3 0 -6 1 -3 0 -2 1 -3 
0 -3 1 -3 0 -5 3917 2418 300 MP stroke
1 -3 0 -3 1 -3 0 -5 1 -3 0 -3 1 -2 0 -6 
1 -2 0 -3 1 -3 0 -5 1 -3 0 -2 1 -3 0 -5 
1 -3 0 -2 1 -3 0 -5 1 -2 0 -3 1 -3 0 -2 
1 -3 0 -5 1 -2 0 -3 1 -2 0 -5 1 -2 0 -3 
1 -2 0 -5 1 -3 0 -2 1 -2 0 -5 1 -3 0 -2 
1 -2 0 -5 1 -2 0 -3 1 -2 0 -2 1 -3 0 -4 
1 -2 0 -3 1 -2 0 -4 1 -3 0 -2 1 -2 0 -5 
1 -2 0 -2 1 -2 0 -5 1 -2 0 -2 1 -2 0 -4 
1 -2 0 -2 1 -3 0 -2 1 -2 0 -4 1 -2 0 -2 
1 -2 0 -4 1 -2 0 -2 1 -2 0 -4 1 -2 0 -2 
1 -2 0 -4 1 -2 0 -2 1 -2 0 -4 1 -2 0 -2 
1 -1 0 -2 1 -2 0 -4 1 -2 0 -2 1 -2 0 -3 
1 -2 0 -2 1 -2 0 -3 1 -2 0 -2 1 -2 0 -3 
1 -2 0 -2 1 -1 0 -4 1 -2 0 -1 1 -2 0 -2 
1 -1 0 -4 1 -1 0 -2 1 -2 0 -3 1 -2 0 -1 
1 -2 0 -3 1 -2 0 -1 1 -2 0 -3 1 -1 0 -2 
1 -2 0 -3 1 -1 0 -2 1 -1 0 -2 1 -1 0 -3 
1 -2 0 -1 1 -2 0 -3 1 -1 0 -1 1 -2 0 -3 
1 -1 0 -1 1 -2 0 -3 1 -1 0 -1 1 -2 0 -3 
1 -1 0 -1 1 -2 0 -1 1 -1 0 -3 1 -1 0 -1 
1 -2 0 -2 1 -2 0 -1 1 -1 0 -3 1 -1 0 -1 
1 -1 0 -3 1 -1 0 -1 1 -1 0 -3 1 -1 0 -1 
1 -1 0 -1 1 -2 0 -2 1 -1 0 -1 1 -1 0 -3 
1 -1 0 -1 1 -1 0 -2 1 -1 0 -1 1 -1 0 -2 
1 -1 0 -2 1 -1 0 -2 1 -1 0 -1 1 -1 0 -1 
1 -1 0 -2 1 -1 0 -1 1 -1 0 -2 1 -1 1 -1 
0 -2 1 -1 0 -1 1 -1 0 -2 1 -1 0 -1 1 -1 
0 -2 2 -2 0 -1 1 -1 0 -2 2 -2 0 -2 1 -1 
1 -1 0 -2 1 -1 1 -1 0 -2 1 -1 1 -1 0 -2 
2 -2 1 -1 0 -2 1 -1 1 -1 0 -1 1 -1 0 -1 
1 -1 0 -1 1 -1 1 -1 0 -1 1 -1 0 -1 2 -2 
1 -1 0 -2 2 -2 1 -1 0 -1 2 -2 0 -1 2 -2 
1 -1 0 -1 2 -2 1 -1 1 -1 1 -1 0 -1 2 -2 
1 -1 1 -1 0 -1 2 -2 1 -1 1 -1 1 -1 1 -1 
1 -1 1 -1 1 -1 1 -1 1 -1 1 0 -1 0 2 -2 
1 0 1 -1 1 -1 1 -1 1 -1 1 0 1 -1 1 -1 
1 -1 1 -1 1 0 1 -1 1 -1 1 0 1 -1 1 -1 
1 0 1 -1 1 -1 3735 2981 300 MP stroke
1 0 1 -1 1 0 1 -1 1 -1 1 0 1 -1 1 0 
1 0 1 -1 1 0 1 -1 1 0 1 -1 1 0 1 -1 
1 0 1 0 1 -1 1 0 1 0 1 -1 1 0 1 0 
1 -1 1 0 1 0 1 -1 1 0 1 0 1 -1 1 0 
1 0 1 0 1 -1 1 0 1 0 1 0 1 0 1 -1 
1 0 1 0 1 0 1 0 1 -1 1 0 1 0 1 0 
1 0 1 0 1 -1 1 0 1 0 1 0 1 0 1 0 
1 0 1 0 1 0 1 -1 1 0 1 0 1 0 1 0 
1 0 1 0 1 0 1 0 1 0 1 0 1 -1 1 0 
1 0 1 0 1 0 1 0 1 0 1 0 1 0 1 0 
1 0 1 0 1 0 1 0 1 0 1 0 1 -1 1 0 
1 0 1 0 1 0 1 0 1 0 1 0 1 0 1 0 
1 0 1 0 1 0 1 0 1 0 1 0 1 0 1 -1 
1 0 1 0 1 0 1 0 1 0 1 0 1 0 1 0 
1 0 1 0 1 0 1 0 1 -1 1 0 1 0 1 0 
1 0 1 0 1 0 1 0 1 0 1 0 1 -1 1 0 
1 0 1 0 1 0 1 0 1 0 1 0 1 -1 1 0 
1 0 1 0 1 0 1 0 1 -1 1 0 1 0 1 0 
1 0 1 0 1 -1 1 0 1 0 1 0 1 0 1 -1 
1 0 1 0 1 0 1 -1 1 0 1 0 1 0 1 0 
1 -1 1 0 1 0 1 -1 1 0 1 0 1 0 1 -1 
1 0 1 0 1 0 1 -1 1 0 1 0 1 -1 1 0 
1 0 1 -1 1 0 1 0 1 -1 1 0 1 0 1 -1 
1 0 1 -1 1 0 1 0 1 -1 1 0 1 0 1 -1 
1 0 1 -1 1 0 1 -1 1 0 1 0 1 -1 1 0 
1 -1 1 0 1 -1 1 0 1 -1 1 0 1 -1 1 0 
1 0 1 -1 1 0 1 -1 1 0 1 -1 1 0 1 -1 
1 0 1 -1 1 -1 1 0 1 -1 1 0 1 -1 1 0 
1 -1 1 0 1 -1 1 -1 1 0 1 -1 1 0 1 -1 
1 0 1 -1 1 -1 1 0 1 -1 1 -1 1 0 1 -1 
1 -1 1 0 1 -1 1 0 1 -1 1 -1 1 -1 1 0 
1 -1 1 0 1 -1 1 -1 1 -1 1 0 1 -1 1 -1 
1 0 1 -1 1 -1 1 -1 1 0 1 -1 1 -1 1 -1 
1 0 1 -1 1 -1 1 0 1 -1 1 -1 1 -1 1 0 
1 -1 1 -1 1 -1 1 -1 1 0 1 -1 1 -1 1 -1 
1 0 1 -1 1 -1 1 -1 1 -1 1 -1 1 0 1 -1 
1 -1 1 -1 1 -1 1 0 1 -1 1 -1 1 -1 1 -1 
1 -1 1 0 1 -1 3436 3089 300 MP stroke
1 -1 1 -1 1 -1 1 -1 1 -1 1 0 1 -1 1 -1 
1 -1 1 -1 1 -1 1 -1 1 0 1 -1 1 -1 1 -1 
1 -1 1 -1 1 -1 1 -1 1 -1 1 0 1 -1 1 -1 
1 -1 1 -1 1 -1 1 -1 1 -1 1 -1 1 -1 1 0 
1 -1 1 -1 1 -1 1 -1 1 -1 1 -1 1 -1 1 -1 
1 -1 1 -1 1 0 -1 0 2 -2 1 0 1 -1 1 -1 
1 -1 1 -1 1 -1 1 -1 1 -1 1 -1 1 0 -1 0 
2 -2 1 0 1 -1 1 -1 1 -1 1 -1 1 -1 1 -1 
1 -1 1 -1 1 -1 1 -1 1 0 1 -1 1 -1 1 -1 
1 -1 1 -1 1 -1 1 -1 1 -1 1 -1 1 -1 1 0 
1 -1 1 -1 1 -1 1 -1 1 -1 1 -1 1 -1 1 -1 
1 -1 1 -1 1 0 1 -1 1 -1 1 -1 1 -1 1 -1 
1 -1 1 -1 1 -1 1 0 1 -1 1 -1 1 -1 1 -1 
1 -1 1 -1 1 0 -1 0 2 -2 1 0 1 -1 1 -1 
1 -1 1 -1 1 0 -1 0 2 -2 1 0 1 -1 1 -1 
1 -1 1 -1 1 -1 1 0 1 -1 1 -1 1 -1 1 -1 
1 0 1 -1 1 -1 1 -1 1 -1 1 -1 1 0 1 -1 
1 -1 1 -1 1 -1 1 0 1 -1 1 -1 1 -1 1 -1 
1 -1 1 0 1 -1 1 -1 1 0 1 -1 1 -1 1 -1 
1 -1 1 0 1 -1 1 -1 1 -1 1 0 1 -1 1 -1 
1 -1 1 0 1 -1 1 -1 1 0 1 -1 1 -1 1 0 
1 -1 1 -1 1 0 1 -1 1 -1 1 -1 1 0 1 -1 
1 -1 1 0 1 -1 1 -1 1 0 1 -1 1 -1 1 0 
1 -1 1 0 1 -1 1 -1 1 -1 1 0 1 -1 1 0 
1 -1 1 0 1 -1 1 -1 1 0 1 -1 1 0 1 -1 
1 -1 1 0 1 -1 1 0 1 -1 1 0 1 -1 1 0 
1 -1 1 0 1 -1 1 -1 1 0 1 -1 1 0 1 -1 
1 0 1 -1 1 0 1 -1 1 0 1 -1 1 0 1 -1 
1 0 1 -1 1 0 1 0 1 -1 1 0 1 -1 1 0 
1 -1 1 0 1 0 1 -1 1 0 1 -1 1 0 1 0 
1 -1 1 0 1 -1 1 0 1 0 1 -1 1 0 1 0 
1 -1 1 0 1 0 1 -1 1 0 1 0 1 -1 1 0 
1 0 1 -1 1 0 1 0 1 -1 1 0 1 0 1 0 
1 -1 1 0 1 0 1 -1 1 0 1 0 1 0 1 -1 
1 0 1 0 1 0 1 0 1 -1 1 0 1 0 1 0 
1 -1 1 0 1 0 1 0 1 0 1 -1 1 0 1 0 
1 0 1 0 1 0 1 -1 1 0 1 0 1 0 1 0 
1 0 1 0 1 0 3141 3285 300 MP stroke
1 -1 1 0 1 0 1 0 1 0 1 0 1 0 1 0 
1 0 1 0 1 -1 1 0 1 0 1 0 1 0 1 0 
1 0 1 0 1 0 1 0 1 0 1 0 1 0 1 0 
1 0 1 0 1 0 1 0 1 0 1 0 1 0 1 0 
1 0 1 0 1 0 1 0 1 0 1 0 1 0 1 0 
1 0 1 0 1 0 1 0 1 0 1 1 1 0 1 0 
1 0 1 0 1 0 1 0 1 0 1 0 1 0 1 0 
1 1 1 0 1 0 1 0 1 0 1 0 1 0 1 0 
1 1 1 0 1 0 1 0 1 0 1 0 1 1 1 0 
1 0 1 0 1 0 1 0 1 1 1 0 1 0 1 0 
1 0 1 1 1 0 1 0 1 0 1 0 1 1 1 0 
1 0 1 0 1 0 1 1 1 0 1 0 1 0 1 1 
1 0 1 0 1 0 1 1 1 0 1 0 1 0 1 1 
1 0 1 0 1 0 1 1 1 0 1 0 1 1 1 0 
1 0 1 0 1 1 1 0 1 0 1 1 1 0 1 0 
1 1 1 0 1 0 1 0 1 1 1 0 1 0 1 1 
1 0 1 0 1 1 1 0 1 0 1 1 1 0 1 0 
1 1 1 0 1 0 1 1 1 0 1 0 1 1 1 0 
1 1 1 0 1 0 1 1 1 0 1 0 1 1 1 0 
1 0 1 1 1 0 1 1 1 0 1 0 1 1 1 0 
1 0 1 1 1 0 1 0 1 1 1 0 1 1 1 0 
1 1 1 0 1 0 1 1 1 0 1 0 1 1 1 0 
1 1 1 0 1 0 1 1 1 0 1 1 1 0 1 1 
1 0 1 0 1 1 1 0 1 1 1 0 1 0 1 1 
1 0 1 1 1 0 1 0 1 1 1 0 1 1 1 0 
1 0 1 1 1 0 1 1 1 0 1 1 1 0 1 0 
1 1 1 0 1 1 1 0 1 1 1 0 1 0 1 1 
1 0 1 1 1 0 1 1 1 0 1 0 1 1 1 0 
1 1 1 0 1 1 1 0 1 0 1 1 1 0 1 1 
1 0 1 1 1 0 1 0 1 1 1 0 1 1 1 0 
1 0 1 1 1 0 1 1 1 0 1 1 1 0 1 1 
1 0 1 1 1 0 1 0 1 1 1 0 1 1 1 0 
1 0 1 1 1 0 1 1 1 0 1 1 1 0 1 0 
1 1 1 0 1 1 1 0 1 0 1 1 1 0 1 1 
1 0 1 1 1 0 1 0 1 1 1 0 1 1 1 0 
1 1 1 0 1 0 1 1 1 0 1 1 1 0 1 0 
1 1 1 0 1 1 1 0 1 0 1 1 1 0 1 1 
1 0 1 0 1 1 2842 3200 300 MP stroke
1 0 1 1 1 0 1 1 1 0 1 0 1 1 1 0 
1 1 1 0 1 0 1 1 1 0 1 0 1 1 1 0 
1 1 1 0 1 1 1 0 1 0 1 1 1 0 1 0 
1 1 1 0 1 1 1 0 1 0 1 1 1 0 1 0 
1 1 1 0 1 1 1 0 1 0 1 1 1 0 1 0 
1 1 1 0 1 1 1 0 1 0 1 1 1 0 1 0 
1 1 1 0 1 0 1 1 1 0 1 1 1 0 1 0 
1 1 1 0 1 0 1 1 1 0 1 0 1 1 1 0 
1 0 1 1 1 0 1 1 1 0 1 0 1 1 1 0 
1 0 1 1 1 0 1 0 1 1 1 0 1 0 1 1 
1 0 1 0 1 1 1 0 1 0 1 1 1 0 1 0 
1 1 1 0 1 0 1 1 1 0 1 0 1 1 1 0 
1 0 1 1 1 0 1 0 1 1 1 0 1 0 1 1 
1 0 1 0 1 1 1 0 1 0 1 1 1 0 1 0 
1 0 1 1 1 0 1 1 1 0 1 0 1 0 1 1 
1 0 1 0 1 1 1 0 1 0 1 1 1 0 1 0 
1 1 1 0 1 0 1 1 1 0 1 0 1 0 1 1 
1 0 1 0 1 1 1 0 1 0 1 1 1 0 1 0 
1 1 1 0 1 0 1 0 1 1 1 0 1 0 1 1 
1 0 1 0 1 1 1 0 1 0 1 1 1 0 1 0 
1 0 1 1 1 0 1 0 1 1 1 0 1 0 1 1 
1 0 1 0 1 1 1 0 1 0 1 0 1 1 1 0 
1 0 1 1 1 0 1 0 1 1 1 0 1 0 1 1 
1 0 1 0 1 1 1 0 1 0 1 0 1 1 1 0 
1 0 1 1 1 0 1 0 1 1 1 0 1 0 1 1 
1 0 1 0 1 1 1 0 1 0 1 1 1 0 1 0 
1 1 1 0 1 0 1 1 1 0 1 0 1 1 1 0 
1 0 1 1 1 0 1 0 1 1 1 0 1 0 1 1 
1 0 1 0 1 1 1 0 1 0 1 1 1 0 1 1 
1 0 1 0 1 1 1 0 1 0 1 1 1 0 1 0 
1 1 1 0 1 1 1 0 1 0 1 1 1 0 1 0 
1 1 1 0 1 0 1 1 1 0 1 1 1 0 1 0 
1 1 1 0 1 1 1 0 1 0 1 1 1 0 1 1 
1 0 1 0 1 1 1 0 1 1 1 0 1 0 1 1 
1 0 1 1 1 0 1 1 1 0 1 0 1 1 1 0 
1 1 1 0 1 1 1 0 1 1 1 0 1 0 1 1 
1 0 1 1 1 0 1 1 1 0 1 1 1 0 1 1 
1 0 1 1 1 0 2543 3094 300 MP stroke
1 0 1 1 1 0 1 1 1 0 1 1 1 0 1 1 
1 0 1 1 1 0 1 1 1 0 1 1 1 0 1 1 
1 0 1 1 1 0 1 1 1 0 1 1 1 0 1 1 
1 0 1 1 1 1 1 0 1 1 1 0 1 1 1 0 
1 1 1 0 1 1 1 0 1 1 1 1 1 0 1 1 
1 1 1 0 1 1 1 0 1 1 1 0 1 1 1 1 
1 0 1 1 1 0 1 1 1 1 1 0 1 1 1 0 
1 1 1 1 1 0 1 1 1 1 1 0 1 1 1 0 
1 1 1 1 1 1 1 0 1 1 1 0 1 1 1 1 
1 0 1 1 1 1 1 1 1 0 1 1 1 1 1 0 
1 1 1 1 1 0 1 1 1 1 1 0 1 1 1 1 
1 1 1 0 1 1 1 1 1 0 1 1 1 1 1 1 
1 0 1 1 1 1 1 1 1 0 1 1 1 1 1 1 
1 1 1 0 1 1 1 1 1 1 1 0 1 1 1 1 
1 1 1 1 1 0 1 1 1 1 1 1 1 1 1 1 
1 0 1 1 1 1 1 1 1 1 1 0 1 1 1 1 
1 1 1 1 1 1 1 0 1 1 1 1 1 1 1 1 
1 1 1 1 1 0 1 1 1 1 1 1 1 1 1 1 
1 1 1 1 1 1 1 0 1 1 1 1 1 1 1 1 
1 1 1 1 1 1 1 1 1 1 1 1 1 0 -1 0 
2 2 1 0 -1 0 2 2 1 0 1 1 1 1 1 1 
1 1 1 1 1 1 1 1 1 1 1 1 1 1 1 1 
1 1 1 1 1 1 1 1 1 1 1 1 1 1 1 1 
1 1 1 1 1 1 1 1 1 1 1 1 1 1 1 1 
1 1 1 1 1 1 1 1 1 1 1 1 1 1 1 1 
1 1 0 1 2 2 1 0 0 1 2 2 1 0 -1 0 
2 2 1 1 1 1 1 1 1 1 1 1 1 1 1 1 
1 1 1 1 1 1 1 1 0 1 2 2 1 1 1 1 
1 1 1 1 1 1 1 1 1 1 1 1 1 1 0 1 
2 2 1 1 1 1 1 1 1 1 1 1 1 1 1 1 
0 1 2 2 1 1 1 1 1 1 1 1 0 1 2 2 
1 1 1 0 -1 0 2 2 1 1 1 1 0 1 2 2 
1 0 -1 0 2 2 1 1 1 1 1 1 1 1 1 1 
0 1 2 2 1 1 1 1 0 1 2 2 1 1 1 1 
1 1 1 1 1 1 0 1 2 2 1 1 1 1 1 1 
1 1 0 1 2 2 1 1 1 1 1 1 0 1 2 2 
1 0 -1 0 2 2 1 1 1 1 0 1 2 2 1 1 
1 1 1 1 1 1 2250 2838 300 MP stroke
1 1 0 1 2 2 1 1 1 1 0 1 2 2 1 1 
1 1 1 1 1 1 1 1 0 1 2 2 1 1 1 1 
0 1 2 2 1 1 1 1 1 1 1 1 1 1 0 1 
2 2 1 1 1 1 0 1 2 2 1 1 1 1 1 1 
1 1 1 1 0 1 2 2 1 1 1 1 0 1 2 2 
1 1 1 1 1 1 1 1 1 1 0 1 2 2 1 1 
1 1 1 1 1 1 0 1 2 2 1 1 1 1 1 1 
1 1 1 1 0 1 2 2 1 1 1 1 1 1 1 1 
1 1 0 1 2 2 1 1 1 1 1 1 1 1 0 1 
2 2 1 1 1 1 1 1 1 1 1 1 1 1 1 1 
0 1 2 2 1 1 1 1 1 1 1 1 1 1 1 1 
1 1 0 1 2 2 1 1 1 1 1 1 1 1 1 1 
1 1 1 1 1 1 1 1 0 1 2 2 1 0 -1 0 
2 2 1 1 1 1 1 1 1 1 1 1 1 1 1 1 
1 1 1 1 1 1 1 1 1 1 1 1 0 1 2 2 
1 0 1 1 1 1 0 1 2 2 1 0 -1 0 2 2 
1 0 -1 0 2 2 1 0 -1 0 2 2 1 0 1 1 
1 1 1 1 1 1 1 1 1 1 1 1 1 1 1 1 
1 1 1 1 1 1 1 1 1 1 1 1 1 1 1 1 
1 1 1 1 1 1 1 1 1 0 1 1 1 1 1 1 
1 1 1 1 1 1 1 1 1 1 1 0 -1 0 2 2 
1 0 1 1 1 1 1 1 1 1 1 0 -1 0 2 2 
1 0 1 1 1 1 1 1 1 1 1 1 1 0 1 1 
1 1 1 1 1 1 1 0 1 1 1 1 1 1 1 1 
1 0 1 1 1 1 1 1 1 0 1 1 1 1 1 1 
1 0 1 1 1 1 1 1 1 0 1 1 1 1 1 1 
1 0 1 1 1 1 1 0 1 1 1 1 1 1 1 0 
1 1 1 1 1 0 1 1 1 1 1 0 1 1 1 1 
1 0 1 1 1 1 1 0 1 1 1 0 1 1 1 1 
1 0 1 1 1 1 1 0 1 1 1 0 1 1 1 0 
1 1 1 1 1 0 1 1 1 0 1 1 1 0 1 1 
1 1 1 0 1 1 1 0 1 1 1 0 1 1 1 0 
1 1 1 0 1 1 1 0 1 1 1 0 1 1 1 0 
1 1 1 0 1 1 1 0 1 1 1 0 1 0 1 1 
1 0 1 1 1 0 1 1 1 0 1 0 1 1 1 0 
1 1 1 0 1 0 1 1 1 0 1 1 1 0 1 1 
1 0 1 0 1 1 1 0 1 0 1 1 1 0 1 0 
1 1 1 0 1 1 1957 2581 300 MP stroke
1 0 1 0 1 1 1 0 1 0 1 1 1 0 1 0 
1 1 1 0 1 0 1 0 1 1 1 0 1 0 1 1 
1 0 1 0 1 0 1 1 1 0 1 0 1 1 1 0 
1 0 1 0 1 1 1 0 1 0 1 0 1 1 1 0 
1 0 1 0 1 1 1 0 1 0 1 0 1 1 1 0 
1 0 1 0 1 0 1 1 1 0 1 0 1 0 1 0 
1 1 1 0 1 0 1 0 1 0 1 1 1 0 1 0 
1 0 1 0 1 1 1 0 1 0 1 0 1 0 1 0 
1 1 1 0 1 0 1 0 1 0 1 0 1 1 1 0 
1 0 1 0 1 0 1 0 1 1 1 0 1 0 1 0 
1 0 1 0 1 1 1 0 1 0 1 0 1 0 1 0 
1 0 1 1 1 0 1 0 1 0 1 0 1 0 1 1 
1 0 1 0 1 0 1 0 1 0 1 0 1 1 1 0 
1 0 1 0 1 0 1 0 1 1 1 0 1 0 1 0 
1 0 1 0 1 1 1 0 1 0 1 0 1 0 1 0 
1 1 1 0 1 0 1 0 1 0 1 1 1 0 1 0 
1 0 1 0 1 0 1 1 1 0 1 0 1 0 1 1 
1 0 1 0 1 0 1 0 1 1 1 0 1 0 1 0 
1 0 1 1 1 0 1 0 1 0 1 1 1 0 1 0 
1 0 1 1 1 0 1 0 1 0 1 1 1 0 1 0 
1 1 1 0 1 0 1 0 1 1 1 0 1 0 1 1 
1 0 1 0 1 1 1 0 1 0 1 1 1 0 1 0 
1 1 1 0 1 0 1 1 1 0 1 1 1 0 1 1 
1 0 1 0 1 1 1 0 1 1 1 0 1 0 1 1 
1 0 1 1 1 0 1 1 1 0 1 1 1 0 1 1 
1 0 1 1 1 0 1 1 1 0 1 1 1 0 1 1 
1 0 1 1 1 1 1 0 1 1 1 0 1 1 1 0 
1 1 1 1 1 0 1 1 1 1 1 0 1 1 1 1 
1 0 1 1 1 1 1 1 1 0 1 1 1 1 1 0 
1 1 1 1 1 1 1 0 1 1 1 1 1 1 1 0 
1 1 1 1 1 1 1 1 1 1 1 1 1 0 1 1 
1 1 1 1 1 1 1 1 1 1 1 1 1 1 1 1 
1 1 1 1 1 1 1 1 1 1 1 1 1 1 1 1 
1 1 1 1 1 1 1 1 1 1 1 1 0 1 2 2 
1 1 1 1 1 1 1 1 1 1 0 1 2 2 1 1 
1 1 0 1 2 2 1 1 1 1 1 1 0 1 2 2 
1 1 0 1 1 1 1 1 1 1 0 1 2 2 0 1 
2 2 1 1 0 1 1660 2443 300 MP stroke
2 2 0 1 2 2 1 1 0 1 1 1 1 1 0 1 
1 1 1 1 0 1 1 1 1 1 1 1 0 2 2 2 
0 1 1 1 1 1 0 1 1 1 1 1 0 1 1 1 
1 1 0 2 2 2 1 1 0 1 1 1 0 1 1 1 
0 1 1 1 1 1 0 1 1 1 0 1 1 1 0 1 
1 1 1 1 0 2 2 2 1 1 0 2 2 2 0 1 
1 1 0 1 1 1 0 1 1 1 1 1 0 2 1 1 
1 1 0 2 1 1 1 1 0 1 1 1 0 1 1 1 
0 1 1 1 0 1 1 1 0 1 1 1 0 1 1 1 
0 1 1 1 0 1 1 1 0 1 1 1 0 2 2 2 
0 1 1 1 0 1 1 1 0 1 1 1 0 2 1 1 
1 1 0 2 1 1 0 1 1 1 0 1 1 1 0 1 
1 1 0 2 1 1 1 1 0 1 1 1 0 2 1 1 
0 1 1 1 0 1 1 1 0 1 1 1 0 2 1 1 
0 1 1 1 0 2 2 2 0 2 1 1 0 1 1 1 
0 1 1 1 0 2 1 1 0 1 1 1 0 1 1 1 
0 1 1 1 0 2 1 1 0 1 1 1 0 2 1 1 
0 1 1 1 0 2 1 1 0 1 1 1 0 1 1 1 
0 2 1 1 0 1 1 1 0 2 1 1 0 1 1 1 
0 2 1 1 0 1 1 1 0 2 1 1 0 1 1 1 
0 2 1 1 0 1 1 1 0 2 1 1 0 1 1 1 
0 1 1 1 0 2 1 2 0 1 1 1 0 2 1 1 
0 1 1 1 0 2 1 1 0 1 1 1 0 2 1 1 
0 1 1 2 0 2 1 1 0 1 1 1 0 1 1 1 
0 2 1 1 0 1 1 1 0 3 1 1 0 1 1 1 
0 2 1 1 0 1 1 1 0 3 1 1 0 1 1 1 
0 2 1 1 0 1 1 1 0 2 1 1 0 2 1 1 
0 1 1 1 0 3 1 1 0 1 1 1 0 2 1 1 
0 1 1 2 0 2 1 1 0 1 1 1 0 3 1 1 
0 1 1 1 0 1 1 1 0 3 1 1 0 1 1 1 
0 2 1 1 0 2 1 1 0 2 1 1 0 1 1 2 
0 2 1 1 0 1 1 1 0 3 1 1 0 1 1 1 
0 1 1 2 0 2 1 1 0 1 1 1 0 3 1 1 
0 1 1 1 0 3 1 1 0 1 1 1 0 3 1 1 
0 1 1 1 0 2 1 2 0 1 1 1 0 1 1 1 
0 3 1 1 0 1 1 1 0 3 1 1 0 1 1 1 
0 3 1 1 0 1 1 1 0 3 1 1 0 1 1 1 
0 3 1 1 0 1 1494 2060 300 MP stroke
1 1 0 1 1 2 0 2 1 1 0 1 1 2 0 2 
1 1 0 1 1 2 0 2 1 1 0 1 1 2 0 2 
1 1 0 1 1 1 0 3 1 1 0 1 1 1 0 2 
1 1 0 2 1 1 0 2 1 1 0 2 1 1 0 2 
1 1 0 2 1 1 0 2 1 1 0 2 1 1 0 2 
1 1 0 2 1 1 0 2 1 1 0 1 1 1 0 2 
1 2 0 1 1 1 0 2 1 2 0 1 1 1 0 2 
1 1 0 2 1 1 0 2 1 1 0 2 1 1 0 2 
1 1 0 1 1 2 0 1 1 1 0 2 1 1 0 2 
1 1 0 2 1 1 0 1 1 2 0 2 1 1 0 1 
1 1 0 3 1 1 0 1 1 1 0 2 1 2 0 1 
1 1 0 1 1 1 0 2 1 2 0 1 1 1 0 2 
1 1 0 1 1 1 0 3 1 1 0 1 1 1 0 2 
1 1 0 2 1 1 0 2 1 1 0 1 1 1 0 2 
1 1 0 2 1 1 0 1 1 1 0 2 1 1 0 1 
1 1 0 2 1 2 0 1 1 1 0 2 1 1 0 1 
1 1 0 2 1 1 0 1 1 1 0 2 1 1 0 1 
1 1 0 2 1 1 0 2 1 1 0 1 1 1 0 2 
1 1 0 1 1 1 0 2 1 1 0 1 1 1 0 2 
1 1 0 1 1 1 0 2 1 1 0 1 1 1 0 1 
1 1 0 1 1 1 0 1 1 1 0 2 1 1 0 1 
1 1 0 2 1 1 0 1 1 1 0 2 2 2 0 2 
1 1 0 1 1 1 0 1 1 1 0 1 1 1 0 1 
1 1 0 2 2 2 0 2 1 1 1 1 0 2 1 1 
0 1 1 1 0 1 1 1 0 1 1 1 1 1 0 2 
2 2 0 2 2 2 0 1 1 1 1 1 0 2 1 1 
1 1 0 1 1 1 0 1 2 2 0 1 1 1 0 1 
2 2 0 1 2 2 0 1 2 2 0 1 2 2 1 1 
0 1 2 2 0 1 2 2 1 1 1 1 1 1 1 1 
0 1 2 2 1 0 0 1 2 2 1 0 1 1 1 1 
1 1 1 1 1 1 1 0 1 1 1 1 1 0 1 1 
1 0 1 1 1 0 1 1 1 0 1 1 1 0 1 0 
1 1 1 0 1 0 1 0 1 0 1 0 1 0 1 0 
1 0 1 0 1 0 1 0 1 -1 1 0 1 0 1 -1 
1 0 1 -1 1 0 1 -1 1 0 1 -1 1 -1 1 0 
1 -1 1 -1 1 -1 1 -1 1 -1 1 -1 1 -1 1 -1 
1 -1 0 -1 2 -2 1 -1 1 -1 0 -1 1 -1 1 -1 
0 -1 1 -1 1 -1 1297 1753 300 MP stroke
0 -1 1 -1 1 -1 0 -2 2 -2 0 -1 1 -1 0 -1 
2 -2 0 -2 2 -2 0 -2 1 -1 1 -1 0 -2 1 -1 
0 -1 1 -1 0 -2 1 -1 1 -1 0 -2 1 -1 0 -1 
1 -1 0 -1 1 -1 0 -3 1 -1 0 -1 1 -1 0 -2 
1 -1 0 -1 1 -1 0 -2 1 -2 0 -1 1 -1 0 -2 
1 -1 0 -2 1 -1 0 -2 1 -1 0 -2 1 -1 0 -1 
1 -1 0 -3 1 -1 0 -2 1 -1 0 -3 1 -1 0 -1 
1 -2 0 -2 1 -2 0 -1 1 -1 0 -3 1 -2 0 -1 
1 -2 0 -3 1 -1 0 -2 1 -1 0 -2 1 -1 0 -3 
1 -2 0 -1 1 -2 0 -3 1 -2 0 -1 1 -2 0 -3 
1 -2 0 -1 1 -2 0 -3 1 -2 0 -2 1 -1 0 -4 
1 -2 0 -1 1 -2 0 -2 1 -2 0 -3 1 -2 0 -2 
1 -2 0 -3 1 -2 0 -2 1 -2 0 -4 1 -2 0 -2 
1 -1 0 -4 1 -2 0 -2 1 -2 0 -4 1 -2 0 -2 
1 -2 0 -2 1 -2 0 -4 1 -2 0 -3 1 -2 0 -4 
1 -2 0 -2 1 -2 0 -4 1 -3 0 -2 1 -2 0 -4 
1 -3 0 -2 1 -2 0 -4 1 -3 0 -2 1 -2 0 -3 
1 -2 0 -4 1 -3 0 -2 1 -2 0 -5 1 -2 0 -3 
1 -2 0 -5 1 -2 0 -3 1 -2 0 -5 1 -3 0 -2 
1 -3 0 -5 1 -2 0 -3 1 -2 0 -3 1 -2 0 -5 
1 -3 0 -2 1 -3 0 -5 1 -3 0 -2 1 -3 0 -5 
1 -3 0 -3 1 -2 0 -6 1 -3 0 -2 1 -3 0 -5 
1 -3 0 -3 1 -3 0 -2 1 -3 0 -6 1 -3 0 -2 
1 -3 0 -6 1 -3 0 -3 1 -3 0 -5 1 -3 0 -3 
1 -3 0 -6 1 -3 0 -3 1 -3 0 -6 1 -3 0 -3 
1 -3 0 -3 1 -3 0 -6 1 -3 0 -3 1 -3 0 -6 
1 -3 0 -3 1 -3 0 -6 1 -3 0 -3 1 -4 0 -6 
1 -3 0 -3 1 -3 0 -7 1 -3 0 -3 1 -3 0 -3 
1 -4 0 -6 1 -3 0 -4 1 -3 0 -6 1 -4 0 -3 
1 -3 0 -7 1 -3 0 -3 1 -4 0 -6 1 -4 0 -3 
1 -3 0 -7 1 -3 0 -4 1 -3 0 -7 1 -3 0 -4 
1 -3 0 -3 1 -4 0 -7 1 -3 0 -4 1 -3 0 -7 
1 -3 0 -4 1 -3 0 -7 1 -4 0 -3 1 -4 0 -7 
1 -3 0 -4 1 -3 0 -7 1 -4 0 -3 1 -4 0 -3 
1 -4 0 -7 1 -4 0 -3 1 -4 0 -7 1 -4 0 -3 
1 -4 0 -7 1 -3 0 -4 1 -4 0 -7 1 -4 0 -3 
1 -4 0 -7 1 -4 0 -3 1 -4 0 -4 1 -3 0 -7 
1 -4 0 -4 1 -3 1143 2628 300 MP stroke
0 -8 1 -3 0 -4 1 -4 0 -7 1 -4 0 -3 1 -4 
0 -7 1 -4 0 -4 1 -3 0 -8 1 -3 0 -4 1 -4 
0 -3 1 -4 0 -7 1 -4 0 -4 1 -3 0 -8 1 -3 
0 -4 1 -4 0 -7 1 -4 0 -3 1 -4 0 -7 1 -4 
0 -4 1 -3 0 -8 1 -3 0 -4 1 -4 0 -3 1 -4 
0 -7 1 -4 0 -3 1 -4 0 -7 1 -4 0 -4 1 -3 
0 -7 1 -4 0 -4 1 -3 0 -7 1 -4 0 -4 1 -3 
0 -7 1 -4 0 -3 1 -4 0 -3 1 -4 0 -7 1 -4 
0 -3 1 -4 0 -7 1 -3 0 -4 1 -3 0 -7 1 -3 
0 -4 1 -3 0 -7 1 -4 0 -3 1 -3 0 -7 1 -4 
0 -3 1 -3 0 -4 1 -3 0 -7 1 -3 0 -3 1 -4 
0 -6 1 -4 0 -3 1 -3 0 -7 1 -3 0 -3 1 -3 
0 -7 1 -3 0 -3 1 -3 0 -6 1 -3 0 -3 1 -4 
0 -3 1 -3 0 -6 1 -3 0 -3 1 -3 0 -6 1 -3 
0 -3 1 -3 0 -5 1 -3 0 -3 1 -3 0 -6 1 -2 
0 -3 1 -3 0 -5 1 -3 0 -3 1 -2 0 -3 1 -3 
0 -5 1 -3 0 -2 1 -3 0 -5 1 -2 0 -3 1 -2 
0 -5 1 -3 0 -2 1 -2 0 -5 1 -2 0 -3 1 -2 
0 -4 1 -3 0 -2 1 -2 0 -2 1 -2 0 -4 1 -2 
0 -2 1 -2 0 -4 1 -2 0 -2 1 -2 0 -4 1 -1 
0 -2 1 -2 0 -3 1 -2 0 -2 1 -1 0 -4 1 -1 
0 -2 1 -1 0 -2 1 -1 0 -3 1 -1 0 -1 1 -2 
0 -2 1 -1 0 -1 1 -2 0 -2 1 -1 0 -1 1 -1 
0 -2 1 -1 1 -1 0 -2 2 -2 1 -1 1 -1 1 -1 
1 -1 1 -1 1 0 1 0 1 0 1 0 1 1 1 1 
1 1 0 1 2 2 0 1 1 1 0 1 1 1 0 2 
1 1 0 1 1 1 0 3 1 1 0 1 1 2 0 2 
1 2 0 2 1 1 0 4 1 1 0 2 1 2 0 2 
1 2 0 4 1 2 0 2 1 3 0 4 1 3 0 2 
1 3 0 5 1 3 0 2 1 3 0 6 1 3 0 3 
1 3 0 6 1 4 0 3 1 3 0 4 1 3 0 8 
1 3 0 4 1 4 0 8 1 4 0 4 1 4 0 8 
1 5 0 4 1 5 0 9 1 5 0 4 1 5 0 10 
1 5 0 5 1 5 0 5 1 6 0 11 1 5 0 6 
1 5 0 12 1 6 0 6 1 6 0 12 1 7 0 6 
1 6 0 14 1 6 0 7 1 7 0 14 1 7 0 7 
1 7 0 8 1 7 0 15 1 8 0 7 1 8 0 16 
1 8 0 8 1 9 985 2818 300 MP stroke
0 17 1 8 0 9 1 8 0 18 1 9 0 9 1 9 
0 19 1 9 0 10 1 10 0 9 1 10 0 20 1 10 
0 10 1 11 0 21 1 10 0 11 1 11 0 22 1 11 
0 11 1 11 0 23 1 12 0 12 1 12 0 24 1 12 
0 12 1 13 0 12 1 13 0 25 1 13 0 13 1 13 
0 27 1 14 0 13 1 14 0 28 1 14 0 14 1 14 
0 29 1 15 0 15 1 15 0 30 959 2054 54 MP stroke
/c9 { 0.000000 0.000000 1.000000 sr} bdef
c9
1 -1 1 -1 1 -1 1 0 1 -1 1 -1 1 -1 1 -1 
1 -1 1 -1 1 0 1 -1 1 -1 1 -1 1 -1 1 -1 
1 -1 1 -1 1 -1 1 -1 1 -1 1 -1 1 -1 1 -1 
1 -1 1 -1 1 -1 1 -1 1 -1 1 -1 1 -1 1 -1 
0 -1 2 -2 1 -1 1 -1 1 -1 1 -1 1 -1 0 -1 
2 -2 1 -1 1 -1 1 -1 1 -1 0 -1 2 -2 1 -1 
1 -1 1 -1 0 -1 2 -2 0 -1 2 -2 1 -1 1 -1 
0 -1 2 -2 1 -1 0 -1 1 -1 1 -1 1 -1 1 -1 
0 -1 2 -2 0 -1 2 -2 1 -1 0 -1 1 -1 1 -1 
0 -1 1 -1 1 -1 1 -1 0 -1 1 -1 1 -1 0 -1 
1 -1 1 -1 0 -1 1 -1 1 -1 0 -1 1 -1 1 -1 
0 -1 1 -1 1 -1 1 -1 0 -1 1 -1 0 -1 2 -2 
0 -1 2 -2 1 -1 0 -2 2 -2 0 -1 2 -2 1 -1 
0 -1 1 -1 1 -1 0 -2 2 -2 0 -1 1 -1 1 -1 
0 -1 1 -1 1 -1 0 -2 2 -2 1 -1 0 -1 1 -1 
1 -1 0 -2 2 -2 0 -1 1 -1 1 -1 0 -2 2 -2 
0 -1 1 -1 1 -1 0 -1 1 -1 0 -1 1 -1 1 -1 
0 -1 1 -1 0 -1 1 -1 0 -1 1 -1 1 -1 0 -2 
2 -2 0 -1 1 -1 0 -1 2 -2 0 -1 1 -1 0 -1 
1 -1 0 -1 1 -1 1 -1 0 -2 1 -1 1 -1 0 -1 
1 -1 0 -1 1 -1 0 -1 1 -1 0 -1 1 -1 1 -1 
0 -2 2 -2 0 -1 1 -1 0 -1 1 -1 0 -1 1 -1 
1 -1 0 -2 1 -1 1 -1 0 -2 1 -1 1 -1 0 -1 
1 -1 0 -1 1 -1 0 -1 1 -1 0 -1 1 -1 0 -1 
1 -1 0 -1 1 -1 0 -1 1 -1 0 -1 1 -1 0 -1 
1 -1 0 -1 1 -1 0 -1 1 -1 1 -1 0 -2 1 -1 
1 -1 0 -2 1 -1 1 -1 0 -2 1 -1 1 -1 0 -2 
1 -1 1 -1 0 -2 1 -1 0 -1 1 -1 1 -1 0 -2 
1 -1 1 -1 0 -2 1 -1 0 -1 1 -1 0 -1 1 -1 
0 -1 1 -1 0 -1 1 -1 0 -1 1 -1 0 -2 2 -2 
0 -2 1 -1 0 -1 2 -2 0 -2 1 -1 1 -1 0 -2 
1 -1 0 -1 1 -1 0 -1 1 -1 0 -1 1 -1 0 -2 
2 -2 0 -2 1 -1 0 -1 1 -1 1 -1 0 -2 1 -1 
0 -1 1 -1 0 -1 1 -1 0 -1 1 -1 0 -2 1 -1 
1 -1 0 -2 1 -1 0 -1 1 -1 0 -2 2 -2 0 -1 
1 -1 0 -2 1 -1 1 -1 0 -2 1 -1 0 -1 1 -1 
0 -2 2 -2 0 -2 1 -1 0 -1 1 -1 0 -2 2 -2 
0 -1 1 -1 0 -2 4005 2198 300 MP stroke
1 -1 0 -1 1 -1 0 -1 1 -1 0 -1 1 -1 0 -2 
1 -1 0 -1 1 -1 0 -1 1 -1 0 -1 1 -1 0 -2 
1 -1 0 -1 1 -1 0 -1 1 -1 0 -1 1 -1 0 -1 
1 -1 0 -2 1 -1 0 -1 1 -1 0 -2 2 -2 0 -2 
1 -1 0 -1 1 -1 0 -2 1 -1 0 -1 1 -1 1 -1 
0 -2 1 -1 0 -1 1 -1 0 -2 1 -1 0 -1 1 -1 
0 -2 1 -1 1 -1 0 -2 1 -1 0 -1 1 -1 0 -2 
1 -1 0 -1 1 -1 0 -1 1 -1 0 -1 1 -1 0 -1 
1 -1 0 -2 1 -1 0 -1 1 -1 0 -2 1 -1 0 -1 
1 -1 0 -2 1 -1 1 -1 0 -2 1 -1 0 -1 1 -1 
0 -1 1 -1 0 -2 1 -1 0 -1 1 -1 0 -2 1 -1 
0 -1 1 -1 0 -1 1 -1 0 -1 1 -1 0 -2 1 -1 
0 -1 1 -1 0 -2 1 -1 0 -1 1 -1 0 -1 1 -1 
0 -2 1 -1 0 -1 1 -1 0 -1 1 -1 0 -1 1 -1 
0 -2 1 -1 0 -1 1 -1 0 -2 1 -1 0 -1 1 -1 
0 -2 1 -1 0 -1 1 -1 0 -1 1 -1 0 -2 1 -1 
1 -1 0 -2 1 -1 0 -1 1 -1 0 -2 1 -1 0 -1 
1 -1 0 -2 1 -1 0 -1 1 -1 0 -2 1 -1 0 -1 
1 -1 0 -1 1 -1 0 -2 1 -1 0 -1 1 -1 0 -2 
2 -2 0 -2 1 -1 0 -1 1 -1 0 -2 1 -1 0 -1 
1 -1 0 -2 1 -1 0 -1 1 -1 0 -1 1 -1 0 -2 
1 -1 0 -1 1 -1 0 -2 1 -1 0 -1 1 -1 0 -2 
1 -1 0 -1 1 -1 0 -1 1 -1 0 -1 1 -1 0 -2 
1 -1 0 -1 1 -1 0 -2 1 -1 0 -1 1 -1 0 -1 
1 -1 0 -2 1 -1 0 -1 1 -1 0 -2 1 -1 0 -1 
1 -1 0 -2 1 -1 0 -1 1 -1 0 -2 1 -1 0 -1 
1 -1 0 -2 2 -2 0 -1 1 -1 0 -2 1 -1 0 -1 
1 -1 0 -2 1 -1 0 -1 1 -1 0 -2 1 -1 0 -1 
1 -1 0 -2 1 -1 0 -1 1 -1 0 -2 1 -1 0 -1 
1 -1 0 -1 1 -1 0 -2 1 -1 0 -1 1 -1 0 -2 
1 -1 1 -1 0 -2 1 -1 0 -1 1 -1 0 -2 1 -1 
0 -1 1 -1 0 -2 1 -1 0 -1 1 -1 0 -1 1 -1 
0 -2 1 -1 0 -1 1 -1 0 -2 1 -1 0 -1 1 -1 
0 -2 1 -1 0 -1 1 -1 0 -2 2 -2 0 -2 1 -1 
0 -1 1 -1 0 -1 1 -1 0 -2 1 -1 0 -1 1 -1 
0 -2 1 -1 0 -1 1 -1 0 -2 1 -1 0 -1 1 -1 
0 -2 1 -1 0 -1 1 -1 0 -1 1 -1 0 -1 1 -1 
0 -1 1 -1 0 -2 3849 2564 300 MP stroke
1 -1 0 -1 1 -1 0 -2 1 -1 0 -1 1 -1 0 -2 
1 -1 0 -1 1 -1 0 -2 1 -1 1 -1 0 -2 1 -1 
0 -1 1 -1 0 -1 1 -1 0 -2 1 -1 0 -1 1 -1 
0 -2 1 -1 0 -1 1 -1 0 -2 1 -1 0 -1 1 -1 
0 -1 1 -1 0 -1 1 -1 0 -2 1 -1 0 -1 1 -1 
0 -1 1 -1 0 -2 1 -1 0 -1 1 -1 0 -2 2 -2 
0 -2 1 -1 0 -1 1 -1 0 -2 1 -1 0 -1 1 -1 
0 -2 1 -1 0 -1 1 -1 1 -1 0 -2 1 -1 0 -1 
1 -1 0 -2 1 -1 0 -1 1 -1 0 -2 1 -1 1 -1 
0 -2 1 -1 0 -1 1 -1 0 -2 1 -1 0 -1 1 -1 
0 -1 1 -1 0 -1 1 -1 0 -1 1 -1 0 -2 1 -1 
0 -1 1 -1 0 -2 1 -1 1 -1 0 -2 1 -1 0 -1 
1 -1 0 -2 1 -1 0 -1 1 -1 0 -1 1 -1 0 -1 
1 -1 0 -1 1 -1 0 -2 1 -1 0 -1 1 -1 0 -1 
1 -1 0 -1 1 -1 0 -2 1 -1 0 -1 1 -1 0 -2 
2 -2 0 -2 1 -1 0 -1 1 -1 0 -1 1 -1 0 -1 
1 -1 0 -1 1 -1 0 -2 1 -1 0 -1 1 -1 0 -1 
1 -1 0 -1 1 -1 0 -2 1 -1 1 -1 0 -2 1 -1 
0 -1 1 -1 0 -1 1 -1 0 -1 1 -1 0 -1 1 -1 
0 -2 1 -1 1 -1 0 -2 1 -1 0 -1 1 -1 0 -2 
2 -2 0 -2 1 -1 0 -1 1 -1 1 -1 0 -2 1 -1 
0 -1 1 -1 0 -1 1 -1 0 -1 1 -1 0 -2 2 -2 
0 -2 1 -1 1 -1 0 -2 1 -1 0 -1 1 -1 1 -1 
0 -2 1 -1 0 -1 1 -1 0 -1 1 -1 0 -1 1 -1 
0 -2 2 -2 0 -2 1 -1 1 -1 0 -2 1 -1 0 -1 
2 -2 0 -2 1 -1 1 -1 0 -2 1 -1 1 -1 0 -2 
1 -1 1 -1 0 -2 1 -1 1 -1 0 -2 1 -1 0 -1 
1 -1 1 -1 0 -2 1 -1 1 -1 0 -2 1 -1 1 -1 
0 -2 1 -1 1 -1 0 -2 1 -1 1 -1 0 -2 2 -2 
0 -1 1 -1 0 -1 1 -1 0 -1 1 -1 0 -1 1 -1 
1 -1 0 -2 1 -1 1 -1 0 -2 1 -1 1 -1 0 -2 
2 -2 1 -1 0 -2 1 -1 1 -1 0 -2 2 -2 0 -1 
1 -1 0 -1 1 -1 0 -1 1 -1 1 -1 0 -2 1 -1 
1 -1 0 -1 1 -1 0 -1 1 -1 1 -1 0 -2 2 -2 
0 -1 1 -1 0 -1 1 -1 0 -1 1 -1 1 -1 0 -2 
2 -2 1 -1 0 -1 1 -1 0 -1 1 -1 0 -1 1 -1 
1 -1 0 -1 1 -1 0 -1 1 -1 0 -1 1 -1 1 -1 
0 -1 1 -1 0 -1 3673 2933 300 MP stroke
2 -2 0 -1 1 -1 1 -1 0 -1 1 -1 0 -1 1 -1 
0 -1 1 -1 1 -1 0 -1 1 -1 1 -1 0 -1 1 -1 
0 -1 2 -2 0 -1 1 -1 1 -1 0 -1 1 -1 1 -1 
0 -1 1 -1 0 -1 2 -2 1 -1 0 -2 2 -2 0 -1 
2 -2 1 -1 0 -1 1 -1 1 -1 0 -1 1 -1 1 -1 
0 -1 1 -1 1 -1 0 -1 1 -1 1 -1 0 -1 1 -1 
1 -1 1 -1 0 -1 1 -1 1 -1 0 -1 2 -2 1 -1 
0 -1 2 -2 0 -1 2 -2 1 -1 1 -1 0 -1 1 -1 
1 -1 1 -1 0 -1 2 -2 1 -1 0 -1 1 -1 1 -1 
1 -1 1 -1 0 -1 2 -2 1 -1 1 -1 0 -1 2 -2 
1 -1 1 -1 0 -1 2 -2 1 -1 1 0 -1 0 2 -2 
1 -1 1 -1 0 -1 2 -2 1 0 -1 0 2 -2 1 -1 
1 -1 1 -1 1 -1 1 -1 1 -1 1 -1 0 -1 2 -2 
1 0 -1 0 2 -2 1 -1 1 -1 1 -1 1 -1 1 -1 
1 -1 1 -1 1 -1 1 -1 1 -1 1 -1 1 -1 1 -1 
1 -1 1 0 1 -1 1 -1 1 -1 1 -1 1 -1 1 -1 
1 -1 1 -1 1 -1 1 -1 1 0 1 -1 1 -1 1 -1 
1 -1 1 -1 1 -1 1 -1 1 0 1 -1 1 -1 1 -1 
1 -1 1 0 1 -1 1 -1 1 -1 1 -1 1 -1 1 0 
1 -1 1 -1 1 0 1 -1 1 -1 1 -1 1 -1 1 0 
1 -1 1 -1 1 -1 1 0 1 -1 1 -1 1 0 1 -1 
1 -1 1 0 1 -1 1 -1 1 -1 1 0 1 -1 1 -1 
1 0 1 -1 1 0 1 -1 1 -1 1 -1 1 0 1 -1 
1 0 1 -1 1 -1 1 0 1 -1 1 0 1 -1 1 -1 
1 0 1 -1 1 0 1 -1 1 -1 1 0 1 -1 1 0 
1 -1 1 0 1 -1 1 0 1 -1 1 -1 1 0 1 -1 
1 0 1 -1 1 0 1 -1 1 0 1 -1 1 0 1 -1 
1 0 1 -1 1 0 1 -1 1 0 1 -1 1 0 1 -1 
1 0 1 -1 1 0 1 -1 1 0 1 -1 1 0 1 -1 
1 0 1 0 1 -1 1 0 1 -1 1 0 1 -1 1 0 
1 -1 1 0 1 0 1 -1 1 0 1 -1 1 0 1 0 
1 -1 1 0 1 -1 1 0 1 0 1 -1 1 0 1 -1 
1 0 1 0 1 -1 1 0 1 -1 1 0 1 -1 1 0 
1 0 1 -1 1 0 1 0 1 -1 1 0 1 0 1 -1 
1 0 1 -1 1 0 1 0 1 -1 1 0 1 0 1 -1 
1 0 1 0 1 -1 1 0 1 -1 1 0 1 0 1 -1 
1 0 1 0 1 -1 1 0 1 0 1 -1 1 0 1 0 
1 -1 1 0 1 0 3393 3166 300 MP stroke
1 -1 1 0 1 0 1 -1 1 0 1 0 1 -1 1 0 
1 0 1 -1 1 0 1 -1 1 0 1 0 1 0 1 -1 
1 0 1 0 1 -1 1 0 1 0 1 -1 1 0 1 0 
1 -1 1 0 1 0 1 -1 1 0 1 0 1 -1 1 0 
1 0 1 -1 1 0 1 0 1 -1 1 0 1 0 1 -1 
1 0 1 0 1 -1 1 0 1 0 1 -1 1 0 1 0 
1 -1 1 0 1 0 1 -1 1 0 1 -1 1 0 1 0 
1 -1 1 0 1 0 1 -1 1 0 1 0 1 -1 1 0 
1 0 1 -1 1 0 1 0 1 -1 1 0 1 0 1 -1 
1 0 1 -1 1 0 1 0 1 -1 1 0 1 0 1 -1 
1 0 1 0 1 -1 1 0 1 -1 1 0 1 0 1 -1 
1 0 1 -1 1 0 1 0 1 -1 1 0 1 0 1 -1 
1 0 1 -1 1 0 1 -1 1 0 1 0 1 -1 1 0 
1 0 1 -1 1 0 1 -1 1 0 1 0 1 -1 1 0 
1 -1 1 0 1 0 1 -1 1 0 1 -1 1 0 1 -1 
1 0 1 0 1 -1 1 0 1 -1 1 0 1 0 1 -1 
1 0 1 -1 1 0 1 0 1 -1 1 0 1 -1 1 0 
1 0 1 -1 1 0 1 -1 1 0 1 -1 1 0 1 0 
1 -1 1 0 1 -1 1 0 1 0 1 -1 1 0 1 -1 
1 0 1 0 1 -1 1 0 1 -1 1 0 1 0 1 -1 
1 0 1 -1 1 0 1 0 1 -1 1 0 1 -1 1 0 
1 0 1 -1 1 0 1 -1 1 0 1 0 1 -1 1 0 
1 -1 1 0 1 -1 1 0 1 0 1 -1 1 0 1 0 
1 -1 1 0 1 -1 1 0 1 0 1 -1 1 0 1 0 
1 -1 1 0 1 -1 1 0 1 0 1 -1 1 0 1 -1 
1 0 1 0 1 -1 1 0 1 0 1 -1 1 0 1 -1 
1 0 1 0 1 -1 1 0 1 0 1 -1 1 0 1 0 
1 -1 1 0 1 -1 1 0 1 0 1 -1 1 0 1 0 
1 -1 1 0 1 0 1 -1 1 0 1 0 1 -1 1 0 
1 0 1 -1 1 0 1 0 1 -1 1 0 1 0 1 -1 
1 0 1 0 1 -1 1 0 1 0 1 0 1 -1 1 0 
1 0 1 -1 1 0 1 0 1 -1 1 0 1 0 1 0 
1 -1 1 0 1 0 1 0 1 -1 1 0 1 0 1 -1 
1 0 1 0 1 0 1 -1 1 0 1 0 1 0 1 -1 
1 0 1 0 1 0 1 -1 1 0 1 0 1 0 1 -1 
1 0 1 0 1 0 1 0 1 -1 1 0 1 0 1 0 
1 -1 1 0 1 0 1 0 1 0 1 0 1 -1 1 0 
1 0 1 0 1 0 3094 3270 300 MP stroke
1 -1 1 0 1 0 1 0 1 0 1 0 1 0 1 -1 
1 0 1 0 1 0 1 0 1 0 1 -1 1 0 1 0 
1 0 1 0 1 0 1 0 1 0 1 0 1 -1 1 0 
1 0 1 0 1 0 1 0 1 0 1 0 1 0 1 0 
1 0 1 0 1 0 1 -1 1 0 1 0 1 0 1 0 
1 0 1 0 1 0 1 0 1 0 1 0 1 0 1 0 
1 0 1 0 1 0 1 0 1 0 1 0 1 0 1 0 
1 0 1 0 1 0 1 0 1 0 1 0 1 0 1 0 
1 1 1 0 1 0 1 0 1 0 1 0 1 0 1 0 
1 0 1 0 1 0 1 0 1 1 1 0 1 0 1 0 
1 0 1 0 1 0 1 0 1 1 1 0 1 0 1 0 
1 0 1 0 1 0 1 1 1 0 1 0 1 0 1 0 
1 0 1 1 1 0 1 0 1 0 1 0 1 1 1 0 
1 0 1 0 1 0 1 1 1 0 1 0 1 0 1 1 
1 0 1 0 1 0 1 1 1 0 1 0 1 0 1 1 
1 0 1 0 1 0 1 1 1 0 1 0 1 0 1 1 
1 0 1 0 1 1 1 0 1 0 1 0 1 1 1 0 
1 0 1 1 1 0 1 0 1 1 1 0 1 0 1 1 
1 0 1 0 1 1 1 0 1 0 1 1 1 0 1 0 
1 1 1 0 1 0 1 1 1 0 1 0 1 1 1 0 
1 0 1 1 1 0 1 1 1 0 1 0 1 1 1 0 
1 0 1 1 1 0 1 1 1 0 1 0 1 1 1 0 
1 1 1 0 1 1 1 0 1 0 1 1 1 0 1 1 
1 0 1 0 1 1 1 0 1 1 1 0 1 0 1 1 
1 0 1 1 1 0 1 1 1 0 1 0 1 1 1 0 
1 1 1 0 1 1 1 0 1 0 1 1 1 0 1 1 
1 0 1 1 1 0 1 1 1 0 1 1 1 0 1 0 
1 1 1 0 1 1 1 0 1 1 1 0 1 1 1 0 
1 1 1 0 1 1 1 0 1 0 1 1 1 0 1 1 
1 0 1 1 1 0 1 1 1 0 1 1 1 0 1 1 
1 0 1 1 1 0 1 1 1 0 1 1 1 0 1 1 
1 0 1 1 1 0 1 1 1 0 1 1 1 0 1 1 
1 0 1 1 1 0 1 1 1 0 1 0 1 1 1 0 
1 1 1 0 1 1 1 0 1 1 1 0 1 1 1 0 
1 1 1 0 1 1 1 0 1 1 1 0 1 1 1 0 
1 1 1 0 1 1 1 0 1 1 1 0 1 1 1 0 
1 1 1 0 1 1 1 0 1 1 1 0 1 1 1 0 
1 1 1 0 1 1 2795 3189 300 MP stroke
1 0 1 1 1 0 1 1 1 0 1 0 1 1 1 0 
1 1 1 0 1 1 1 0 1 1 1 0 1 1 1 0 
1 1 1 0 1 1 1 0 1 1 1 0 1 1 1 0 
1 1 1 0 1 0 1 1 1 0 1 1 1 0 1 1 
1 0 1 1 1 0 1 1 1 0 1 0 1 1 1 0 
1 1 1 0 1 1 1 0 1 1 1 0 1 0 1 1 
1 0 1 1 1 0 1 1 1 0 1 0 1 1 1 0 
1 1 1 0 1 0 1 1 1 0 1 1 1 0 1 1 
1 0 1 0 1 1 1 0 1 1 1 0 1 0 1 1 
1 0 1 1 1 0 1 0 1 1 1 0 1 0 1 1 
1 0 1 1 1 0 1 0 1 1 1 0 1 1 1 0 
1 0 1 1 1 0 1 0 1 1 1 0 1 0 1 1 
1 0 1 0 1 1 1 0 1 0 1 1 1 0 1 1 
1 0 1 0 1 1 1 0 1 0 1 1 1 0 1 0 
1 1 1 0 1 0 1 1 1 0 1 0 1 1 1 0 
1 0 1 1 1 0 1 0 1 1 1 0 1 0 1 1 
1 0 1 0 1 1 1 0 1 0 1 1 1 0 1 0 
1 1 1 0 1 0 1 1 1 0 1 0 1 0 1 1 
1 0 1 1 1 0 1 0 1 0 1 1 1 0 1 0 
1 1 1 0 1 0 1 1 1 0 1 0 1 1 1 0 
1 0 1 1 1 0 1 0 1 1 1 0 1 0 1 1 
1 0 1 0 1 1 1 0 1 0 1 1 1 0 1 0 
1 1 1 0 1 0 1 1 1 0 1 0 1 1 1 0 
1 0 1 1 1 0 1 0 1 1 1 0 1 0 1 1 
1 0 1 0 1 1 1 0 1 0 1 1 1 0 1 0 
1 1 1 0 1 0 1 1 1 0 1 1 1 0 1 0 
1 1 1 0 1 0 1 1 1 0 1 0 1 1 1 0 
1 1 1 0 1 0 1 1 1 0 1 0 1 1 1 0 
1 1 1 0 1 0 1 1 1 0 1 1 1 0 1 0 
1 1 1 0 1 0 1 1 1 0 1 1 1 0 1 1 
1 0 1 0 1 1 1 0 1 1 1 0 1 1 1 0 
1 0 1 1 1 0 1 1 1 0 1 1 1 0 1 0 
1 1 1 0 1 1 1 0 1 1 1 0 1 1 1 0 
1 1 1 0 1 1 1 0 1 1 1 0 1 1 1 0 
1 1 1 0 1 0 1 1 1 0 1 1 1 0 1 1 
1 0 1 1 1 0 1 1 1 1 1 0 1 1 1 0 
1 1 1 0 1 1 1 0 1 1 1 0 1 1 1 1 
1 0 1 1 1 0 2496 3070 300 MP stroke
1 1 1 0 1 1 1 1 1 0 1 1 1 0 1 1 
1 0 1 1 1 1 1 0 1 1 1 1 1 0 1 1 
1 0 1 1 1 1 1 1 1 0 1 1 1 0 1 1 
1 1 1 0 1 1 1 1 1 0 1 1 1 1 1 0 
1 1 1 1 1 0 1 1 1 1 1 1 1 0 1 1 
1 1 1 1 1 0 1 1 1 1 1 0 1 1 1 1 
1 1 1 1 1 0 1 1 1 1 1 1 1 0 1 1 
1 1 1 1 1 1 1 1 1 0 1 1 1 1 1 1 
1 1 1 0 1 1 1 1 1 1 1 1 1 1 1 1 
1 1 1 0 1 1 1 1 1 1 1 1 1 1 1 1 
1 1 1 1 1 0 -1 0 2 2 1 0 -1 0 2 2 
1 0 1 1 1 1 1 1 1 1 1 1 1 1 1 1 
1 1 1 1 1 1 1 1 1 1 1 1 1 1 1 1 
1 1 1 1 1 1 1 1 1 1 1 1 1 1 1 1 
1 1 1 1 1 1 1 1 1 1 0 1 2 2 1 1 
1 1 1 1 1 1 1 1 1 1 1 1 1 1 1 1 
0 1 2 2 1 0 -1 0 2 2 1 1 1 1 1 1 
1 1 1 1 1 1 1 1 0 1 2 2 1 1 1 1 
1 1 1 1 1 1 0 1 2 2 1 1 1 1 1 1 
1 1 0 1 2 2 1 1 1 1 1 1 1 1 1 1 
0 1 2 2 1 1 1 1 1 1 1 1 0 1 2 2 
1 1 1 1 1 1 0 1 2 2 1 1 1 1 1 1 
1 1 0 1 2 2 1 1 1 1 1 1 0 1 2 2 
1 1 1 1 0 1 2 2 1 1 1 1 1 1 0 1 
2 2 1 1 1 1 1 1 1 1 0 1 2 2 1 1 
1 1 1 1 0 1 2 2 1 1 1 1 0 1 2 2 
1 1 1 1 0 1 2 2 1 1 1 1 1 1 0 1 
2 2 1 1 1 1 0 1 2 2 1 1 1 1 1 1 
1 1 1 1 0 1 2 2 1 1 1 1 0 1 2 2 
1 1 1 1 1 1 0 1 2 2 1 1 1 1 0 1 
2 2 1 1 1 1 1 1 1 1 1 1 0 1 2 2 
1 1 1 1 0 1 2 2 1 1 1 1 1 1 1 1 
1 1 0 1 2 2 1 1 1 1 1 1 1 1 0 1 
2 2 1 1 1 1 1 1 1 1 1 1 0 1 2 2 
1 1 1 1 1 1 1 1 0 1 2 2 1 1 1 1 
1 1 1 1 1 1 1 1 1 1 0 1 2 2 1 1 
1 1 1 1 1 1 1 1 1 1 1 1 1 1 1 1 
0 1 2 2 1 1 2200 2766 300 MP stroke
1 1 1 1 1 1 1 1 1 1 1 1 1 1 1 1 
1 1 1 1 1 1 1 1 1 1 1 1 1 1 1 1 
1 1 1 1 1 1 1 1 1 1 1 1 1 1 1 1 
1 1 1 1 1 1 1 1 1 1 1 1 1 1 1 1 
1 1 1 1 1 1 1 1 1 0 1 1 1 1 1 1 
1 1 1 1 1 1 1 1 1 1 1 1 1 1 1 0 
1 1 1 1 1 1 1 1 1 0 1 1 1 1 1 1 
1 1 1 1 1 0 1 1 1 1 1 1 1 1 1 0 
1 1 1 1 1 1 1 1 1 0 1 1 1 1 1 1 
1 0 1 1 1 1 1 0 1 1 1 1 1 1 1 0 
1 1 1 0 1 1 1 1 1 1 1 0 1 1 1 1 
1 0 1 1 1 1 1 0 1 1 1 0 1 1 1 1 
1 0 1 1 1 0 1 1 1 1 1 0 1 1 1 0 
1 1 1 0 1 1 1 1 1 0 1 1 1 0 1 1 
1 0 1 1 1 1 1 0 1 0 1 1 1 0 1 1 
1 0 1 1 1 0 1 1 1 0 1 1 1 0 1 1 
1 0 1 1 1 0 1 1 1 0 1 1 1 0 1 1 
1 0 1 1 1 0 1 0 1 1 1 0 1 1 1 0 
1 1 1 0 1 0 1 1 1 0 1 1 1 0 1 0 
1 1 1 0 1 1 1 0 1 1 1 0 1 0 1 1 
1 0 1 1 1 0 1 0 1 1 1 0 1 0 1 1 
1 0 1 1 1 0 1 0 1 1 1 0 1 0 1 1 
1 0 1 0 1 1 1 0 1 1 1 0 1 0 1 1 
1 0 1 0 1 1 1 0 1 0 1 1 1 0 1 0 
1 1 1 0 1 0 1 1 1 0 1 0 1 1 1 0 
1 0 1 1 1 0 1 0 1 1 1 0 1 0 1 1 
1 0 1 0 1 1 1 0 1 0 1 1 1 0 1 0 
1 1 1 0 1 0 1 1 1 0 1 0 1 1 1 0 
1 0 1 1 1 0 1 0 1 1 1 0 1 0 1 1 
1 0 1 1 1 0 1 0 1 1 1 0 1 0 1 0 
1 1 1 0 1 1 1 0 1 0 1 1 1 0 1 0 
1 1 1 0 1 0 1 1 1 0 1 1 1 0 1 0 
1 1 1 0 1 0 1 1 1 0 1 0 1 1 1 0 
1 1 1 0 1 1 1 0 1 0 1 1 1 0 1 0 
1 1 1 0 1 1 1 0 1 0 1 1 1 0 1 1 
1 0 1 1 1 0 1 0 1 1 1 0 1 1 1 0 
1 1 1 0 1 1 1 0 1 1 1 0 1 0 1 1 
1 0 1 1 1 0 1901 2602 300 MP stroke
1 1 1 0 1 1 1 0 1 1 1 0 1 1 1 0 
1 1 1 0 1 1 1 0 1 1 1 0 1 1 1 1 
1 0 1 0 1 1 1 1 1 0 1 1 1 0 1 1 
1 1 1 0 1 1 1 0 1 1 1 0 1 1 1 1 
1 0 1 1 1 0 1 1 1 1 1 1 1 0 1 1 
1 0 1 1 1 1 1 0 1 1 1 1 1 1 1 0 
1 1 1 1 1 0 1 1 1 1 1 0 1 1 1 1 
1 1 1 0 1 1 1 1 1 1 1 0 1 1 1 1 
1 1 1 0 1 1 1 1 1 1 1 1 1 1 1 0 
1 1 1 1 1 1 1 1 1 1 1 1 1 0 1 1 
1 1 1 1 1 1 1 1 1 1 1 1 1 1 1 0 
-1 0 2 2 1 0 1 1 1 1 1 1 1 1 1 1 
1 1 1 1 1 1 1 1 1 1 1 1 1 1 1 1 
1 1 1 1 1 1 1 1 1 1 1 1 0 1 2 2 
1 0 -1 0 2 2 1 1 1 1 1 1 1 1 1 1 
1 1 1 1 1 1 1 1 0 1 2 2 1 1 1 1 
1 1 1 1 1 1 0 1 2 2 1 1 1 1 1 1 
1 1 0 1 2 2 1 1 1 1 1 1 0 1 2 2 
1 1 1 1 1 1 1 1 0 1 2 2 1 1 1 1 
1 1 0 1 2 2 1 1 0 1 1 1 1 1 1 1 
0 1 2 2 1 1 1 1 1 1 0 1 2 2 1 1 
1 1 0 1 2 2 0 1 2 2 1 1 1 1 1 1 
0 1 2 2 0 1 2 2 1 1 0 1 2 2 1 1 
0 1 2 2 1 1 1 1 0 1 1 1 1 1 1 1 
0 1 2 2 0 1 2 2 1 1 0 1 1 1 1 1 
1 1 0 1 1 1 1 1 1 1 0 1 2 2 0 1 
2 2 0 1 2 2 1 1 0 1 1 1 1 1 1 1 
0 1 1 1 1 1 0 1 2 2 1 1 0 1 2 2 
0 1 2 2 1 1 0 1 2 2 1 1 0 1 1 1 
1 1 0 1 1 1 1 1 0 1 1 1 1 1 0 1 
2 2 1 1 0 1 2 2 0 1 2 2 1 1 0 1 
2 2 0 1 2 2 1 1 0 1 2 2 0 1 2 2 
0 1 2 2 0 1 2 2 1 1 0 1 1 1 1 1 
0 1 2 2 1 1 0 1 1 1 1 1 0 1 1 1 
1 1 0 1 1 1 1 1 0 1 1 1 1 1 1 1 
0 1 1 1 1 1 0 1 1 1 1 1 0 1 2 2 
1 1 0 1 2 2 0 1 2 2 1 1 0 1 2 2 
0 1 2 2 0 1 1621 2294 300 MP stroke
2 2 0 1 2 2 1 1 0 1 2 2 0 1 2 2 
1 1 0 1 1 1 1 1 0 1 1 1 1 1 0 1 
2 2 1 1 0 1 2 2 1 1 0 1 2 2 0 1 
2 2 0 1 2 2 1 1 0 1 2 2 1 1 0 1 
1 1 1 1 0 1 2 2 1 1 0 1 2 2 1 1 
0 1 2 2 0 1 2 2 1 1 0 1 1 1 1 1 
1 1 0 1 2 2 1 1 0 1 2 2 1 1 0 1 
1 1 1 1 1 1 0 1 2 2 0 1 2 2 1 1 
1 1 0 1 2 2 1 1 0 1 2 2 1 1 1 1 
0 1 2 2 0 1 2 2 1 1 1 1 1 1 0 1 
2 2 1 1 1 1 0 1 2 2 0 1 2 2 1 1 
1 1 1 1 0 1 2 2 1 1 1 1 0 1 2 2 
1 1 1 1 1 1 1 1 1 1 0 1 2 2 1 1 
1 1 0 1 2 2 1 1 1 1 1 1 1 1 1 1 
0 1 2 2 1 1 1 1 1 1 1 1 0 1 2 2 
1 0 0 1 2 2 1 1 1 1 1 1 1 1 1 1 
1 1 0 1 2 2 1 1 1 0 -1 0 2 2 1 1 
1 1 1 1 1 1 1 1 1 1 1 1 1 1 1 1 
1 1 1 1 1 1 1 1 1 1 1 1 0 1 2 2 
1 0 -1 0 2 2 1 0 1 1 1 1 1 1 1 1 
1 1 1 1 1 1 1 1 1 1 1 1 1 1 1 1 
1 1 1 1 1 1 1 1 1 1 1 1 1 1 1 1 
1 1 1 0 1 1 1 1 1 1 1 1 1 1 1 1 
1 1 1 1 1 1 1 1 1 0 1 1 1 1 1 1 
1 1 1 1 1 1 1 0 1 1 1 1 1 1 1 1 
1 1 1 0 1 1 1 1 1 1 1 1 1 1 1 1 
1 0 1 1 1 1 1 1 1 0 1 1 1 1 1 1 
1 1 1 0 1 1 1 1 1 1 1 0 1 1 1 1 
1 1 1 0 1 1 1 1 1 1 1 0 1 1 1 1 
1 1 1 0 1 1 1 1 1 0 1 1 1 1 1 0 
1 1 1 1 1 1 1 0 1 1 1 1 1 0 1 1 
1 1 1 0 1 1 1 1 1 0 1 1 1 1 1 0 
1 1 1 0 1 1 1 1 1 0 1 1 1 1 1 0 
1 1 1 0 1 1 1 1 1 0 1 1 1 0 1 1 
1 0 1 1 1 1 1 0 1 1 1 0 1 1 1 0 
1 1 1 1 1 0 1 1 1 0 1 1 1 0 1 1 
1 0 1 1 1 0 1 1 1 0 1 1 1 0 1 1 
1 0 1 1 1 0 1328 2002 300 MP stroke
1 1 1 0 1 1 1 0 1 1 1 0 1 1 1 0 
1 1 1 0 1 1 1 0 1 0 1 1 1 0 1 1 
1 0 1 1 1 0 1 0 1 1 1 0 1 1 1 0 
1 1 1 0 1 0 1 1 1 0 1 0 1 1 1 0 
1 1 1 0 1 0 1 1 1 0 1 0 1 1 1 0 
1 0 1 1 1 0 1 0 1 1 1 0 1 0 1 1 
1 0 1 0 1 1 1 0 1 0 1 1 1 0 1 0 
1 0 1 1 1 0 1 0 1 1 1 0 1 0 1 0 
1 1 1 0 1 0 1 0 1 1 1 0 1 0 1 0 
1 1 1 0 1 0 1 0 1 1 1 0 1 0 1 0 
1 0 1 1 1 0 1 0 1 0 1 0 1 1 1 0 
1 0 1 0 1 0 1 0 1 1 1 0 1 0 1 0 
1 0 1 0 1 1 1 0 1 0 1 0 1 0 1 0 
1 0 1 0 1 1 1 0 1 0 1 0 1 0 1 0 
1 0 1 0 1 0 1 0 1 1 1 0 1 0 1 0 
1 0 1 0 1 0 1 0 1 0 1 0 1 0 1 0 
1 0 1 0 1 0 1 0 1 0 1 0 1 1 1 0 
1 0 1 0 1 0 1 0 1 0 1 0 1 0 1 0 
1 0 1 0 1 0 1 -1 1 0 1 0 1 0 1 0 
1 0 1 0 1 0 1 0 1 0 1 0 1 0 1 0 
1 0 1 0 1 0 1 0 1 0 1 0 1 -1 1 0 
1 0 1 0 1 0 1 0 1 0 1 0 1 0 1 0 
1 -1 1 0 1 0 1 0 1 0 1 0 1 0 1 -1 
1 0 1 0 1 0 1 0 1 0 1 0 1 -1 1 0 
1 0 1 0 1 0 1 0 1 -1 1 0 1 0 1 0 
1 0 1 -1 1 0 1 0 1 0 1 -1 1 0 1 0 
1 0 1 0 1 -1 1 0 1 0 1 0 1 -1 1 0 
1 0 1 0 1 -1 1 0 1 0 1 0 1 -1 1 0 
1 0 1 -1 1 0 1 0 1 0 1 -1 1 0 1 0 
1 -1 1 0 1 0 1 -1 1 0 1 0 1 0 1 -1 
1 0 1 0 1 -1 1 0 1 -1 1 0 1 0 1 -1 
1 0 1 0 1 -1 1 0 1 0 1 -1 1 0 1 -1 
1 0 1 0 1 -1 1 0 1 0 1 -1 1 0 1 -1 
1 0 1 0 1 -1 1 0 1 -1 1 0 1 -1 1 0 
1 0 1 -1 1 0 1 -1 1 0 1 -1 1 0 1 -1 
1 0 1 -1 1 0 1 0 1 -1 1 0 1 -1 1 0 
1 -1 1 0 1 -1 1 0 1 -1 1 0 1 -1 1 0 
1 -1 1 -1 1 0 1029 2009 300 MP stroke
1 -1 1 0 1 -1 1 0 1 -1 1 0 1 -1 1 0 
1 -1 1 0 1 -1 1 -1 1 0 1 -1 1 0 1 -1 
1 0 1 -1 1 -1 1 0 1 -1 1 0 1 -1 1 0 
1 -1 1 -1 1 0 1 -1 1 0 1 -1 1 -1 1 0 
1 -1 1 -1 1 0 1 -1 1 -1 1 0 1 -1 1 0 
1 -1 1 -1 1 -1 1 0 1 -1 1 0 1 -1 1 -1 
1 -1 1 0 1 -1 1 -1 1 0 1 -1 1 -1 1 0 
1 -1 1 -1 1 0 1 -1 1 -1 1 -1 1 0 1 -1 
1 -1 1 0 1 -1 1 -1 1 -1 1 0 -1 0 960 2053 72 MP stroke
gr

c9
0 sg
2462 3654 mt 
(giorni) s
 406 2015 mt  -90 rotate
(portata) s
90 rotate
2087  189 mt 
(Esercitazione 6 n. 1) s
 639 3409 mt 
( ) s
4550  326 mt 
( ) s
gs 656 284 3911 3083 rc
/c10 { 0.000000 1.000000 0.000000 sr} bdef
c10
0 -1 1 -1 0 -1 1 -1 0 -1 1 -1 0 -1 2 -2 
0 -1 1 -1 0 -1 1 -1 0 -1 1 -1 1 -1 0 -2 
2 -2 0 -1 1 -1 0 -1 1 -1 0 -1 1 -1 0 -1 
2 -2 0 -1 1 -1 0 -1 1 -1 0 -1 1 -1 1 -1 
0 -2 2 -2 0 -1 1 -1 0 -1 1 -1 0 -1 1 -1 
0 -1 2 -2 0 -1 1 -1 1 -1 0 -2 1 -1 1 -1 
0 -2 2 -2 0 -1 1 -1 0 -1 1 -1 0 -1 1 -1 
0 -1 2 -2 0 -1 1 -1 1 -1 0 -2 1 -1 1 -1 
0 -2 2 -2 0 -1 1 -1 0 -1 1 -1 0 -1 1 -1 
1 -1 0 -2 2 -2 1 -1 0 -2 1 -1 1 -1 0 -2 
2 -2 0 -1 1 -1 0 -1 1 -1 0 -1 1 -1 1 -1 
0 -2 2 -2 1 -1 0 -2 1 -1 1 -1 0 -2 2 -2 
0 -1 1 -1 1 -1 0 -2 1 -1 1 -1 0 -2 2 -2 
1 -1 0 -2 1 -1 1 -1 0 -2 2 -2 0 -1 1 -1 
1 -1 0 -2 1 -1 1 -1 0 -2 2 -2 1 -1 0 -2 
1 -1 1 -1 0 -1 1 -1 0 -1 1 -1 0 -1 1 -1 
1 -1 0 -2 1 -1 1 -1 0 -2 2 -2 1 -1 0 -2 
2 -2 0 -1 1 -1 0 -1 1 -1 0 -1 1 -1 1 -1 
0 -2 1 -1 1 -1 0 -2 2 -2 1 -1 0 -2 2 -2 
0 -1 1 -1 0 -1 1 -1 0 -1 1 -1 1 -1 0 -2 
1 -1 1 -1 0 -2 2 -2 1 -1 0 -2 2 -2 0 -1 
1 -1 0 -1 1 -1 0 -1 1 -1 1 -1 0 -2 1 -1 
1 -1 0 -1 1 -1 0 -1 1 -1 1 -1 0 -2 2 -2 
0 -1 1 -1 0 -1 1 -1 0 -1 1 -1 1 -1 0 -2 
2 -2 0 -1 1 -1 0 -1 1 -1 1 -1 0 -2 2 -2 
0 -1 1 -1 0 -1 1 -1 0 -1 1 -1 1 -1 0 -2 
2 -2 0 -1 1 -1 0 -1 1 -1 1 -1 0 -2 2 -2 
0 -1 1 -1 1 -1 0 -2 1 -1 1 -1 0 -2 2 -2 
0 -1 1 -1 0 -1 1 -1 1 -1 0 -2 2 -2 0 -1 
1 -1 1 -1 0 -2 1 -1 1 -1 0 -2 2 -2 0 -1 
1 -1 0 -1 1 -1 1 -1 0 -2 2 -2 0 -1 1 -1 
1 -1 0 -2 1 -1 1 -1 0 -2 2 -2 0 -1 1 -1 
0 -1 1 -1 0 -1 1 -1 1 -1 0 -1 1 -1 0 -1 
1 -1 1 -1 0 -2 1 -1 1 -1 0 -2 2 -2 0 -1 
1 -1 1 -1 0 -2 1 -1 1 -1 0 -1 1 -1 0 -1 
1 -1 1 -1 0 -2 1 -1 1 -1 0 -2 2 -2 0 -1 
1 -1 1 -1 0 -2 1 -1 1 -1 0 -1 1 -1 0 -1 
1 -1 1 -1 0 -2 4014 2224 300 MP stroke
1 -1 1 -1 0 -1 1 -1 0 -1 1 -1 0 -1 1 -1 
1 -1 0 -2 1 -1 1 -1 0 -1 1 -1 0 -1 1 -1 
1 -1 0 -2 1 -1 1 -1 0 -1 1 -1 0 -1 1 -1 
0 -1 1 -1 1 -1 0 -2 1 -1 1 -1 0 -1 1 -1 
0 -1 1 -1 1 -1 0 -2 2 -2 0 -1 1 -1 0 -1 
1 -1 0 -1 1 -1 1 -1 0 -2 1 -1 1 -1 0 -1 
1 -1 0 -1 1 -1 1 -1 0 -2 2 -2 0 -1 1 -1 
0 -1 1 -1 0 -1 1 -1 1 -1 0 -2 1 -1 1 -1 
1 -1 0 -2 1 -1 1 -1 0 -2 2 -2 0 -1 1 -1 
0 -1 1 -1 0 -1 1 -1 1 -1 0 -2 2 -2 1 -1 
0 -2 1 -1 1 -1 0 -2 2 -2 0 -1 1 -1 0 -1 
1 -1 0 -1 1 -1 1 -1 0 -2 2 -2 1 -1 0 -2 
1 -1 1 -1 0 -2 2 -2 0 -1 1 -1 0 -1 1 -1 
0 -1 1 -1 1 -1 0 -2 2 -2 1 -1 0 -2 1 -1 
1 -1 0 -2 2 -2 0 -1 1 -1 1 -1 0 -2 1 -1 
1 -1 0 -2 2 -2 1 -1 0 -2 1 -1 1 -1 0 -2 
2 -2 0 -1 1 -1 1 -1 0 -2 1 -1 1 -1 0 -2 
1 -1 0 -1 2 -2 0 -2 1 -1 1 -1 0 -2 1 -1 
0 -1 1 -1 0 -1 1 -1 0 -1 1 -1 0 -1 1 -1 
0 -1 1 -1 0 -2 2 -2 0 -2 1 -1 0 -1 2 -2 
0 -2 1 -1 1 -1 0 -2 1 -1 0 -1 1 -1 0 -1 
1 -1 0 -1 1 -1 0 -1 1 -1 0 -1 1 -1 0 -2 
1 -1 1 -1 0 -1 1 -1 0 -2 2 -2 0 -2 1 -1 
1 -1 0 -2 1 -1 0 -1 1 -1 0 -1 1 -1 0 -1 
1 -1 0 -2 2 -2 0 -1 1 -1 0 -1 1 -1 0 -1 
1 -1 0 -2 1 -1 1 -1 0 -2 1 -1 1 -1 0 -2 
1 -1 0 -1 1 -1 0 -1 1 -1 0 -1 1 -1 0 -1 
1 -1 0 -1 1 -1 0 -1 1 -1 0 -1 1 -1 0 -1 
1 -1 0 -2 1 -1 1 -1 0 -2 1 -1 1 -1 0 -2 
1 -1 0 -1 1 -1 1 -1 0 -2 1 -1 0 -1 1 -1 
0 -1 1 -1 0 -1 1 -1 0 -2 2 -2 0 -2 1 -1 
1 -1 0 -2 1 -1 0 -1 1 -1 1 -1 0 -2 1 -1 
1 -1 0 -2 1 -1 0 -1 1 -1 0 -1 1 -1 0 -1 
1 -1 0 -2 2 -2 0 -2 1 -1 0 -1 2 -2 0 -2 
1 -1 1 -1 0 -2 1 -1 0 -1 1 -1 0 -1 1 -1 
0 -1 1 -1 0 -1 1 -1 0 -1 1 -1 0 -2 1 -1 
1 -1 0 -1 1 -1 0 -2 2 -2 0 -2 1 -1 1 -1 
0 -2 1 -1 0 -1 3822 2598 300 MP stroke
1 -1 0 -1 1 -1 0 -1 1 -1 0 -1 1 -1 0 -1 
1 -1 0 -1 1 -1 0 -1 1 -1 0 -1 1 -1 0 -2 
2 -2 0 -2 1 -1 1 -1 0 -2 1 -1 0 -1 1 -1 
0 -1 1 -1 0 -1 1 -1 0 -1 1 -1 0 -1 1 -1 
0 -1 1 -1 0 -1 1 -1 0 -1 1 -1 0 -2 1 -1 
1 -1 0 -2 1 -1 1 -1 0 -2 1 -1 0 -1 1 -1 
1 -1 0 -2 1 -1 0 -1 1 -1 0 -1 1 -1 0 -1 
1 -1 0 -2 2 -2 0 -2 1 -1 1 -1 0 -2 1 -1 
1 -1 0 -2 1 -1 0 -1 1 -1 1 -1 0 -2 1 -1 
0 -1 1 -1 0 -1 1 -1 0 -1 1 -1 0 -2 2 -2 
0 -2 1 -1 1 -1 0 -2 1 -1 0 -1 1 -1 1 -1 
0 -2 1 -1 1 -1 0 -2 1 -1 0 -1 1 -1 0 -1 
1 -1 0 -1 1 -1 0 -2 2 -2 0 -2 1 -1 0 -1 
2 -2 0 -2 1 -1 1 -1 0 -2 1 -1 0 -1 1 -1 
0 -1 1 -1 0 -1 1 -1 0 -1 1 -1 0 -1 1 -1 
0 -2 1 -1 1 -1 0 -1 1 -1 0 -2 2 -2 0 -2 
1 -1 1 -1 0 -2 1 -1 0 -1 1 -1 0 -1 1 -1 
0 -1 1 -1 0 -1 1 -1 0 -1 1 -1 0 -1 1 -1 
0 -1 1 -1 0 -1 1 -1 0 -2 2 -2 0 -2 1 -1 
1 -1 0 -2 1 -1 0 -1 1 -1 0 -1 1 -1 0 -1 
1 -1 0 -1 1 -1 0 -1 1 -1 0 -1 1 -1 0 -1 
1 -1 0 -1 1 -1 0 -2 1 -1 1 -1 0 -2 1 -1 
1 -1 0 -2 1 -1 0 -1 1 -1 1 -1 0 -2 1 -1 
0 -1 1 -1 0 -1 1 -1 0 -1 1 -1 0 -2 2 -2 
0 -2 1 -1 1 -1 0 -2 1 -1 0 -1 1 -1 1 -1 
0 -2 1 -1 1 -1 0 -2 1 -1 0 -1 1 -1 0 -1 
1 -1 0 -1 1 -1 0 -2 2 -2 0 -2 1 -1 1 -1 
0 -1 1 -1 0 -2 1 -1 1 -1 0 -2 1 -1 1 -1 
0 -2 1 -1 0 -1 1 -1 0 -1 1 -1 0 -1 1 -1 
0 -2 2 -2 0 -1 1 -1 0 -2 2 -2 0 -2 1 -1 
1 -1 0 -2 1 -1 0 -1 1 -1 0 -1 1 -1 0 -1 
1 -1 0 -1 1 -1 0 -1 1 -1 0 -1 1 -1 0 -1 
1 -1 0 -1 1 -1 0 -2 2 -2 0 -2 1 -1 1 -1 
0 -2 1 -1 0 -1 1 -1 0 -1 1 -1 0 -1 1 -1 
0 -1 1 -1 0 -1 1 -1 0 -1 1 -1 0 -1 1 -1 
0 -1 1 -1 0 -2 2 -2 0 -2 1 -1 1 -1 0 -2 
1 -1 0 -1 1 -1 0 -1 1 -1 0 -1 1 -1 0 -1 
1 -1 0 -1 1 -1 3646 2962 300 MP stroke
0 -1 1 -1 0 -1 1 -1 0 -1 1 -1 0 -2 1 -1 
1 -1 0 -2 1 -1 1 -1 0 -2 1 -1 0 -1 1 -1 
1 -1 0 -2 1 -1 0 -1 1 -1 0 -1 1 -1 0 -1 
1 -1 0 -2 2 -2 0 -2 1 -1 1 -1 0 -2 1 -1 
1 0 1 -1 1 -1 1 0 1 -1 1 0 1 -1 1 -1 
1 0 1 -1 1 -1 1 0 1 -1 1 0 1 -1 1 -1 
1 0 1 -1 1 0 1 -1 1 -1 1 0 1 -1 1 0 
1 -1 1 -1 1 -1 1 0 1 -1 1 0 1 -1 1 -1 
1 0 1 -1 1 0 1 -1 1 -1 1 0 1 -1 1 -1 
1 0 1 -1 1 0 1 -1 1 -1 1 0 1 -1 1 0 
1 -1 1 -1 1 0 1 -1 1 -1 1 0 1 -1 1 0 
1 -1 1 -1 1 0 1 -1 1 0 1 -1 1 -1 1 0 
1 -1 1 -1 1 0 1 -1 1 -1 1 0 1 -1 1 0 
1 -1 1 -1 1 0 1 -1 1 -1 1 0 1 -1 1 0 
1 -1 1 -1 1 0 1 -1 1 0 1 -1 1 -1 1 0 
1 -1 1 0 1 -1 1 -1 1 0 1 -1 1 -1 1 0 
1 -1 1 0 1 -1 1 -1 1 0 1 -1 1 -1 1 0 
1 -1 1 -1 1 0 1 -1 1 0 1 -1 1 -1 1 0 
1 -1 1 0 1 -1 1 -1 1 0 1 -1 1 -1 1 0 
1 -1 1 0 1 -1 1 -1 1 0 1 -1 1 0 1 -1 
1 -1 1 0 1 -1 1 -1 1 0 1 -1 1 0 1 -1 
1 -1 1 0 1 -1 1 0 1 -1 1 -1 1 -1 1 0 
1 -1 1 0 1 -1 1 -1 1 0 1 -1 1 0 1 -1 
1 -1 1 0 1 -1 1 -1 1 0 1 -1 1 0 1 -1 
1 -1 1 0 1 -1 1 0 1 -1 1 -1 1 0 1 -1 
1 0 1 -1 1 -1 1 0 1 -1 1 -1 1 0 1 -1 
1 0 1 -1 1 -1 1 0 1 -1 1 -1 1 0 1 -1 
1 -1 1 0 1 -1 1 0 1 -1 1 -1 1 0 1 -1 
1 0 1 -1 1 -1 1 0 1 -1 1 -1 1 0 1 -1 
1 0 1 -1 1 -1 1 0 1 -1 1 0 1 -1 1 -1 
1 0 1 -1 1 -1 1 0 1 -1 1 0 1 -1 1 -1 
1 0 1 -1 1 -1 1 0 1 -1 1 -1 1 0 1 -1 
1 0 1 -1 1 -1 1 0 1 -1 1 0 1 -1 1 -1 
1 0 1 -1 1 -1 1 0 1 -1 1 0 1 -1 1 -1 
1 0 1 -1 1 0 1 -1 1 -1 1 0 1 -1 1 0 
1 -1 1 -1 1 0 1 -1 1 -1 1 0 1 -1 1 -1 
1 0 1 -1 1 0 1 -1 1 -1 1 0 1 -1 1 -1 
1 0 1 -1 1 0 3360 3167 300 MP stroke
1 -1 1 -1 1 0 1 -1 1 0 1 -1 1 -1 1 0 
1 -1 1 -1 1 0 1 -1 1 0 1 -1 1 -1 1 0 
1 -1 1 0 1 -1 1 -1 1 0 1 -1 1 -1 1 0 
1 -1 1 -1 1 0 1 -1 1 0 1 -1 1 -1 1 0 
1 -1 1 -1 1 0 1 -1 1 0 1 0 1 -1 1 0 
1 0 1 0 1 -1 1 0 1 0 1 -1 1 0 1 0 
1 0 1 -1 1 0 1 0 1 -1 1 0 1 0 1 -1 
1 0 1 0 1 0 1 -1 1 0 1 0 1 -1 1 0 
1 0 1 0 1 -1 1 0 1 0 1 -1 1 0 1 0 
1 0 1 -1 1 0 1 0 1 -1 1 0 1 0 1 0 
1 -1 1 0 1 0 1 -1 1 0 1 0 1 -1 1 0 
1 0 1 0 1 -1 1 0 1 0 1 -1 1 0 1 0 
1 0 1 -1 1 0 1 0 1 -1 1 0 1 0 1 0 
1 -1 1 0 1 0 1 -1 1 0 1 0 1 0 1 -1 
1 0 1 0 1 -1 1 0 1 0 1 0 1 -1 1 0 
1 0 1 -1 1 0 1 0 1 0 1 -1 1 0 1 0 
1 -1 1 0 1 0 1 0 1 -1 1 0 1 0 1 -1 
1 0 1 0 1 0 1 -1 1 0 1 0 1 -1 1 0 
1 0 1 -1 1 0 1 0 1 0 1 -1 1 0 1 0 
1 -1 1 0 1 0 1 0 1 -1 1 0 1 0 1 -1 
1 0 1 0 1 0 1 -1 1 0 1 0 1 -1 1 0 
1 0 1 0 1 -1 1 0 1 0 1 -1 1 0 1 0 
1 -1 1 0 1 0 1 0 1 -1 1 0 1 0 1 -1 
1 0 1 0 1 0 1 -1 1 0 1 0 1 -1 1 0 
1 0 1 0 1 -1 1 0 1 0 1 -1 1 0 1 0 
1 -1 1 0 1 0 1 0 1 -1 1 0 1 0 1 -1 
1 0 1 0 1 0 1 -1 1 0 1 0 1 -1 1 0 
1 0 1 0 1 -1 1 0 1 0 1 -1 1 0 1 0 
1 0 1 -1 1 0 1 0 1 -1 1 0 1 0 1 0 
1 -1 1 0 1 0 1 -1 1 0 1 0 1 0 1 -1 
1 0 1 0 1 -1 1 0 1 0 1 0 1 -1 1 0 
1 0 1 -1 1 0 1 0 1 0 1 -1 1 0 1 0 
1 -1 1 0 1 0 1 0 1 -1 1 0 1 0 1 -1 
1 0 1 0 1 -1 1 0 1 0 1 0 1 -1 1 0 
1 0 1 -1 1 0 1 0 1 0 1 -1 1 0 1 0 
1 -1 1 0 1 0 1 0 1 -1 1 0 1 0 1 -1 
1 0 1 0 1 -1 1 0 1 0 1 0 1 -1 1 0 
1 0 1 -1 1 0 3061 3266 300 MP stroke
1 0 1 0 1 -1 1 0 1 0 1 -1 1 0 1 0 
1 0 1 -1 1 0 1 0 1 -1 1 0 1 0 1 0 
1 -1 1 0 1 0 1 -1 1 0 1 0 1 0 1 -1 
1 0 1 0 1 -1 1 0 1 0 1 0 -1 0 2 0 
1 0 1 0 1 1 1 0 1 1 1 0 1 0 1 1 
1 0 1 0 1 1 1 0 1 1 1 0 1 0 1 1 
1 0 1 0 1 1 1 0 1 1 1 0 1 0 1 1 
1 0 1 1 1 0 1 0 1 1 1 0 1 0 1 1 
1 0 1 1 1 0 1 0 1 1 1 0 1 0 1 1 
1 0 1 1 1 0 1 0 1 1 1 0 1 1 1 0 
1 0 1 1 1 0 1 0 1 1 1 0 1 1 1 0 
1 0 1 1 1 0 1 1 1 0 1 0 1 1 1 0 
1 0 1 1 1 0 1 1 1 0 1 0 1 1 1 0 
1 1 1 0 1 0 1 1 1 0 1 0 1 1 1 0 
1 0 1 1 1 0 1 1 1 0 1 0 1 1 1 0 
1 1 1 0 1 0 1 1 1 0 1 0 1 1 1 0 
1 1 1 0 1 0 1 1 1 0 1 1 1 0 1 0 
1 1 1 0 1 0 1 1 1 0 1 1 1 0 1 0 
1 1 1 0 1 1 1 0 1 0 1 1 1 0 1 0 
1 1 1 0 1 0 1 1 1 0 1 1 1 0 1 1 
1 0 1 0 1 1 1 0 1 0 1 1 1 0 1 0 
1 1 1 0 1 1 1 0 1 0 1 1 1 0 1 1 
1 0 1 0 1 1 1 0 1 0 1 1 1 0 1 1 
1 0 1 0 1 1 1 0 1 1 1 0 1 0 1 1 
1 0 1 0 1 1 1 0 1 0 1 1 1 0 1 1 
1 0 1 1 1 0 1 0 1 1 1 0 1 0 1 1 
1 0 1 0 1 1 1 0 1 1 1 0 1 0 1 1 
1 0 1 1 1 0 1 0 1 1 1 0 1 0 1 1 
1 0 1 1 1 0 1 0 1 1 1 0 1 1 1 0 
1 0 1 1 1 0 1 0 1 1 1 0 1 1 1 0 
1 0 1 1 1 0 1 1 1 0 1 0 1 1 1 0 
1 0 1 1 1 0 1 0 1 1 1 0 1 1 1 0 
1 0 1 1 1 0 1 1 1 0 1 0 1 1 1 0 
1 0 1 1 1 0 1 1 1 0 1 0 1 1 1 0 
1 1 1 0 1 0 1 1 1 0 1 0 1 1 1 0 
1 1 1 0 1 0 1 1 1 0 1 1 1 0 1 0 
1 1 1 0 1 0 1 1 1 0 1 1 1 0 1 0 
1 1 1 0 1 0 2763 3173 300 MP stroke
1 1 1 0 1 1 1 0 1 0 1 1 1 0 1 0 
1 1 1 0 1 1 1 0 1 0 1 1 1 0 1 1 
1 0 1 0 1 1 1 0 1 0 1 1 1 0 1 1 
1 0 1 0 1 1 1 0 1 1 1 0 1 0 1 1 
1 0 1 0 1 1 1 0 1 1 1 0 1 1 1 0 
1 1 1 0 1 0 1 1 1 0 1 1 1 0 1 1 
1 0 1 1 1 0 1 1 1 0 1 0 1 1 1 0 
1 1 1 0 1 1 1 0 1 1 1 0 1 1 1 0 
1 1 1 0 1 1 1 0 1 0 1 1 1 0 1 1 
1 0 1 1 1 0 1 1 1 0 1 1 1 0 1 1 
1 0 1 0 1 1 1 0 1 1 1 0 1 1 1 0 
1 1 1 0 1 1 1 0 1 1 1 0 1 1 1 0 
1 0 1 1 1 0 1 1 1 0 1 1 1 0 1 1 
1 0 1 1 1 0 1 1 1 0 1 0 1 1 1 0 
1 1 1 0 1 1 1 0 1 1 1 0 1 1 1 0 
1 1 1 0 1 1 1 0 1 0 1 1 1 0 1 1 
1 0 1 1 1 0 1 1 1 0 1 1 1 0 1 1 
1 0 1 0 1 1 1 0 1 1 1 0 1 1 1 0 
1 1 1 0 1 1 1 0 1 1 1 0 1 1 1 0 
1 0 1 1 1 0 1 1 1 0 1 1 1 0 1 1 
1 0 1 1 1 0 1 1 1 0 1 0 1 1 1 0 
1 1 1 0 1 1 1 0 1 1 1 0 1 1 1 0 
1 0 1 1 1 0 1 1 1 0 1 1 1 0 1 1 
1 0 1 1 1 0 1 0 1 1 1 0 1 1 1 0 
1 1 1 0 1 1 1 0 1 1 1 0 1 1 1 0 
1 1 1 0 1 0 1 1 1 0 1 1 1 0 1 1 
1 0 1 1 1 0 1 1 1 0 1 1 1 0 1 0 
1 1 1 0 1 1 1 0 1 1 1 0 1 1 1 0 
1 1 1 0 1 1 1 0 1 1 1 0 1 0 1 1 
1 0 1 1 1 0 1 1 1 0 1 1 1 0 1 1 
1 0 1 1 1 0 1 0 1 1 1 0 1 1 1 0 
1 1 1 0 1 1 1 0 1 1 1 0 1 1 1 0 
1 1 1 0 1 0 1 1 1 0 1 1 1 0 1 1 
1 0 1 1 1 0 1 1 1 0 1 1 1 0 1 1 
1 0 1 0 1 1 1 0 1 1 1 0 1 1 1 0 
1 1 1 0 1 1 1 0 1 1 1 0 1 0 1 1 
1 0 1 1 1 0 1 1 1 0 1 1 1 0 1 1 
1 0 1 1 1 0 2464 3037 300 MP stroke
1 0 1 1 1 0 1 1 1 0 1 1 1 0 1 1 
1 0 1 1 1 0 1 0 1 1 1 0 1 1 1 0 
1 1 1 0 1 1 1 0 1 1 1 0 1 0 1 1 
1 0 1 1 1 0 1 1 1 0 1 1 1 0 1 1 
1 0 1 1 1 0 1 1 1 0 1 0 1 1 1 1 
1 1 1 1 1 1 1 1 1 1 1 1 1 1 1 1 
0 1 2 2 1 1 1 1 1 1 1 1 1 1 1 1 
1 1 1 1 1 1 1 1 1 1 0 1 2 2 1 1 
1 1 1 1 1 1 1 1 1 1 1 1 1 1 1 1 
0 1 2 2 1 0 -1 0 2 2 1 1 1 0 -1 0 
2 2 1 1 1 1 1 1 1 1 1 1 1 1 0 1 
2 2 1 0 0 1 2 2 1 1 1 1 1 1 1 1 
1 1 1 1 1 1 1 1 1 1 1 1 1 1 0 1 
2 2 1 1 1 1 1 1 1 1 1 1 1 1 1 1 
1 1 1 1 0 1 2 2 1 0 -1 0 2 2 1 1 
1 1 1 1 1 1 1 1 1 1 1 1 1 1 1 1 
0 1 2 2 1 0 -1 0 2 2 1 1 1 1 1 1 
1 1 1 1 1 1 1 1 1 1 1 1 0 1 2 2 
1 0 -1 0 2 2 1 1 1 1 1 1 1 1 1 1 
1 1 1 1 1 1 1 1 0 1 2 2 1 1 1 1 
1 1 1 1 1 1 1 1 1 1 1 1 1 1 1 1 
1 1 0 1 2 2 1 1 1 0 -1 0 2 2 1 1 
1 1 1 1 1 1 1 1 1 1 0 1 2 2 1 0 
0 1 2 2 1 0 -1 0 2 2 1 1 1 1 1 1 
1 1 1 1 1 1 1 1 1 1 1 1 0 1 2 2 
1 1 1 1 1 1 1 1 1 1 1 1 1 1 1 1 
1 1 1 1 1 1 0 1 2 2 1 1 1 1 1 1 
1 1 1 1 1 1 1 1 1 1 1 1 0 1 2 2 
1 0 -1 0 2 2 1 1 1 1 1 1 1 1 1 1 
1 1 1 1 1 1 1 1 0 1 2 2 1 0 -1 0 
2 2 1 1 1 1 1 1 1 1 1 1 1 1 1 1 
1 1 1 1 0 1 2 2 1 0 -1 0 2 2 1 1 
1 1 1 1 1 1 1 1 1 1 1 1 1 1 1 1 
0 1 2 2 1 1 1 0 -1 0 2 2 1 1 1 1 
1 1 1 1 1 1 1 1 1 1 1 1 1 1 0 1 
2 2 1 0 -1 0 2 2 1 1 1 1 1 1 1 1 
1 1 1 1 1 1 1 1 1 1 0 1 2 2 1 0 
-1 0 2 2 1 1 2178 2753 300 MP stroke
1 1 1 1 1 1 1 1 1 1 1 1 1 1 1 1 
0 1 2 2 1 1 1 1 1 1 1 1 1 1 1 1 
1 1 1 1 1 1 1 1 1 1 0 1 2 2 1 1 
1 1 1 1 1 1 1 1 1 1 1 1 1 1 1 1 
0 1 2 2 1 0 -1 0 2 2 1 1 1 0 -1 0 
2 2 1 1 1 1 1 1 1 1 1 1 1 1 1 1 
1 1 1 1 1 0 1 1 1 0 1 1 1 0 1 1 
1 0 1 1 1 0 1 1 1 0 1 0 1 1 1 0 
1 1 1 0 1 1 1 0 1 1 1 0 1 1 1 0 
1 1 1 0 1 1 1 0 1 1 1 0 1 1 1 0 
1 1 1 0 1 1 1 0 1 1 1 0 1 1 1 0 
1 1 1 0 1 1 1 0 1 1 1 0 1 1 1 0 
1 1 1 0 1 1 1 0 1 1 1 0 1 1 1 0 
1 1 1 0 1 1 1 0 1 1 1 0 1 1 1 0 
1 1 1 0 1 1 1 0 1 1 1 0 1 0 1 1 
1 0 1 1 1 0 1 1 1 0 1 1 1 0 1 1 
1 0 1 1 1 0 1 1 1 0 1 1 1 0 1 1 
1 0 1 1 1 0 1 1 1 0 1 1 1 0 1 1 
1 0 1 1 1 0 1 1 1 0 1 1 1 0 1 0 
1 1 1 0 1 1 1 0 1 1 1 0 1 1 1 0 
1 1 1 0 1 1 1 0 1 1 1 0 1 1 1 0 
1 1 1 0 1 1 1 0 1 1 1 0 1 1 1 0 
1 1 1 0 1 1 1 0 1 1 1 0 1 1 1 0 
1 1 1 0 1 1 1 0 1 1 1 0 1 1 1 0 
1 1 1 0 1 1 1 0 1 1 1 0 1 1 1 0 
1 0 1 1 1 0 1 1 1 0 1 1 1 0 1 1 
1 0 1 1 1 0 1 1 1 0 1 1 1 0 1 1 
1 0 1 1 1 0 1 1 1 0 1 1 1 0 1 1 
1 0 1 1 1 0 1 1 1 0 1 1 1 0 1 1 
1 0 1 1 1 0 1 1 1 0 1 1 1 0 1 1 
1 0 1 0 1 1 1 0 1 1 1 0 1 1 1 0 
1 1 1 0 1 1 1 0 1 1 1 0 1 1 1 0 
1 1 1 0 1 1 1 0 1 1 1 0 1 1 1 0 
1 1 1 0 1 1 1 0 1 1 1 0 1 1 1 0 
1 1 1 0 1 0 1 1 1 0 1 1 1 0 1 1 
1 0 1 1 1 0 1 1 1 0 1 1 1 0 1 1 
1 0 1 1 1 0 1 1 1 0 1 1 1 0 1 1 
1 0 1 1 1 0 1881 2581 300 MP stroke
1 1 1 0 1 1 1 0 1 1 1 0 1 1 1 0 
1 1 1 0 1 1 1 0 1 1 1 0 1 1 1 0 
1 1 1 0 1 1 1 0 1 1 1 0 1 1 1 0 
1 1 1 0 1 1 1 0 1 1 1 0 1 0 1 1 
1 0 1 1 1 0 1 1 1 0 1 1 1 0 1 1 
1 0 1 1 1 0 1 1 1 0 1 1 1 0 1 1 
1 0 1 1 1 0 1 1 1 1 1 1 1 1 1 1 
0 1 2 2 1 1 0 1 2 2 1 1 0 1 2 2 
1 1 1 1 1 1 0 1 2 2 1 1 0 1 1 1 
1 1 1 1 0 1 2 2 1 1 1 1 1 1 0 1 
2 2 0 1 2 2 1 1 1 1 0 1 2 2 1 1 
1 1 0 1 1 1 1 1 1 1 0 1 2 2 1 1 
1 1 0 1 2 2 1 1 0 1 2 2 1 1 1 1 
0 1 2 2 1 1 0 1 2 2 1 1 1 1 0 1 
2 2 1 1 1 1 0 1 2 2 1 1 0 1 1 1 
1 1 1 1 1 1 0 1 2 2 1 1 0 1 2 2 
1 1 0 1 2 2 1 1 1 1 1 1 0 1 2 2 
1 1 0 1 1 1 1 1 1 1 0 1 2 2 1 1 
1 1 1 1 0 1 2 2 0 1 2 2 1 1 1 1 
0 1 2 2 1 1 0 1 2 2 1 1 1 1 0 1 
2 2 1 1 1 1 0 1 2 2 0 1 2 2 1 1 
1 1 1 1 0 1 2 2 1 1 0 1 2 2 1 1 
0 1 2 2 1 1 1 1 1 1 0 1 2 2 1 1 
0 1 1 1 1 1 1 1 0 1 2 2 1 1 1 1 
1 1 0 1 2 2 0 1 2 2 1 1 1 1 0 1 
2 2 1 1 0 1 1 1 1 1 1 1 1 1 0 1 
2 2 1 1 1 1 0 1 2 2 0 1 2 2 1 1 
1 1 1 1 0 1 2 2 1 1 0 1 2 2 1 1 
0 1 2 2 1 1 1 1 1 1 0 1 2 2 1 1 
0 1 1 1 1 1 1 1 0 1 2 2 1 1 1 1 
0 1 2 2 1 1 0 1 2 2 1 1 1 1 0 1 
2 2 1 1 1 1 0 1 1 1 1 1 1 1 0 1 
2 2 1 1 1 1 0 1 2 2 1 1 0 1 2 2 
1 1 1 1 0 1 2 2 1 1 0 1 2 2 1 1 
1 1 0 1 2 2 1 1 1 1 0 1 2 2 0 1 
2 2 1 1 1 1 1 1 0 1 2 2 1 1 0 1 
2 2 1 1 0 1 2 2 1 1 1 1 1 1 0 1 
2 2 1 1 0 1 1591 2250 300 MP stroke
1 1 1 1 1 1 0 1 2 2 1 1 1 1 1 1 
0 1 2 2 0 1 2 2 1 1 1 1 0 1 2 2 
1 1 0 1 1 1 1 1 1 1 1 1 0 1 2 2 
1 1 1 1 0 1 2 2 0 1 2 2 1 1 1 1 
1 1 0 1 2 2 1 1 0 1 2 2 1 1 0 1 
2 2 1 1 1 1 1 1 0 1 2 2 1 1 0 1 
1 1 1 1 1 1 0 1 2 2 1 1 1 1 0 1 
2 2 1 1 1 1 1 0 1 1 1 1 1 0 1 1 
1 1 1 1 1 0 1 1 1 1 1 0 1 1 1 1 
1 0 1 1 1 1 1 0 1 1 1 1 1 0 1 1 
1 1 1 1 1 0 1 1 1 1 1 0 1 1 1 1 
1 0 1 1 1 1 1 0 1 1 1 1 1 1 1 0 
1 1 1 0 1 1 1 1 1 0 1 1 1 1 1 1 
1 0 1 1 1 1 1 0 1 1 1 1 1 0 1 1 
1 1 1 0 1 1 1 1 1 1 1 0 1 1 1 1 
1 0 1 1 1 1 1 0 1 1 1 1 1 0 1 1 
1 1 1 1 1 0 1 1 1 1 1 0 1 1 1 0 
1 1 1 1 1 1 1 0 1 1 1 1 1 1 1 0 
1 1 1 0 1 1 1 1 1 0 1 1 1 1 1 1 
1 0 1 1 1 1 1 0 1 1 1 1 1 0 1 1 
1 1 1 0 1 1 1 1 1 1 1 0 1 1 1 1 
1 0 1 1 1 1 1 0 1 1 1 1 1 0 1 1 
1 1 1 1 1 0 1 1 1 1 1 0 1 1 1 0 
1 1 1 1 1 1 1 0 1 1 1 1 1 0 1 1 
1 1 1 0 1 1 1 1 1 0 1 1 1 1 1 1 
1 0 1 1 1 1 1 0 1 1 1 1 1 0 1 1 
1 1 1 0 1 1 1 1 1 0 1 1 1 1 1 1 
1 0 1 1 1 1 1 0 1 1 1 1 1 0 1 1 
1 1 1 0 1 1 1 1 1 1 1 0 1 1 1 0 
1 1 1 1 1 0 1 1 1 1 1 1 1 0 1 1 
1 1 1 0 1 1 1 1 1 0 1 1 1 1 1 0 
1 1 1 1 1 1 1 0 1 1 1 1 1 0 1 1 
1 1 1 0 1 1 1 1 1 0 1 1 1 1 1 1 
1 0 1 1 1 1 1 0 1 1 1 0 1 1 1 1 
1 1 1 0 1 1 1 1 1 1 1 0 1 1 1 0 
1 1 1 1 1 0 1 1 1 1 1 1 1 0 1 1 
1 1 1 0 1 1 1 1 1 0 1 1 1 1 1 0 
1 1 1 1 1 1 1294 2013 300 MP stroke
1 0 1 1 1 1 1 0 1 1 1 1 1 0 1 1 
1 1 1 0 1 1 1 1 1 1 1 0 1 1 1 1 
1 0 1 1 1 0 1 1 1 1 1 1 1 0 1 1 
1 1 1 0 1 1 1 1 1 0 1 1 1 1 1 0 
1 1 1 1 1 1 1 0 1 1 1 1 1 0 1 1 
1 1 1 0 1 1 1 1 1 0 1 1 1 1 1 0 
1 1 1 1 1 1 1 0 1 1 1 1 1 0 1 1 
1 1 1 0 1 1 1 1 1 0 1 1 1 0 1 -1 
1 0 1 0 1 0 1 -1 1 0 1 0 1 -1 1 0 
1 0 1 0 1 -1 1 0 1 0 1 -1 1 0 1 0 
1 -1 1 0 1 0 1 -1 1 0 1 0 1 0 1 -1 
1 0 1 0 1 -1 1 0 1 0 1 -1 1 0 1 0 
1 -1 1 0 1 0 1 0 1 -1 1 0 1 0 1 -1 
1 0 1 0 1 -1 1 0 1 0 1 -1 1 0 1 0 
1 0 1 -1 1 0 1 0 1 -1 1 0 1 0 1 0 
1 -1 1 0 1 0 1 -1 1 0 1 0 1 -1 1 0 
1 0 1 -1 1 0 1 0 1 0 1 -1 1 0 1 0 
1 -1 1 0 1 0 1 -1 1 0 1 0 1 -1 1 0 
1 0 1 0 1 -1 1 0 1 0 1 -1 1 0 1 0 
1 -1 1 0 1 0 1 0 1 -1 1 0 1 0 1 -1 
1 0 1 0 1 -1 1 0 1 0 1 0 1 -1 1 0 
1 0 1 -1 1 0 1 0 1 -1 1 0 1 0 1 -1 
1 0 1 0 1 0 1 -1 1 0 1 0 1 -1 1 0 
1 0 1 -1 1 0 1 0 1 -1 1 0 1 0 1 0 
1 -1 1 0 1 0 1 -1 1 0 1 0 1 -1 1 0 
1 0 1 0 1 -1 1 0 1 0 1 -1 1 0 1 0 
1 -1 1 0 1 0 1 0 1 -1 1 0 1 0 1 -1 
1 0 1 0 1 -1 1 0 1 0 1 -1 1 0 1 0 
1 0 1 -1 1 0 1 0 1 -1 1 0 1 0 1 -1 
1 0 1 0 1 -1 1 0 1 0 1 0 1 -1 1 0 
1 0 1 -1 1 0 1 0 1 0 1 -1 1 0 1 0 
1 -1 1 0 1 0 1 -1 1 0 1 0 1 -1 1 0 
1 0 1 0 1 -1 1 0 1 0 1 -1 1 0 1 0 
1 -1 1 0 1 0 1 -1 1 0 1 0 1 0 1 -1 
1 0 1 0 1 -1 1 0 1 0 1 -1 1 0 1 0 
1 -1 1 0 1 0 1 0 1 -1 1 0 1 0 1 -1 
1 0 1 0 1 0 1 -1 1 0 1 0 1 -1 1 0 
1 0 1 -1 1 0 995 2043 300 MP stroke
1 0 1 -1 1 0 1 0 1 0 1 -1 1 0 1 0 
1 -1 1 0 1 0 1 -1 1 0 1 0 1 -1 1 0 
1 0 1 0 1 -1 1 0 1 0 1 -1 1 0 1 0 
1 -1 1 0 1 0 1 0 1 -1 1 0 1 0 1 -1 
1 0 1 0 1 -1 1 0 959 2054 37 MP stroke
gr

c10
1 sg
0 546 1215 0 0 -546 995 1020 4 MP
PP
-1215 0 0 546 1215 0 0 -546 995 1020 5 MP stroke
4 w
DO
SO
6 w
0 sg
 995  474 mt 2210  474 L
 995 1020 mt 2210 1020 L
2210 1020 mt 2210  474 L
 995 1020 mt  995  474 L
 995 1020 mt 2210 1020 L
 995 1020 mt  995  474 L
 995  474 mt 2210  474 L
 995 1020 mt 2210 1020 L
2210 1020 mt 2210  474 L
 995 1020 mt  995  474 L
1463  621 mt 
(pol. int. <=11) s
gs 995 474 1216 547 rc
c8
360 0 1067 579 2 MP stroke
gr

c8
0 sg
1463  790 mt 
(spline cubica) s
gs 995 474 1216 547 rc
c9
360 0 1067 747 2 MP stroke
gr

c9
0 sg
1463  958 mt 
(spline lineare) s
gs 995 474 1216 547 rc
c10
360 0 1067 915 2 MP stroke
gr

c10

end %%Color Dict

eplot
%%EndObject

epage
end

showpage

%%Trailer
%%EOF
