a = 1.12;
b = 2.34;
c = 0.72;
d = 0.81;
e = 3;
f = 19.83;
g = 20;

x = 1 + a/b + c/(f^2)
x =
    1.4805

s = (b-a)/(d-c)
s =
   13.5556

z = (1 - (1/(e^5)))^-1
z =
    1.0041

r = a / (1/a + 1/b + 1/c + 1/d)
r =
    0.2840

y = a * b * (1/c) * ((f^2)/2)
y =
  715.6766

t = 7 * (g ^ (1/3)) + 4 * g^(0.58)
t =
   41.7340

format long
x, s, z, r, y, t
x =
   1.480463473251643

s =
  13.555555555555541

z =
   1.004132231404959

r =
   0.283999827993980

y =
   7.156765979999999e+02

t =
  41.733956653314806

