%!PS-Adobe-3.0 EPSF-3.0
%%Creator: MATLAB, The MathWorks, Inc. Version 8.0.0.783 (R2012b). Operating System: Microsoft Windows 7.
%%Title: C:\SILVIA\UniversitÓ\Presenti\Calcolo numerico\Silvia Balzani - esercitazioni\esCalcoloNumerico\Consegne\esercizi\Esercitazione05\esercitazione05-01_graficoN=20.eps
%%CreationDate: 10/11/2015  16:14:30
%%DocumentNeededFonts: Helvetica
%%DocumentProcessColors: Cyan Magenta Yellow Black
%%LanguageLevel: 2
%%Pages: 1
%%BoundingBox:    87   265   507   576
%%EndComments

%%BeginProlog
% MathWorks dictionary
/MathWorks 160 dict begin
% definition operators
/bdef {bind def} bind def
/ldef {load def} bind def
/xdef {exch def} bdef
/xstore {exch store} bdef
% operator abbreviations
/c  /clip ldef
/cc /concat ldef
/cp /closepath ldef
/gr /grestore ldef
/gs /gsave ldef
/mt /moveto ldef
/np /newpath ldef
/cm /currentmatrix ldef
/sm /setmatrix ldef
/rm /rmoveto ldef
/rl /rlineto ldef
/s {show newpath} bdef
/sc {setcmykcolor} bdef
/sr /setrgbcolor ldef
/sg /setgray ldef
/w /setlinewidth ldef
/j /setlinejoin ldef
/cap /setlinecap ldef
/rc {rectclip} bdef
/rf {rectfill} bdef
% page state control
/pgsv () def
/bpage {/pgsv save def} bdef
/epage {pgsv restore} bdef
/bplot /gsave ldef
/eplot {stroke grestore} bdef
% orientation switch
/portraitMode 0 def /landscapeMode 1 def /rotateMode 2 def
% coordinate system mappings
/dpi2point 0 def
% font control
/FontSize 0 def
/FMS {/FontSize xstore findfont [FontSize 0 0 FontSize neg 0 0]
  makefont setfont} bdef
/ISOLatin1Encoding where {pop /WindowsLatin1Encoding 256 array bdef
ISOLatin1Encoding WindowsLatin1Encoding copy pop
/.notdef/.notdef/quotesinglbase/florin/quotedblbase/ellipsis/dagger
/daggerdbl/circumflex/perthousand/Scaron/guilsinglleft/OE/.notdef/.notdef
/.notdef/.notdef/quoteleft/quoteright/quotedblleft/quotedblright/bullet
/endash/emdash/tilde/trademark/scaron/guilsinglright/oe/.notdef/.notdef
/Ydieresis WindowsLatin1Encoding 128 32 getinterval astore pop}
{/WindowsLatin1Encoding StandardEncoding bdef} ifelse
/reencode {exch dup where {pop load} {pop StandardEncoding} ifelse
  exch dup 3 1 roll findfont dup length dict begin
  { 1 index /FID ne {def}{pop pop} ifelse } forall
  /Encoding exch def currentdict end definefont pop} bdef
/isroman {findfont /CharStrings get /Agrave known} bdef
/FMSR {3 1 roll 1 index dup isroman {reencode} {pop pop} ifelse
  exch FMS} bdef
/csm {1 dpi2point div -1 dpi2point div scale neg translate
 dup landscapeMode eq {pop -90 rotate}
  {rotateMode eq {90 rotate} if} ifelse} bdef
% line types: solid, dotted, dashed, dotdash
/SO { [] 0 setdash } bdef
/DO { [.5 dpi2point mul 4 dpi2point mul] 0 setdash } bdef
/DA { [6 dpi2point mul] 0 setdash } bdef
/DD { [.5 dpi2point mul 4 dpi2point mul 6 dpi2point mul 4
  dpi2point mul] 0 setdash } bdef
% macros for lines and objects
/L {lineto stroke} bdef
/MP {3 1 roll moveto 1 sub {rlineto} repeat} bdef
/AP {{rlineto} repeat} bdef
/PDlw -1 def
/W {/PDlw currentlinewidth def setlinewidth} def
/PP {closepath eofill} bdef
/DP {closepath stroke} bdef
/MR {4 -2 roll moveto dup  0 exch rlineto exch 0 rlineto
  neg 0 exch rlineto closepath} bdef
/FR {MR stroke} bdef
/PR {MR fill} bdef
/L1i {{currentfile picstr readhexstring pop} image} bdef
/tMatrix matrix def
/MakeOval {newpath tMatrix currentmatrix pop translate scale
0 0 1 0 360 arc tMatrix setmatrix} bdef
/FO {MakeOval stroke} bdef
/PO {MakeOval fill} bdef
/PD {currentlinewidth 2 div 0 360 arc fill
   PDlw -1 eq not {PDlw w /PDlw -1 def} if} def
/FA {newpath tMatrix currentmatrix pop translate scale
  0 0 1 5 -2 roll arc tMatrix setmatrix stroke} bdef
/PA {newpath tMatrix currentmatrix pop	translate 0 0 moveto scale
  0 0 1 5 -2 roll arc closepath tMatrix setmatrix fill} bdef
/FAn {newpath tMatrix currentmatrix pop translate scale
  0 0 1 5 -2 roll arcn tMatrix setmatrix stroke} bdef
/PAn {newpath tMatrix currentmatrix pop translate 0 0 moveto scale
  0 0 1 5 -2 roll arcn closepath tMatrix setmatrix fill} bdef
/vradius 0 def /hradius 0 def /lry 0 def
/lrx 0 def /uly 0 def /ulx 0 def /rad 0 def
/MRR {/vradius xdef /hradius xdef /lry xdef /lrx xdef /uly xdef
  /ulx xdef newpath tMatrix currentmatrix pop ulx hradius add uly
  vradius add translate hradius vradius scale 0 0 1 180 270 arc 
  tMatrix setmatrix lrx hradius sub uly vradius add translate
  hradius vradius scale 0 0 1 270 360 arc tMatrix setmatrix
  lrx hradius sub lry vradius sub translate hradius vradius scale
  0 0 1 0 90 arc tMatrix setmatrix ulx hradius add lry vradius sub
  translate hradius vradius scale 0 0 1 90 180 arc tMatrix setmatrix
  closepath} bdef
/FRR {MRR stroke } bdef
/PRR {MRR fill } bdef
/MlrRR {/lry xdef /lrx xdef /uly xdef /ulx xdef /rad lry uly sub 2 div def
  newpath tMatrix currentmatrix pop ulx rad add uly rad add translate
  rad rad scale 0 0 1 90 270 arc tMatrix setmatrix lrx rad sub lry rad
  sub translate rad rad scale 0 0 1 270 90 arc tMatrix setmatrix
  closepath} bdef
/FlrRR {MlrRR stroke } bdef
/PlrRR {MlrRR fill } bdef
/MtbRR {/lry xdef /lrx xdef /uly xdef /ulx xdef /rad lrx ulx sub 2 div def
  newpath tMatrix currentmatrix pop ulx rad add uly rad add translate
  rad rad scale 0 0 1 180 360 arc tMatrix setmatrix lrx rad sub lry rad
  sub translate rad rad scale 0 0 1 0 180 arc tMatrix setmatrix
  closepath} bdef
/FtbRR {MtbRR stroke } bdef
/PtbRR {MtbRR fill } bdef
/stri 6 array def /dtri 6 array def
/smat 6 array def /dmat 6 array def
/tmat1 6 array def /tmat2 6 array def /dif 3 array def
/asub {/ind2 exch def /ind1 exch def dup dup
  ind1 get exch ind2 get sub exch } bdef
/tri_to_matrix {
  2 0 asub 3 1 asub 4 0 asub 5 1 asub
  dup 0 get exch 1 get 7 -1 roll astore } bdef
/compute_transform {
  dmat dtri tri_to_matrix tmat1 invertmatrix 
  smat stri tri_to_matrix tmat2 concatmatrix } bdef
/ds {stri astore pop} bdef
/dt {dtri astore pop} bdef
/db {2 copy /cols xdef /rows xdef mul dup 3 mul string
  currentfile 
  3 index 0 eq {/ASCIIHexDecode filter}
  {/ASCII85Decode filter 3 index 2 eq {/RunLengthDecode filter} if }
  ifelse exch readstring pop
  dup 0 3 index getinterval /rbmap xdef
  dup 2 index dup getinterval /gbmap xdef
  1 index dup 2 mul exch getinterval /bbmap xdef pop pop}bdef
/it {gs np dtri aload pop moveto lineto lineto cp c
  cols rows 8 compute_transform 
  rbmap gbmap bbmap true 3 colorimage gr}bdef
/il {newpath moveto lineto stroke}bdef
currentdict end def
%%EndProlog

%%BeginSetup
MathWorks begin

0 cap

end
%%EndSetup

%%Page: 1 1
%%BeginPageSetup
%%PageBoundingBox:    87   265   507   576
MathWorks begin
bpage
%%EndPageSetup

%%BeginObject: obj1
bplot

/dpi2point 12 def
portraitMode 1044 6912 csm

    0     0  5045  3728 rc
85 dict begin %Colortable dictionary
/c0 { 0.000000 0.000000 0.000000 sr} bdef
/c1 { 1.000000 1.000000 1.000000 sr} bdef
/c2 { 0.900000 0.000000 0.000000 sr} bdef
/c3 { 0.000000 0.820000 0.000000 sr} bdef
/c4 { 0.000000 0.000000 0.800000 sr} bdef
/c5 { 0.910000 0.820000 0.320000 sr} bdef
/c6 { 1.000000 0.260000 0.820000 sr} bdef
/c7 { 0.000000 0.820000 0.820000 sr} bdef
c0
1 j
1 sg
   0    0 5046 3729 rf
6 w
0 3038 3910 0 0 -3038 656 3318 4 MP
PP
-3910 0 0 3038 3910 0 0 -3038 656 3318 5 MP stroke
4 w
DO
0 sg
 656 3318 mt  656  280 L
 656  280 mt  656  280 L
1633 3318 mt 1633  280 L
1633  280 mt 1633  280 L
2611 3318 mt 2611  280 L
2611  280 mt 2611  280 L
3588 3318 mt 3588  280 L
3588  280 mt 3588  280 L
4566 3318 mt 4566  280 L
4566  280 mt 4566  280 L
 656 3318 mt 4566 3318 L
4566 3318 mt 4566 3318 L
 656 2884 mt 4566 2884 L
4566 2884 mt 4566 2884 L
 656 2450 mt 4566 2450 L
4566 2450 mt 4566 2450 L
 656 2016 mt 4566 2016 L
4566 2016 mt 4566 2016 L
 656 1582 mt 4566 1582 L
4566 1582 mt 4566 1582 L
 656 1148 mt 4566 1148 L
4566 1148 mt 4566 1148 L
 656  714 mt 4566  714 L
4566  714 mt 4566  714 L
 656  280 mt 4566  280 L
4566  280 mt 4566  280 L
SO
6 w
 656  280 mt 4566  280 L
 656 3318 mt 4566 3318 L
4566 3318 mt 4566  280 L
 656 3318 mt  656  280 L
 656 3318 mt 4566 3318 L
 656 3318 mt  656  280 L
 656 3318 mt  656 3278 L
 656  280 mt  656  319 L
%%IncludeResource: font Helvetica
/Helvetica /WindowsLatin1Encoding 120 FMSR

 553 3463 mt 
(-1) s
1633 3318 mt 1633 3278 L
1633  280 mt 1633  319 L
1480 3463 mt 
(-0.5) s
2611 3318 mt 2611 3278 L
2611  280 mt 2611  319 L
2578 3463 mt 
(0) s
3588 3318 mt 3588 3278 L
3588  280 mt 3588  319 L
3505 3463 mt 
(0.5) s
4566 3318 mt 4566 3278 L
4566  280 mt 4566  319 L
4533 3463 mt 
(1) s
 656 3318 mt  695 3318 L
4566 3318 mt 4526 3318 L
 555 3362 mt 
(0) s
 656 2884 mt  695 2884 L
4566 2884 mt 4526 2884 L
 455 2928 mt 
(0.5) s
 656 2450 mt  695 2450 L
4566 2450 mt 4526 2450 L
 555 2494 mt 
(1) s
 656 2016 mt  695 2016 L
4566 2016 mt 4526 2016 L
 455 2060 mt 
(1.5) s
 656 1582 mt  695 1582 L
4566 1582 mt 4526 1582 L
 555 1626 mt 
(2) s
 656 1148 mt  695 1148 L
4566 1148 mt 4526 1148 L
 455 1192 mt 
(2.5) s
 656  714 mt  695  714 L
4566  714 mt 4526  714 L
 555  758 mt 
(3) s
 656  280 mt  695  280 L
4566  280 mt 4526  280 L
 455  324 mt 
(3.5) s
 656  226 mt 
(x 10) s
%%IncludeResource: font Helvetica
/Helvetica /WindowsLatin1Encoding 80 FMSR

 882  152 mt 
(-4) s
 656  280 mt 4566  280 L
 656 3318 mt 4566 3318 L
4566 3318 mt 4566  280 L
 656 3318 mt  656  280 L
gs 656 280 3911 3039 rc
/c8 { 1.000000 0.000000 0.000000 sr} bdef
c8
8 979 8 725 8 515 8 343 8 202 8 90 7 1 8 -67 
8 -119 8 -158 8 -183 8 -199 7 -207 8 -210 8 -206 8 -200 
8 -190 8 -178 7 -165 8 -150 8 -136 8 -122 8 -107 8 -93 
7 -81 8 -68 8 25 8 46 8 36 8 28 7 20 8 14 
8 7 8 3 8 -1 8 -5 7 -8 8 -10 8 -12 8 -13 
8 -14 8 -14 7 -14 8 -14 8 -13 8 -13 8 -12 8 -12 
7 -10 8 -10 8 -8 8 -8 8 -1 8 6 7 5 8 4 
8 3 8 2 8 2 8 1 7 0 8 0 8 -1 8 0 
8 -2 8 -1 7 -2 8 -1 8 -2 8 -2 8 -2 8 -2 
8 -2 7 -2 8 -1 8 -2 8 -1 8 -2 8 0 7 1 
8 1 8 1 8 0 8 1 8 0 7 0 8 1 8 0 
8 0 8 0 8 -1 7 0 8 0 8 0 8 -1 8 0 
8 -1 7 0 8 0 8 -1 8 0 8 -1 8 0 7 0 
8 0 8 0 8 0 8 0 8 0 7 1 8 0 8 0 
8 0 8 0 8 0 7 0 8 0 8 0 8 0 8 0 
8 0 7 0 8 -1 8 0 8 0 8 0 8 0 7 0 
8 0 8 0 8 0 8 0 8 0 7 0 8 0 8 0 
8 0 8 0 8 0 7 0 8 0 8 0 8 0 8 0 
8 0 8 0 7 0 8 0 8 0 8 0 8 0 8 0 
7 0 8 0 8 0 8 0 8 0 8 0 7 0 8 0 
8 0 8 0 8 0 8 0 7 0 8 0 8 0 8 0 
8 0 8 0 7 0 8 0 8 0 8 0 8 0 8 0 
7 0 8 0 8 0 8 0 8 0 8 0 7 0 8 0 
8 0 8 0 8 0 8 0 7 0 8 0 8 0 8 0 
8 0 8 0 7 0 8 0 8 0 8 0 8 0 8 0 
7 0 8 0 8 0 8 0 8 0 8 0 7 0 8 0 
8 0 8 0 8 0 8 0 7 0 8 0 8 0 8 0 
8 0 8 0 8 0 7 0 8 0 8 0 8 0 8 0 
8 0 7 0 8 0 8 0 8 0 8 0 8 0 7 0 
8 0 8 0 8 0 8 0 8 0 7 0 8 0 8 0 
8 0 8 0 8 0 7 0 8 0 8 0 8 0 8 0 
8 0 7 0 8 0 8 0 8 0 8 0 8 0 7 0 
8 0 8 0 8 0 8 0 8 0 7 0 8 0 8 0 
8 0 8 0 8 0 7 0 8 0 8 0 8 0 8 0 
8 0 7 0 8 0 8 0 8 0 8 0 8 0 7 0 
8 0 8 0 8 0 8 0 8 0 8 0 7 0 8 0 
8 0 8 0 8 0 8 0 7 0 8 0 8 0 8 0 
8 0 8 0 7 0 2223 3317 300 MP stroke
8 0 8 0 8 0 8 0 8 0 7 0 8 0 8 0 
8 0 8 0 8 0 7 0 8 0 8 0 8 0 8 0 
8 0 7 0 8 0 8 0 8 0 8 0 8 0 7 0 
8 0 8 0 8 0 8 0 8 0 7 0 8 0 8 0 
8 0 8 0 8 0 7 0 8 0 8 0 8 0 8 0 
8 0 7 0 8 0 8 0 8 0 8 0 8 0 7 0 
8 0 8 0 8 0 8 0 8 0 7 0 8 0 8 0 
8 0 8 0 8 0 8 0 7 0 8 0 8 0 8 0 
8 0 8 0 7 0 8 0 8 0 8 0 8 0 8 0 
7 0 8 0 8 0 8 0 8 0 8 1 7 0 8 0 
8 0 8 0 8 0 8 0 7 0 8 0 8 0 8 0 
8 0 8 0 7 -1 8 0 8 0 8 0 8 0 8 0 
7 0 8 0 8 1 8 0 8 1 8 0 7 0 8 1 
8 0 8 1 8 0 8 0 7 0 8 1 8 0 8 0 
8 0 8 -1 7 0 8 0 8 -1 8 0 8 -1 8 -1 
7 -1 8 0 8 2 8 1 8 2 8 1 7 2 8 2 
8 2 8 2 8 2 8 2 8 1 7 2 8 1 8 2 
8 0 8 1 8 0 7 0 8 -1 8 -2 8 -2 8 -3 
8 -4 7 -5 8 -6 8 1 8 8 8 8 8 10 7 10 
8 12 8 12 8 13 8 13 8 14 7 14 8 14 8 14 
8 13 8 12 8 10 7 8 8 5 8 1 8 -3 8 -7 
8 -14 7 -20 8 -28 8 -36 8 -46 8 -25 8 68 7 81 
8 93 8 107 8 122 8 136 8 150 7 165 8 178 8 190 
8 200 8 206 8 210 7 207 8 199 8 183 8 158 8 119 
8 67 7 -1 8 -90 8 -202 8 -343 8 -515 8 -725 7 -979 
656 3318 201 MP stroke
/c9 { 0.000000 0.000000 1.000000 sr} bdef
c9
8 -877 8 -677 8 -516 8 -383 8 -277 8 -193 7 51 8 76 
8 37 8 9 8 -10 8 -24 7 -31 8 -36 8 -36 8 -35 
8 -31 8 13 7 23 8 18 8 13 8 9 8 4 8 0 
7 -3 8 -5 8 -8 8 -10 8 -11 8 -11 7 -12 8 -12 
8 -11 8 1 8 10 8 9 7 7 8 6 8 5 8 3 
8 3 8 0 7 0 8 -1 8 -2 8 -3 8 -4 8 -5 
7 -4 8 -6 8 -5 8 -5 8 -6 8 -5 7 0 8 5 
8 5 8 4 8 4 8 3 7 3 8 2 8 1 8 1 
8 1 8 0 7 0 8 -1 8 -2 8 -1 8 -2 8 -3 
8 -2 7 -3 8 -3 8 -3 8 -3 8 -3 8 -3 7 -2 
8 3 8 3 8 2 8 3 8 2 7 2 8 2 8 1 
8 2 8 1 8 0 7 1 8 0 8 0 8 -1 8 0 
8 -1 7 -1 8 -1 8 -2 8 -1 8 -2 8 -2 7 -2 
8 -2 8 -2 8 -2 8 -2 8 -1 7 2 8 1 8 2 
8 2 8 1 8 2 7 1 8 1 8 1 8 1 8 1 
8 1 7 0 8 0 8 0 8 0 8 0 8 -1 7 0 
8 -1 8 -1 8 0 8 -1 8 -2 7 -1 8 -1 8 -1 
8 -2 8 -1 8 -1 7 -2 8 -1 8 1 8 1 8 1 
8 1 8 2 7 1 8 1 8 1 8 1 8 0 8 1 
7 0 8 1 8 0 8 0 8 1 8 0 7 0 8 -1 
8 0 8 0 8 -1 8 0 7 -1 8 -1 8 -1 8 -1 
8 0 8 -1 7 -1 8 -1 8 -1 8 -1 8 -2 8 0 
7 1 8 1 8 1 8 1 8 0 8 1 7 1 8 1 
8 0 8 1 8 1 8 0 7 0 8 1 8 0 8 0 
8 0 8 0 7 0 8 0 8 0 8 -1 8 0 8 0 
7 -1 8 -1 8 0 8 -1 8 -1 8 0 7 -1 8 -1 
8 -1 8 -1 8 0 8 -1 7 0 8 1 8 1 8 0 
8 1 8 1 8 1 7 0 8 1 8 0 8 1 8 0 
8 1 7 0 8 0 8 0 8 0 8 0 8 0 7 0 
8 0 8 0 8 0 8 -1 8 0 7 0 8 -1 8 0 
8 -1 8 0 8 -1 7 -1 8 0 8 -1 8 -1 8 0 
8 -1 7 0 8 1 8 0 8 1 8 1 8 0 7 1 
8 0 8 1 8 0 8 1 8 0 7 0 8 1 8 0 
8 0 8 0 8 0 7 0 8 0 8 0 8 0 8 0 
8 -1 7 0 8 0 8 -1 8 0 8 0 8 -1 7 -1 
8 0 8 -1 8 0 8 -1 8 0 8 -1 7 0 8 0 
8 1 8 0 8 1 8 1 7 0 8 1 8 0 8 0 
8 1 8 0 7 1 2223 3311 300 MP stroke
8 0 8 0 8 0 8 0 8 0 7 0 8 0 8 0 
8 0 8 0 8 0 7 -1 8 0 8 0 8 -1 8 0 
8 -1 7 0 8 -1 8 0 8 -1 8 0 8 -1 7 0 
8 0 8 1 8 0 8 1 8 0 7 1 8 0 8 1 
8 0 8 0 8 1 7 0 8 0 8 0 8 0 8 1 
8 0 7 0 8 0 8 -1 8 0 8 0 8 0 7 -1 
8 0 8 0 8 -1 8 0 8 -1 7 0 8 0 8 -1 
8 -1 8 0 8 0 8 0 7 1 8 0 8 1 8 0 
8 1 8 0 7 0 8 1 8 0 8 0 8 1 8 0 
7 0 8 0 8 0 8 0 8 0 8 0 7 0 8 -1 
8 0 8 0 8 -1 8 0 7 0 8 -1 8 0 8 -1 
8 0 8 -1 7 0 8 0 8 1 8 0 8 1 8 0 
7 1 8 0 8 0 8 1 8 0 8 0 7 0 8 1 
8 0 8 0 8 0 8 -1 7 0 8 0 8 0 8 0 
8 -1 8 0 7 -1 8 0 8 -1 8 0 8 -1 8 0 
7 0 8 1 8 0 8 1 8 0 8 1 7 0 8 0 
8 1 8 0 8 0 8 0 8 0 7 0 8 0 8 0 
8 0 8 -1 8 0 7 0 8 -1 8 0 8 -1 8 -1 
8 0 7 0 8 0 8 1 8 1 8 0 8 1 7 0 
8 0 8 1 8 0 8 0 8 0 7 0 8 0 8 -1 
8 0 8 0 8 -1 7 -1 8 0 8 -1 8 0 8 1 
8 0 7 1 8 1 8 0 8 0 8 1 8 0 7 0 
8 0 8 -1 8 0 8 -1 8 -1 7 -1 8 0 8 1 
8 1 8 1 8 0 7 1 8 0 8 0 8 -1 8 -1 
8 -1 7 -1 8 2 8 1 8 1 8 -1 8 -2 7 3 
656 3313 201 MP stroke
gr

c9
0 sg
%%IncludeResource: font Helvetica
/Helvetica /WindowsLatin1Encoding 120 FMSR

2448  185 mt 
(N =20) s
 639 3361 mt 
( ) s
4550  322 mt 
( ) s
1 sg
0 334 1741 0 0 -334 2766 674 4 MP
PP
-1741 0 0 334 1741 0 0 -334 2766 674 5 MP stroke
4 w
DO
SO
6 w
0 sg
2766  340 mt 4507  340 L
2766  674 mt 4507  674 L
4507  674 mt 4507  340 L
2766  674 mt 2766  340 L
2766  674 mt 4507  674 L
2766  674 mt 2766  340 L
2766  340 mt 4507  340 L
2766  674 mt 4507  674 L
4507  674 mt 4507  340 L
2766  674 mt 2766  340 L
3243  475 mt 
(Con nodi equispaziati\)) s
gs 2766 340 1742 335 rc
c8
366 0 2839 432 2 MP stroke
gr

c8
0 sg
3243  624 mt 
(Con nodi di Chebyshev) s
gs 2766 340 1742 335 rc
c9
366 0 2839 581 2 MP stroke
gr

c9

end %%Color Dict

eplot
%%EndObject

epage
end

showpage

%%Trailer
%%EOF
