%!PS-Adobe-3.0 EPSF-3.0
%%Creator: MATLAB, The MathWorks, Inc. Version 8.0.0.783 (R2012b). Operating System: Microsoft Windows 7.
%%Title: C:\SILVIA\UniversitÓ\Presenti\Calcolo numerico\Silvia Balzani - esercitazioni\esCalcoloNumerico\Consegne\esercizi\Esercitazione05\esercitazione05-01_graficoN=30.eps
%%CreationDate: 10/11/2015  16:14:39
%%DocumentNeededFonts: Helvetica
%%DocumentProcessColors: Cyan Magenta Yellow Black
%%LanguageLevel: 2
%%Pages: 1
%%BoundingBox:    87   265   507   576
%%EndComments

%%BeginProlog
% MathWorks dictionary
/MathWorks 160 dict begin
% definition operators
/bdef {bind def} bind def
/ldef {load def} bind def
/xdef {exch def} bdef
/xstore {exch store} bdef
% operator abbreviations
/c  /clip ldef
/cc /concat ldef
/cp /closepath ldef
/gr /grestore ldef
/gs /gsave ldef
/mt /moveto ldef
/np /newpath ldef
/cm /currentmatrix ldef
/sm /setmatrix ldef
/rm /rmoveto ldef
/rl /rlineto ldef
/s {show newpath} bdef
/sc {setcmykcolor} bdef
/sr /setrgbcolor ldef
/sg /setgray ldef
/w /setlinewidth ldef
/j /setlinejoin ldef
/cap /setlinecap ldef
/rc {rectclip} bdef
/rf {rectfill} bdef
% page state control
/pgsv () def
/bpage {/pgsv save def} bdef
/epage {pgsv restore} bdef
/bplot /gsave ldef
/eplot {stroke grestore} bdef
% orientation switch
/portraitMode 0 def /landscapeMode 1 def /rotateMode 2 def
% coordinate system mappings
/dpi2point 0 def
% font control
/FontSize 0 def
/FMS {/FontSize xstore findfont [FontSize 0 0 FontSize neg 0 0]
  makefont setfont} bdef
/ISOLatin1Encoding where {pop /WindowsLatin1Encoding 256 array bdef
ISOLatin1Encoding WindowsLatin1Encoding copy pop
/.notdef/.notdef/quotesinglbase/florin/quotedblbase/ellipsis/dagger
/daggerdbl/circumflex/perthousand/Scaron/guilsinglleft/OE/.notdef/.notdef
/.notdef/.notdef/quoteleft/quoteright/quotedblleft/quotedblright/bullet
/endash/emdash/tilde/trademark/scaron/guilsinglright/oe/.notdef/.notdef
/Ydieresis WindowsLatin1Encoding 128 32 getinterval astore pop}
{/WindowsLatin1Encoding StandardEncoding bdef} ifelse
/reencode {exch dup where {pop load} {pop StandardEncoding} ifelse
  exch dup 3 1 roll findfont dup length dict begin
  { 1 index /FID ne {def}{pop pop} ifelse } forall
  /Encoding exch def currentdict end definefont pop} bdef
/isroman {findfont /CharStrings get /Agrave known} bdef
/FMSR {3 1 roll 1 index dup isroman {reencode} {pop pop} ifelse
  exch FMS} bdef
/csm {1 dpi2point div -1 dpi2point div scale neg translate
 dup landscapeMode eq {pop -90 rotate}
  {rotateMode eq {90 rotate} if} ifelse} bdef
% line types: solid, dotted, dashed, dotdash
/SO { [] 0 setdash } bdef
/DO { [.5 dpi2point mul 4 dpi2point mul] 0 setdash } bdef
/DA { [6 dpi2point mul] 0 setdash } bdef
/DD { [.5 dpi2point mul 4 dpi2point mul 6 dpi2point mul 4
  dpi2point mul] 0 setdash } bdef
% macros for lines and objects
/L {lineto stroke} bdef
/MP {3 1 roll moveto 1 sub {rlineto} repeat} bdef
/AP {{rlineto} repeat} bdef
/PDlw -1 def
/W {/PDlw currentlinewidth def setlinewidth} def
/PP {closepath eofill} bdef
/DP {closepath stroke} bdef
/MR {4 -2 roll moveto dup  0 exch rlineto exch 0 rlineto
  neg 0 exch rlineto closepath} bdef
/FR {MR stroke} bdef
/PR {MR fill} bdef
/L1i {{currentfile picstr readhexstring pop} image} bdef
/tMatrix matrix def
/MakeOval {newpath tMatrix currentmatrix pop translate scale
0 0 1 0 360 arc tMatrix setmatrix} bdef
/FO {MakeOval stroke} bdef
/PO {MakeOval fill} bdef
/PD {currentlinewidth 2 div 0 360 arc fill
   PDlw -1 eq not {PDlw w /PDlw -1 def} if} def
/FA {newpath tMatrix currentmatrix pop translate scale
  0 0 1 5 -2 roll arc tMatrix setmatrix stroke} bdef
/PA {newpath tMatrix currentmatrix pop	translate 0 0 moveto scale
  0 0 1 5 -2 roll arc closepath tMatrix setmatrix fill} bdef
/FAn {newpath tMatrix currentmatrix pop translate scale
  0 0 1 5 -2 roll arcn tMatrix setmatrix stroke} bdef
/PAn {newpath tMatrix currentmatrix pop translate 0 0 moveto scale
  0 0 1 5 -2 roll arcn closepath tMatrix setmatrix fill} bdef
/vradius 0 def /hradius 0 def /lry 0 def
/lrx 0 def /uly 0 def /ulx 0 def /rad 0 def
/MRR {/vradius xdef /hradius xdef /lry xdef /lrx xdef /uly xdef
  /ulx xdef newpath tMatrix currentmatrix pop ulx hradius add uly
  vradius add translate hradius vradius scale 0 0 1 180 270 arc 
  tMatrix setmatrix lrx hradius sub uly vradius add translate
  hradius vradius scale 0 0 1 270 360 arc tMatrix setmatrix
  lrx hradius sub lry vradius sub translate hradius vradius scale
  0 0 1 0 90 arc tMatrix setmatrix ulx hradius add lry vradius sub
  translate hradius vradius scale 0 0 1 90 180 arc tMatrix setmatrix
  closepath} bdef
/FRR {MRR stroke } bdef
/PRR {MRR fill } bdef
/MlrRR {/lry xdef /lrx xdef /uly xdef /ulx xdef /rad lry uly sub 2 div def
  newpath tMatrix currentmatrix pop ulx rad add uly rad add translate
  rad rad scale 0 0 1 90 270 arc tMatrix setmatrix lrx rad sub lry rad
  sub translate rad rad scale 0 0 1 270 90 arc tMatrix setmatrix
  closepath} bdef
/FlrRR {MlrRR stroke } bdef
/PlrRR {MlrRR fill } bdef
/MtbRR {/lry xdef /lrx xdef /uly xdef /ulx xdef /rad lrx ulx sub 2 div def
  newpath tMatrix currentmatrix pop ulx rad add uly rad add translate
  rad rad scale 0 0 1 180 360 arc tMatrix setmatrix lrx rad sub lry rad
  sub translate rad rad scale 0 0 1 0 180 arc tMatrix setmatrix
  closepath} bdef
/FtbRR {MtbRR stroke } bdef
/PtbRR {MtbRR fill } bdef
/stri 6 array def /dtri 6 array def
/smat 6 array def /dmat 6 array def
/tmat1 6 array def /tmat2 6 array def /dif 3 array def
/asub {/ind2 exch def /ind1 exch def dup dup
  ind1 get exch ind2 get sub exch } bdef
/tri_to_matrix {
  2 0 asub 3 1 asub 4 0 asub 5 1 asub
  dup 0 get exch 1 get 7 -1 roll astore } bdef
/compute_transform {
  dmat dtri tri_to_matrix tmat1 invertmatrix 
  smat stri tri_to_matrix tmat2 concatmatrix } bdef
/ds {stri astore pop} bdef
/dt {dtri astore pop} bdef
/db {2 copy /cols xdef /rows xdef mul dup 3 mul string
  currentfile 
  3 index 0 eq {/ASCIIHexDecode filter}
  {/ASCII85Decode filter 3 index 2 eq {/RunLengthDecode filter} if }
  ifelse exch readstring pop
  dup 0 3 index getinterval /rbmap xdef
  dup 2 index dup getinterval /gbmap xdef
  1 index dup 2 mul exch getinterval /bbmap xdef pop pop}bdef
/it {gs np dtri aload pop moveto lineto lineto cp c
  cols rows 8 compute_transform 
  rbmap gbmap bbmap true 3 colorimage gr}bdef
/il {newpath moveto lineto stroke}bdef
currentdict end def
%%EndProlog

%%BeginSetup
MathWorks begin

0 cap

end
%%EndSetup

%%Page: 1 1
%%BeginPageSetup
%%PageBoundingBox:    87   265   507   576
MathWorks begin
bpage
%%EndPageSetup

%%BeginObject: obj1
bplot

/dpi2point 12 def
portraitMode 1044 6912 csm

    0     0  5045  3728 rc
85 dict begin %Colortable dictionary
/c0 { 0.000000 0.000000 0.000000 sr} bdef
/c1 { 1.000000 1.000000 1.000000 sr} bdef
/c2 { 0.900000 0.000000 0.000000 sr} bdef
/c3 { 0.000000 0.820000 0.000000 sr} bdef
/c4 { 0.000000 0.000000 0.800000 sr} bdef
/c5 { 0.910000 0.820000 0.320000 sr} bdef
/c6 { 1.000000 0.260000 0.820000 sr} bdef
/c7 { 0.000000 0.820000 0.820000 sr} bdef
c0
1 j
1 sg
   0    0 5046 3729 rf
6 w
0 3038 3911 0 0 -3038 655 3318 4 MP
PP
-3911 0 0 3038 3911 0 0 -3038 655 3318 5 MP stroke
4 w
DO
0 sg
 655 3318 mt  655  280 L
 655  280 mt  655  280 L
1633 3318 mt 1633  280 L
1633  280 mt 1633  280 L
2611 3318 mt 2611  280 L
2611  280 mt 2611  280 L
3588 3318 mt 3588  280 L
3588  280 mt 3588  280 L
4566 3318 mt 4566  280 L
4566  280 mt 4566  280 L
 655 3318 mt 4566 3318 L
4566 3318 mt 4566 3318 L
 655 2811 mt 4566 2811 L
4566 2811 mt 4566 2811 L
 655 2305 mt 4566 2305 L
4566 2305 mt 4566 2305 L
 655 1799 mt 4566 1799 L
4566 1799 mt 4566 1799 L
 655 1292 mt 4566 1292 L
4566 1292 mt 4566 1292 L
 655  786 mt 4566  786 L
4566  786 mt 4566  786 L
 655  280 mt 4566  280 L
4566  280 mt 4566  280 L
SO
6 w
 655  280 mt 4566  280 L
 655 3318 mt 4566 3318 L
4566 3318 mt 4566  280 L
 655 3318 mt  655  280 L
 655 3318 mt 4566 3318 L
 655 3318 mt  655  280 L
 655 3318 mt  655 3278 L
 655  280 mt  655  319 L
%%IncludeResource: font Helvetica
/Helvetica /WindowsLatin1Encoding 120 FMSR

 552 3463 mt 
(-1) s
1633 3318 mt 1633 3278 L
1633  280 mt 1633  319 L
1480 3463 mt 
(-0.5) s
2611 3318 mt 2611 3278 L
2611  280 mt 2611  319 L
2578 3463 mt 
(0) s
3588 3318 mt 3588 3278 L
3588  280 mt 3588  319 L
3505 3463 mt 
(0.5) s
4566 3318 mt 4566 3278 L
4566  280 mt 4566  319 L
4533 3463 mt 
(1) s
 655 3318 mt  695 3318 L
4566 3318 mt 4526 3318 L
 555 3362 mt 
(0) s
 655 2811 mt  695 2811 L
4566 2811 mt 4526 2811 L
 455 2855 mt 
(0.2) s
 655 2305 mt  695 2305 L
4566 2305 mt 4526 2305 L
 455 2349 mt 
(0.4) s
 655 1799 mt  695 1799 L
4566 1799 mt 4526 1799 L
 455 1843 mt 
(0.6) s
 655 1292 mt  695 1292 L
4566 1292 mt 4526 1292 L
 455 1336 mt 
(0.8) s
 655  786 mt  695  786 L
4566  786 mt 4526  786 L
 555  830 mt 
(1) s
 655  280 mt  695  280 L
4566  280 mt 4526  280 L
 455  324 mt 
(1.2) s
 655  226 mt 
(x 10) s
%%IncludeResource: font Helvetica
/Helvetica /WindowsLatin1Encoding 80 FMSR

 881  152 mt 
(-5) s
 655  280 mt 4566  280 L
 655 3318 mt 4566 3318 L
4566 3318 mt 4566  280 L
 655 3318 mt  655  280 L
gs 656 280 3911 3039 rc
/c8 { 1.000000 0.000000 0.000000 sr} bdef
c8
8 1486 8 855 8 405 8 98 8 -106 8 -231 7 -298 8 -327 
8 -326 8 -308 8 -280 8 -245 7 -208 8 -172 8 -139 8 -108 
8 -82 8 31 7 40 8 24 8 12 8 3 8 -4 8 -9 
7 -11 8 -13 8 -14 8 -14 8 -13 8 -11 7 -11 8 -8 
8 -8 8 -5 8 0 8 3 7 3 8 1 8 1 8 0 
8 -1 8 0 7 -1 8 -2 8 -1 8 -1 8 -1 8 -1 
7 -1 8 -1 8 0 8 0 8 0 8 0 7 1 8 0 
8 0 8 0 8 0 8 0 7 -1 8 0 8 0 8 0 
8 0 8 0 7 0 8 0 8 0 8 0 8 0 8 0 
8 0 7 0 8 0 8 0 8 0 8 0 8 0 7 0 
8 0 8 0 8 0 8 0 8 0 7 0 8 0 8 0 
8 0 8 0 8 0 7 0 8 0 8 0 8 0 8 0 
8 0 7 0 8 0 8 0 8 0 8 0 8 0 7 0 
8 0 8 0 8 0 8 0 8 0 7 0 8 0 8 0 
8 0 8 0 8 0 7 0 8 0 8 0 8 0 8 0 
8 0 7 0 8 0 8 0 8 0 8 0 8 0 7 0 
8 0 8 0 8 0 8 0 8 0 7 0 8 0 8 0 
8 0 8 0 8 0 7 0 8 0 8 0 8 0 8 0 
8 0 8 0 7 0 8 0 8 0 8 0 8 0 8 0 
7 0 8 0 8 0 8 0 8 0 8 0 7 0 8 0 
8 0 8 0 8 0 8 0 7 0 8 0 8 0 8 0 
8 0 8 0 7 0 8 0 8 0 8 0 8 0 8 0 
7 0 8 0 8 0 8 0 8 0 8 0 7 0 8 0 
8 0 8 0 8 0 8 0 7 0 8 0 8 0 8 0 
8 0 8 0 7 0 8 0 8 0 8 0 8 0 8 0 
7 0 8 0 8 0 8 0 8 0 8 0 7 0 8 0 
8 0 8 0 8 0 8 0 7 0 8 0 8 0 8 0 
8 0 8 0 8 0 7 0 8 0 8 0 8 0 8 0 
8 0 7 0 8 0 8 0 8 0 8 0 8 0 7 0 
8 0 8 0 8 0 8 0 8 0 7 0 8 0 8 0 
8 0 8 0 8 0 7 0 8 0 8 0 8 0 8 0 
8 0 7 0 8 0 8 0 8 0 8 0 8 0 7 0 
8 0 8 0 8 0 8 0 8 0 7 0 8 0 8 0 
8 0 8 0 8 0 7 0 8 0 8 0 8 0 8 0 
8 0 7 0 8 0 8 0 8 0 8 0 8 0 7 0 
8 0 8 0 8 0 8 0 8 0 8 0 7 0 8 0 
8 0 8 0 8 0 8 0 7 0 8 0 8 0 8 0 
8 0 8 0 7 0 2223 3317 300 MP stroke
8 0 8 0 8 0 8 0 8 0 7 0 8 0 8 0 
8 0 8 0 8 0 7 0 8 0 8 0 8 0 8 0 
8 0 7 0 8 0 8 0 8 0 8 0 8 0 7 0 
8 0 8 0 8 0 8 0 8 0 7 0 8 0 8 0 
8 0 8 0 8 0 7 0 8 0 8 0 8 0 8 0 
8 0 7 0 8 0 8 0 8 0 8 0 8 0 7 0 
8 0 8 0 8 0 8 0 8 0 7 0 8 0 8 0 
8 0 8 0 8 0 8 0 7 0 8 0 8 0 8 0 
8 0 8 0 7 0 8 0 8 0 8 0 8 0 8 0 
7 0 8 0 8 0 8 0 8 0 8 0 7 0 8 0 
8 0 8 0 8 0 8 0 7 0 8 0 8 0 8 0 
8 0 8 0 7 0 8 0 8 0 8 0 8 0 8 0 
7 0 8 0 8 0 8 0 8 0 8 0 7 0 8 0 
8 0 8 0 8 0 8 0 7 0 8 0 8 0 8 0 
8 0 8 0 7 0 8 0 8 0 8 0 8 0 8 0 
7 0 8 0 8 0 8 0 8 0 8 0 7 0 8 0 
8 0 8 0 8 0 8 0 8 0 7 0 8 0 8 0 
8 0 8 0 8 0 7 1 8 0 8 0 8 0 8 0 
8 0 7 -1 8 0 8 0 8 0 8 0 8 1 7 1 
8 1 8 1 8 1 8 1 8 2 7 1 8 0 8 1 
8 0 8 -1 8 -1 7 -3 8 -3 8 0 8 5 8 8 
8 8 7 11 8 11 8 13 8 14 8 14 8 13 7 11 
8 9 8 4 8 -3 8 -12 8 -24 7 -40 8 -31 8 82 
8 108 8 139 8 172 7 208 8 245 8 280 8 308 8 326 
8 327 7 298 8 231 8 106 8 -98 8 -405 8 -855 7 -1485 
656 3317 201 MP stroke
/c9 { 0.000000 0.000000 1.000000 sr} bdef
c9
8 -103 8 -56 8 -22 8 9 8 1 8 -4 7 -4 8 -4 
8 3 8 1 8 1 8 -1 7 -1 8 -1 8 -2 8 0 
8 1 8 1 7 0 8 0 8 0 8 0 8 -1 8 0 
7 -1 8 0 8 0 8 1 8 0 8 0 7 0 8 0 
8 0 8 0 8 0 8 -1 7 0 8 0 8 0 8 0 
8 0 8 1 7 0 8 0 8 0 8 0 8 0 8 -1 
7 0 8 0 8 0 8 0 8 0 8 0 7 0 8 0 
8 0 8 0 8 0 8 0 7 0 8 0 8 0 8 0 
8 0 8 0 7 0 8 0 8 0 8 0 8 0 8 0 
8 0 7 0 8 0 8 0 8 0 8 0 8 0 7 0 
8 0 8 0 8 0 8 0 8 0 7 0 8 0 8 0 
8 0 8 0 8 0 7 0 8 0 8 0 8 0 8 0 
8 0 7 0 8 0 8 0 8 0 8 0 8 0 7 0 
8 0 8 0 8 0 8 0 8 0 7 0 8 0 8 0 
8 0 8 0 8 0 7 0 8 0 8 0 8 0 8 0 
8 0 7 0 8 0 8 0 8 0 8 0 8 0 7 0 
8 0 8 0 8 0 8 0 8 0 7 0 8 0 8 0 
8 0 8 0 8 0 7 0 8 0 8 0 8 0 8 0 
8 0 8 0 7 0 8 0 8 0 8 0 8 0 8 0 
7 0 8 0 8 0 8 0 8 0 8 0 7 0 8 0 
8 0 8 0 8 0 8 0 7 0 8 0 8 0 8 0 
8 0 8 0 7 0 8 0 8 0 8 0 8 0 8 0 
7 0 8 0 8 0 8 0 8 0 8 0 7 0 8 0 
8 0 8 0 8 0 8 0 7 0 8 0 8 0 8 0 
8 0 8 0 7 0 8 0 8 0 8 0 8 0 8 0 
7 0 8 0 8 0 8 0 8 0 8 0 7 0 8 0 
8 0 8 0 8 0 8 0 7 0 8 0 8 0 8 0 
8 0 8 0 8 0 7 0 8 0 8 0 8 0 8 0 
8 0 7 0 8 0 8 0 8 0 8 0 8 0 7 0 
8 0 8 0 8 0 8 0 8 0 7 0 8 0 8 0 
8 0 8 0 8 0 7 0 8 0 8 0 8 0 8 0 
8 0 7 0 8 0 8 0 8 0 8 0 8 0 7 0 
8 0 8 0 8 0 8 0 8 0 7 0 8 0 8 0 
8 0 8 0 8 0 7 0 8 0 8 0 8 0 8 0 
8 0 7 0 8 0 8 0 8 0 8 0 8 0 7 0 
8 0 8 0 8 0 8 0 8 0 8 0 7 0 8 0 
8 0 8 0 8 0 8 0 7 0 8 0 8 0 8 0 
8 0 8 0 7 0 2223 3317 300 MP stroke
8 0 8 0 8 0 8 0 8 0 7 0 8 0 8 0 
8 0 8 0 8 0 7 0 8 0 8 0 8 0 8 0 
8 0 7 0 8 0 8 0 8 0 8 0 8 0 7 0 
8 0 8 0 8 0 8 0 8 0 7 0 8 0 8 0 
8 0 8 0 8 0 7 0 8 0 8 0 8 0 8 0 
8 0 7 0 8 0 8 0 8 0 8 0 8 0 7 0 
8 0 8 0 8 0 8 0 8 0 7 0 8 0 8 0 
8 0 8 0 8 0 8 0 7 0 8 0 8 0 8 0 
8 0 8 0 7 0 8 0 8 0 8 0 8 0 8 0 
7 0 8 0 8 0 8 0 8 0 8 0 7 0 8 0 
8 0 8 0 8 0 8 0 7 0 8 0 8 0 8 0 
8 0 8 0 7 0 8 0 8 0 8 0 8 0 8 0 
7 0 8 0 8 0 8 0 8 0 8 0 7 0 8 0 
8 0 8 0 8 0 8 0 7 0 8 0 8 0 8 0 
8 0 8 0 7 0 8 0 8 0 8 0 8 0 8 0 
7 0 8 0 8 0 8 0 8 0 8 0 7 0 8 0 
8 0 8 0 8 0 8 0 8 0 7 0 8 0 8 0 
8 0 8 0 8 0 7 0 8 0 8 0 8 0 8 0 
8 0 7 0 8 0 8 0 8 0 8 0 8 0 7 0 
8 0 8 0 8 0 8 0 8 0 7 0 8 0 8 0 
8 0 8 0 8 0 7 0 8 0 8 0 8 0 8 0 
8 0 7 0 8 0 8 0 8 0 8 0 8 0 7 0 
8 0 8 0 8 0 8 0 8 0 7 0 8 0 8 0 
8 0 8 0 8 0 7 0 8 0 8 0 8 0 8 0 
8 0 7 0 8 0 8 0 8 0 8 0 8 0 7 0 
656 3317 201 MP stroke
gr

c9
0 sg
%%IncludeResource: font Helvetica
/Helvetica /WindowsLatin1Encoding 120 FMSR

2448  185 mt 
(N =30) s
 639 3361 mt 
( ) s
4550  322 mt 
( ) s
1 sg
0 334 1741 0 0 -334 2766 674 4 MP
PP
-1741 0 0 334 1741 0 0 -334 2766 674 5 MP stroke
4 w
DO
SO
6 w
0 sg
2766  340 mt 4507  340 L
2766  674 mt 4507  674 L
4507  674 mt 4507  340 L
2766  674 mt 2766  340 L
2766  674 mt 4507  674 L
2766  674 mt 2766  340 L
2766  340 mt 4507  340 L
2766  674 mt 4507  674 L
4507  674 mt 4507  340 L
2766  674 mt 2766  340 L
3243  475 mt 
(Con nodi equispaziati\)) s
gs 2766 340 1742 335 rc
c8
366 0 2839 432 2 MP stroke
gr

c8
0 sg
3243  624 mt 
(Con nodi di Chebyshev) s
gs 2766 340 1742 335 rc
c9
366 0 2839 581 2 MP stroke
gr

c9

end %%Color Dict

eplot
%%EndObject

epage
end

showpage

%%Trailer
%%EOF
