%!PS-Adobe-3.0 EPSF-3.0
%%Creator: MATLAB, The MathWorks, Inc. Version 8.0.0.783 (R2012b). Operating System: Microsoft Windows 7.
%%Title: C:\SILVIA\UniversitÓ\Presenti\Calcolo numerico\Silvia Balzani - esercitazioni\esCalcoloNumerico\Consegne\esercizi\Esercitazione05\esercitazione05-01_graficoN=10.eps
%%CreationDate: 10/11/2015  16:14:17
%%DocumentNeededFonts: Helvetica
%%DocumentProcessColors: Cyan Magenta Yellow Black
%%LanguageLevel: 2
%%Pages: 1
%%BoundingBox:    87   265   507   576
%%EndComments

%%BeginProlog
% MathWorks dictionary
/MathWorks 160 dict begin
% definition operators
/bdef {bind def} bind def
/ldef {load def} bind def
/xdef {exch def} bdef
/xstore {exch store} bdef
% operator abbreviations
/c  /clip ldef
/cc /concat ldef
/cp /closepath ldef
/gr /grestore ldef
/gs /gsave ldef
/mt /moveto ldef
/np /newpath ldef
/cm /currentmatrix ldef
/sm /setmatrix ldef
/rm /rmoveto ldef
/rl /rlineto ldef
/s {show newpath} bdef
/sc {setcmykcolor} bdef
/sr /setrgbcolor ldef
/sg /setgray ldef
/w /setlinewidth ldef
/j /setlinejoin ldef
/cap /setlinecap ldef
/rc {rectclip} bdef
/rf {rectfill} bdef
% page state control
/pgsv () def
/bpage {/pgsv save def} bdef
/epage {pgsv restore} bdef
/bplot /gsave ldef
/eplot {stroke grestore} bdef
% orientation switch
/portraitMode 0 def /landscapeMode 1 def /rotateMode 2 def
% coordinate system mappings
/dpi2point 0 def
% font control
/FontSize 0 def
/FMS {/FontSize xstore findfont [FontSize 0 0 FontSize neg 0 0]
  makefont setfont} bdef
/ISOLatin1Encoding where {pop /WindowsLatin1Encoding 256 array bdef
ISOLatin1Encoding WindowsLatin1Encoding copy pop
/.notdef/.notdef/quotesinglbase/florin/quotedblbase/ellipsis/dagger
/daggerdbl/circumflex/perthousand/Scaron/guilsinglleft/OE/.notdef/.notdef
/.notdef/.notdef/quoteleft/quoteright/quotedblleft/quotedblright/bullet
/endash/emdash/tilde/trademark/scaron/guilsinglright/oe/.notdef/.notdef
/Ydieresis WindowsLatin1Encoding 128 32 getinterval astore pop}
{/WindowsLatin1Encoding StandardEncoding bdef} ifelse
/reencode {exch dup where {pop load} {pop StandardEncoding} ifelse
  exch dup 3 1 roll findfont dup length dict begin
  { 1 index /FID ne {def}{pop pop} ifelse } forall
  /Encoding exch def currentdict end definefont pop} bdef
/isroman {findfont /CharStrings get /Agrave known} bdef
/FMSR {3 1 roll 1 index dup isroman {reencode} {pop pop} ifelse
  exch FMS} bdef
/csm {1 dpi2point div -1 dpi2point div scale neg translate
 dup landscapeMode eq {pop -90 rotate}
  {rotateMode eq {90 rotate} if} ifelse} bdef
% line types: solid, dotted, dashed, dotdash
/SO { [] 0 setdash } bdef
/DO { [.5 dpi2point mul 4 dpi2point mul] 0 setdash } bdef
/DA { [6 dpi2point mul] 0 setdash } bdef
/DD { [.5 dpi2point mul 4 dpi2point mul 6 dpi2point mul 4
  dpi2point mul] 0 setdash } bdef
% macros for lines and objects
/L {lineto stroke} bdef
/MP {3 1 roll moveto 1 sub {rlineto} repeat} bdef
/AP {{rlineto} repeat} bdef
/PDlw -1 def
/W {/PDlw currentlinewidth def setlinewidth} def
/PP {closepath eofill} bdef
/DP {closepath stroke} bdef
/MR {4 -2 roll moveto dup  0 exch rlineto exch 0 rlineto
  neg 0 exch rlineto closepath} bdef
/FR {MR stroke} bdef
/PR {MR fill} bdef
/L1i {{currentfile picstr readhexstring pop} image} bdef
/tMatrix matrix def
/MakeOval {newpath tMatrix currentmatrix pop translate scale
0 0 1 0 360 arc tMatrix setmatrix} bdef
/FO {MakeOval stroke} bdef
/PO {MakeOval fill} bdef
/PD {currentlinewidth 2 div 0 360 arc fill
   PDlw -1 eq not {PDlw w /PDlw -1 def} if} def
/FA {newpath tMatrix currentmatrix pop translate scale
  0 0 1 5 -2 roll arc tMatrix setmatrix stroke} bdef
/PA {newpath tMatrix currentmatrix pop	translate 0 0 moveto scale
  0 0 1 5 -2 roll arc closepath tMatrix setmatrix fill} bdef
/FAn {newpath tMatrix currentmatrix pop translate scale
  0 0 1 5 -2 roll arcn tMatrix setmatrix stroke} bdef
/PAn {newpath tMatrix currentmatrix pop translate 0 0 moveto scale
  0 0 1 5 -2 roll arcn closepath tMatrix setmatrix fill} bdef
/vradius 0 def /hradius 0 def /lry 0 def
/lrx 0 def /uly 0 def /ulx 0 def /rad 0 def
/MRR {/vradius xdef /hradius xdef /lry xdef /lrx xdef /uly xdef
  /ulx xdef newpath tMatrix currentmatrix pop ulx hradius add uly
  vradius add translate hradius vradius scale 0 0 1 180 270 arc 
  tMatrix setmatrix lrx hradius sub uly vradius add translate
  hradius vradius scale 0 0 1 270 360 arc tMatrix setmatrix
  lrx hradius sub lry vradius sub translate hradius vradius scale
  0 0 1 0 90 arc tMatrix setmatrix ulx hradius add lry vradius sub
  translate hradius vradius scale 0 0 1 90 180 arc tMatrix setmatrix
  closepath} bdef
/FRR {MRR stroke } bdef
/PRR {MRR fill } bdef
/MlrRR {/lry xdef /lrx xdef /uly xdef /ulx xdef /rad lry uly sub 2 div def
  newpath tMatrix currentmatrix pop ulx rad add uly rad add translate
  rad rad scale 0 0 1 90 270 arc tMatrix setmatrix lrx rad sub lry rad
  sub translate rad rad scale 0 0 1 270 90 arc tMatrix setmatrix
  closepath} bdef
/FlrRR {MlrRR stroke } bdef
/PlrRR {MlrRR fill } bdef
/MtbRR {/lry xdef /lrx xdef /uly xdef /ulx xdef /rad lrx ulx sub 2 div def
  newpath tMatrix currentmatrix pop ulx rad add uly rad add translate
  rad rad scale 0 0 1 180 360 arc tMatrix setmatrix lrx rad sub lry rad
  sub translate rad rad scale 0 0 1 0 180 arc tMatrix setmatrix
  closepath} bdef
/FtbRR {MtbRR stroke } bdef
/PtbRR {MtbRR fill } bdef
/stri 6 array def /dtri 6 array def
/smat 6 array def /dmat 6 array def
/tmat1 6 array def /tmat2 6 array def /dif 3 array def
/asub {/ind2 exch def /ind1 exch def dup dup
  ind1 get exch ind2 get sub exch } bdef
/tri_to_matrix {
  2 0 asub 3 1 asub 4 0 asub 5 1 asub
  dup 0 get exch 1 get 7 -1 roll astore } bdef
/compute_transform {
  dmat dtri tri_to_matrix tmat1 invertmatrix 
  smat stri tri_to_matrix tmat2 concatmatrix } bdef
/ds {stri astore pop} bdef
/dt {dtri astore pop} bdef
/db {2 copy /cols xdef /rows xdef mul dup 3 mul string
  currentfile 
  3 index 0 eq {/ASCIIHexDecode filter}
  {/ASCII85Decode filter 3 index 2 eq {/RunLengthDecode filter} if }
  ifelse exch readstring pop
  dup 0 3 index getinterval /rbmap xdef
  dup 2 index dup getinterval /gbmap xdef
  1 index dup 2 mul exch getinterval /bbmap xdef pop pop}bdef
/it {gs np dtri aload pop moveto lineto lineto cp c
  cols rows 8 compute_transform 
  rbmap gbmap bbmap true 3 colorimage gr}bdef
/il {newpath moveto lineto stroke}bdef
currentdict end def
%%EndProlog

%%BeginSetup
MathWorks begin

0 cap

end
%%EndSetup

%%Page: 1 1
%%BeginPageSetup
%%PageBoundingBox:    87   265   507   576
MathWorks begin
bpage
%%EndPageSetup

%%BeginObject: obj1
bplot

/dpi2point 12 def
portraitMode 1044 6912 csm

    0     0  5045  3728 rc
85 dict begin %Colortable dictionary
/c0 { 0.000000 0.000000 0.000000 sr} bdef
/c1 { 1.000000 1.000000 1.000000 sr} bdef
/c2 { 0.900000 0.000000 0.000000 sr} bdef
/c3 { 0.000000 0.820000 0.000000 sr} bdef
/c4 { 0.000000 0.000000 0.800000 sr} bdef
/c5 { 0.910000 0.820000 0.320000 sr} bdef
/c6 { 1.000000 0.260000 0.820000 sr} bdef
/c7 { 0.000000 0.820000 0.820000 sr} bdef
c0
1 j
1 sg
   0    0 5046 3729 rf
6 w
0 3038 3910 0 0 -3038 656 3318 4 MP
PP
-3910 0 0 3038 3910 0 0 -3038 656 3318 5 MP stroke
4 w
DO
0 sg
 656 3318 mt  656  280 L
 656  280 mt  656  280 L
1633 3318 mt 1633  280 L
1633  280 mt 1633  280 L
2611 3318 mt 2611  280 L
2611  280 mt 2611  280 L
3588 3318 mt 3588  280 L
3588  280 mt 3588  280 L
4566 3318 mt 4566  280 L
4566  280 mt 4566  280 L
 656 3318 mt 4566 3318 L
4566 3318 mt 4566 3318 L
 656 3014 mt 4566 3014 L
4566 3014 mt 4566 3014 L
 656 2710 mt 4566 2710 L
4566 2710 mt 4566 2710 L
 656 2406 mt 4566 2406 L
4566 2406 mt 4566 2406 L
 656 2102 mt 4566 2102 L
4566 2102 mt 4566 2102 L
 656 1799 mt 4566 1799 L
4566 1799 mt 4566 1799 L
 656 1495 mt 4566 1495 L
4566 1495 mt 4566 1495 L
 656 1191 mt 4566 1191 L
4566 1191 mt 4566 1191 L
 656  887 mt 4566  887 L
4566  887 mt 4566  887 L
 656  583 mt 4566  583 L
4566  583 mt 4566  583 L
 656  280 mt 4566  280 L
4566  280 mt 4566  280 L
SO
6 w
 656  280 mt 4566  280 L
 656 3318 mt 4566 3318 L
4566 3318 mt 4566  280 L
 656 3318 mt  656  280 L
 656 3318 mt 4566 3318 L
 656 3318 mt  656  280 L
 656 3318 mt  656 3278 L
 656  280 mt  656  319 L
%%IncludeResource: font Helvetica
/Helvetica /WindowsLatin1Encoding 120 FMSR

 553 3463 mt 
(-1) s
1633 3318 mt 1633 3278 L
1633  280 mt 1633  319 L
1480 3463 mt 
(-0.5) s
2611 3318 mt 2611 3278 L
2611  280 mt 2611  319 L
2578 3463 mt 
(0) s
3588 3318 mt 3588 3278 L
3588  280 mt 3588  319 L
3505 3463 mt 
(0.5) s
4566 3318 mt 4566 3278 L
4566  280 mt 4566  319 L
4533 3463 mt 
(1) s
 656 3318 mt  695 3318 L
4566 3318 mt 4526 3318 L
 555 3362 mt 
(0) s
 656 3014 mt  695 3014 L
4566 3014 mt 4526 3014 L
 388 3058 mt 
(0.01) s
 656 2710 mt  695 2710 L
4566 2710 mt 4526 2710 L
 388 2754 mt 
(0.02) s
 656 2406 mt  695 2406 L
4566 2406 mt 4526 2406 L
 388 2450 mt 
(0.03) s
 656 2102 mt  695 2102 L
4566 2102 mt 4526 2102 L
 388 2146 mt 
(0.04) s
 656 1799 mt  695 1799 L
4566 1799 mt 4526 1799 L
 388 1843 mt 
(0.05) s
 656 1495 mt  695 1495 L
4566 1495 mt 4526 1495 L
 388 1539 mt 
(0.06) s
 656 1191 mt  695 1191 L
4566 1191 mt 4526 1191 L
 388 1235 mt 
(0.07) s
 656  887 mt  695  887 L
4566  887 mt 4526  887 L
 388  931 mt 
(0.08) s
 656  583 mt  695  583 L
4566  583 mt 4526  583 L
 388  627 mt 
(0.09) s
 656  280 mt  695  280 L
4566  280 mt 4526  280 L
 455  324 mt 
(0.1) s
 656  280 mt 4566  280 L
 656 3318 mt 4566 3318 L
4566 3318 mt 4566  280 L
 656 3318 mt  656  280 L
gs 656 280 3911 3039 rc
/c8 { 1.000000 0.000000 0.000000 sr} bdef
c8
8 56 8 50 8 44 8 40 8 35 8 31 7 27 8 23 
8 19 8 16 8 14 8 10 7 8 8 6 8 3 8 1 
8 0 8 -2 7 -4 8 -5 8 -6 8 -8 8 -8 8 -9 
7 -10 8 -11 8 -11 8 -12 8 -12 8 -12 7 -12 8 -13 
8 -13 8 -13 8 -13 8 -12 7 -13 8 -13 8 -12 8 -12 
8 -12 8 -12 7 -11 8 -11 8 -11 8 -10 8 -10 8 -10 
7 -9 8 -9 8 -9 8 -8 8 -7 8 -8 7 -7 8 1 
8 6 8 6 8 5 8 5 7 4 8 5 8 3 8 4 
8 3 8 3 7 2 8 2 8 2 8 1 8 2 8 1 
8 0 7 1 8 0 8 0 8 0 8 -1 8 0 7 -1 
8 -1 8 -1 8 -1 8 -2 8 -1 7 -2 8 -1 8 -2 
8 -2 8 -2 8 -2 7 -2 8 -2 8 -2 8 -2 8 -2 
8 -2 7 -3 8 -2 8 -2 8 -2 8 -2 8 -2 7 -2 
8 -2 8 -2 8 -2 8 -2 8 -1 7 -2 8 -1 8 1 
8 2 8 1 8 2 7 1 8 1 8 1 8 1 8 1 
8 1 7 1 8 1 8 1 8 0 8 1 8 0 7 1 
8 0 8 0 8 1 8 0 8 0 7 0 8 0 8 0 
8 0 8 -1 8 0 7 0 8 -1 8 0 8 0 8 -1 
8 0 8 -1 7 -1 8 0 8 -1 8 -1 8 0 8 -1 
7 -1 8 0 8 -1 8 -1 8 -1 8 0 7 -1 8 -1 
8 -1 8 0 8 -1 8 -1 7 -1 8 0 8 0 8 1 
8 0 8 1 7 1 8 0 8 1 8 0 8 1 8 0 
7 1 8 0 8 1 8 0 8 0 8 1 7 0 8 0 
8 0 8 1 8 0 8 0 7 0 8 0 8 0 8 0 
8 0 8 0 7 0 8 0 8 0 8 0 8 -1 8 0 
7 0 8 0 8 -1 8 0 8 0 8 -1 7 0 8 0 
8 -1 8 0 8 -1 8 0 7 0 8 -1 8 0 8 -1 
8 0 8 -1 8 0 7 -1 8 0 8 0 8 0 8 1 
8 0 7 0 8 1 8 0 8 1 8 0 8 0 7 1 
8 0 8 1 8 0 8 0 8 0 7 1 8 0 8 0 
8 0 8 1 8 0 7 0 8 0 8 0 8 0 8 0 
8 0 7 0 8 0 8 0 8 0 8 0 8 0 7 0 
8 0 8 -1 8 0 8 0 8 0 7 -1 8 0 8 0 
8 0 8 -1 8 0 7 -1 8 0 8 0 8 -1 8 0 
8 -1 7 0 8 0 8 -1 8 0 8 0 8 0 7 1 
8 0 8 1 8 0 8 1 8 0 8 1 7 0 8 0 
8 1 8 0 8 1 8 0 7 0 8 1 8 0 8 0 
8 1 8 0 7 0 2223 3309 300 MP stroke
8 0 8 1 8 0 8 0 8 0 7 0 8 0 8 0 
8 0 8 0 8 0 7 0 8 0 8 0 8 -1 8 0 
8 0 7 0 8 -1 8 0 8 0 8 -1 8 0 7 -1 
8 0 8 -1 8 0 8 -1 8 0 7 -1 8 -1 8 0 
8 -1 8 0 8 0 7 1 8 1 8 1 8 0 8 1 
8 1 7 1 8 0 8 1 8 1 8 1 8 0 7 1 
8 1 8 0 8 1 8 1 8 0 7 1 8 1 8 0 
8 1 8 0 8 0 8 1 7 0 8 0 8 1 8 0 
8 0 8 0 7 0 8 0 8 0 8 -1 8 0 8 0 
7 -1 8 0 8 -1 8 0 8 -1 8 -1 7 -1 8 -1 
8 -1 8 -1 8 -1 8 -1 7 -1 8 -2 8 -1 8 -2 
8 -1 8 1 7 2 8 1 8 2 8 2 8 2 8 2 
7 2 8 2 8 2 8 2 8 2 8 2 7 3 8 2 
8 2 8 2 8 2 8 2 7 2 8 2 8 2 8 2 
8 2 8 1 7 2 8 1 8 2 8 1 8 1 8 1 
7 1 8 0 8 1 8 0 8 0 8 0 7 -1 8 0 
8 -1 8 -2 8 -1 8 -2 8 -2 7 -2 8 -3 8 -3 
8 -4 8 -3 8 -5 7 -4 8 -5 8 -5 8 -6 8 -6 
8 -1 7 7 8 8 8 7 8 8 8 9 8 9 7 9 
8 10 8 10 8 10 8 11 8 11 7 11 8 12 8 12 
8 12 8 12 8 13 7 13 8 12 8 13 8 13 8 13 
8 13 7 12 8 12 8 12 8 12 8 11 8 11 7 10 
8 9 8 8 8 8 8 6 8 5 7 4 8 2 8 0 
8 -1 8 -3 8 -6 7 -8 8 -10 8 -14 8 -16 8 -19 
8 -23 7 -27 8 -31 8 -35 8 -40 8 -44 8 -50 7 -56 
656 3318 201 MP stroke
/c9 { 0.000000 0.000000 1.000000 sr} bdef
c9
8 -257 8 -241 8 -225 8 -211 8 -196 8 -182 7 -170 8 -158 
8 -147 8 -135 8 -126 8 -115 7 -107 8 -98 8 -89 8 -82 
8 -75 8 -67 7 -62 8 -55 8 -50 8 -44 8 -5 8 35 
7 30 8 27 8 23 8 19 8 16 8 14 7 10 8 8 
8 6 8 4 8 2 8 0 7 -2 8 -3 8 -4 8 -5 
8 -6 8 -7 7 -8 8 -9 8 -9 8 -9 8 -10 8 -10 
7 -11 8 -10 8 -11 8 -10 8 -11 8 -10 7 -10 8 -10 
8 -10 8 -10 8 -9 8 -9 7 -8 8 8 8 8 8 8 
8 7 8 7 7 6 8 6 8 6 8 5 8 4 8 5 
8 3 7 4 8 3 8 2 8 3 8 1 8 2 7 1 
8 1 8 0 8 0 8 0 8 -1 7 -1 8 -1 8 -1 
8 -2 8 -2 8 -2 7 -2 8 -3 8 -3 8 -3 8 -3 
8 -3 7 -3 8 -3 8 -4 8 -3 8 -4 8 -4 7 -3 
8 -4 8 -4 8 -4 8 -3 8 -4 7 -4 8 -4 8 -3 
8 -4 8 -3 8 -1 7 3 8 4 8 3 8 3 8 3 
8 3 7 3 8 2 8 3 8 2 8 3 8 2 7 2 
8 2 8 2 8 1 8 2 8 1 7 2 8 1 8 1 
8 0 8 1 8 1 7 0 8 0 8 1 8 0 8 0 
8 -1 8 0 7 0 8 -1 8 -1 8 0 8 -1 8 -1 
7 -1 8 -1 8 -2 8 -1 8 -1 8 -2 7 -1 8 -2 
8 -1 8 -2 8 -2 8 -2 7 -2 8 -1 8 -2 8 -2 
8 -2 8 -2 7 -2 8 -2 8 -2 8 -2 8 -2 8 -2 
7 -2 8 -2 8 -2 8 1 8 2 8 2 7 2 8 1 
8 2 8 2 8 2 8 1 7 2 8 1 8 2 8 1 
8 1 8 2 7 1 8 1 8 1 8 1 8 1 8 1 
7 1 8 0 8 1 8 1 8 0 8 1 7 0 8 0 
8 0 8 1 8 0 8 0 7 0 8 0 8 -1 8 0 
8 0 8 -1 8 0 7 -1 8 0 8 -1 8 -1 8 0 
8 -1 7 -1 8 -1 8 -1 8 -1 8 -1 8 -1 7 -1 
8 -1 8 -1 8 -1 8 -2 8 -1 7 -1 8 -2 8 -1 
8 -1 8 -1 8 -2 7 -1 8 -1 8 -2 8 -1 8 -2 
8 -1 7 0 8 1 8 2 8 1 8 1 8 2 7 1 
8 1 8 1 8 1 8 1 8 1 7 1 8 1 8 1 
8 1 8 1 8 1 7 1 8 1 8 0 8 1 8 1 
8 0 7 1 8 0 8 0 8 1 8 0 8 0 7 1 
8 0 8 0 8 0 8 0 8 0 8 0 7 -1 8 0 
8 0 8 0 8 -1 8 0 7 -1 8 0 8 -1 8 0 
8 -1 8 -1 7 0 2223 3297 300 MP stroke
8 -1 8 -1 8 -1 8 0 8 -1 7 -1 8 -1 8 -1 
8 -1 8 -1 8 -1 7 -1 8 -1 8 -1 8 -1 8 -1 
8 -1 7 -1 8 -2 8 -1 8 0 8 1 8 1 7 1 
8 1 8 1 8 1 8 1 8 1 7 1 8 1 8 1 
8 1 8 0 8 1 7 1 8 1 8 0 8 1 8 1 
8 0 7 1 8 0 8 1 8 0 8 0 8 1 7 0 
8 0 8 0 8 1 8 0 8 0 7 0 8 0 8 -1 
8 0 8 0 8 0 8 -1 7 0 8 0 8 -1 8 0 
8 -1 8 0 7 -1 8 -1 8 0 8 -1 8 -1 8 -1 
7 -1 8 0 8 -1 8 -1 8 -1 8 -1 7 -1 8 -1 
8 -1 8 -1 8 -1 8 -1 7 -1 8 0 8 1 8 1 
8 1 8 1 7 1 8 1 8 1 8 1 8 1 8 1 
7 0 8 1 8 1 8 1 8 0 8 1 7 1 8 0 
8 1 8 0 8 0 8 1 7 0 8 0 8 0 8 1 
8 0 8 0 7 -1 8 0 8 0 8 0 8 0 8 -1 
7 0 8 -1 8 0 8 -1 8 -1 8 0 7 -1 8 -1 
8 -1 8 -1 8 -1 8 -1 8 -1 7 -1 8 -1 8 -1 
8 -1 8 -1 8 -1 7 1 8 1 8 1 8 1 8 1 
8 1 7 1 8 1 8 1 8 1 8 1 8 1 7 1 
8 0 8 1 8 0 8 1 8 0 7 0 8 1 8 0 
8 0 8 0 8 -1 7 0 8 -1 8 0 8 -1 8 -1 
8 -1 7 -1 8 -1 8 -1 8 -2 8 -1 8 -2 7 -1 
8 -2 8 0 8 2 8 2 8 1 7 2 8 2 8 1 
8 1 8 1 8 1 7 1 8 1 8 0 8 -1 8 0 
8 -1 7 -2 8 -3 8 -3 8 -3 8 0 8 6 7 6 
656 3303 201 MP stroke
gr

c9
0 sg
2448  185 mt 
(N =10) s
 639 3361 mt 
( ) s
4550  322 mt 
( ) s
1 sg
0 334 1741 0 0 -334 2766 674 4 MP
PP
-1741 0 0 334 1741 0 0 -334 2766 674 5 MP stroke
4 w
DO
SO
6 w
0 sg
2766  340 mt 4507  340 L
2766  674 mt 4507  674 L
4507  674 mt 4507  340 L
2766  674 mt 2766  340 L
2766  674 mt 4507  674 L
2766  674 mt 2766  340 L
2766  340 mt 4507  340 L
2766  674 mt 4507  674 L
4507  674 mt 4507  340 L
2766  674 mt 2766  340 L
3243  475 mt 
(Con nodi equispaziati\)) s
gs 2766 340 1742 335 rc
c8
366 0 2839 432 2 MP stroke
gr

c8
0 sg
3243  624 mt 
(Con nodi di Chebyshev) s
gs 2766 340 1742 335 rc
c9
366 0 2839 581 2 MP stroke
gr

c9

end %%Color Dict

eplot
%%EndObject

epage
end

showpage

%%Trailer
%%EOF
