%!PS-Adobe-3.0 EPSF-3.0
%%Creator: MATLAB, The MathWorks, Inc. Version 8.0.0.783 (R2012b). Operating System: Microsoft Windows 7.
%%Title: C:\SILVIA\UniversitÓ\Presenti\Calcolo numerico\Silvia Balzani - esercitazioni\esCalcoloNumerico\Consegne\esercizi\Esercitazione06\esercitazione06e08.eps
%%CreationDate: 10/30/2015  18:03:36
%%DocumentNeededFonts: Helvetica
%%DocumentProcessColors: Cyan Magenta Yellow Black
%%LanguageLevel: 2
%%Pages: 1
%%BoundingBox:    87   262   507   578
%%EndComments

%%BeginProlog
% MathWorks dictionary
/MathWorks 160 dict begin
% definition operators
/bdef {bind def} bind def
/ldef {load def} bind def
/xdef {exch def} bdef
/xstore {exch store} bdef
% operator abbreviations
/c  /clip ldef
/cc /concat ldef
/cp /closepath ldef
/gr /grestore ldef
/gs /gsave ldef
/mt /moveto ldef
/np /newpath ldef
/cm /currentmatrix ldef
/sm /setmatrix ldef
/rm /rmoveto ldef
/rl /rlineto ldef
/s {show newpath} bdef
/sc {setcmykcolor} bdef
/sr /setrgbcolor ldef
/sg /setgray ldef
/w /setlinewidth ldef
/j /setlinejoin ldef
/cap /setlinecap ldef
/rc {rectclip} bdef
/rf {rectfill} bdef
% page state control
/pgsv () def
/bpage {/pgsv save def} bdef
/epage {pgsv restore} bdef
/bplot /gsave ldef
/eplot {stroke grestore} bdef
% orientation switch
/portraitMode 0 def /landscapeMode 1 def /rotateMode 2 def
% coordinate system mappings
/dpi2point 0 def
% font control
/FontSize 0 def
/FMS {/FontSize xstore findfont [FontSize 0 0 FontSize neg 0 0]
  makefont setfont} bdef
/ISOLatin1Encoding where {pop /WindowsLatin1Encoding 256 array bdef
ISOLatin1Encoding WindowsLatin1Encoding copy pop
/.notdef/.notdef/quotesinglbase/florin/quotedblbase/ellipsis/dagger
/daggerdbl/circumflex/perthousand/Scaron/guilsinglleft/OE/.notdef/.notdef
/.notdef/.notdef/quoteleft/quoteright/quotedblleft/quotedblright/bullet
/endash/emdash/tilde/trademark/scaron/guilsinglright/oe/.notdef/.notdef
/Ydieresis WindowsLatin1Encoding 128 32 getinterval astore pop}
{/WindowsLatin1Encoding StandardEncoding bdef} ifelse
/reencode {exch dup where {pop load} {pop StandardEncoding} ifelse
  exch dup 3 1 roll findfont dup length dict begin
  { 1 index /FID ne {def}{pop pop} ifelse } forall
  /Encoding exch def currentdict end definefont pop} bdef
/isroman {findfont /CharStrings get /Agrave known} bdef
/FMSR {3 1 roll 1 index dup isroman {reencode} {pop pop} ifelse
  exch FMS} bdef
/csm {1 dpi2point div -1 dpi2point div scale neg translate
 dup landscapeMode eq {pop -90 rotate}
  {rotateMode eq {90 rotate} if} ifelse} bdef
% line types: solid, dotted, dashed, dotdash
/SO { [] 0 setdash } bdef
/DO { [.5 dpi2point mul 4 dpi2point mul] 0 setdash } bdef
/DA { [6 dpi2point mul] 0 setdash } bdef
/DD { [.5 dpi2point mul 4 dpi2point mul 6 dpi2point mul 4
  dpi2point mul] 0 setdash } bdef
% macros for lines and objects
/L {lineto stroke} bdef
/MP {3 1 roll moveto 1 sub {rlineto} repeat} bdef
/AP {{rlineto} repeat} bdef
/PDlw -1 def
/W {/PDlw currentlinewidth def setlinewidth} def
/PP {closepath eofill} bdef
/DP {closepath stroke} bdef
/MR {4 -2 roll moveto dup  0 exch rlineto exch 0 rlineto
  neg 0 exch rlineto closepath} bdef
/FR {MR stroke} bdef
/PR {MR fill} bdef
/L1i {{currentfile picstr readhexstring pop} image} bdef
/tMatrix matrix def
/MakeOval {newpath tMatrix currentmatrix pop translate scale
0 0 1 0 360 arc tMatrix setmatrix} bdef
/FO {MakeOval stroke} bdef
/PO {MakeOval fill} bdef
/PD {currentlinewidth 2 div 0 360 arc fill
   PDlw -1 eq not {PDlw w /PDlw -1 def} if} def
/FA {newpath tMatrix currentmatrix pop translate scale
  0 0 1 5 -2 roll arc tMatrix setmatrix stroke} bdef
/PA {newpath tMatrix currentmatrix pop	translate 0 0 moveto scale
  0 0 1 5 -2 roll arc closepath tMatrix setmatrix fill} bdef
/FAn {newpath tMatrix currentmatrix pop translate scale
  0 0 1 5 -2 roll arcn tMatrix setmatrix stroke} bdef
/PAn {newpath tMatrix currentmatrix pop translate 0 0 moveto scale
  0 0 1 5 -2 roll arcn closepath tMatrix setmatrix fill} bdef
/vradius 0 def /hradius 0 def /lry 0 def
/lrx 0 def /uly 0 def /ulx 0 def /rad 0 def
/MRR {/vradius xdef /hradius xdef /lry xdef /lrx xdef /uly xdef
  /ulx xdef newpath tMatrix currentmatrix pop ulx hradius add uly
  vradius add translate hradius vradius scale 0 0 1 180 270 arc 
  tMatrix setmatrix lrx hradius sub uly vradius add translate
  hradius vradius scale 0 0 1 270 360 arc tMatrix setmatrix
  lrx hradius sub lry vradius sub translate hradius vradius scale
  0 0 1 0 90 arc tMatrix setmatrix ulx hradius add lry vradius sub
  translate hradius vradius scale 0 0 1 90 180 arc tMatrix setmatrix
  closepath} bdef
/FRR {MRR stroke } bdef
/PRR {MRR fill } bdef
/MlrRR {/lry xdef /lrx xdef /uly xdef /ulx xdef /rad lry uly sub 2 div def
  newpath tMatrix currentmatrix pop ulx rad add uly rad add translate
  rad rad scale 0 0 1 90 270 arc tMatrix setmatrix lrx rad sub lry rad
  sub translate rad rad scale 0 0 1 270 90 arc tMatrix setmatrix
  closepath} bdef
/FlrRR {MlrRR stroke } bdef
/PlrRR {MlrRR fill } bdef
/MtbRR {/lry xdef /lrx xdef /uly xdef /ulx xdef /rad lrx ulx sub 2 div def
  newpath tMatrix currentmatrix pop ulx rad add uly rad add translate
  rad rad scale 0 0 1 180 360 arc tMatrix setmatrix lrx rad sub lry rad
  sub translate rad rad scale 0 0 1 0 180 arc tMatrix setmatrix
  closepath} bdef
/FtbRR {MtbRR stroke } bdef
/PtbRR {MtbRR fill } bdef
/stri 6 array def /dtri 6 array def
/smat 6 array def /dmat 6 array def
/tmat1 6 array def /tmat2 6 array def /dif 3 array def
/asub {/ind2 exch def /ind1 exch def dup dup
  ind1 get exch ind2 get sub exch } bdef
/tri_to_matrix {
  2 0 asub 3 1 asub 4 0 asub 5 1 asub
  dup 0 get exch 1 get 7 -1 roll astore } bdef
/compute_transform {
  dmat dtri tri_to_matrix tmat1 invertmatrix 
  smat stri tri_to_matrix tmat2 concatmatrix } bdef
/ds {stri astore pop} bdef
/dt {dtri astore pop} bdef
/db {2 copy /cols xdef /rows xdef mul dup 3 mul string
  currentfile 
  3 index 0 eq {/ASCIIHexDecode filter}
  {/ASCII85Decode filter 3 index 2 eq {/RunLengthDecode filter} if }
  ifelse exch readstring pop
  dup 0 3 index getinterval /rbmap xdef
  dup 2 index dup getinterval /gbmap xdef
  1 index dup 2 mul exch getinterval /bbmap xdef pop pop}bdef
/it {gs np dtri aload pop moveto lineto lineto cp c
  cols rows 8 compute_transform 
  rbmap gbmap bbmap true 3 colorimage gr}bdef
/il {newpath moveto lineto stroke}bdef
currentdict end def
%%EndProlog

%%BeginSetup
MathWorks begin

0 cap

end
%%EndSetup

%%Page: 1 1
%%BeginPageSetup
%%PageBoundingBox:    87   262   507   578
MathWorks begin
bpage
%%EndPageSetup

%%BeginObject: obj1
bplot

/dpi2point 12 def
portraitMode 1044 6936 csm

    0     0  5045  3782 rc
85 dict begin %Colortable dictionary
/c0 { 0.000000 0.000000 0.000000 sr} bdef
/c1 { 1.000000 1.000000 1.000000 sr} bdef
/c2 { 0.900000 0.000000 0.000000 sr} bdef
/c3 { 0.000000 0.820000 0.000000 sr} bdef
/c4 { 0.000000 0.000000 0.800000 sr} bdef
/c5 { 0.910000 0.820000 0.320000 sr} bdef
/c6 { 1.000000 0.260000 0.820000 sr} bdef
/c7 { 0.000000 0.820000 0.820000 sr} bdef
c0
1 j
1 sg
   0    0 5046 3783 rf
6 w
0 3082 3910 0 0 -3082 656 3366 4 MP
PP
-3910 0 0 3082 3910 0 0 -3082 656 3366 5 MP stroke
4 w
DO
SO
6 w
0 sg
 656 3366 mt 4566 3366 L
 656 3366 mt  656  284 L
 656 3366 mt  656 3326 L
%%IncludeResource: font Helvetica
/Helvetica /WindowsLatin1Encoding 120 FMSR

 553 3511 mt 
(-1) s
1633 3366 mt 1633 3326 L
1480 3511 mt 
(-0.5) s
2611 3366 mt 2611 3326 L
2578 3511 mt 
(0) s
3588 3366 mt 3588 3326 L
3505 3511 mt 
(0.5) s
4566 3366 mt 4566 3326 L
4533 3511 mt 
(1) s
 656 3366 mt  695 3366 L
 485 3410 mt 
(-4) s
 656 2852 mt  695 2852 L
 485 2896 mt 
(-3) s
 656 2338 mt  695 2338 L
 485 2382 mt 
(-2) s
 656 1825 mt  695 1825 L
 485 1869 mt 
(-1) s
 656 1311 mt  695 1311 L
 555 1355 mt 
(0) s
 656  797 mt  695  797 L
 555  841 mt 
(1) s
 656  284 mt  695  284 L
 555  328 mt 
(2) s
gs 656 284 3911 3083 rc
/c8 { 0.000000 0.000000 1.000000 sr} bdef
c8
2 0 2 0 2 0 2 0 2 0 2 0 2 0 2 0 
2 0 2 0 2 0 2 0 2 0 2 0 2 1 2 0 
2 0 2 0 2 0 2 0 2 0 2 0 1 0 2 0 
2 0 2 0 2 0 2 0 2 0 2 0 2 0 2 0 
2 0 2 0 2 0 2 0 2 0 2 0 2 0 2 1 
2 0 2 0 2 0 2 0 1 0 2 0 2 0 2 0 
2 0 2 0 2 0 2 0 2 0 2 0 2 0 2 0 
2 0 2 0 2 0 2 0 2 0 2 1 2 0 2 0 
2 0 2 0 1 0 2 0 2 0 2 0 2 0 2 0 
2 0 2 0 2 0 2 0 2 0 2 0 2 0 2 0 
2 0 2 0 2 0 2 1 2 0 2 0 2 0 2 0 
1 0 2 0 2 0 2 0 2 0 2 0 2 0 2 0 
2 0 2 0 2 0 2 0 2 0 2 0 2 0 2 1 
2 0 2 0 2 0 2 0 2 0 2 0 2 0 1 0 
2 0 2 0 2 0 2 0 2 0 2 0 2 0 2 0 
2 0 2 1 2 0 2 0 2 0 2 0 2 0 2 0 
2 0 2 0 2 0 2 0 2 0 1 0 2 0 2 0 
2 0 2 0 2 0 2 1 2 0 2 0 2 0 2 0 
2 0 2 0 2 0 2 0 2 0 2 0 2 0 2 0 
2 0 2 0 2 0 1 0 2 1 2 0 2 0 2 0 
2 0 2 0 2 0 2 0 2 0 2 0 2 0 2 0 
2 0 2 0 2 0 2 0 2 1 2 0 2 0 2 0 
2 0 1 0 2 0 2 0 2 0 2 0 2 0 2 0 
2 0 2 0 2 0 2 1 2 0 2 0 2 0 2 0 
2 0 2 0 2 0 2 0 2 0 2 0 2 0 1 0 
2 0 2 1 2 0 2 0 2 0 2 0 2 0 2 0 
2 0 2 0 2 0 2 0 2 0 2 0 2 0 2 1 
2 0 2 0 2 0 2 0 2 0 2 0 1 0 2 0 
2 0 2 0 2 0 2 0 2 1 2 0 2 0 2 0 
2 0 2 0 2 0 2 0 2 0 2 0 2 0 2 0 
2 1 2 0 2 0 2 0 1 0 2 0 2 0 2 0 
2 0 2 0 2 0 2 0 2 1 2 0 2 0 2 0 
2 0 2 0 2 0 2 0 2 0 2 0 2 0 2 0 
2 1 2 0 1 0 2 0 2 0 2 0 2 0 2 0 
2 0 2 0 2 0 2 1 2 0 2 0 2 0 2 0 
2 0 2 0 2 0 2 0 2 0 2 1 2 0 2 0 
1 0 2 0 2 0 2 0 2 0 2 0 2 0 2 1 
2 0 2 0 2 0 3981 1272 300 MP stroke
2 0 2 0 2 0 2 0 2 0 2 0 2 1 2 0 
2 0 2 0 2 0 2 0 1 0 2 0 2 0 2 1 
2 0 2 0 2 0 2 0 2 0 2 0 2 0 2 0 
2 1 2 0 2 0 2 0 2 0 2 0 2 0 2 0 
2 0 2 1 1 0 2 0 2 0 2 0 2 0 2 0 
2 0 2 0 2 1 2 0 2 0 2 0 2 0 2 0 
2 0 2 0 2 1 2 0 2 0 2 0 2 0 2 0 
1 0 2 0 2 1 2 0 2 0 2 0 2 0 2 0 
2 0 2 1 2 0 2 0 2 0 2 0 2 0 2 0 
2 0 2 1 2 0 2 0 2 0 2 0 1 0 2 0 
2 1 2 0 2 0 2 0 2 0 2 0 2 0 2 1 
2 0 2 0 2 0 2 0 2 0 2 0 2 1 2 0 
2 0 2 0 2 0 2 0 1 1 2 0 2 0 2 0 
2 0 2 0 2 0 2 1 2 0 2 0 2 0 2 0 
2 0 2 1 2 0 2 0 2 0 2 0 2 0 2 1 
2 0 2 0 2 0 1 0 2 0 2 1 2 0 2 0 
2 0 2 0 2 0 2 1 2 0 2 0 2 0 2 0 
2 1 2 0 2 0 2 0 2 0 2 0 2 1 2 0 
2 0 1 0 2 0 2 1 2 0 2 0 2 0 2 0 
2 1 2 0 2 0 2 0 2 0 2 1 2 0 2 0 
2 0 2 0 2 1 2 0 2 0 2 0 2 0 1 1 
2 0 2 0 2 0 2 0 2 1 2 0 2 0 2 0 
2 0 2 1 2 0 2 0 2 0 2 1 2 0 2 0 
2 0 2 0 2 1 2 0 2 0 1 0 2 1 2 0 
2 0 2 0 2 1 2 0 2 0 2 0 2 1 2 0 
2 0 2 0 2 1 2 0 2 0 2 0 2 1 2 0 
2 0 2 0 2 1 2 0 1 0 2 0 2 1 2 0 
2 0 2 0 2 1 2 0 2 0 2 0 2 1 2 0 
2 0 2 1 2 0 2 0 2 0 2 1 2 0 2 0 
2 0 2 1 1 0 2 0 2 1 2 0 2 0 2 1 
2 0 2 0 2 0 2 1 2 0 2 0 2 1 2 0 
2 0 2 1 2 0 2 0 2 1 2 0 2 0 2 0 
1 1 2 0 2 0 2 1 2 0 2 0 2 1 2 0 
2 0 2 1 2 0 2 0 2 1 2 0 2 1 2 0 
2 0 2 1 2 0 2 0 2 1 2 0 1 0 2 1 
2 0 2 0 2 1 2 0 2 1 2 0 2 0 2 1 
2 0 2 1 2 0 2 0 2 1 2 0 2 0 2 1 
2 0 2 1 2 0 3396 1209 300 MP stroke
2 0 1 1 2 0 2 1 2 0 2 1 2 0 2 0 
2 1 2 0 2 1 2 0 2 1 2 0 2 0 2 1 
2 0 2 1 2 0 2 1 2 0 2 1 2 0 2 1 
1 0 2 0 2 1 2 0 2 1 2 0 2 1 2 0 
2 1 2 0 2 1 2 0 2 1 2 0 2 1 2 0 
2 1 2 0 2 1 2 0 2 1 2 0 1 1 2 0 
2 1 2 1 2 0 2 1 2 0 2 1 2 0 2 1 
2 0 2 1 2 0 2 1 2 1 2 0 2 1 2 0 
2 1 2 1 2 0 2 1 1 0 2 1 2 1 2 0 
2 1 2 0 2 1 2 1 2 0 2 1 2 1 2 0 
2 1 2 0 2 1 2 1 2 0 2 1 2 1 2 0 
2 1 2 1 1 0 2 1 2 1 2 1 2 0 2 1 
2 1 2 0 2 1 2 1 2 0 2 1 2 1 2 1 
2 0 2 1 2 1 2 1 2 0 2 1 2 1 2 1 
2 1 1 0 2 1 2 1 2 1 2 0 2 1 2 1 
2 1 2 1 2 1 2 0 2 1 2 1 2 1 2 1 
2 1 2 0 2 1 2 1 2 1 2 1 2 1 1 1 
2 1 2 0 2 1 2 1 2 1 2 1 2 1 2 1 
2 1 2 1 2 1 2 1 2 1 2 1 2 1 2 1 
2 1 2 1 2 1 2 1 2 1 1 1 2 1 2 1 
2 1 2 1 2 1 2 1 2 1 2 1 2 1 2 1 
2 1 2 1 2 1 2 1 2 1 2 2 2 1 2 1 
2 1 2 1 2 1 1 1 2 1 2 2 2 1 2 1 
2 1 2 1 2 1 2 2 2 1 2 1 2 1 2 1 
2 2 2 1 2 1 2 1 2 2 2 1 2 1 2 1 
2 2 1 1 2 1 2 2 2 1 2 1 2 2 2 1 
2 1 2 1 2 2 2 1 2 2 2 1 2 1 2 2 
2 1 2 1 2 2 2 1 2 2 2 1 2 1 2 2 
1 1 2 2 2 1 2 2 2 1 2 1 2 2 2 1 
2 2 2 1 2 2 2 1 2 2 2 1 2 2 2 1 
2 2 2 1 2 2 2 1 2 2 2 2 1 1 2 2 
2 1 2 2 2 1 2 2 2 1 2 2 2 2 2 1 
2 2 2 1 2 2 2 2 2 1 2 2 2 2 2 1 
2 2 2 1 2 2 2 2 1 1 2 2 2 2 2 1 
2 2 2 2 2 1 2 2 2 2 2 1 2 2 2 2 
2 1 2 2 2 2 2 1 2 2 2 2 2 1 2 2 
2 2 2 1 1 2 2 2 2 1 2 2 2 2 2 1 
2 2 2 2 2 1 2812 905 300 MP stroke
2 2 2 1 2 2 2 2 2 1 2 2 2 2 2 1 
2 2 2 2 2 1 2 2 2 1 2 2 1 2 2 1 
2 2 2 1 2 2 2 1 2 2 2 1 2 2 2 2 
2 1 2 2 2 1 2 2 2 1 2 1 2 2 2 1 
2 2 2 1 2 2 2 1 1 1 2 2 2 1 2 1 
2 2 2 1 2 1 2 2 2 1 2 1 2 1 2 2 
2 1 2 1 2 1 2 1 2 2 2 1 2 1 2 1 
2 1 2 1 1 1 2 1 2 1 2 1 2 1 2 1 
2 1 2 1 2 1 2 1 2 0 2 1 2 1 2 1 
2 1 2 0 2 1 2 1 2 0 2 1 2 1 2 0 
1 1 2 0 2 1 2 0 2 1 2 0 2 1 2 0 
2 0 2 1 2 0 2 0 2 1 2 0 2 0 2 0 
2 0 2 1 2 0 2 0 2 0 2 0 1 0 2 0 
2 0 2 0 2 0 2 0 2 -1 2 0 2 0 2 0 
2 0 2 -1 2 0 2 0 2 -1 2 0 2 0 2 -1 
2 0 2 -1 2 0 2 -1 2 0 1 -1 2 0 2 -1 
2 -1 2 0 2 -1 2 -1 2 0 2 -1 2 -1 2 -1 
2 -1 2 0 2 -1 2 -1 2 -1 2 -1 2 -1 2 -1 
2 -1 2 -1 2 -1 1 -1 2 -1 2 -1 2 -1 2 -1 
2 -1 2 -2 2 -1 2 -1 2 -1 2 -1 2 -2 2 -1 
2 -1 2 -1 2 -2 2 -1 2 -1 2 -2 2 -1 2 -1 
2 -2 1 -1 2 -1 2 -2 2 -1 2 -2 2 -1 2 -2 
2 -1 2 -1 2 -2 2 -1 2 -2 2 -1 2 -2 2 -2 
2 -1 2 -2 2 -1 2 -2 2 -1 2 -2 2 -1 1 -2 
2 -2 2 -1 2 -2 2 -1 2 -2 2 -2 2 -1 2 -2 
2 -2 2 -1 2 -2 2 -2 2 -1 2 -2 2 -1 2 -2 
2 -2 2 -1 2 -2 2 -2 2 -1 2 -2 1 -2 2 -1 
2 -2 2 -2 2 -1 2 -2 2 -2 2 -1 2 -2 2 -2 
2 -1 2 -2 2 -2 2 -1 2 -2 2 -2 2 -1 2 -2 
2 -2 2 -1 2 -2 2 -2 1 -1 2 -2 2 -2 2 -1 
2 -2 2 -1 2 -2 2 -2 2 -1 2 -2 2 -2 2 -1 
2 -2 2 -1 2 -2 2 -2 2 -1 2 -2 2 -1 2 -2 
2 -1 2 -2 1 -1 2 -2 2 -2 2 -1 2 -2 2 -1 
2 -2 2 -1 2 -2 2 -1 2 -2 2 -1 2 -2 2 -1 
2 -2 2 -1 2 -2 2 -1 2 -1 2 -2 2 -1 2 -2 
1 -1 2 -2 2 -1 2 -1 2 -2 2 -1 2 -2 2 -1 
2 -1 2 -2 2 -1 2 -1 2 -2 2 -1 2 -2 2 -1 
2 -1 2 -1 2 -2 2227 1049 300 MP stroke
2 -1 2 -1 2 -2 1 -1 2 -1 2 -2 2 -1 2 -1 
2 -1 2 -2 2 -1 2 -1 2 -1 2 -2 2 -1 2 -1 
2 -1 2 -1 2 -2 2 -1 2 -1 2 -1 2 -1 2 -1 
2 -2 2 -1 1 -1 2 -1 2 -1 2 -1 2 -1 2 -1 
2 -2 2 -1 2 -1 2 -1 2 -1 2 -1 2 -1 2 -1 
2 -1 2 -1 2 -1 2 -1 2 -1 2 -1 2 -1 2 -1 
1 -1 2 -1 2 -1 2 -1 2 -1 2 -1 2 -1 2 -1 
2 -1 2 -1 2 -1 2 -1 2 -1 2 -1 2 -1 2 -1 
2 -1 2 -1 2 -1 2 -1 2 0 2 -1 1 -1 2 -1 
2 -1 2 -1 2 -1 2 -1 2 0 2 -1 2 -1 2 -1 
2 -1 2 -1 2 0 2 -1 2 -1 2 -1 2 -1 2 -1 
2 0 2 -1 2 -1 2 -1 1 0 2 -1 2 -1 2 -1 
2 -1 2 0 2 -1 2 -1 2 -1 2 0 2 -1 2 -1 
2 -1 2 0 2 -1 2 -1 2 0 2 -1 2 -1 2 0 
2 -1 2 -1 2 -1 1 0 2 -1 2 -1 2 0 2 -1 
2 -1 2 0 2 -1 2 -1 2 0 2 -1 2 0 2 -1 
2 -1 2 0 2 -1 2 -1 2 0 2 -1 2 0 2 -1 
2 -1 1 0 2 -1 2 0 2 -1 2 -1 2 0 2 -1 
2 0 2 -1 2 -1 2 0 2 -1 2 0 2 -1 2 0 
2 -1 2 0 2 -1 2 0 2 -1 2 -1 2 0 1 -1 
2 0 2 -1 2 0 2 -1 2 0 2 -1 2 0 2 -1 
2 0 2 -1 2 0 2 -1 2 0 2 -1 2 0 2 -1 
2 0 2 -1 2 0 2 -1 2 0 1 0 2 -1 2 0 
2 -1 2 0 2 -1 2 0 2 -1 2 0 2 -1 2 0 
2 0 2 -1 2 0 2 -1 2 0 2 -1 2 0 2 0 
2 -1 2 0 2 -1 1 0 2 -1 2 0 2 0 2 -1 
2 0 2 -1 2 0 2 0 2 -1 2 0 2 0 2 -1 
2 0 2 -1 2 0 2 0 2 -1 2 0 2 -1 2 0 
2 0 2 -1 1 0 2 0 2 -1 2 0 2 0 2 -1 
2 0 2 0 2 -1 2 0 2 -1 2 0 2 0 2 -1 
2 0 2 0 2 -1 2 0 2 0 2 -1 2 0 2 0 
1 -1 2 0 2 0 2 0 2 -1 2 0 2 0 2 -1 
2 0 2 0 2 -1 2 0 2 0 2 -1 2 0 2 0 
2 0 2 -1 2 0 2 0 2 -1 2 0 1 0 2 -1 
2 0 2 0 2 0 2 -1 2 0 2 0 2 0 2 -1 
2 0 2 0 2 -1 2 0 2 0 2 0 2 -1 2 0 
2 0 2 0 2 -1 2 0 1 0 2 0 2 -1 2 0 
2 0 2 0 2 -1 1643 1239 300 MP stroke
2 0 2 0 2 0 2 -1 2 0 2 0 2 0 2 -1 
2 0 2 0 2 0 2 -1 2 0 2 0 2 0 2 -1 
1 0 2 0 2 0 2 -1 2 0 2 0 2 0 2 0 
2 -1 2 0 2 0 2 0 2 -1 2 0 2 0 2 0 
2 0 2 -1 2 0 2 0 2 0 2 0 1 -1 2 0 
2 0 2 0 2 0 2 -1 2 0 2 0 2 0 2 0 
2 -1 2 0 2 0 2 0 2 0 2 -1 2 0 2 0 
2 0 2 0 2 -1 2 0 1 0 2 0 2 0 2 -1 
2 0 2 0 2 0 2 0 2 0 2 -1 2 0 2 0 
2 0 2 0 2 -1 2 0 2 0 2 0 2 0 2 0 
2 -1 2 0 1 0 2 0 2 0 2 0 2 -1 2 0 
2 0 2 0 2 0 2 0 2 -1 2 0 2 0 2 0 
2 0 2 0 2 -1 2 0 2 0 2 0 2 0 2 0 
1 0 2 -1 2 0 2 0 2 0 2 0 2 0 2 -1 
2 0 2 0 2 0 2 0 2 0 2 0 2 -1 2 0 
2 0 2 0 2 0 2 0 2 0 2 -1 2 0 1 0 
2 0 2 0 2 0 2 0 2 -1 2 0 2 0 2 0 
2 0 2 0 2 0 2 0 2 -1 2 0 2 0 2 0 
2 0 2 0 2 0 2 -1 2 0 1 0 2 0 2 0 
2 0 2 0 2 0 2 -1 2 0 2 0 2 0 2 0 
2 0 2 0 2 0 2 -1 2 0 2 0 2 0 2 0 
2 0 2 0 2 0 1 0 2 -1 2 0 2 0 2 0 
2 0 2 0 2 0 2 0 2 0 2 -1 2 0 2 0 
2 0 2 0 2 0 2 0 2 0 2 0 2 -1 2 0 
2 0 1 0 2 0 2 0 2 0 2 0 2 0 2 -1 
2 0 2 0 2 0 2 0 2 0 2 0 2 0 2 0 
2 0 2 -1 2 0 2 0 2 0 2 0 2 0 2 0 
1 0 2 0 2 0 2 -1 2 0 2 0 2 0 2 0 
2 0 2 0 2 0 2 0 2 0 2 -1 2 0 2 0 
2 0 2 0 2 0 2 0 2 0 2 0 1 0 2 0 
2 -1 2 0 2 0 2 0 2 0 2 0 2 0 2 0 
2 0 2 0 2 0 2 0 2 -1 2 0 2 0 2 0 
2 0 2 0 2 0 2 0 1 0 2 0 2 0 2 0 
2 -1 2 0 2 0 2 0 2 0 2 0 2 0 2 0 
2 0 2 0 2 0 2 0 2 -1 2 0 2 0 2 0 
2 0 2 0 1 0 2 0 2 0 2 0 2 0 2 0 
2 0 2 -1 2 0 2 0 2 0 2 0 2 0 2 0 
2 0 2 0 2 0 1058 1280 300 MP stroke
2 0 2 0 2 0 2 0 2 -1 1 0 2 0 2 0 
2 0 2 0 2 0 2 0 2 0 2 0 2 0 2 0 
2 0 2 0 2 -1 2 0 2 0 2 0 2 0 2 0 
2 0 2 0 2 0 2 0 1 0 2 0 2 0 2 0 
2 0 2 -1 2 0 2 0 2 0 2 0 2 0 2 0 
2 0 2 0 2 0 2 0 2 0 2 0 2 0 2 0 
2 0 2 -1 1 0 2 0 2 0 2 0 2 0 2 0 
2 0 2 0 2 0 2 0 2 0 2 0 2 0 2 0 
2 0 2 0 2 -1 2 0 2 0 2 0 2 0 2 0 
1 0 2 0 2 0 2 0 2 0 2 0 2 0 2 0 
2 0 2 0 2 0 2 0 2 -1 2 0 2 0 2 0 
2 0 2 0 2 0 2 0 2 0 2 0 1 0 2 0 
2 0 2 0 2 0 2 0 2 0 2 0 2 -1 2 0 
2 0 2 0 2 0 2 0 2 0 2 0 2 0 2 0 
2 0 2 0 2 0 2 0 2 0 1 0 2 0 2 0 
2 0 2 0 2 -1 2 0 2 0 2 0 2 0 2 0 
2 0 2 0 2 0 2 0 2 0 2 0 2 0 2 0 
2 0 2 0 2 0 1 0 2 0 2 0 2 0 2 0 
2 -1 2 0 2 0 2 0 2 0 2 0 2 0 2 0 
2 0 2 0 2 0 2 0 2 0 2 0 2 0 2 0 
2 0 1 0 2 0 2 0 2 0 2 0 2 -1 2 0 
2 0 2 0 2 0 2 0 2 0 2 0 2 0 2 0 
2 0 2 0 2 0 2 0 2 0 2 0 2 0 1 0 
2 0 2 0 2 0 2 0 2 0 2 0 2 0 2 -1 
2 0 2 0 2 0 2 0 2 0 2 0 2 0 2 0 
2 0 2 0 2 0 2 0 2 0 1 0 656 1291 207 MP stroke
/c9 { 0.000000 0.500000 0.000000 sr} bdef
c9
2 -5 2 -5 2 -5 2 -5 2 -4 2 -5 2 -4 2 -4 
2 -5 2 -4 2 -4 2 -3 2 -4 2 -4 2 -4 2 -3 
2 -4 2 -3 2 -3 2 -3 2 -3 2 -3 1 -3 2 -3 
2 -3 2 -3 2 -2 2 -3 2 -2 2 -2 2 -3 2 -2 
2 -2 2 -2 2 -2 2 -2 2 -2 2 -2 2 -1 2 -2 
2 -2 2 -1 2 -2 2 -1 1 -1 2 -2 2 -1 2 -1 
2 -1 2 -1 2 -1 2 -1 2 -1 2 -1 2 0 2 -1 
2 -1 2 0 2 -1 2 -1 2 0 2 0 2 -1 2 0 
2 0 2 -1 1 0 2 0 2 0 2 0 2 0 2 0 
2 0 2 0 2 0 2 0 2 0 2 1 2 0 2 0 
2 0 2 1 2 0 2 1 2 0 2 0 2 1 2 1 
1 0 2 1 2 0 2 1 2 1 2 0 2 1 2 1 
2 1 2 0 2 1 2 1 2 1 2 1 2 1 2 1 
2 1 2 0 2 1 2 1 2 1 2 2 2 1 1 1 
2 1 2 1 2 1 2 1 2 1 2 1 2 1 2 2 
2 1 2 1 2 1 2 1 2 2 2 1 2 1 2 1 
2 2 2 1 2 1 2 2 2 1 1 1 2 1 2 2 
2 1 2 1 2 2 2 1 2 1 2 2 2 1 2 2 
2 1 2 1 2 2 2 1 2 1 2 2 2 1 2 1 
2 2 2 1 2 2 1 1 2 1 2 2 2 1 2 1 
2 2 2 1 2 2 2 1 2 1 2 2 2 1 2 1 
2 2 2 1 2 2 2 1 2 1 2 2 2 1 2 1 
2 2 1 1 2 1 2 2 2 1 2 1 2 1 2 2 
2 1 2 1 2 2 2 1 2 1 2 1 2 2 2 1 
2 1 2 1 2 2 2 1 2 1 2 1 2 2 1 1 
2 1 2 1 2 1 2 1 2 2 2 1 2 1 2 1 
2 1 2 1 2 1 2 1 2 1 2 2 2 1 2 1 
2 1 2 1 2 1 2 1 2 1 2 1 1 1 2 1 
2 1 2 1 2 1 2 1 2 1 2 0 2 1 2 1 
2 1 2 1 2 1 2 1 2 1 2 1 2 0 2 1 
2 1 2 1 2 1 2 0 1 1 2 1 2 1 2 0 
2 1 2 1 2 1 2 0 2 1 2 1 2 0 2 1 
2 1 2 0 2 1 2 1 2 0 2 1 2 0 2 1 
2 0 2 1 1 1 2 0 2 1 2 0 2 1 2 0 
2 1 2 0 2 1 2 0 2 1 2 0 2 0 2 1 
2 0 2 1 2 0 2 0 2 1 2 0 2 0 2 1 
1 0 2 0 2 1 2 0 2 0 2 1 2 0 2 0 
2 1 2 0 2 0 3981 1232 300 MP stroke
2 0 2 0 2 1 2 0 2 0 2 0 2 0 2 1 
2 0 2 0 2 0 2 0 1 0 2 1 2 0 2 0 
2 0 2 0 2 0 2 0 2 0 2 0 2 0 2 0 
2 0 2 1 2 0 2 0 2 0 2 0 2 0 2 0 
2 0 2 0 1 0 2 0 2 -1 2 0 2 0 2 0 
2 0 2 0 2 0 2 0 2 0 2 0 2 0 2 0 
2 0 2 0 2 -1 2 0 2 0 2 0 2 0 2 0 
1 0 2 -1 2 0 2 0 2 0 2 0 2 0 2 -1 
2 0 2 0 2 0 2 0 2 0 2 -1 2 0 2 0 
2 0 2 0 2 -1 2 0 2 0 2 0 1 -1 2 0 
2 0 2 0 2 -1 2 0 2 0 2 0 2 0 2 -1 
2 0 2 0 2 0 2 -1 2 0 2 0 2 -1 2 0 
2 0 2 0 2 -1 2 0 1 0 2 0 2 -1 2 0 
2 0 2 0 2 -1 2 0 2 0 2 -1 2 0 2 0 
2 0 2 -1 2 0 2 0 2 0 2 -1 2 0 2 0 
2 -1 2 0 2 0 1 0 2 -1 2 0 2 0 2 0 
2 -1 2 0 2 0 2 -1 2 0 2 0 2 0 2 -1 
2 0 2 0 2 0 2 -1 2 0 2 0 2 0 2 -1 
2 0 1 0 2 0 2 0 2 -1 2 0 2 0 2 0 
2 -1 2 0 2 0 2 0 2 0 2 -1 2 0 2 0 
2 0 2 0 2 -1 2 0 2 0 2 0 2 0 1 -1 
2 0 2 0 2 0 2 0 2 0 2 0 2 -1 2 0 
2 0 2 0 2 0 2 0 2 0 2 0 2 -1 2 0 
2 0 2 0 2 0 2 0 2 0 1 0 2 0 2 0 
2 0 2 0 2 -1 2 0 2 0 2 0 2 0 2 0 
2 0 2 0 2 0 2 0 2 0 2 0 2 0 2 0 
2 0 2 0 2 0 2 0 1 0 2 1 2 0 2 0 
2 0 2 0 2 0 2 0 2 0 2 0 2 0 2 0 
2 0 2 1 2 0 2 0 2 0 2 0 2 0 2 0 
2 1 2 0 1 0 2 0 2 0 2 1 2 0 2 0 
2 0 2 0 2 1 2 0 2 0 2 0 2 1 2 0 
2 0 2 0 2 1 2 0 2 0 2 1 2 0 2 0 
1 1 2 0 2 0 2 1 2 0 2 0 2 1 2 0 
2 0 2 1 2 0 2 1 2 0 2 0 2 1 2 0 
2 1 2 0 2 1 2 0 2 1 2 0 1 0 2 1 
2 0 2 1 2 0 2 1 2 0 2 1 2 1 2 0 
2 1 2 0 2 1 2 0 2 1 2 0 2 1 2 1 
2 0 2 1 2 0 3396 1232 300 MP stroke
2 1 1 1 2 0 2 1 2 1 2 0 2 1 2 1 
2 0 2 1 2 1 2 0 2 1 2 1 2 0 2 1 
2 1 2 0 2 1 2 1 2 1 2 0 2 1 2 1 
1 1 2 1 2 0 2 1 2 1 2 1 2 1 2 0 
2 1 2 1 2 1 2 1 2 0 2 1 2 1 2 1 
2 1 2 1 2 1 2 1 2 0 2 1 1 1 2 1 
2 1 2 1 2 1 2 1 2 1 2 1 2 1 2 1 
2 1 2 1 2 1 2 0 2 1 2 1 2 1 2 1 
2 1 2 1 2 1 2 1 1 1 2 2 2 1 2 1 
2 1 2 1 2 1 2 1 2 1 2 1 2 1 2 1 
2 1 2 1 2 1 2 1 2 1 2 2 2 1 2 1 
2 1 2 1 1 1 2 1 2 1 2 1 2 2 2 1 
2 1 2 1 2 1 2 1 2 1 2 2 2 1 2 1 
2 1 2 1 2 1 2 2 2 1 2 1 2 1 2 1 
2 2 1 1 2 1 2 1 2 1 2 2 2 1 2 1 
2 1 2 1 2 2 2 1 2 1 2 1 2 1 2 2 
2 1 2 1 2 1 2 2 2 1 2 1 2 1 1 2 
2 1 2 1 2 1 2 2 2 1 2 1 2 1 2 2 
2 1 2 1 2 1 2 2 2 1 2 1 2 1 2 2 
2 1 2 1 2 1 2 2 2 1 1 1 2 2 2 1 
2 1 2 1 2 2 2 1 2 1 2 1 2 2 2 1 
2 1 2 2 2 1 2 1 2 1 2 2 2 1 2 1 
2 1 2 2 2 1 1 1 2 1 2 2 2 1 2 1 
2 2 2 1 2 1 2 1 2 2 2 1 2 1 2 1 
2 2 2 1 2 1 2 1 2 2 2 1 2 1 2 1 
2 2 1 1 2 1 2 1 2 1 2 2 2 1 2 1 
2 1 2 2 2 1 2 1 2 1 2 1 2 2 2 1 
2 1 2 1 2 1 2 2 2 1 2 1 2 1 2 1 
1 2 2 1 2 1 2 1 2 1 2 1 2 2 2 1 
2 1 2 1 2 1 2 1 2 1 2 2 2 1 2 1 
2 1 2 1 2 1 2 1 2 1 2 1 1 2 2 1 
2 1 2 1 2 1 2 1 2 1 2 1 2 1 2 1 
2 1 2 1 2 1 2 1 2 1 2 1 2 1 2 1 
2 1 2 1 2 1 2 1 1 1 2 1 2 1 2 1 
2 1 2 1 2 1 2 1 2 1 2 1 2 1 2 1 
2 1 2 1 2 1 2 1 2 1 2 0 2 1 2 1 
2 1 2 1 1 1 2 1 2 0 2 1 2 1 2 1 
2 1 2 1 2 0 2812 912 300 MP stroke
2 1 2 1 2 1 2 1 2 0 2 1 2 1 2 1 
2 0 2 1 2 1 2 1 2 0 2 1 1 1 2 0 
2 1 2 1 2 1 2 0 2 1 2 1 2 0 2 1 
2 0 2 1 2 1 2 0 2 1 2 1 2 0 2 1 
2 0 2 1 2 0 2 1 1 1 2 0 2 1 2 0 
2 1 2 0 2 1 2 0 2 1 2 0 2 1 2 0 
2 0 2 1 2 0 2 1 2 0 2 1 2 0 2 0 
2 1 2 0 1 1 2 0 2 0 2 1 2 0 2 0 
2 1 2 0 2 0 2 1 2 0 2 0 2 0 2 1 
2 0 2 0 2 0 2 1 2 0 2 0 2 0 2 0 
1 1 2 0 2 0 2 0 2 0 2 0 2 1 2 0 
2 0 2 0 2 0 2 0 2 0 2 0 2 0 2 1 
2 0 2 0 2 0 2 0 2 0 2 0 1 0 2 0 
2 0 2 0 2 0 2 0 2 0 2 0 2 -1 2 0 
2 0 2 0 2 0 2 0 2 0 2 0 2 0 2 -1 
2 0 2 0 2 0 2 0 2 0 1 -1 2 0 2 0 
2 0 2 0 2 -1 2 0 2 0 2 0 2 -1 2 0 
2 0 2 0 2 -1 2 0 2 0 2 -1 2 0 2 0 
2 -1 2 0 2 0 1 -1 2 0 2 -1 2 0 2 0 
2 -1 2 0 2 -1 2 0 2 -1 2 0 2 0 2 -1 
2 0 2 -1 2 0 2 -1 2 0 2 -1 2 0 2 -1 
2 0 1 -1 2 -1 2 0 2 -1 2 0 2 -1 2 0 
2 -1 2 -1 2 0 2 -1 2 -1 2 0 2 -1 2 0 
2 -1 2 -1 2 0 2 -1 2 -1 2 -1 2 0 1 -1 
2 -1 2 0 2 -1 2 -1 2 -1 2 0 2 -1 2 -1 
2 -1 2 0 2 -1 2 -1 2 -1 2 -1 2 0 2 -1 
2 -1 2 -1 2 -1 2 -1 2 0 2 -1 1 -1 2 -1 
2 -1 2 -1 2 -1 2 0 2 -1 2 -1 2 -1 2 -1 
2 -1 2 -1 2 -1 2 -1 2 -1 2 -1 2 -1 2 -1 
2 -1 2 -1 2 -1 2 -1 1 -1 2 -1 2 -1 2 -1 
2 -1 2 -1 2 -1 2 -1 2 -1 2 -1 2 -1 2 -1 
2 -1 2 -1 2 -1 2 -1 2 -1 2 -1 2 -1 2 -1 
2 -1 2 -1 1 -2 2 -1 2 -1 2 -1 2 -1 2 -1 
2 -1 2 -1 2 -1 2 -2 2 -1 2 -1 2 -1 2 -1 
2 -1 2 -1 2 -2 2 -1 2 -1 2 -1 2 -1 2 -1 
1 -2 2 -1 2 -1 2 -1 2 -1 2 -2 2 -1 2 -1 
2 -1 2 -1 2 -2 2 -1 2 -1 2 -1 2 -1 2 -2 
2 -1 2 -1 2 -1 2227 1009 300 MP stroke
2 -2 2 -1 2 -1 1 -1 2 -1 2 -2 2 -1 2 -1 
2 -1 2 -2 2 -1 2 -1 2 -1 2 -2 2 -1 2 -1 
2 -1 2 -2 2 -1 2 -1 2 -1 2 -2 2 -1 2 -1 
2 -2 2 -1 1 -1 2 -1 2 -2 2 -1 2 -1 2 -1 
2 -2 2 -1 2 -1 2 -1 2 -2 2 -1 2 -1 2 -2 
2 -1 2 -1 2 -1 2 -2 2 -1 2 -1 2 -1 2 -2 
1 -1 2 -1 2 -2 2 -1 2 -1 2 -1 2 -2 2 -1 
2 -1 2 -1 2 -2 2 -1 2 -1 2 -1 2 -2 2 -1 
2 -1 2 -1 2 -2 2 -1 2 -1 2 -1 1 -2 2 -1 
2 -1 2 -1 2 -2 2 -1 2 -1 2 -1 2 -2 2 -1 
2 -1 2 -1 2 -1 2 -2 2 -1 2 -1 2 -1 2 -1 
2 -2 2 -1 2 -1 2 -1 1 -1 2 -2 2 -1 2 -1 
2 -1 2 -1 2 -2 2 -1 2 -1 2 -1 2 -1 2 -1 
2 -2 2 -1 2 -1 2 -1 2 -1 2 -1 2 -1 2 -2 
2 -1 2 -1 2 -1 1 -1 2 -1 2 -1 2 -1 2 -1 
2 -2 2 -1 2 -1 2 -1 2 -1 2 -1 2 -1 2 -1 
2 -1 2 -1 2 -1 2 -1 2 -1 2 -1 2 -1 2 -1 
2 -2 1 -1 2 -1 2 -1 2 -1 2 -1 2 -1 2 -1 
2 -1 2 -1 2 0 2 -1 2 -1 2 -1 2 -1 2 -1 
2 -1 2 -1 2 -1 2 -1 2 -1 2 -1 2 -1 1 -1 
2 -1 2 0 2 -1 2 -1 2 -1 2 -1 2 -1 2 -1 
2 -1 2 0 2 -1 2 -1 2 -1 2 -1 2 0 2 -1 
2 -1 2 -1 2 -1 2 0 2 -1 1 -1 2 -1 2 -1 
2 0 2 -1 2 -1 2 -1 2 0 2 -1 2 -1 2 0 
2 -1 2 -1 2 0 2 -1 2 -1 2 0 2 -1 2 -1 
2 0 2 -1 2 -1 1 0 2 -1 2 -1 2 0 2 -1 
2 0 2 -1 2 -1 2 0 2 -1 2 0 2 -1 2 0 
2 -1 2 0 2 -1 2 -1 2 0 2 -1 2 0 2 -1 
2 0 2 -1 1 0 2 0 2 -1 2 0 2 -1 2 0 
2 -1 2 0 2 -1 2 0 2 0 2 -1 2 0 2 -1 
2 0 2 0 2 -1 2 0 2 0 2 -1 2 0 2 0 
1 -1 2 0 2 0 2 -1 2 0 2 0 2 -1 2 0 
2 0 2 0 2 -1 2 0 2 0 2 0 2 -1 2 0 
2 0 2 0 2 0 2 -1 2 0 2 0 1 0 2 0 
2 -1 2 0 2 0 2 0 2 0 2 0 2 0 2 -1 
2 0 2 0 2 0 2 0 2 0 2 0 2 0 2 0 
2 0 2 0 2 0 2 -1 1 0 2 0 2 0 2 0 
2 0 2 0 2 0 1643 1260 300 MP stroke
2 0 2 0 2 0 2 0 2 0 2 0 2 0 2 0 
2 0 2 0 2 0 2 1 2 0 2 0 2 0 2 0 
1 0 2 0 2 0 2 0 2 0 2 0 2 0 2 1 
2 0 2 0 2 0 2 0 2 0 2 0 2 0 2 1 
2 0 2 0 2 0 2 0 2 0 2 0 1 1 2 0 
2 0 2 0 2 0 2 1 2 0 2 0 2 0 2 0 
2 1 2 0 2 0 2 0 2 0 2 1 2 0 2 0 
2 0 2 1 2 0 2 0 1 0 2 0 2 1 2 0 
2 0 2 0 2 1 2 0 2 0 2 0 2 1 2 0 
2 0 2 0 2 1 2 0 2 0 2 1 2 0 2 0 
2 0 2 1 1 0 2 0 2 0 2 1 2 0 2 0 
2 1 2 0 2 0 2 0 2 1 2 0 2 0 2 0 
2 1 2 0 2 0 2 1 2 0 2 0 2 0 2 1 
1 0 2 0 2 0 2 1 2 0 2 0 2 0 2 1 
2 0 2 0 2 1 2 0 2 0 2 0 2 1 2 0 
2 0 2 0 2 0 2 1 2 0 2 0 2 0 1 1 
2 0 2 0 2 0 2 1 2 0 2 0 2 0 2 0 
2 1 2 0 2 0 2 0 2 0 2 0 2 1 2 0 
2 0 2 0 2 0 2 0 2 1 1 0 2 0 2 0 
2 0 2 0 2 0 2 1 2 0 2 0 2 0 2 0 
2 0 2 0 2 0 2 0 2 0 2 0 2 0 2 0 
2 0 2 1 2 0 1 0 2 0 2 0 2 0 2 0 
2 0 2 0 2 0 2 0 2 -1 2 0 2 0 2 0 
2 0 2 0 2 0 2 0 2 0 2 0 2 0 2 0 
2 -1 1 0 2 0 2 0 2 0 2 0 2 -1 2 0 
2 0 2 0 2 0 2 -1 2 0 2 0 2 0 2 0 
2 -1 2 0 2 0 2 -1 2 0 2 0 2 -1 2 0 
1 0 2 -1 2 0 2 0 2 -1 2 0 2 0 2 -1 
2 0 2 -1 2 0 2 0 2 -1 2 0 2 -1 2 0 
2 -1 2 0 2 -1 2 0 2 -1 2 0 1 -1 2 -1 
2 0 2 -1 2 0 2 -1 2 0 2 -1 2 -1 2 0 
2 -1 2 -1 2 0 2 -1 2 -1 2 0 2 -1 2 -1 
2 -1 2 0 2 -1 2 -1 1 -1 2 0 2 -1 2 -1 
2 -1 2 -1 2 0 2 -1 2 -1 2 -1 2 -1 2 -1 
2 -1 2 -1 2 -1 2 0 2 -1 2 -1 2 -1 2 -1 
2 -1 2 -1 1 -1 2 -1 2 -1 2 -1 2 -1 2 -1 
2 -1 2 -1 2 -1 2 -2 2 -1 2 -1 2 -1 2 -1 
2 -1 2 -1 2 -1 1058 1296 300 MP stroke
2 -1 2 -2 2 -1 2 -1 2 -1 1 -1 2 -1 2 -2 
2 -1 2 -1 2 -1 2 -2 2 -1 2 -1 2 -1 2 -2 
2 -1 2 -1 2 -1 2 -2 2 -1 2 -1 2 -2 2 -1 
2 -1 2 -1 2 -2 2 -1 1 -1 2 -2 2 -1 2 -1 
2 -2 2 -1 2 -1 2 -2 2 -1 2 -2 2 -1 2 -1 
2 -2 2 -1 2 -1 2 -2 2 -1 2 -2 2 -1 2 -1 
2 -2 2 -1 1 -1 2 -2 2 -1 2 -2 2 -1 2 -1 
2 -2 2 -1 2 -1 2 -2 2 -1 2 -1 2 -2 2 -1 
2 -2 2 -1 2 -1 2 -2 2 -1 2 -1 2 -2 2 -1 
1 -1 2 -1 2 -2 2 -1 2 -1 2 -2 2 -1 2 -1 
2 -1 2 -2 2 -1 2 -1 2 -1 2 -1 2 -2 2 -1 
2 -1 2 -1 2 -1 2 -1 2 -1 2 -1 1 -1 2 -1 
2 -2 2 -1 2 -1 2 -1 2 0 2 -1 2 -1 2 -1 
2 -1 2 -1 2 -1 2 -1 2 0 2 -1 2 -1 2 -1 
2 0 2 -1 2 -1 2 0 2 -1 1 0 2 -1 2 -1 
2 0 2 0 2 -1 2 0 2 -1 2 0 2 0 2 0 
2 -1 2 0 2 0 2 0 2 0 2 0 2 0 2 0 
2 0 2 0 2 0 1 0 2 1 2 0 2 0 2 1 
2 0 2 0 2 1 2 1 2 0 2 1 2 1 2 0 
2 1 2 1 2 1 2 1 2 1 2 1 2 1 2 1 
2 2 1 1 2 1 2 2 2 1 2 2 2 2 2 1 
2 2 2 2 2 2 2 2 2 2 2 2 2 2 2 3 
2 2 2 2 2 3 2 2 2 3 2 3 2 3 1 3 
2 3 2 3 2 3 2 3 2 3 2 4 2 3 2 4 
2 4 2 4 2 3 2 4 2 4 2 5 2 4 2 4 
2 5 2 4 2 5 2 5 2 5 1 5 656 1291 207 MP stroke
/c10 { 1.000000 0.000000 0.000000 sr} bdef
c10
2 40 2 39 2 38 2 37 2 35 2 35 2 34 2 33 
2 31 2 31 2 30 2 29 2 28 2 27 2 26 2 26 
2 24 2 24 2 23 2 22 2 21 2 21 1 20 2 19 
2 18 2 18 2 17 2 16 2 15 2 15 2 14 2 14 
2 13 2 12 2 12 2 11 2 11 2 10 2 9 2 9 
2 8 2 8 2 8 2 6 1 7 2 5 2 6 2 5 
2 4 2 4 2 4 2 3 2 3 2 2 2 2 2 2 
2 1 2 1 2 0 2 0 2 0 2 0 2 -1 2 -1 
2 -2 2 -2 1 -2 2 -2 2 -3 2 -3 2 -3 2 -3 
2 -4 2 -4 2 -4 2 -4 2 -5 2 -4 2 -5 2 -6 
2 -5 2 -6 2 -5 2 -6 2 -6 2 -7 2 -6 2 -7 
1 -7 2 -6 2 -7 2 -8 2 -7 2 -7 2 -8 2 -7 
2 -8 2 -8 2 -8 2 -8 2 -8 2 -8 2 -8 2 -9 
2 -8 2 -9 2 -8 2 -9 2 -9 2 -8 2 -9 1 -9 
2 -9 2 -9 2 -9 2 -9 2 -9 2 -9 2 -9 2 -9 
2 -9 2 -9 2 -9 2 -9 2 -9 2 -9 2 -9 2 -10 
2 -9 2 -9 2 -9 2 -9 2 -9 1 -9 2 -9 2 -9 
2 -9 2 -9 2 -9 2 -9 2 -8 2 -9 2 -9 2 -9 
2 -8 2 -9 2 -9 2 -8 2 -9 2 -8 2 -9 2 -8 
2 -8 2 -9 2 -8 1 -8 2 -8 2 -8 2 -8 2 -8 
2 -8 2 -8 2 -7 2 -8 2 -8 2 -7 2 -8 2 -7 
2 -7 2 -7 2 -8 2 -7 2 -7 2 -7 2 -7 2 -6 
2 -7 1 -7 2 -6 2 -7 2 -6 2 -7 2 -6 2 -6 
2 -6 2 -6 2 -6 2 -6 2 -6 2 -6 2 -5 2 -6 
2 -5 2 -6 2 -5 2 -5 2 -6 2 -5 2 -5 1 -5 
2 -4 2 -5 2 -5 2 -5 2 -4 2 -5 2 -4 2 -4 
2 -4 2 -5 2 -4 2 -4 2 -3 2 -4 2 -4 2 -4 
2 -3 2 -4 2 -3 2 -4 2 -3 2 -3 1 -3 2 -3 
2 -3 2 -3 2 -3 2 -3 2 -2 2 -3 2 -3 2 -2 
2 -2 2 -3 2 -2 2 -2 2 -2 2 -2 2 -2 2 -2 
2 -2 2 -2 2 -2 2 -1 1 -2 2 -1 2 -2 2 -1 
2 -1 2 -2 2 -1 2 -1 2 -1 2 -1 2 -1 2 -1 
2 -1 2 -1 2 0 2 -1 2 -1 2 0 2 -1 2 0 
2 -1 2 0 1 0 2 0 2 -1 2 0 2 0 2 0 
2 0 2 0 2 0 2 0 2 1 2 0 2 0 2 0 
2 1 2 0 2 1 2 0 2 1 2 0 2 1 2 0 
1 1 2 1 2 1 2 0 2 1 2 1 2 1 2 1 
2 1 2 1 2 1 3981 1428 300 MP stroke
2 1 2 1 2 1 2 1 2 2 2 1 2 1 2 1 
2 1 2 2 2 1 2 1 1 2 2 1 2 2 2 1 
2 2 2 1 2 2 2 1 2 2 2 1 2 2 2 1 
2 2 2 2 2 1 2 2 2 2 2 1 2 2 2 2 
2 1 2 2 1 2 2 2 2 1 2 2 2 2 2 2 
2 2 2 1 2 2 2 2 2 2 2 2 2 1 2 2 
2 2 2 2 2 2 2 2 2 2 2 1 2 2 2 2 
1 2 2 2 2 2 2 2 2 2 2 1 2 2 2 2 
2 2 2 2 2 2 2 2 2 1 2 2 2 2 2 2 
2 2 2 2 2 1 2 2 2 2 2 2 1 2 2 1 
2 2 2 2 2 2 2 1 2 2 2 2 2 2 2 1 
2 2 2 2 2 1 2 2 2 2 2 1 2 2 2 2 
2 1 2 2 2 1 2 2 1 2 2 1 2 2 2 1 
2 2 2 1 2 2 2 1 2 2 2 1 2 1 2 2 
2 1 2 2 2 1 2 1 2 2 2 1 2 1 2 2 
2 1 2 1 2 1 1 2 2 1 2 1 2 1 2 2 
2 1 2 1 2 1 2 1 2 1 2 1 2 1 2 1 
2 1 2 1 2 1 2 1 2 1 2 1 2 1 2 1 
2 1 1 1 2 1 2 0 2 1 2 1 2 1 2 1 
2 0 2 1 2 1 2 1 2 0 2 1 2 1 2 0 
2 1 2 1 2 0 2 1 2 0 2 1 2 0 1 1 
2 0 2 1 2 0 2 1 2 0 2 1 2 0 2 0 
2 1 2 0 2 0 2 1 2 0 2 0 2 1 2 0 
2 0 2 0 2 1 2 0 2 0 1 0 2 0 2 1 
2 0 2 0 2 0 2 0 2 0 2 0 2 0 2 0 
2 1 2 0 2 0 2 0 2 0 2 0 2 0 2 0 
2 -1 2 0 2 0 2 0 1 0 2 0 2 0 2 0 
2 0 2 0 2 -1 2 0 2 0 2 0 2 0 2 0 
2 -1 2 0 2 0 2 0 2 -1 2 0 2 0 2 0 
2 -1 2 0 1 0 2 0 2 -1 2 0 2 0 2 -1 
2 0 2 0 2 0 2 -1 2 0 2 0 2 -1 2 0 
2 0 2 -1 2 0 2 0 2 -1 2 0 2 -1 2 0 
1 0 2 -1 2 0 2 0 2 -1 2 0 2 -1 2 0 
2 0 2 -1 2 0 2 0 2 -1 2 0 2 -1 2 0 
2 0 2 -1 2 0 2 -1 2 0 2 0 1 -1 2 0 
2 0 2 -1 2 0 2 0 2 -1 2 0 2 -1 2 0 
2 0 2 -1 2 0 2 0 2 -1 2 0 2 0 2 -1 
2 0 2 0 2 -1 3396 1208 300 MP stroke
2 0 1 0 2 0 2 -1 2 0 2 0 2 0 2 -1 
2 0 2 0 2 0 2 -1 2 0 2 0 2 0 2 -1 
2 0 2 0 2 0 2 0 2 0 2 -1 2 0 2 0 
1 0 2 0 2 0 2 0 2 0 2 -1 2 0 2 0 
2 0 2 0 2 0 2 0 2 0 2 0 2 0 2 0 
2 0 2 0 2 0 2 0 2 0 2 0 1 0 2 1 
2 0 2 0 2 0 2 0 2 0 2 0 2 1 2 0 
2 0 2 0 2 0 2 1 2 0 2 0 2 0 2 1 
2 0 2 0 2 1 2 0 1 0 2 1 2 0 2 0 
2 1 2 0 2 1 2 0 2 1 2 0 2 0 2 1 
2 0 2 1 2 1 2 0 2 1 2 0 2 1 2 0 
2 1 2 1 1 0 2 1 2 1 2 0 2 1 2 1 
2 0 2 1 2 1 2 1 2 0 2 1 2 1 2 1 
2 0 2 1 2 1 2 1 2 1 2 1 2 1 2 1 
2 0 1 1 2 1 2 1 2 1 2 1 2 1 2 1 
2 1 2 1 2 1 2 1 2 2 2 1 2 1 2 1 
2 1 2 1 2 1 2 1 2 2 2 1 2 1 1 1 
2 1 2 2 2 1 2 1 2 1 2 2 2 1 2 1 
2 2 2 1 2 1 2 2 2 1 2 1 2 2 2 1 
2 2 2 1 2 1 2 2 2 1 1 2 2 1 2 2 
2 1 2 2 2 1 2 2 2 1 2 2 2 1 2 2 
2 1 2 2 2 2 2 1 2 2 2 1 2 2 2 2 
2 1 2 2 2 1 1 2 2 2 2 1 2 2 2 2 
2 1 2 2 2 2 2 2 2 1 2 2 2 2 2 1 
2 2 2 2 2 2 2 1 2 2 2 2 2 2 2 1 
2 2 1 2 2 2 2 2 2 1 2 2 2 2 2 2 
2 2 2 1 2 2 2 2 2 2 2 2 2 2 2 1 
2 2 2 2 2 2 2 2 2 2 2 1 2 2 2 2 
1 2 2 2 2 2 2 2 2 1 2 2 2 2 2 2 
2 2 2 2 2 2 2 1 2 2 2 2 2 2 2 2 
2 2 2 2 2 1 2 2 2 2 2 2 1 2 2 2 
2 1 2 2 2 2 2 2 2 2 2 2 2 1 2 2 
2 2 2 2 2 2 2 1 2 2 2 2 2 2 2 2 
2 1 2 2 2 2 2 2 1 1 2 2 2 2 2 2 
2 1 2 2 2 2 2 2 2 1 2 2 2 2 2 1 
2 2 2 2 2 1 2 2 2 2 2 1 2 2 2 2 
2 1 2 2 1 1 2 2 2 2 2 1 2 2 2 1 
2 2 2 1 2 2 2812 882 300 MP stroke
2 1 2 2 2 1 2 2 2 1 2 2 2 1 2 2 
2 1 2 2 2 1 2 1 2 2 2 1 1 1 2 2 
2 1 2 2 2 1 2 1 2 1 2 2 2 1 2 1 
2 1 2 2 2 1 2 1 2 1 2 1 2 2 2 1 
2 1 2 1 2 1 2 1 1 1 2 1 2 1 2 1 
2 1 2 1 2 1 2 1 2 1 2 1 2 1 2 1 
2 1 2 1 2 1 2 1 2 1 2 0 2 1 2 1 
2 1 2 1 1 0 2 1 2 1 2 0 2 1 2 1 
2 0 2 1 2 1 2 0 2 1 2 0 2 1 2 1 
2 0 2 1 2 0 2 1 2 0 2 0 2 1 2 0 
1 1 2 0 2 0 2 1 2 0 2 0 2 1 2 0 
2 0 2 0 2 1 2 0 2 0 2 0 2 0 2 0 
2 1 2 0 2 0 2 0 2 0 2 0 1 0 2 0 
2 0 2 0 2 0 2 0 2 0 2 -1 2 0 2 0 
2 0 2 0 2 0 2 -1 2 0 2 0 2 0 2 -1 
2 0 2 0 2 -1 2 0 2 0 1 -1 2 0 2 -1 
2 0 2 0 2 -1 2 0 2 -1 2 0 2 -1 2 -1 
2 0 2 -1 2 0 2 -1 2 -1 2 0 2 -1 2 -1 
2 0 2 -1 2 -1 1 0 2 -1 2 -1 2 -1 2 -1 
2 0 2 -1 2 -1 2 -1 2 -1 2 -1 2 -1 2 -1 
2 -1 2 -1 2 -1 2 -1 2 -1 2 -1 2 -1 2 -1 
2 -1 1 -1 2 -1 2 -1 2 -1 2 -1 2 -1 2 -2 
2 -1 2 -1 2 -1 2 -1 2 -2 2 -1 2 -1 2 -1 
2 -2 2 -1 2 -1 2 -1 2 -2 2 -1 2 -2 1 -1 
2 -1 2 -2 2 -1 2 -1 2 -2 2 -1 2 -2 2 -1 
2 -2 2 -1 2 -2 2 -1 2 -2 2 -1 2 -2 2 -1 
2 -2 2 -1 2 -2 2 -1 2 -2 2 -2 1 -1 2 -2 
2 -1 2 -2 2 -2 2 -1 2 -2 2 -2 2 -1 2 -2 
2 -2 2 -1 2 -2 2 -2 2 -1 2 -2 2 -2 2 -2 
2 -1 2 -2 2 -2 2 -2 1 -1 2 -2 2 -2 2 -2 
2 -1 2 -2 2 -2 2 -2 2 -2 2 -1 2 -2 2 -2 
2 -2 2 -2 2 -1 2 -2 2 -2 2 -2 2 -2 2 -2 
2 -1 2 -2 1 -2 2 -2 2 -2 2 -2 2 -1 2 -2 
2 -2 2 -2 2 -2 2 -2 2 -2 2 -1 2 -2 2 -2 
2 -2 2 -2 2 -2 2 -2 2 -1 2 -2 2 -2 2 -2 
1 -2 2 -2 2 -2 2 -1 2 -2 2 -2 2 -2 2 -2 
2 -2 2 -1 2 -2 2 -2 2 -2 2 -2 2 -2 2 -1 
2 -2 2 -2 2 -2 2227 1047 300 MP stroke
2 -2 2 -1 2 -2 1 -2 2 -2 2 -2 2 -1 2 -2 
2 -2 2 -2 2 -1 2 -2 2 -2 2 -2 2 -1 2 -2 
2 -2 2 -1 2 -2 2 -2 2 -2 2 -1 2 -2 2 -2 
2 -1 2 -2 1 -2 2 -1 2 -2 2 -1 2 -2 2 -2 
2 -1 2 -2 2 -1 2 -2 2 -2 2 -1 2 -2 2 -1 
2 -2 2 -1 2 -2 2 -1 2 -2 2 -1 2 -2 2 -1 
1 -2 2 -1 2 -2 2 -1 2 -1 2 -2 2 -1 2 -2 
2 -1 2 -1 2 -2 2 -1 2 -1 2 -2 2 -1 2 -1 
2 -2 2 -1 2 -1 2 -1 2 -2 2 -1 1 -1 2 -1 
2 -1 2 -2 2 -1 2 -1 2 -1 2 -1 2 -1 2 -1 
2 -1 2 -2 2 -1 2 -1 2 -1 2 -1 2 -1 2 -1 
2 -1 2 -1 2 -1 2 -1 1 -1 2 0 2 -1 2 -1 
2 -1 2 -1 2 -1 2 -1 2 -1 2 0 2 -1 2 -1 
2 -1 2 0 2 -1 2 -1 2 -1 2 0 2 -1 2 -1 
2 0 2 -1 2 -1 1 0 2 -1 2 -1 2 0 2 -1 
2 0 2 -1 2 0 2 -1 2 -1 2 0 2 -1 2 0 
2 0 2 -1 2 0 2 -1 2 0 2 -1 2 0 2 0 
2 -1 1 0 2 0 2 -1 2 0 2 0 2 -1 2 0 
2 0 2 0 2 -1 2 0 2 0 2 0 2 0 2 -1 
2 0 2 0 2 0 2 0 2 0 2 0 2 -1 1 0 
2 0 2 0 2 0 2 0 2 0 2 0 2 0 2 0 
2 0 2 0 2 0 2 0 2 0 2 0 2 0 2 0 
2 1 2 0 2 0 2 0 2 0 1 0 2 0 2 0 
2 1 2 0 2 0 2 0 2 0 2 0 2 1 2 0 
2 0 2 0 2 1 2 0 2 0 2 0 2 1 2 0 
2 0 2 0 2 1 1 0 2 0 2 0 2 1 2 0 
2 0 2 1 2 0 2 0 2 1 2 0 2 0 2 1 
2 0 2 0 2 1 2 0 2 1 2 0 2 0 2 1 
2 0 2 0 1 1 2 0 2 0 2 1 2 0 2 1 
2 0 2 0 2 1 2 0 2 1 2 0 2 0 2 1 
2 0 2 0 2 1 2 0 2 1 2 0 2 0 2 1 
1 0 2 0 2 1 2 0 2 1 2 0 2 0 2 1 
2 0 2 0 2 1 2 0 2 0 2 1 2 0 2 0 
2 0 2 1 2 0 2 0 2 1 2 0 1 0 2 0 
2 1 2 0 2 0 2 0 2 1 2 0 2 0 2 0 
2 1 2 0 2 0 2 0 2 0 2 0 2 1 2 0 
2 0 2 0 2 0 2 0 1 0 2 0 2 0 2 0 
2 1 2 0 2 0 1643 1180 300 MP stroke
2 0 2 0 2 0 2 0 2 0 2 -1 2 0 2 0 
2 0 2 0 2 0 2 0 2 0 2 0 2 -1 2 0 
1 0 2 0 2 0 2 -1 2 0 2 0 2 0 2 -1 
2 0 2 0 2 -1 2 0 2 0 2 -1 2 0 2 0 
2 -1 2 0 2 -1 2 0 2 -1 2 0 1 -1 2 0 
2 -1 2 0 2 -1 2 0 2 -1 2 -1 2 0 2 -1 
2 -1 2 0 2 -1 2 -1 2 -1 2 0 2 -1 2 -1 
2 -1 2 -1 2 0 2 -1 1 -1 2 -1 2 -1 2 -1 
2 -1 2 -1 2 -1 2 -1 2 -1 2 -1 2 -1 2 -1 
2 -1 2 -1 2 -1 2 -1 2 -1 2 -1 2 -2 2 -1 
2 -1 2 -1 1 -2 2 -1 2 -1 2 -1 2 -2 2 -1 
2 -1 2 -2 2 -1 2 -1 2 -2 2 -1 2 -2 2 -1 
2 -1 2 -2 2 -1 2 -2 2 -1 2 -2 2 -1 2 -2 
1 -1 2 -2 2 -2 2 -1 2 -2 2 -1 2 -2 2 -2 
2 -1 2 -2 2 -2 2 -1 2 -2 2 -2 2 -1 2 -2 
2 -2 2 -2 2 -1 2 -2 2 -2 2 -2 2 -1 1 -2 
2 -2 2 -2 2 -2 2 -1 2 -2 2 -2 2 -2 2 -2 
2 -2 2 -1 2 -2 2 -2 2 -2 2 -2 2 -2 2 -2 
2 -1 2 -2 2 -2 2 -2 2 -2 1 -2 2 -2 2 -2 
2 -1 2 -2 2 -2 2 -2 2 -2 2 -2 2 -2 2 -1 
2 -2 2 -2 2 -2 2 -2 2 -1 2 -2 2 -2 2 -2 
2 -2 2 -1 2 -2 1 -2 2 -2 2 -1 2 -2 2 -2 
2 -1 2 -2 2 -2 2 -1 2 -2 2 -2 2 -1 2 -2 
2 -1 2 -2 2 -1 2 -2 2 -1 2 -2 2 -1 2 -2 
2 -1 1 -2 2 -1 2 -1 2 -2 2 -1 2 -1 2 -1 
2 -1 2 -2 2 -1 2 -1 2 -1 2 -1 2 -1 2 -1 
2 -1 2 -1 2 -1 2 -1 2 -1 2 0 2 -1 2 -1 
1 -1 2 0 2 -1 2 0 2 -1 2 0 2 -1 2 0 
2 -1 2 0 2 0 2 0 2 -1 2 0 2 0 2 0 
2 0 2 0 2 0 2 0 2 1 2 0 1 0 2 0 
2 1 2 0 2 1 2 0 2 1 2 1 2 0 2 1 
2 1 2 1 2 1 2 1 2 1 2 1 2 1 2 2 
2 1 2 1 2 2 2 1 1 2 2 1 2 2 2 2 
2 2 2 2 2 2 2 2 2 2 2 2 2 2 2 3 
2 2 2 2 2 3 2 3 2 2 2 3 2 3 2 3 
2 3 2 3 1 3 2 3 2 3 2 4 2 3 2 4 
2 3 2 4 2 4 2 4 2 3 2 4 2 4 2 5 
2 4 2 4 2 4 1058 1309 300 MP stroke
2 5 2 4 2 5 2 5 2 5 1 4 2 5 2 5 
2 5 2 6 2 5 2 5 2 6 2 5 2 6 2 5 
2 6 2 6 2 6 2 6 2 6 2 6 2 6 2 6 
2 7 2 6 2 7 2 6 1 7 2 7 2 6 2 7 
2 7 2 7 2 7 2 8 2 7 2 7 2 7 2 8 
2 7 2 8 2 8 2 7 2 8 2 8 2 8 2 8 
2 8 2 8 1 8 2 8 2 9 2 8 2 8 2 9 
2 8 2 9 2 8 2 9 2 9 2 8 2 9 2 9 
2 9 2 8 2 9 2 9 2 9 2 9 2 9 2 9 
1 9 2 9 2 9 2 9 2 9 2 9 2 10 2 9 
2 9 2 9 2 9 2 9 2 9 2 9 2 9 2 9 
2 9 2 9 2 9 2 9 2 9 2 9 1 9 2 9 
2 8 2 9 2 9 2 8 2 9 2 8 2 9 2 8 
2 8 2 8 2 8 2 8 2 8 2 8 2 7 2 8 
2 7 2 7 2 8 2 7 2 6 1 7 2 7 2 6 
2 7 2 6 2 6 2 5 2 6 2 5 2 6 2 5 
2 4 2 5 2 4 2 4 2 4 2 4 2 3 2 3 
2 3 2 3 2 2 1 2 2 2 2 2 2 1 2 1 
2 0 2 0 2 0 2 0 2 -1 2 -1 2 -2 2 -2 
2 -2 2 -3 2 -3 2 -4 2 -4 2 -4 2 -5 2 -6 
2 -5 1 -7 2 -6 2 -8 2 -8 2 -8 2 -9 2 -9 
2 -10 2 -11 2 -11 2 -12 2 -12 2 -13 2 -14 2 -14 
2 -15 2 -15 2 -16 2 -17 2 -18 2 -18 2 -19 1 -20 
2 -21 2 -21 2 -22 2 -23 2 -24 2 -24 2 -26 2 -26 
2 -27 2 -28 2 -29 2 -30 2 -31 2 -31 2 -33 2 -34 
2 -35 2 -35 2 -37 2 -38 2 -39 1 -40 656 1291 207 MP stroke
/c11 { 0.000000 0.750000 0.750000 sr} bdef
c11
2 12 2 13 2 11 2 12 2 11 2 11 2 10 2 10 
2 10 2 9 2 10 2 8 2 9 2 8 2 8 2 8 
2 7 2 7 2 7 2 7 2 6 2 6 1 6 2 6 
2 5 2 5 2 5 2 5 2 4 2 4 2 4 2 4 
2 4 2 3 2 3 2 3 2 3 2 3 2 2 2 3 
2 2 2 2 2 2 2 1 1 2 2 1 2 1 2 1 
2 1 2 1 2 1 2 0 2 1 2 0 2 0 2 0 
2 0 2 0 2 0 2 -1 2 0 2 -1 2 -1 2 0 
2 -1 2 -1 1 -1 2 -1 2 -2 2 -1 2 -1 2 -2 
2 -1 2 -2 2 -2 2 -1 2 -2 2 -2 2 -2 2 -2 
2 -2 2 -2 2 -2 2 -2 2 -3 2 -2 2 -2 2 -3 
1 -2 2 -2 2 -3 2 -2 2 -3 2 -3 2 -2 2 -3 
2 -2 2 -3 2 -3 2 -2 2 -3 2 -3 2 -3 2 -2 
2 -3 2 -3 2 -3 2 -3 2 -3 2 -2 2 -3 1 -3 
2 -3 2 -3 2 -3 2 -3 2 -3 2 -2 2 -3 2 -3 
2 -3 2 -3 2 -3 2 -3 2 -3 2 -2 2 -3 2 -3 
2 -3 2 -3 2 -2 2 -3 2 -3 1 -3 2 -2 2 -3 
2 -3 2 -3 2 -2 2 -3 2 -3 2 -2 2 -3 2 -2 
2 -3 2 -3 2 -2 2 -3 2 -2 2 -3 2 -2 2 -2 
2 -3 2 -2 2 -3 1 -2 2 -2 2 -2 2 -3 2 -2 
2 -2 2 -2 2 -2 2 -3 2 -2 2 -2 2 -2 2 -2 
2 -2 2 -2 2 -2 2 -2 2 -1 2 -2 2 -2 2 -2 
2 -2 1 -1 2 -2 2 -2 2 -2 2 -1 2 -2 2 -1 
2 -2 2 -1 2 -2 2 -1 2 -2 2 -1 2 -2 2 -1 
2 -1 2 -2 2 -1 2 -1 2 -1 2 -1 2 -2 1 -1 
2 -1 2 -1 2 -1 2 -1 2 -1 2 -1 2 -1 2 -1 
2 -1 2 0 2 -1 2 -1 2 -1 2 -1 2 0 2 -1 
2 -1 2 0 2 -1 2 -1 2 0 2 -1 1 0 2 -1 
2 0 2 -1 2 0 2 0 2 -1 2 0 2 -1 2 0 
2 0 2 0 2 -1 2 0 2 0 2 0 2 0 2 -1 
2 0 2 0 2 0 2 0 1 0 2 0 2 0 2 0 
2 0 2 0 2 0 2 0 2 0 2 1 2 0 2 0 
2 0 2 0 2 0 2 1 2 0 2 0 2 0 2 1 
2 0 2 0 1 1 2 0 2 0 2 1 2 0 2 0 
2 1 2 0 2 1 2 0 2 1 2 0 2 1 2 0 
2 0 2 1 2 1 2 0 2 1 2 0 2 1 2 0 
1 1 2 0 2 1 2 1 2 0 2 1 2 0 2 1 
2 1 2 0 2 1 3981 1311 300 MP stroke
2 1 2 0 2 1 2 1 2 0 2 1 2 1 2 0 
2 1 2 1 2 0 2 1 1 1 2 1 2 0 2 1 
2 1 2 1 2 0 2 1 2 1 2 0 2 1 2 1 
2 1 2 0 2 1 2 1 2 1 2 0 2 1 2 1 
2 1 2 0 1 1 2 1 2 1 2 0 2 1 2 1 
2 1 2 0 2 1 2 1 2 0 2 1 2 1 2 1 
2 0 2 1 2 1 2 1 2 0 2 1 2 1 2 0 
1 1 2 1 2 1 2 0 2 1 2 1 2 0 2 1 
2 1 2 0 2 1 2 1 2 0 2 1 2 1 2 0 
2 1 2 0 2 1 2 1 2 0 2 1 1 0 2 1 
2 1 2 0 2 1 2 0 2 1 2 1 2 0 2 1 
2 0 2 1 2 0 2 1 2 0 2 1 2 0 2 1 
2 0 2 1 2 0 2 1 1 0 2 1 2 0 2 1 
2 0 2 1 2 0 2 0 2 1 2 0 2 1 2 0 
2 0 2 1 2 0 2 1 2 0 2 0 2 1 2 0 
2 0 2 1 2 0 1 0 2 1 2 0 2 0 2 1 
2 0 2 0 2 0 2 1 2 0 2 0 2 1 2 0 
2 0 2 0 2 1 2 0 2 0 2 0 2 0 2 1 
2 0 1 0 2 0 2 0 2 0 2 1 2 0 2 0 
2 0 2 0 2 0 2 1 2 0 2 0 2 0 2 0 
2 0 2 0 2 0 2 0 2 1 2 0 2 0 1 0 
2 0 2 0 2 0 2 0 2 0 2 0 2 0 2 0 
2 0 2 0 2 0 2 0 2 0 2 0 2 0 2 0 
2 0 2 0 2 0 2 0 2 0 1 0 2 0 2 0 
2 0 2 0 2 0 2 0 2 0 2 0 2 0 2 0 
2 0 2 0 2 0 2 0 2 0 2 0 2 0 2 0 
2 0 2 0 2 0 2 0 1 0 2 0 2 0 2 0 
2 0 2 0 2 0 2 -1 2 0 2 0 2 0 2 0 
2 0 2 0 2 0 2 0 2 0 2 0 2 0 2 0 
2 0 2 0 1 0 2 0 2 0 2 0 2 0 2 0 
2 0 2 0 2 0 2 0 2 0 2 -1 2 0 2 0 
2 0 2 0 2 0 2 0 2 0 2 0 2 0 2 0 
1 0 2 0 2 0 2 1 2 0 2 0 2 0 2 0 
2 0 2 0 2 0 2 0 2 0 2 0 2 0 2 0 
2 0 2 0 2 0 2 0 2 0 2 1 1 0 2 0 
2 0 2 0 2 0 2 0 2 0 2 1 2 0 2 0 
2 0 2 0 2 0 2 0 2 1 2 0 2 0 2 0 
2 0 2 1 2 0 3396 1223 300 MP stroke
2 0 1 0 2 1 2 0 2 0 2 0 2 1 2 0 
2 0 2 0 2 1 2 0 2 0 2 1 2 0 2 0 
2 1 2 0 2 0 2 1 2 0 2 0 2 1 2 0 
1 0 2 1 2 0 2 1 2 0 2 0 2 1 2 0 
2 1 2 0 2 1 2 0 2 1 2 0 2 1 2 0 
2 1 2 0 2 1 2 0 2 1 2 0 1 1 2 1 
2 0 2 1 2 0 2 1 2 0 2 1 2 1 2 0 
2 1 2 1 2 0 2 1 2 1 2 0 2 1 2 1 
2 0 2 1 2 1 2 1 1 0 2 1 2 1 2 1 
2 0 2 1 2 1 2 1 2 1 2 0 2 1 2 1 
2 1 2 1 2 1 2 1 2 0 2 1 2 1 2 1 
2 1 2 1 1 1 2 1 2 1 2 1 2 1 2 1 
2 1 2 0 2 1 2 1 2 1 2 1 2 1 2 2 
2 1 2 1 2 1 2 1 2 1 2 1 2 1 2 1 
2 1 1 1 2 1 2 1 2 2 2 1 2 1 2 1 
2 1 2 1 2 1 2 2 2 1 2 1 2 1 2 1 
2 1 2 2 2 1 2 1 2 1 2 2 2 1 1 1 
2 1 2 2 2 1 2 1 2 1 2 2 2 1 2 1 
2 2 2 1 2 1 2 1 2 2 2 1 2 1 2 2 
2 1 2 1 2 2 2 1 2 1 1 2 2 1 2 2 
2 1 2 1 2 2 2 1 2 1 2 2 2 1 2 2 
2 1 2 1 2 2 2 1 2 2 2 1 2 2 2 1 
2 1 2 2 2 1 1 2 2 1 2 2 2 1 2 2 
2 1 2 1 2 2 2 1 2 2 2 1 2 2 2 1 
2 2 2 1 2 2 2 1 2 2 2 1 2 2 2 1 
2 2 1 1 2 2 2 1 2 1 2 2 2 1 2 2 
2 1 2 2 2 1 2 2 2 1 2 2 2 1 2 2 
2 1 2 2 2 1 2 2 2 1 2 2 2 1 2 2 
1 1 2 2 2 1 2 2 2 1 2 1 2 2 2 1 
2 2 2 1 2 2 2 1 2 2 2 1 2 2 2 1 
2 1 2 2 2 1 2 2 2 1 2 2 1 1 2 1 
2 2 2 1 2 2 2 1 2 2 2 1 2 1 2 2 
2 1 2 1 2 2 2 1 2 2 2 1 2 1 2 2 
2 1 2 1 2 2 2 1 1 1 2 2 2 1 2 1 
2 2 2 1 2 1 2 1 2 2 2 1 2 1 2 1 
2 2 2 1 2 1 2 1 2 2 2 1 2 1 2 1 
2 1 2 2 1 1 2 1 2 1 2 1 2 1 2 2 
2 1 2 1 2 1 2812 898 300 MP stroke
2 1 2 1 2 1 2 1 2 1 2 2 2 1 2 1 
2 1 2 1 2 1 2 1 2 1 2 1 1 1 2 1 
2 1 2 1 2 1 2 1 2 1 2 0 2 1 2 1 
2 1 2 1 2 1 2 1 2 1 2 1 2 0 2 1 
2 1 2 1 2 1 2 0 1 1 2 1 2 1 2 0 
2 1 2 1 2 1 2 0 2 1 2 1 2 0 2 1 
2 1 2 0 2 1 2 1 2 0 2 1 2 0 2 1 
2 0 2 1 1 1 2 0 2 1 2 0 2 1 2 0 
2 0 2 1 2 0 2 1 2 0 2 1 2 0 2 0 
2 1 2 0 2 0 2 1 2 0 2 0 2 1 2 0 
1 0 2 1 2 0 2 0 2 0 2 0 2 1 2 0 
2 0 2 0 2 0 2 1 2 0 2 0 2 0 2 0 
2 0 2 0 2 0 2 0 2 0 2 0 1 0 2 0 
2 0 2 0 2 0 2 0 2 0 2 0 2 0 2 0 
2 0 2 0 2 -1 2 0 2 0 2 0 2 0 2 -1 
2 0 2 0 2 0 2 0 2 -1 1 0 2 0 2 -1 
2 0 2 0 2 -1 2 0 2 0 2 -1 2 0 2 0 
2 -1 2 0 2 -1 2 0 2 -1 2 0 2 0 2 -1 
2 0 2 -1 2 0 1 -1 2 -1 2 0 2 -1 2 0 
2 -1 2 0 2 -1 2 -1 2 0 2 -1 2 -1 2 0 
2 -1 2 -1 2 0 2 -1 2 -1 2 -1 2 0 2 -1 
2 -1 1 -1 2 0 2 -1 2 -1 2 -1 2 -1 2 0 
2 -1 2 -1 2 -1 2 -1 2 -1 2 -1 2 -1 2 -1 
2 0 2 -1 2 -1 2 -1 2 -1 2 -1 2 -1 1 -1 
2 -1 2 -1 2 -1 2 -1 2 -1 2 -1 2 -1 2 -1 
2 -2 2 -1 2 -1 2 -1 2 -1 2 -1 2 -1 2 -1 
2 -1 2 -2 2 -1 2 -1 2 -1 2 -1 1 -1 2 -2 
2 -1 2 -1 2 -1 2 -1 2 -2 2 -1 2 -1 2 -1 
2 -2 2 -1 2 -1 2 -1 2 -2 2 -1 2 -1 2 -1 
2 -2 2 -1 2 -1 2 -2 1 -1 2 -1 2 -2 2 -1 
2 -1 2 -2 2 -1 2 -1 2 -2 2 -1 2 -2 2 -1 
2 -1 2 -2 2 -1 2 -1 2 -2 2 -1 2 -2 2 -1 
2 -2 2 -1 1 -1 2 -2 2 -1 2 -2 2 -1 2 -2 
2 -1 2 -1 2 -2 2 -1 2 -2 2 -1 2 -2 2 -1 
2 -2 2 -1 2 -2 2 -1 2 -1 2 -2 2 -1 2 -2 
1 -1 2 -2 2 -1 2 -2 2 -1 2 -2 2 -1 2 -2 
2 -1 2 -2 2 -1 2 -2 2 -1 2 -2 2 -1 2 -2 
2 -1 2 -2 2 -1 2227 1025 300 MP stroke
2 -2 2 -1 2 -1 1 -2 2 -1 2 -2 2 -1 2 -2 
2 -1 2 -2 2 -1 2 -2 2 -1 2 -2 2 -1 2 -2 
2 -1 2 -2 2 -1 2 -2 2 -1 2 -1 2 -2 2 -1 
2 -2 2 -1 1 -2 2 -1 2 -2 2 -1 2 -1 2 -2 
2 -1 2 -2 2 -1 2 -2 2 -1 2 -1 2 -2 2 -1 
2 -2 2 -1 2 -1 2 -2 2 -1 2 -1 2 -2 2 -1 
1 -2 2 -1 2 -1 2 -2 2 -1 2 -1 2 -2 2 -1 
2 -1 2 -2 2 -1 2 -1 2 -1 2 -2 2 -1 2 -1 
2 -2 2 -1 2 -1 2 -1 2 -2 2 -1 1 -1 2 -1 
2 -2 2 -1 2 -1 2 -1 2 -2 2 -1 2 -1 2 -1 
2 -1 2 -1 2 -2 2 -1 2 -1 2 -1 2 -1 2 -1 
2 -1 2 -2 2 -1 2 -1 1 -1 2 -1 2 -1 2 -1 
2 -1 2 -1 2 -1 2 -1 2 -1 2 -1 2 -2 2 -1 
2 -1 2 -1 2 -1 2 -1 2 0 2 -1 2 -1 2 -1 
2 -1 2 -1 2 -1 1 -1 2 -1 2 -1 2 -1 2 -1 
2 -1 2 0 2 -1 2 -1 2 -1 2 -1 2 -1 2 -1 
2 0 2 -1 2 -1 2 -1 2 -1 2 0 2 -1 2 -1 
2 -1 1 0 2 -1 2 -1 2 -1 2 0 2 -1 2 -1 
2 0 2 -1 2 -1 2 0 2 -1 2 -1 2 0 2 -1 
2 -1 2 0 2 -1 2 0 2 -1 2 0 2 -1 1 -1 
2 0 2 -1 2 0 2 -1 2 0 2 -1 2 0 2 -1 
2 0 2 -1 2 0 2 -1 2 0 2 -1 2 0 2 -1 
2 0 2 0 2 -1 2 0 2 -1 1 0 2 0 2 -1 
2 0 2 0 2 -1 2 0 2 0 2 -1 2 0 2 0 
2 -1 2 0 2 0 2 -1 2 0 2 0 2 0 2 -1 
2 0 2 0 2 0 1 -1 2 0 2 0 2 0 2 -1 
2 0 2 0 2 0 2 0 2 -1 2 0 2 0 2 0 
2 0 2 0 2 0 2 -1 2 0 2 0 2 0 2 0 
2 0 2 0 1 0 2 -1 2 0 2 0 2 0 2 0 
2 0 2 0 2 0 2 0 2 0 2 0 2 0 2 0 
2 0 2 0 2 0 2 0 2 0 2 -1 2 0 2 0 
1 0 2 0 2 0 2 0 2 0 2 0 2 0 2 0 
2 0 2 0 2 0 2 1 2 0 2 0 2 0 2 0 
2 0 2 0 2 0 2 0 2 0 2 0 1 0 2 0 
2 0 2 0 2 0 2 0 2 0 2 0 2 0 2 0 
2 0 2 0 2 0 2 0 2 0 2 1 2 0 2 0 
2 0 2 0 2 0 2 0 1 0 2 0 2 0 2 0 
2 0 2 0 2 0 1643 1226 300 MP stroke
2 0 2 0 2 0 2 0 2 0 2 0 2 0 2 0 
2 0 2 0 2 0 2 0 2 0 2 0 2 0 2 0 
1 0 2 0 2 0 2 0 2 0 2 0 2 0 2 0 
2 0 2 0 2 0 2 0 2 0 2 0 2 0 2 0 
2 0 2 0 2 0 2 0 2 0 2 0 1 0 2 0 
2 0 2 -1 2 0 2 0 2 0 2 0 2 0 2 0 
2 0 2 0 2 -1 2 0 2 0 2 0 2 0 2 0 
2 -1 2 0 2 0 2 0 1 0 2 0 2 -1 2 0 
2 0 2 0 2 0 2 -1 2 0 2 0 2 0 2 -1 
2 0 2 0 2 -1 2 0 2 0 2 0 2 -1 2 0 
2 0 2 -1 1 0 2 0 2 -1 2 0 2 0 2 -1 
2 0 2 0 2 -1 2 0 2 -1 2 0 2 0 2 -1 
2 0 2 -1 2 0 2 0 2 -1 2 0 2 -1 2 0 
1 -1 2 0 2 -1 2 0 2 -1 2 0 2 -1 2 0 
2 -1 2 0 2 -1 2 0 2 -1 2 0 2 -1 2 0 
2 -1 2 -1 2 0 2 -1 2 0 2 -1 2 -1 1 0 
2 -1 2 0 2 -1 2 -1 2 0 2 -1 2 0 2 -1 
2 -1 2 0 2 -1 2 -1 2 0 2 -1 2 -1 2 0 
2 -1 2 -1 2 0 2 -1 2 -1 1 -1 2 0 2 -1 
2 -1 2 0 2 -1 2 -1 2 -1 2 0 2 -1 2 -1 
2 -1 2 0 2 -1 2 -1 2 0 2 -1 2 -1 2 -1 
2 0 2 -1 2 -1 1 -1 2 0 2 -1 2 -1 2 -1 
2 0 2 -1 2 -1 2 -1 2 0 2 -1 2 -1 2 -1 
2 0 2 -1 2 -1 2 0 2 -1 2 -1 2 -1 2 0 
2 -1 1 -1 2 -1 2 0 2 -1 2 -1 2 0 2 -1 
2 -1 2 0 2 -1 2 -1 2 0 2 -1 2 -1 2 0 
2 -1 2 -1 2 0 2 -1 2 0 2 -1 2 -1 2 0 
1 -1 2 0 2 -1 2 0 2 -1 2 0 2 -1 2 -1 
2 0 2 0 2 -1 2 0 2 -1 2 0 2 -1 2 0 
2 -1 2 0 2 0 2 -1 2 0 2 0 1 -1 2 0 
2 0 2 -1 2 0 2 0 2 0 2 -1 2 0 2 0 
2 0 2 0 2 0 2 -1 2 0 2 0 2 0 2 0 
2 0 2 0 2 0 2 0 1 0 2 0 2 0 2 0 
2 0 2 1 2 0 2 0 2 0 2 0 2 1 2 0 
2 0 2 0 2 1 2 0 2 1 2 0 2 0 2 1 
2 0 2 1 1 0 2 1 2 0 2 1 2 1 2 0 
2 1 2 1 2 0 2 1 2 1 2 1 2 1 2 0 
2 1 2 1 2 1 1058 1313 300 MP stroke
2 1 2 1 2 1 2 1 2 1 1 1 2 1 2 2 
2 1 2 1 2 1 2 1 2 2 2 1 2 1 2 2 
2 1 2 2 2 1 2 2 2 1 2 2 2 1 2 2 
2 1 2 2 2 2 2 2 1 1 2 2 2 2 2 2 
2 2 2 1 2 2 2 2 2 2 2 2 2 2 2 2 
2 2 2 2 2 3 2 2 2 2 2 2 2 2 2 3 
2 2 2 2 1 2 2 3 2 2 2 3 2 2 2 2 
2 3 2 2 2 3 2 2 2 3 2 3 2 2 2 3 
2 2 2 3 2 3 2 2 2 3 2 3 2 3 2 2 
1 3 2 3 2 3 2 2 2 3 2 3 2 3 2 3 
2 2 2 3 2 3 2 3 2 3 2 3 2 3 2 3 
2 2 2 3 2 3 2 3 2 3 2 3 1 3 2 3 
2 2 2 3 2 3 2 3 2 3 2 3 2 2 2 3 
2 3 2 3 2 2 2 3 2 3 2 2 2 3 2 2 
2 3 2 3 2 2 2 3 2 2 1 2 2 3 2 2 
2 2 2 3 2 2 2 2 2 2 2 2 2 2 2 2 
2 2 2 2 2 1 2 2 2 2 2 1 2 2 2 1 
2 1 2 2 2 1 1 1 2 1 2 1 2 0 2 1 
2 1 2 0 2 1 2 0 2 0 2 0 2 0 2 0 
2 0 2 -1 2 0 2 -1 2 -1 2 -1 2 -1 2 -1 
2 -1 1 -2 2 -1 2 -2 2 -2 2 -2 2 -3 2 -2 
2 -3 2 -3 2 -3 2 -3 2 -3 2 -4 2 -4 2 -4 
2 -4 2 -4 2 -5 2 -5 2 -5 2 -5 2 -6 1 -6 
2 -6 2 -6 2 -7 2 -7 2 -7 2 -7 2 -8 2 -8 
2 -8 2 -9 2 -8 2 -10 2 -9 2 -10 2 -10 2 -10 
2 -11 2 -11 2 -12 2 -11 2 -13 1 -12 656 1291 207 MP stroke
/c12 { 0.750000 0.000000 0.750000 sr} bdef
c12
2 -97 2 -94 2 -90 2 -87 2 -84 2 -81 2 -78 2 -74 
2 -72 2 -69 2 -66 2 -63 2 -61 2 -58 2 -56 2 -53 
2 -50 2 -49 2 -45 2 -44 2 -42 2 -39 1 -37 2 -36 
2 -33 2 -31 2 -30 2 -27 2 -26 2 -24 2 -22 2 -21 
2 -19 2 -18 2 -16 2 -14 2 -13 2 -12 2 -10 2 -9 
2 -8 2 -7 2 -5 2 -4 1 -3 2 -2 2 -1 2 0 
2 1 2 3 2 3 2 4 2 5 2 5 2 7 2 7 
2 8 2 9 2 9 2 10 2 11 2 12 2 12 2 12 
2 13 2 14 1 14 2 15 2 15 2 16 2 16 2 16 
2 17 2 17 2 17 2 18 2 18 2 19 2 18 2 19 
2 19 2 20 2 19 2 20 2 20 2 20 2 21 2 20 
1 21 2 20 2 21 2 21 2 21 2 21 2 21 2 21 
2 21 2 21 2 21 2 21 2 21 2 21 2 21 2 21 
2 21 2 21 2 21 2 21 2 20 2 21 2 20 1 21 
2 20 2 20 2 20 2 20 2 20 2 20 2 19 2 19 
2 20 2 19 2 19 2 18 2 19 2 18 2 19 2 18 
2 18 2 17 2 18 2 17 2 17 1 17 2 17 2 16 
2 17 2 16 2 16 2 15 2 16 2 15 2 15 2 15 
2 15 2 14 2 14 2 14 2 14 2 14 2 13 2 13 
2 13 2 13 2 12 1 12 2 12 2 12 2 12 2 11 
2 11 2 11 2 11 2 10 2 11 2 10 2 9 2 10 
2 9 2 10 2 9 2 8 2 9 2 8 2 8 2 8 
2 8 1 8 2 7 2 7 2 7 2 7 2 6 2 7 
2 6 2 6 2 5 2 6 2 5 2 6 2 5 2 5 
2 4 2 5 2 4 2 4 2 4 2 4 2 4 1 3 
2 4 2 3 2 3 2 3 2 2 2 3 2 2 2 3 
2 2 2 2 2 2 2 1 2 2 2 2 2 1 2 1 
2 1 2 1 2 1 2 1 2 0 2 1 1 0 2 0 
2 0 2 0 2 0 2 0 2 0 2 -1 2 0 2 -1 
2 0 2 -1 2 -1 2 -1 2 -1 2 -1 2 -1 2 -1 
2 -2 2 -1 2 -1 2 -2 1 -1 2 -2 2 -2 2 -2 
2 -2 2 -1 2 -2 2 -2 2 -2 2 -3 2 -2 2 -2 
2 -2 2 -3 2 -2 2 -2 2 -3 2 -2 2 -3 2 -2 
2 -3 2 -2 1 -3 2 -3 2 -2 2 -3 2 -3 2 -3 
2 -2 2 -3 2 -3 2 -3 2 -3 2 -2 2 -3 2 -3 
2 -3 2 -3 2 -3 2 -3 2 -3 2 -2 2 -3 2 -3 
1 -3 2 -3 2 -3 2 -3 2 -3 2 -3 2 -3 2 -2 
2 -3 2 -3 2 -3 3981 1183 300 MP stroke
2 -3 2 -3 2 -2 2 -3 2 -3 2 -3 2 -2 2 -3 
2 -3 2 -3 2 -2 2 -3 1 -3 2 -2 2 -3 2 -2 
2 -3 2 -2 2 -3 2 -2 2 -3 2 -2 2 -2 2 -3 
2 -2 2 -2 2 -3 2 -2 2 -2 2 -2 2 -2 2 -3 
2 -2 2 -2 1 -2 2 -2 2 -2 2 -2 2 -2 2 -1 
2 -2 2 -2 2 -2 2 -1 2 -2 2 -2 2 -1 2 -2 
2 -2 2 -1 2 -2 2 -1 2 -1 2 -2 2 -1 2 -1 
1 -2 2 -1 2 -1 2 -1 2 -2 2 -1 2 -1 2 -1 
2 -1 2 -1 2 -1 2 0 2 -1 2 -1 2 -1 2 -1 
2 0 2 -1 2 -1 2 0 2 -1 2 -1 1 0 2 -1 
2 0 2 0 2 -1 2 0 2 0 2 -1 2 0 2 0 
2 0 2 -1 2 0 2 0 2 0 2 0 2 0 2 0 
2 0 2 0 2 0 2 0 1 0 2 1 2 0 2 0 
2 0 2 0 2 1 2 0 2 0 2 1 2 0 2 1 
2 0 2 1 2 0 2 1 2 0 2 1 2 0 2 1 
2 0 2 1 2 1 1 0 2 1 2 1 2 0 2 1 
2 1 2 1 2 0 2 1 2 1 2 1 2 1 2 1 
2 0 2 1 2 1 2 1 2 1 2 1 2 1 2 1 
2 1 1 1 2 1 2 1 2 1 2 1 2 1 2 1 
2 1 2 1 2 1 2 1 2 1 2 1 2 1 2 2 
2 1 2 1 2 1 2 1 2 1 2 1 2 1 1 1 
2 2 2 1 2 1 2 1 2 1 2 1 2 1 2 1 
2 2 2 1 2 1 2 1 2 1 2 1 2 1 2 1 
2 2 2 1 2 1 2 1 2 1 1 1 2 1 2 1 
2 1 2 2 2 1 2 1 2 1 2 1 2 1 2 1 
2 1 2 1 2 1 2 1 2 1 2 1 2 1 2 1 
2 1 2 1 2 1 2 1 1 1 2 1 2 1 2 1 
2 1 2 1 2 1 2 1 2 1 2 0 2 1 2 1 
2 1 2 1 2 1 2 1 2 0 2 1 2 1 2 1 
2 1 2 0 1 1 2 1 2 1 2 0 2 1 2 1 
2 1 2 0 2 1 2 1 2 0 2 1 2 1 2 0 
2 1 2 0 2 1 2 1 2 0 2 1 2 0 2 1 
1 0 2 1 2 0 2 1 2 0 2 1 2 0 2 1 
2 0 2 1 2 0 2 1 2 0 2 0 2 1 2 0 
2 1 2 0 2 0 2 1 2 0 2 0 1 1 2 0 
2 0 2 1 2 0 2 0 2 0 2 1 2 0 2 0 
2 0 2 1 2 0 2 0 2 0 2 0 2 1 2 0 
2 0 2 0 2 0 3396 1181 300 MP stroke
2 1 1 0 2 0 2 0 2 0 2 0 2 0 2 0 
2 1 2 0 2 0 2 0 2 0 2 0 2 0 2 0 
2 0 2 0 2 1 2 0 2 0 2 0 2 0 2 0 
1 0 2 0 2 0 2 0 2 0 2 0 2 0 2 0 
2 0 2 0 2 1 2 0 2 0 2 0 2 0 2 0 
2 0 2 0 2 0 2 0 2 0 2 0 1 0 2 0 
2 0 2 0 2 0 2 0 2 1 2 0 2 0 2 0 
2 0 2 0 2 0 2 0 2 0 2 0 2 0 2 1 
2 0 2 0 2 0 2 0 1 0 2 0 2 0 2 1 
2 0 2 0 2 0 2 0 2 1 2 0 2 0 2 0 
2 0 2 1 2 0 2 0 2 0 2 1 2 0 2 0 
2 0 2 1 1 0 2 0 2 1 2 0 2 0 2 1 
2 0 2 0 2 1 2 0 2 1 2 0 2 0 2 1 
2 0 2 1 2 0 2 1 2 0 2 1 2 0 2 1 
2 0 1 1 2 0 2 1 2 0 2 1 2 1 2 0 
2 1 2 0 2 1 2 1 2 0 2 1 2 1 2 0 
2 1 2 1 2 1 2 0 2 1 2 1 2 1 1 1 
2 0 2 1 2 1 2 1 2 1 2 1 2 1 2 0 
2 1 2 1 2 1 2 1 2 1 2 1 2 1 2 1 
2 1 2 1 2 1 2 1 2 1 1 2 2 1 2 1 
2 1 2 1 2 1 2 1 2 2 2 1 2 1 2 1 
2 1 2 2 2 1 2 1 2 1 2 2 2 1 2 1 
2 2 2 1 2 1 1 2 2 1 2 1 2 2 2 1 
2 2 2 1 2 1 2 2 2 1 2 2 2 1 2 2 
2 1 2 2 2 1 2 2 2 1 2 2 2 1 2 2 
2 2 1 1 2 2 2 1 2 2 2 2 2 1 2 2 
2 2 2 1 2 2 2 1 2 2 2 2 2 2 2 1 
2 2 2 2 2 1 2 2 2 2 2 2 2 1 2 2 
1 2 2 2 2 1 2 2 2 2 2 2 2 2 2 1 
2 2 2 2 2 2 2 2 2 1 2 2 2 2 2 2 
2 2 2 1 2 2 2 2 2 2 2 2 1 2 2 1 
2 2 2 2 2 2 2 2 2 2 2 2 2 1 2 2 
2 2 2 2 2 2 2 2 2 2 2 1 2 2 2 2 
2 2 2 2 2 2 2 1 1 2 2 2 2 2 2 2 
2 2 2 1 2 2 2 2 2 2 2 2 2 1 2 2 
2 2 2 2 2 2 2 1 2 2 2 2 2 2 2 1 
2 2 2 2 1 1 2 2 2 2 2 2 2 1 2 2 
2 2 2 1 2 2 2812 893 300 MP stroke
2 2 2 1 2 2 2 2 2 1 2 2 2 1 2 2 
2 2 2 1 2 2 2 1 2 2 2 1 1 2 2 1 
2 2 2 1 2 2 2 1 2 2 2 1 2 2 2 1 
2 1 2 2 2 1 2 1 2 2 2 1 2 1 2 2 
2 1 2 1 2 1 2 2 1 1 2 1 2 1 2 1 
2 2 2 1 2 1 2 1 2 1 2 1 2 1 2 1 
2 1 2 1 2 1 2 1 2 1 2 1 2 1 2 1 
2 1 2 1 1 1 2 1 2 0 2 1 2 1 2 1 
2 1 2 0 2 1 2 1 2 0 2 1 2 1 2 0 
2 1 2 0 2 1 2 1 2 0 2 1 2 0 2 1 
1 0 2 0 2 1 2 0 2 1 2 0 2 0 2 1 
2 0 2 0 2 0 2 1 2 0 2 0 2 0 2 0 
2 0 2 1 2 0 2 0 2 0 2 0 1 0 2 0 
2 0 2 0 2 0 2 0 2 -1 2 0 2 0 2 0 
2 0 2 0 2 -1 2 0 2 0 2 0 2 -1 2 0 
2 0 2 -1 2 0 2 -1 2 0 1 0 2 -1 2 0 
2 -1 2 0 2 -1 2 -1 2 0 2 -1 2 0 2 -1 
2 -1 2 0 2 -1 2 -1 2 0 2 -1 2 -1 2 -1 
2 -1 2 0 2 -1 1 -1 2 -1 2 -1 2 -1 2 -1 
2 -1 2 -1 2 -1 2 -1 2 -1 2 -1 2 -1 2 -1 
2 -1 2 -1 2 -1 2 -1 2 -1 2 -2 2 -1 2 -1 
2 -1 1 -1 2 -2 2 -1 2 -1 2 -1 2 -2 2 -1 
2 -1 2 -2 2 -1 2 -1 2 -2 2 -1 2 -1 2 -2 
2 -1 2 -2 2 -1 2 -2 2 -1 2 -2 2 -1 1 -2 
2 -1 2 -2 2 -1 2 -2 2 -1 2 -2 2 -2 2 -1 
2 -2 2 -1 2 -2 2 -2 2 -1 2 -2 2 -2 2 -1 
2 -2 2 -2 2 -1 2 -2 2 -2 2 -2 1 -1 2 -2 
2 -2 2 -1 2 -2 2 -2 2 -2 2 -1 2 -2 2 -2 
2 -2 2 -2 2 -1 2 -2 2 -2 2 -2 2 -2 2 -1 
2 -2 2 -2 2 -2 2 -2 1 -2 2 -1 2 -2 2 -2 
2 -2 2 -2 2 -2 2 -1 2 -2 2 -2 2 -2 2 -2 
2 -2 2 -2 2 -1 2 -2 2 -2 2 -2 2 -2 2 -2 
2 -2 2 -1 1 -2 2 -2 2 -2 2 -2 2 -2 2 -1 
2 -2 2 -2 2 -2 2 -2 2 -1 2 -2 2 -2 2 -2 
2 -2 2 -1 2 -2 2 -2 2 -2 2 -2 2 -1 2 -2 
1 -2 2 -2 2 -1 2 -2 2 -2 2 -2 2 -1 2 -2 
2 -2 2 -1 2 -2 2 -2 2 -2 2 -1 2 -2 2 -1 
2 -2 2 -2 2 -1 2227 1058 300 MP stroke
2 -2 2 -2 2 -1 1 -2 2 -1 2 -2 2 -2 2 -1 
2 -2 2 -1 2 -2 2 -1 2 -2 2 -1 2 -2 2 -1 
2 -2 2 -1 2 -2 2 -1 2 -1 2 -2 2 -1 2 -2 
2 -1 2 -1 1 -2 2 -1 2 -1 2 -2 2 -1 2 -1 
2 -2 2 -1 2 -1 2 -1 2 -2 2 -1 2 -1 2 -1 
2 -1 2 -2 2 -1 2 -1 2 -1 2 -1 2 -1 2 -1 
1 -2 2 -1 2 -1 2 -1 2 -1 2 -1 2 -1 2 -1 
2 -1 2 -1 2 -1 2 -1 2 -1 2 -1 2 0 2 -1 
2 -1 2 -1 2 -1 2 -1 2 -1 2 0 1 -1 2 -1 
2 -1 2 -1 2 0 2 -1 2 -1 2 -1 2 0 2 -1 
2 -1 2 0 2 -1 2 -1 2 0 2 -1 2 0 2 -1 
2 -1 2 0 2 -1 2 0 1 -1 2 0 2 -1 2 0 
2 -1 2 0 2 -1 2 0 2 -1 2 0 2 -1 2 0 
2 0 2 -1 2 0 2 -1 2 0 2 0 2 -1 2 0 
2 0 2 -1 2 0 1 0 2 -1 2 0 2 0 2 0 
2 -1 2 0 2 0 2 0 2 -1 2 0 2 0 2 0 
2 0 2 -1 2 0 2 0 2 0 2 0 2 -1 2 0 
2 0 1 0 2 0 2 0 2 0 2 0 2 -1 2 0 
2 0 2 0 2 0 2 0 2 0 2 0 2 0 2 0 
2 0 2 -1 2 0 2 0 2 0 2 0 2 0 1 0 
2 0 2 0 2 0 2 0 2 0 2 0 2 0 2 0 
2 0 2 0 2 0 2 -1 2 0 2 0 2 0 2 0 
2 0 2 0 2 0 2 0 2 0 1 0 2 0 2 0 
2 0 2 0 2 0 2 -1 2 0 2 0 2 0 2 0 
2 0 2 0 2 0 2 0 2 0 2 -1 2 0 2 0 
2 0 2 0 2 0 1 0 2 0 2 -1 2 0 2 0 
2 0 2 0 2 -1 2 0 2 0 2 0 2 0 2 -1 
2 0 2 0 2 0 2 -1 2 0 2 0 2 0 2 -1 
2 0 2 0 1 -1 2 0 2 0 2 -1 2 0 2 0 
2 -1 2 0 2 -1 2 0 2 0 2 -1 2 0 2 -1 
2 0 2 -1 2 0 2 -1 2 0 2 -1 2 0 2 -1 
1 0 2 -1 2 0 2 -1 2 0 2 -1 2 -1 2 0 
2 -1 2 0 2 -1 2 -1 2 0 2 -1 2 -1 2 0 
2 -1 2 -1 2 -1 2 0 2 -1 2 -1 1 -1 2 0 
2 -1 2 -1 2 -1 2 -1 2 0 2 -1 2 -1 2 -1 
2 -1 2 -1 2 -1 2 0 2 -1 2 -1 2 -1 2 -1 
2 -1 2 -1 2 -1 2 -1 1 -1 2 -1 2 -1 2 -1 
2 -1 2 -1 2 -1 1643 1235 300 MP stroke
2 -1 2 -1 2 -1 2 -1 2 -1 2 -1 2 -1 2 -1 
2 -1 2 -1 2 -1 2 -1 2 -2 2 -1 2 -1 2 -1 
1 -1 2 -1 2 -1 2 -1 2 -1 2 -2 2 -1 2 -1 
2 -1 2 -1 2 -1 2 -1 2 -1 2 -2 2 -1 2 -1 
2 -1 2 -1 2 -1 2 -1 2 -1 2 -2 1 -1 2 -1 
2 -1 2 -1 2 -1 2 -1 2 -1 2 -1 2 -2 2 -1 
2 -1 2 -1 2 -1 2 -1 2 -1 2 -1 2 -1 2 -1 
2 -1 2 -1 2 -1 2 -1 1 -1 2 -1 2 -1 2 -1 
2 -1 2 -1 2 -1 2 -1 2 -1 2 0 2 -1 2 -1 
2 -1 2 -1 2 -1 2 0 2 -1 2 -1 2 -1 2 0 
2 -1 2 -1 1 0 2 -1 2 -1 2 0 2 -1 2 0 
2 -1 2 0 2 -1 2 0 2 -1 2 0 2 -1 2 0 
2 -1 2 0 2 0 2 -1 2 0 2 0 2 0 2 0 
1 -1 2 0 2 0 2 0 2 0 2 0 2 0 2 0 
2 0 2 0 2 0 2 0 2 1 2 0 2 0 2 0 
2 1 2 0 2 0 2 1 2 0 2 0 2 1 1 0 
2 1 2 1 2 0 2 1 2 1 2 0 2 1 2 1 
2 1 2 1 2 0 2 1 2 1 2 1 2 1 2 1 
2 1 2 2 2 1 2 1 2 1 1 2 2 1 2 1 
2 2 2 1 2 1 2 2 2 1 2 2 2 2 2 1 
2 2 2 2 2 1 2 2 2 2 2 2 2 1 2 2 
2 2 2 2 2 2 1 2 2 2 2 2 2 3 2 2 
2 2 2 2 2 2 2 3 2 2 2 2 2 3 2 2 
2 2 2 3 2 2 2 3 2 2 2 3 2 2 2 3 
2 2 1 3 2 3 2 2 2 3 2 3 2 3 2 2 
2 3 2 3 2 3 2 2 2 3 2 3 2 3 2 3 
2 3 2 2 2 3 2 3 2 3 2 3 2 3 2 3 
1 3 2 3 2 3 2 2 2 3 2 3 2 3 2 3 
2 3 2 3 2 3 2 2 2 3 2 3 2 3 2 3 
2 2 2 3 2 3 2 3 2 2 2 3 1 3 2 2 
2 3 2 2 2 3 2 2 2 3 2 2 2 2 2 3 
2 2 2 2 2 2 2 3 2 2 2 2 2 2 2 1 
2 2 2 2 2 2 2 2 1 1 2 2 2 1 2 1 
2 2 2 1 2 1 2 1 2 1 2 1 2 1 2 1 
2 0 2 1 2 0 2 1 2 0 2 0 2 0 2 0 
2 0 2 0 1 0 2 -1 2 0 2 -1 2 -1 2 -1 
2 -1 2 -1 2 -1 2 -2 2 -2 2 -1 2 -2 2 -2 
2 -2 2 -3 2 -2 1058 1050 300 MP stroke
2 -3 2 -2 2 -3 2 -3 2 -3 1 -4 2 -3 2 -4 
2 -4 2 -4 2 -4 2 -4 2 -5 2 -4 2 -5 2 -5 
2 -6 2 -5 2 -6 2 -5 2 -6 2 -6 2 -7 2 -6 
2 -7 2 -7 2 -7 2 -7 1 -8 2 -8 2 -8 2 -8 
2 -8 2 -9 2 -8 2 -9 2 -10 2 -9 2 -10 2 -9 
2 -10 2 -11 2 -10 2 -11 2 -11 2 -11 2 -11 2 -12 
2 -12 2 -12 1 -12 2 -12 2 -13 2 -13 2 -13 2 -13 
2 -14 2 -14 2 -14 2 -14 2 -14 2 -15 2 -15 2 -15 
2 -15 2 -16 2 -15 2 -16 2 -16 2 -17 2 -16 2 -17 
1 -17 2 -17 2 -17 2 -18 2 -17 2 -18 2 -18 2 -19 
2 -18 2 -19 2 -18 2 -19 2 -19 2 -20 2 -19 2 -19 
2 -20 2 -20 2 -20 2 -20 2 -20 2 -20 1 -21 2 -20 
2 -21 2 -20 2 -21 2 -21 2 -21 2 -21 2 -21 2 -21 
2 -21 2 -21 2 -21 2 -21 2 -21 2 -21 2 -21 2 -21 
2 -21 2 -21 2 -21 2 -21 2 -20 1 -21 2 -20 2 -21 
2 -20 2 -20 2 -20 2 -19 2 -20 2 -19 2 -19 2 -18 
2 -19 2 -18 2 -18 2 -17 2 -17 2 -17 2 -16 2 -16 
2 -16 2 -15 2 -15 1 -14 2 -14 2 -13 2 -12 2 -12 
2 -12 2 -11 2 -10 2 -9 2 -9 2 -8 2 -7 2 -7 
2 -5 2 -5 2 -4 2 -3 2 -3 2 -1 2 0 2 1 
2 2 1 3 2 4 2 5 2 7 2 8 2 9 2 10 
2 12 2 13 2 14 2 16 2 18 2 19 2 21 2 22 
2 24 2 26 2 27 2 30 2 31 2 33 2 36 1 37 
2 39 2 42 2 44 2 45 2 49 2 50 2 53 2 56 
2 58 2 61 2 63 2 66 2 69 2 72 2 74 2 78 
2 81 2 84 2 87 2 90 2 94 1 97 656 1291 207 MP stroke
gr

c12
0 sg
 639 3409 mt 
( ) s
4550  326 mt 
( ) s
1 sg
0 882 954 0 0 -882 2882 2577 4 MP
PP
-954 0 0 882 954 0 0 -882 2882 2577 5 MP stroke
4 w
DO
SO
6 w
0 sg
2882 1695 mt 3836 1695 L
2882 2577 mt 3836 2577 L
3836 2577 mt 3836 1695 L
2882 2577 mt 2882 1695 L
2882 2577 mt 3836 2577 L
2882 2577 mt 2882 1695 L
2882 1695 mt 3836 1695 L
2882 2577 mt 3836 2577 L
3836 2577 mt 3836 1695 L
2882 2577 mt 2882 1695 L
3350 1842 mt 
(f. Runge) s
gs 2882 1695 955 883 rc
c8
360 0 2954 1800 2 MP stroke
gr

c8
0 sg
3350 2010 mt 
(p9\(x\)) s
gs 2882 1695 955 883 rc
c9
360 0 2954 1968 2 MP stroke
gr

c9
0 sg
3350 2179 mt 
(p10\(x\)) s
gs 2882 1695 955 883 rc
c10
360 0 2954 2136 2 MP stroke
gr

c10
0 sg
3350 2347 mt 
(p11\(x\)) s
gs 2882 1695 955 883 rc
c11
360 0 2954 2304 2 MP stroke
gr

c11
0 sg
3350 2515 mt 
(p12\(x\)) s
gs 2882 1695 955 883 rc
c12
360 0 2954 2472 2 MP stroke
gr

c12

end %%Color Dict

eplot
%%EndObject

epage
end

showpage

%%Trailer
%%EOF
