%!PS-Adobe-3.0 EPSF-3.0
%%Creator: MATLAB, The MathWorks, Inc. Version 8.0.0.783 (R2012b). Operating System: Microsoft Windows 7.
%%Title: C:\SILVIA\UniversitÓ\Presenti\Calcolo numerico\Silvia Balzani - esercitazioni\esCalcoloNumerico\Consegne\esercizi\Esercitazione05\1\graficoB.eps
%%CreationDate: 11/21/2015  17:23:35
%%DocumentNeededFonts: Helvetica
%%DocumentProcessColors: Cyan Magenta Yellow Black
%%LanguageLevel: 2
%%Pages: 1
%%BoundingBox:    44   203   550   639
%%EndComments

%%BeginProlog
% MathWorks dictionary
/MathWorks 160 dict begin
% definition operators
/bdef {bind def} bind def
/ldef {load def} bind def
/xdef {exch def} bdef
/xstore {exch store} bdef
% operator abbreviations
/c  /clip ldef
/cc /concat ldef
/cp /closepath ldef
/gr /grestore ldef
/gs /gsave ldef
/mt /moveto ldef
/np /newpath ldef
/cm /currentmatrix ldef
/sm /setmatrix ldef
/rm /rmoveto ldef
/rl /rlineto ldef
/s {show newpath} bdef
/sc {setcmykcolor} bdef
/sr /setrgbcolor ldef
/sg /setgray ldef
/w /setlinewidth ldef
/j /setlinejoin ldef
/cap /setlinecap ldef
/rc {rectclip} bdef
/rf {rectfill} bdef
% page state control
/pgsv () def
/bpage {/pgsv save def} bdef
/epage {pgsv restore} bdef
/bplot /gsave ldef
/eplot {stroke grestore} bdef
% orientation switch
/portraitMode 0 def /landscapeMode 1 def /rotateMode 2 def
% coordinate system mappings
/dpi2point 0 def
% font control
/FontSize 0 def
/FMS {/FontSize xstore findfont [FontSize 0 0 FontSize neg 0 0]
  makefont setfont} bdef
/ISOLatin1Encoding where {pop /WindowsLatin1Encoding 256 array bdef
ISOLatin1Encoding WindowsLatin1Encoding copy pop
/.notdef/.notdef/quotesinglbase/florin/quotedblbase/ellipsis/dagger
/daggerdbl/circumflex/perthousand/Scaron/guilsinglleft/OE/.notdef/.notdef
/.notdef/.notdef/quoteleft/quoteright/quotedblleft/quotedblright/bullet
/endash/emdash/tilde/trademark/scaron/guilsinglright/oe/.notdef/.notdef
/Ydieresis WindowsLatin1Encoding 128 32 getinterval astore pop}
{/WindowsLatin1Encoding StandardEncoding bdef} ifelse
/reencode {exch dup where {pop load} {pop StandardEncoding} ifelse
  exch dup 3 1 roll findfont dup length dict begin
  { 1 index /FID ne {def}{pop pop} ifelse } forall
  /Encoding exch def currentdict end definefont pop} bdef
/isroman {findfont /CharStrings get /Agrave known} bdef
/FMSR {3 1 roll 1 index dup isroman {reencode} {pop pop} ifelse
  exch FMS} bdef
/csm {1 dpi2point div -1 dpi2point div scale neg translate
 dup landscapeMode eq {pop -90 rotate}
  {rotateMode eq {90 rotate} if} ifelse} bdef
% line types: solid, dotted, dashed, dotdash
/SO { [] 0 setdash } bdef
/DO { [.5 dpi2point mul 4 dpi2point mul] 0 setdash } bdef
/DA { [6 dpi2point mul] 0 setdash } bdef
/DD { [.5 dpi2point mul 4 dpi2point mul 6 dpi2point mul 4
  dpi2point mul] 0 setdash } bdef
% macros for lines and objects
/L {lineto stroke} bdef
/MP {3 1 roll moveto 1 sub {rlineto} repeat} bdef
/AP {{rlineto} repeat} bdef
/PDlw -1 def
/W {/PDlw currentlinewidth def setlinewidth} def
/PP {closepath eofill} bdef
/DP {closepath stroke} bdef
/MR {4 -2 roll moveto dup  0 exch rlineto exch 0 rlineto
  neg 0 exch rlineto closepath} bdef
/FR {MR stroke} bdef
/PR {MR fill} bdef
/L1i {{currentfile picstr readhexstring pop} image} bdef
/tMatrix matrix def
/MakeOval {newpath tMatrix currentmatrix pop translate scale
0 0 1 0 360 arc tMatrix setmatrix} bdef
/FO {MakeOval stroke} bdef
/PO {MakeOval fill} bdef
/PD {currentlinewidth 2 div 0 360 arc fill
   PDlw -1 eq not {PDlw w /PDlw -1 def} if} def
/FA {newpath tMatrix currentmatrix pop translate scale
  0 0 1 5 -2 roll arc tMatrix setmatrix stroke} bdef
/PA {newpath tMatrix currentmatrix pop	translate 0 0 moveto scale
  0 0 1 5 -2 roll arc closepath tMatrix setmatrix fill} bdef
/FAn {newpath tMatrix currentmatrix pop translate scale
  0 0 1 5 -2 roll arcn tMatrix setmatrix stroke} bdef
/PAn {newpath tMatrix currentmatrix pop translate 0 0 moveto scale
  0 0 1 5 -2 roll arcn closepath tMatrix setmatrix fill} bdef
/vradius 0 def /hradius 0 def /lry 0 def
/lrx 0 def /uly 0 def /ulx 0 def /rad 0 def
/MRR {/vradius xdef /hradius xdef /lry xdef /lrx xdef /uly xdef
  /ulx xdef newpath tMatrix currentmatrix pop ulx hradius add uly
  vradius add translate hradius vradius scale 0 0 1 180 270 arc 
  tMatrix setmatrix lrx hradius sub uly vradius add translate
  hradius vradius scale 0 0 1 270 360 arc tMatrix setmatrix
  lrx hradius sub lry vradius sub translate hradius vradius scale
  0 0 1 0 90 arc tMatrix setmatrix ulx hradius add lry vradius sub
  translate hradius vradius scale 0 0 1 90 180 arc tMatrix setmatrix
  closepath} bdef
/FRR {MRR stroke } bdef
/PRR {MRR fill } bdef
/MlrRR {/lry xdef /lrx xdef /uly xdef /ulx xdef /rad lry uly sub 2 div def
  newpath tMatrix currentmatrix pop ulx rad add uly rad add translate
  rad rad scale 0 0 1 90 270 arc tMatrix setmatrix lrx rad sub lry rad
  sub translate rad rad scale 0 0 1 270 90 arc tMatrix setmatrix
  closepath} bdef
/FlrRR {MlrRR stroke } bdef
/PlrRR {MlrRR fill } bdef
/MtbRR {/lry xdef /lrx xdef /uly xdef /ulx xdef /rad lrx ulx sub 2 div def
  newpath tMatrix currentmatrix pop ulx rad add uly rad add translate
  rad rad scale 0 0 1 180 360 arc tMatrix setmatrix lrx rad sub lry rad
  sub translate rad rad scale 0 0 1 0 180 arc tMatrix setmatrix
  closepath} bdef
/FtbRR {MtbRR stroke } bdef
/PtbRR {MtbRR fill } bdef
/stri 6 array def /dtri 6 array def
/smat 6 array def /dmat 6 array def
/tmat1 6 array def /tmat2 6 array def /dif 3 array def
/asub {/ind2 exch def /ind1 exch def dup dup
  ind1 get exch ind2 get sub exch } bdef
/tri_to_matrix {
  2 0 asub 3 1 asub 4 0 asub 5 1 asub
  dup 0 get exch 1 get 7 -1 roll astore } bdef
/compute_transform {
  dmat dtri tri_to_matrix tmat1 invertmatrix 
  smat stri tri_to_matrix tmat2 concatmatrix } bdef
/ds {stri astore pop} bdef
/dt {dtri astore pop} bdef
/db {2 copy /cols xdef /rows xdef mul dup 3 mul string
  currentfile 
  3 index 0 eq {/ASCIIHexDecode filter}
  {/ASCII85Decode filter 3 index 2 eq {/RunLengthDecode filter} if }
  ifelse exch readstring pop
  dup 0 3 index getinterval /rbmap xdef
  dup 2 index dup getinterval /gbmap xdef
  1 index dup 2 mul exch getinterval /bbmap xdef pop pop}bdef
/it {gs np dtri aload pop moveto lineto lineto cp c
  cols rows 8 compute_transform 
  rbmap gbmap bbmap true 3 colorimage gr}bdef
/il {newpath moveto lineto stroke}bdef
currentdict end def
%%EndProlog

%%BeginSetup
MathWorks begin

0 cap

end
%%EndSetup

%%Page: 1 1
%%BeginPageSetup
%%PageBoundingBox:    44   203   550   639
MathWorks begin
bpage
%%EndPageSetup

%%BeginObject: obj1
bplot

/dpi2point 12 def
portraitMode 0528 7668 csm

    0     0  6080  5231 rc
85 dict begin %Colortable dictionary
/c0 { 0.000000 0.000000 0.000000 sr} bdef
/c1 { 1.000000 1.000000 1.000000 sr} bdef
/c2 { 0.900000 0.000000 0.000000 sr} bdef
/c3 { 0.000000 0.820000 0.000000 sr} bdef
/c4 { 0.000000 0.000000 0.800000 sr} bdef
/c5 { 0.910000 0.820000 0.320000 sr} bdef
/c6 { 1.000000 0.260000 0.820000 sr} bdef
/c7 { 0.000000 0.820000 0.820000 sr} bdef
c0
1 j
1 sg
   0    0 6081 5232 rf
6 w
0 4264 4712 0 0 -4264 790 4656 4 MP
PP
-4712 0 0 4264 4712 0 0 -4264 790 4656 5 MP stroke
4 w
DO
SO
6 w
0 sg
 790  392 mt 5502  392 L
 790 4656 mt 5502 4656 L
5502 4656 mt 5502  392 L
 790 4656 mt  790  392 L
 790 4656 mt 5502 4656 L
 790 4656 mt  790  392 L
 790 4656 mt  790 4608 L
 790  392 mt  790  439 L
%%IncludeResource: font Helvetica
/Helvetica /WindowsLatin1Encoding 120 FMSR

 757 4801 mt 
(2) s
1261 4656 mt 1261 4608 L
1261  392 mt 1261  439 L
1178 4801 mt 
(2.2) s
1732 4656 mt 1732 4608 L
1732  392 mt 1732  439 L
1649 4801 mt 
(2.4) s
2203 4656 mt 2203 4608 L
2203  392 mt 2203  439 L
2120 4801 mt 
(2.6) s
2674 4656 mt 2674 4608 L
2674  392 mt 2674  439 L
2591 4801 mt 
(2.8) s
3146 4656 mt 3146 4608 L
3146  392 mt 3146  439 L
3113 4801 mt 
(3) s
3617 4656 mt 3617 4608 L
3617  392 mt 3617  439 L
3534 4801 mt 
(3.2) s
4088 4656 mt 4088 4608 L
4088  392 mt 4088  439 L
4005 4801 mt 
(3.4) s
4559 4656 mt 4559 4608 L
4559  392 mt 4559  439 L
4476 4801 mt 
(3.6) s
5030 4656 mt 5030 4608 L
5030  392 mt 5030  439 L
4947 4801 mt 
(3.8) s
5502 4656 mt 5502 4608 L
5502  392 mt 5502  439 L
5469 4801 mt 
(4) s
 790 4656 mt  837 4656 L
5502 4656 mt 5454 4656 L
 689 4700 mt 
(4) s
 790 4246 mt  837 4246 L
5502 4246 mt 5454 4246 L
 589 4290 mt 
(4.5) s
 790 3836 mt  837 3836 L
5502 3836 mt 5454 3836 L
 689 3880 mt 
(5) s
 790 3426 mt  837 3426 L
5502 3426 mt 5454 3426 L
 589 3470 mt 
(5.5) s
 790 3016 mt  837 3016 L
5502 3016 mt 5454 3016 L
 689 3060 mt 
(6) s
 790 2605 mt  837 2605 L
5502 2605 mt 5454 2605 L
 589 2649 mt 
(6.5) s
 790 2195 mt  837 2195 L
5502 2195 mt 5454 2195 L
 689 2239 mt 
(7) s
 790 1786 mt  837 1786 L
5502 1786 mt 5454 1786 L
 589 1830 mt 
(7.5) s
 790 1375 mt  837 1375 L
5502 1375 mt 5454 1375 L
 689 1419 mt 
(8) s
 790  965 mt  837  965 L
5502  965 mt 5454  965 L
 589 1009 mt 
(8.5) s
 790  555 mt  837  555 L
5502  555 mt 5454  555 L
 689  599 mt 
(9) s
 790  392 mt 5502  392 L
 790 4656 mt 5502 4656 L
5502 4656 mt 5502  392 L
 790 4656 mt  790  392 L
gs 790 392 4713 4265 rc
/c8 { 0.000000 0.000000 1.000000 sr} bdef
c8
16 0 16 0 16 0 16 0 15 0 16 0 16 0 16 0 
15 0 16 0 16 0 16 0 15 0 16 0 16 0 16 0 
15 0 16 0 16 0 16 0 15 0 16 0 16 0 16 0 
15 0 16 0 16 0 16 0 16 0 15 0 16 0 16 0 
16 0 15 0 16 0 16 0 16 0 15 0 16 0 16 0 
16 0 15 0 16 0 16 0 16 0 15 0 16 0 16 0 
16 0 15 0 16 0 16 0 16 0 15 0 16 0 16 0 
16 0 16 0 15 0 16 0 16 0 16 0 15 0 16 0 
16 0 16 0 15 0 16 0 16 0 16 0 15 0 16 0 
16 0 16 0 15 0 16 0 16 0 16 0 15 0 16 0 
16 0 16 0 16 0 15 0 16 0 16 0 16 0 15 0 
16 0 16 0 16 0 15 0 16 0 16 0 16 0 15 0 
16 0 16 0 16 0 15 0 16 0 16 0 16 0 15 0 
16 0 16 0 16 0 15 0 16 0 16 0 16 0 16 0 
15 0 16 0 16 0 16 0 15 0 16 0 16 0 16 0 
15 0 16 0 16 0 16 0 15 0 16 0 16 0 16 0 
15 0 16 0 16 0 16 0 15 0 16 0 16 0 16 0 
16 0 15 0 16 0 16 0 16 0 15 0 16 0 16 0 
16 0 15 0 16 0 16 0 16 0 15 -17 16 -33 16 -33 
16 -32 15 -33 16 -32 16 -33 16 -32 15 -33 16 -32 16 -32 
16 -32 15 -32 16 -32 16 -32 16 -32 16 -32 15 -31 16 -32 
16 -31 16 -32 15 -31 16 -31 16 -32 16 -31 15 -31 16 -31 
16 -31 16 -31 15 -30 16 -31 16 -31 16 -30 15 -31 16 -30 
16 -31 16 -30 15 -30 16 -30 16 -30 16 -30 16 -30 15 -30 
16 -30 16 -29 16 -30 15 -29 16 -30 16 -29 16 -30 15 -29 
16 -29 16 -29 16 -29 15 -29 16 -29 16 -29 16 -29 15 -28 
16 -29 16 -28 16 -29 15 -28 16 -28 16 -29 16 -28 15 -28 
16 -28 16 -28 16 -28 16 -27 15 -28 16 -28 16 -27 16 -28 
15 -27 16 -27 16 -28 16 -27 15 -27 16 -27 16 -27 16 -27 
15 -27 16 -26 16 -27 16 -27 15 -26 16 -27 16 -26 16 -26 
15 -27 16 -26 16 -26 16 -26 16 -26 15 -26 16 -25 16 -26 
16 -26 15 -25 16 -26 16 -25 16 -26 15 -25 16 -25 16 -25 
16 -25 15 -25 16 -25 16 -25 16 -25 15 -25 16 -24 16 -25 
16 -24 15 -25 16 -24 16 -24 16 -24 15 -24 16 -24 16 -24 
16 -24 16 -24 15 -24 16 -23 16 -24 16 -24 15 -23 16 -23 
16 -24 16 -23 15 -23 16 -23 16 -23 16 -23 15 -23 16 -23 
16 -22 16 -23 15 -23 16 -22 16 -23 16 -22 15 -22 16 -22 
16 -22 16 -23 15 -22 790 4656 300 MP stroke
gr

c8
0 sg
2945  297 mt 
(Parte B) s

end %%Color Dict

eplot
%%EndObject

epage
end

showpage

%%Trailer
%%EOF
