%!PS-Adobe-3.0 EPSF-3.0
%%Creator: MATLAB, The MathWorks, Inc. Version 8.0.0.783 (R2012b). Operating System: Microsoft Windows 7.
%%Title: C:\SILVIA\UniversitÓ\Presenti\Calcolo numerico\Silvia Balzani - esercitazioni\esCalcoloNumerico\Consegne\esercizi\Esercitazione05\1\graficoA.eps
%%CreationDate: 11/21/2015  17:23:09
%%DocumentNeededFonts: Helvetica
%%DocumentProcessColors: Cyan Magenta Yellow Black
%%LanguageLevel: 2
%%Pages: 1
%%BoundingBox:    87   265   507   576
%%EndComments

%%BeginProlog
% MathWorks dictionary
/MathWorks 160 dict begin
% definition operators
/bdef {bind def} bind def
/ldef {load def} bind def
/xdef {exch def} bdef
/xstore {exch store} bdef
% operator abbreviations
/c  /clip ldef
/cc /concat ldef
/cp /closepath ldef
/gr /grestore ldef
/gs /gsave ldef
/mt /moveto ldef
/np /newpath ldef
/cm /currentmatrix ldef
/sm /setmatrix ldef
/rm /rmoveto ldef
/rl /rlineto ldef
/s {show newpath} bdef
/sc {setcmykcolor} bdef
/sr /setrgbcolor ldef
/sg /setgray ldef
/w /setlinewidth ldef
/j /setlinejoin ldef
/cap /setlinecap ldef
/rc {rectclip} bdef
/rf {rectfill} bdef
% page state control
/pgsv () def
/bpage {/pgsv save def} bdef
/epage {pgsv restore} bdef
/bplot /gsave ldef
/eplot {stroke grestore} bdef
% orientation switch
/portraitMode 0 def /landscapeMode 1 def /rotateMode 2 def
% coordinate system mappings
/dpi2point 0 def
% font control
/FontSize 0 def
/FMS {/FontSize xstore findfont [FontSize 0 0 FontSize neg 0 0]
  makefont setfont} bdef
/ISOLatin1Encoding where {pop /WindowsLatin1Encoding 256 array bdef
ISOLatin1Encoding WindowsLatin1Encoding copy pop
/.notdef/.notdef/quotesinglbase/florin/quotedblbase/ellipsis/dagger
/daggerdbl/circumflex/perthousand/Scaron/guilsinglleft/OE/.notdef/.notdef
/.notdef/.notdef/quoteleft/quoteright/quotedblleft/quotedblright/bullet
/endash/emdash/tilde/trademark/scaron/guilsinglright/oe/.notdef/.notdef
/Ydieresis WindowsLatin1Encoding 128 32 getinterval astore pop}
{/WindowsLatin1Encoding StandardEncoding bdef} ifelse
/reencode {exch dup where {pop load} {pop StandardEncoding} ifelse
  exch dup 3 1 roll findfont dup length dict begin
  { 1 index /FID ne {def}{pop pop} ifelse } forall
  /Encoding exch def currentdict end definefont pop} bdef
/isroman {findfont /CharStrings get /Agrave known} bdef
/FMSR {3 1 roll 1 index dup isroman {reencode} {pop pop} ifelse
  exch FMS} bdef
/csm {1 dpi2point div -1 dpi2point div scale neg translate
 dup landscapeMode eq {pop -90 rotate}
  {rotateMode eq {90 rotate} if} ifelse} bdef
% line types: solid, dotted, dashed, dotdash
/SO { [] 0 setdash } bdef
/DO { [.5 dpi2point mul 4 dpi2point mul] 0 setdash } bdef
/DA { [6 dpi2point mul] 0 setdash } bdef
/DD { [.5 dpi2point mul 4 dpi2point mul 6 dpi2point mul 4
  dpi2point mul] 0 setdash } bdef
% macros for lines and objects
/L {lineto stroke} bdef
/MP {3 1 roll moveto 1 sub {rlineto} repeat} bdef
/AP {{rlineto} repeat} bdef
/PDlw -1 def
/W {/PDlw currentlinewidth def setlinewidth} def
/PP {closepath eofill} bdef
/DP {closepath stroke} bdef
/MR {4 -2 roll moveto dup  0 exch rlineto exch 0 rlineto
  neg 0 exch rlineto closepath} bdef
/FR {MR stroke} bdef
/PR {MR fill} bdef
/L1i {{currentfile picstr readhexstring pop} image} bdef
/tMatrix matrix def
/MakeOval {newpath tMatrix currentmatrix pop translate scale
0 0 1 0 360 arc tMatrix setmatrix} bdef
/FO {MakeOval stroke} bdef
/PO {MakeOval fill} bdef
/PD {currentlinewidth 2 div 0 360 arc fill
   PDlw -1 eq not {PDlw w /PDlw -1 def} if} def
/FA {newpath tMatrix currentmatrix pop translate scale
  0 0 1 5 -2 roll arc tMatrix setmatrix stroke} bdef
/PA {newpath tMatrix currentmatrix pop	translate 0 0 moveto scale
  0 0 1 5 -2 roll arc closepath tMatrix setmatrix fill} bdef
/FAn {newpath tMatrix currentmatrix pop translate scale
  0 0 1 5 -2 roll arcn tMatrix setmatrix stroke} bdef
/PAn {newpath tMatrix currentmatrix pop translate 0 0 moveto scale
  0 0 1 5 -2 roll arcn closepath tMatrix setmatrix fill} bdef
/vradius 0 def /hradius 0 def /lry 0 def
/lrx 0 def /uly 0 def /ulx 0 def /rad 0 def
/MRR {/vradius xdef /hradius xdef /lry xdef /lrx xdef /uly xdef
  /ulx xdef newpath tMatrix currentmatrix pop ulx hradius add uly
  vradius add translate hradius vradius scale 0 0 1 180 270 arc 
  tMatrix setmatrix lrx hradius sub uly vradius add translate
  hradius vradius scale 0 0 1 270 360 arc tMatrix setmatrix
  lrx hradius sub lry vradius sub translate hradius vradius scale
  0 0 1 0 90 arc tMatrix setmatrix ulx hradius add lry vradius sub
  translate hradius vradius scale 0 0 1 90 180 arc tMatrix setmatrix
  closepath} bdef
/FRR {MRR stroke } bdef
/PRR {MRR fill } bdef
/MlrRR {/lry xdef /lrx xdef /uly xdef /ulx xdef /rad lry uly sub 2 div def
  newpath tMatrix currentmatrix pop ulx rad add uly rad add translate
  rad rad scale 0 0 1 90 270 arc tMatrix setmatrix lrx rad sub lry rad
  sub translate rad rad scale 0 0 1 270 90 arc tMatrix setmatrix
  closepath} bdef
/FlrRR {MlrRR stroke } bdef
/PlrRR {MlrRR fill } bdef
/MtbRR {/lry xdef /lrx xdef /uly xdef /ulx xdef /rad lrx ulx sub 2 div def
  newpath tMatrix currentmatrix pop ulx rad add uly rad add translate
  rad rad scale 0 0 1 180 360 arc tMatrix setmatrix lrx rad sub lry rad
  sub translate rad rad scale 0 0 1 0 180 arc tMatrix setmatrix
  closepath} bdef
/FtbRR {MtbRR stroke } bdef
/PtbRR {MtbRR fill } bdef
/stri 6 array def /dtri 6 array def
/smat 6 array def /dmat 6 array def
/tmat1 6 array def /tmat2 6 array def /dif 3 array def
/asub {/ind2 exch def /ind1 exch def dup dup
  ind1 get exch ind2 get sub exch } bdef
/tri_to_matrix {
  2 0 asub 3 1 asub 4 0 asub 5 1 asub
  dup 0 get exch 1 get 7 -1 roll astore } bdef
/compute_transform {
  dmat dtri tri_to_matrix tmat1 invertmatrix 
  smat stri tri_to_matrix tmat2 concatmatrix } bdef
/ds {stri astore pop} bdef
/dt {dtri astore pop} bdef
/db {2 copy /cols xdef /rows xdef mul dup 3 mul string
  currentfile 
  3 index 0 eq {/ASCIIHexDecode filter}
  {/ASCII85Decode filter 3 index 2 eq {/RunLengthDecode filter} if }
  ifelse exch readstring pop
  dup 0 3 index getinterval /rbmap xdef
  dup 2 index dup getinterval /gbmap xdef
  1 index dup 2 mul exch getinterval /bbmap xdef pop pop}bdef
/it {gs np dtri aload pop moveto lineto lineto cp c
  cols rows 8 compute_transform 
  rbmap gbmap bbmap true 3 colorimage gr}bdef
/il {newpath moveto lineto stroke}bdef
currentdict end def
%%EndProlog

%%BeginSetup
MathWorks begin

0 cap

end
%%EndSetup

%%Page: 1 1
%%BeginPageSetup
%%PageBoundingBox:    87   265   507   576
MathWorks begin
bpage
%%EndPageSetup

%%BeginObject: obj1
bplot

/dpi2point 12 def
portraitMode 1044 6912 csm

    0     0  5045  3728 rc
85 dict begin %Colortable dictionary
/c0 { 0.000000 0.000000 0.000000 sr} bdef
/c1 { 1.000000 1.000000 1.000000 sr} bdef
/c2 { 0.900000 0.000000 0.000000 sr} bdef
/c3 { 0.000000 0.820000 0.000000 sr} bdef
/c4 { 0.000000 0.000000 0.800000 sr} bdef
/c5 { 0.910000 0.820000 0.320000 sr} bdef
/c6 { 1.000000 0.260000 0.820000 sr} bdef
/c7 { 0.000000 0.820000 0.820000 sr} bdef
c0
1 j
1 sg
   0    0 5046 3729 rf
6 w
0 3038 3910 0 0 -3038 656 3318 4 MP
PP
-3910 0 0 3038 3910 0 0 -3038 656 3318 5 MP stroke
4 w
DO
SO
6 w
0 sg
 656  280 mt 4566  280 L
 656 3318 mt 4566 3318 L
4566 3318 mt 4566  280 L
 656 3318 mt  656  280 L
 656 3318 mt 4566 3318 L
 656 3318 mt  656  280 L
 656 3318 mt  656 3278 L
 656  280 mt  656  319 L
%%IncludeResource: font Helvetica
/Helvetica /WindowsLatin1Encoding 120 FMSR

 520 3463 mt 
(-10) s
1633 3318 mt 1633 3278 L
1633  280 mt 1633  319 L
1530 3463 mt 
(-5) s
2611 3318 mt 2611 3278 L
2611  280 mt 2611  319 L
2578 3463 mt 
(0) s
3588 3318 mt 3588 3278 L
3588  280 mt 3588  319 L
3555 3463 mt 
(5) s
4566 3318 mt 4566 3278 L
4566  280 mt 4566  319 L
4500 3463 mt 
(10) s
 656 3318 mt  695 3318 L
4566 3318 mt 4526 3318 L
 485 3362 mt 
(-7) s
 656 2980 mt  695 2980 L
4566 2980 mt 4526 2980 L
 485 3024 mt 
(-6) s
 656 2642 mt  695 2642 L
4566 2642 mt 4526 2642 L
 485 2686 mt 
(-5) s
 656 2305 mt  695 2305 L
4566 2305 mt 4526 2305 L
 485 2349 mt 
(-4) s
 656 1967 mt  695 1967 L
4566 1967 mt 4526 1967 L
 485 2011 mt 
(-3) s
 656 1630 mt  695 1630 L
4566 1630 mt 4526 1630 L
 485 1674 mt 
(-2) s
 656 1292 mt  695 1292 L
4566 1292 mt 4526 1292 L
 485 1336 mt 
(-1) s
 656  955 mt  695  955 L
4566  955 mt 4526  955 L
 555  999 mt 
(0) s
 656  617 mt  695  617 L
4566  617 mt 4526  617 L
 555  661 mt 
(1) s
 656  280 mt  695  280 L
4566  280 mt 4526  280 L
 555  324 mt 
(2) s
 656  280 mt 4566  280 L
 656 3318 mt 4566 3318 L
4566 3318 mt 4566  280 L
 656 3318 mt  656  280 L
gs 656 280 3911 3039 rc
/c8 { 0.000000 0.000000 1.000000 sr} bdef
c8
8 60 8 123 8 173 8 206 8 218 8 209 7 177 8 129 
8 68 8 0 8 -69 8 -128 7 -176 8 -205 8 -212 8 -199 
8 -163 8 -112 7 -49 8 21 8 87 8 145 8 189 8 214 
7 217 8 198 8 161 8 105 8 41 8 -28 7 -94 8 -149 
8 -190 8 -210 8 -209 8 -186 7 -145 8 -87 8 -20 8 48 
8 112 8 165 7 202 8 218 8 213 8 185 8 140 8 81 
7 13 8 -55 8 -118 8 -167 8 -200 8 -212 7 -203 8 -171 
8 -122 8 -61 8 8 8 75 7 136 8 182 8 212 8 219 
8 204 8 169 7 118 8 55 8 -15 8 -81 8 -139 8 -183 
8 -207 7 -210 8 -192 8 -153 8 -98 8 -33 8 36 7 101 
8 157 8 197 8 217 8 216 8 193 7 151 8 94 8 27 
8 -42 8 -105 8 -159 7 -194 8 -211 8 -205 8 -178 8 -132 
8 -72 7 -5 8 64 8 125 8 176 8 209 8 220 7 209 
8 179 8 130 8 68 8 -1 8 -67 7 -128 8 -175 8 -203 
8 -211 8 -196 8 -160 7 -109 8 -45 8 24 8 90 8 149 
8 191 7 217 8 219 8 200 8 161 8 107 8 41 7 -27 
8 -92 8 -149 8 -188 8 -208 8 -206 7 -183 8 -141 8 -83 
8 -17 8 52 8 116 7 169 8 205 8 221 8 215 8 188 
8 141 8 83 7 14 8 -53 8 -116 8 -166 8 -197 8 -209 
7 -199 8 -167 8 -118 8 -56 8 13 8 80 7 140 8 187 
8 215 8 222 8 208 8 172 7 120 8 56 8 -12 8 -78 
8 -136 8 -180 7 -204 8 -206 8 -186 8 -148 8 -93 8 -27 
7 42 8 107 8 162 8 203 8 222 8 220 7 198 8 154 
8 97 8 31 8 -38 8 -101 7 -154 8 -190 8 -205 8 -199 
8 -171 8 -125 7 -65 8 2 8 71 8 133 8 183 8 215 
7 227 8 216 8 184 8 135 8 74 8 5 7 -62 8 -122 
8 -168 8 -196 8 -203 8 -188 7 -152 8 -99 8 -36 8 33 
8 100 8 158 8 200 7 225 8 227 8 208 8 169 8 113 
8 49 7 -21 8 -86 8 -141 8 -181 8 -200 8 -199 7 -175 
8 -132 8 -76 8 -9 8 60 8 122 7 175 8 210 8 224 
8 217 8 189 8 141 7 81 8 12 8 -57 8 -120 8 -171 
8 -203 7 -216 8 -205 8 -175 8 -127 8 -65 8 2 7 68 
8 128 8 172 8 200 8 206 8 190 7 153 8 101 8 36 
8 -33 8 -100 8 -157 7 -201 8 -225 8 -227 8 -207 8 -168 
8 -113 7 -48 8 22 8 86 8 142 8 181 8 200 7 198 
8 175 8 131 8 74 8 7 8 -61 8 -125 7 -177 8 -212 
8 -228 8 -220 8 -193 8 -145 7 -86 8 -18 8 51 8 112 
8 162 8 194 7 205 2223 1383 300 MP stroke
8 193 8 162 8 112 8 50 8 -18 7 -86 8 -145 8 -191 
8 -218 8 -225 8 -209 7 -173 8 -120 8 -57 8 13 8 79 
8 137 7 179 8 203 8 205 8 185 8 146 8 90 7 25 
8 -43 8 -109 8 -164 8 -203 8 -221 7 -219 8 -195 8 -152 
8 -94 8 -26 8 41 7 106 8 158 8 193 8 208 8 201 
8 173 7 126 8 67 8 -2 8 -69 8 -131 8 -180 7 -212 
8 -222 8 -211 8 -178 8 -128 8 -66 7 2 8 70 8 129 
8 176 8 203 8 209 8 193 7 157 8 105 8 40 8 -28 
8 -94 8 -152 7 -194 8 -218 8 -219 8 -198 8 -159 8 -104 
7 -38 8 31 8 96 8 151 8 190 8 209 7 206 8 182 
8 138 8 81 8 14 8 -55 7 -119 8 -170 8 -205 8 -220 
8 -213 8 -184 7 -137 8 -77 8 -10 8 59 8 121 8 169 
7 201 8 211 8 199 8 167 8 117 8 55 7 -13 8 -81 
8 -141 8 -186 8 -213 8 -219 7 -203 8 -167 8 -114 8 -50 
8 19 8 86 7 143 8 185 8 208 8 209 8 189 8 149 
7 94 8 28 8 -41 8 -106 8 -160 8 -199 7 -218 8 -215 
8 -190 8 -147 8 -88 8 -22 8 47 7 111 8 162 8 197 
8 212 8 204 8 176 7 128 8 69 8 0 8 -67 8 -130 
8 -177 7 -209 8 -219 8 -207 8 -175 8 -124 8 -61 7 6 
8 74 8 134 8 179 8 206 8 212 7 195 8 159 8 106 
8 41 8 -27 8 -93 7 -151 8 -192 8 -215 8 -217 8 -196 
8 -155 7 -100 8 -34 8 35 8 99 8 155 8 192 7 211 
8 208 8 184 8 139 8 81 8 14 7 -54 8 -118 8 -169 
8 -204 8 -218 8 -210 7 -182 8 -134 8 -74 8 -6 8 62 
8 124 7 172 8 203 8 213 8 200 8 168 8 118 7 55 
656 1841 201 MP stroke
gr

c8
0 sg
2410  185 mt 
(Parte A) s

end %%Color Dict

eplot
%%EndObject

epage
end

showpage

%%Trailer
%%EOF
