%!PS-Adobe-3.0 EPSF-3.0
%%Creator: MATLAB, The MathWorks, Inc. Version 8.0.0.783 (R2012b). Operating System: Microsoft Windows 7.
%%Title: C:\SILVIA\UniversitÓ\Presenti\Calcolo numerico\Silvia Balzani - esercitazioni\esCalcoloNumerico\Consegne\esercizi\Esercitazione04\1\grafico_eserc04-01.eps
%%CreationDate: 11/21/2015  16:29:16
%%DocumentNeededFonts: Helvetica
%%DocumentProcessColors: Cyan Magenta Yellow Black
%%LanguageLevel: 2
%%Pages: 1
%%BoundingBox:    91   212   502   628
%%EndComments

%%BeginProlog
% MathWorks dictionary
/MathWorks 160 dict begin
% definition operators
/bdef {bind def} bind def
/ldef {load def} bind def
/xdef {exch def} bdef
/xstore {exch store} bdef
% operator abbreviations
/c  /clip ldef
/cc /concat ldef
/cp /closepath ldef
/gr /grestore ldef
/gs /gsave ldef
/mt /moveto ldef
/np /newpath ldef
/cm /currentmatrix ldef
/sm /setmatrix ldef
/rm /rmoveto ldef
/rl /rlineto ldef
/s {show newpath} bdef
/sc {setcmykcolor} bdef
/sr /setrgbcolor ldef
/sg /setgray ldef
/w /setlinewidth ldef
/j /setlinejoin ldef
/cap /setlinecap ldef
/rc {rectclip} bdef
/rf {rectfill} bdef
% page state control
/pgsv () def
/bpage {/pgsv save def} bdef
/epage {pgsv restore} bdef
/bplot /gsave ldef
/eplot {stroke grestore} bdef
% orientation switch
/portraitMode 0 def /landscapeMode 1 def /rotateMode 2 def
% coordinate system mappings
/dpi2point 0 def
% font control
/FontSize 0 def
/FMS {/FontSize xstore findfont [FontSize 0 0 FontSize neg 0 0]
  makefont setfont} bdef
/ISOLatin1Encoding where {pop /WindowsLatin1Encoding 256 array bdef
ISOLatin1Encoding WindowsLatin1Encoding copy pop
/.notdef/.notdef/quotesinglbase/florin/quotedblbase/ellipsis/dagger
/daggerdbl/circumflex/perthousand/Scaron/guilsinglleft/OE/.notdef/.notdef
/.notdef/.notdef/quoteleft/quoteright/quotedblleft/quotedblright/bullet
/endash/emdash/tilde/trademark/scaron/guilsinglright/oe/.notdef/.notdef
/Ydieresis WindowsLatin1Encoding 128 32 getinterval astore pop}
{/WindowsLatin1Encoding StandardEncoding bdef} ifelse
/reencode {exch dup where {pop load} {pop StandardEncoding} ifelse
  exch dup 3 1 roll findfont dup length dict begin
  { 1 index /FID ne {def}{pop pop} ifelse } forall
  /Encoding exch def currentdict end definefont pop} bdef
/isroman {findfont /CharStrings get /Agrave known} bdef
/FMSR {3 1 roll 1 index dup isroman {reencode} {pop pop} ifelse
  exch FMS} bdef
/csm {1 dpi2point div -1 dpi2point div scale neg translate
 dup landscapeMode eq {pop -90 rotate}
  {rotateMode eq {90 rotate} if} ifelse} bdef
% line types: solid, dotted, dashed, dotdash
/SO { [] 0 setdash } bdef
/DO { [.5 dpi2point mul 4 dpi2point mul] 0 setdash } bdef
/DA { [6 dpi2point mul] 0 setdash } bdef
/DD { [.5 dpi2point mul 4 dpi2point mul 6 dpi2point mul 4
  dpi2point mul] 0 setdash } bdef
% macros for lines and objects
/L {lineto stroke} bdef
/MP {3 1 roll moveto 1 sub {rlineto} repeat} bdef
/AP {{rlineto} repeat} bdef
/PDlw -1 def
/W {/PDlw currentlinewidth def setlinewidth} def
/PP {closepath eofill} bdef
/DP {closepath stroke} bdef
/MR {4 -2 roll moveto dup  0 exch rlineto exch 0 rlineto
  neg 0 exch rlineto closepath} bdef
/FR {MR stroke} bdef
/PR {MR fill} bdef
/L1i {{currentfile picstr readhexstring pop} image} bdef
/tMatrix matrix def
/MakeOval {newpath tMatrix currentmatrix pop translate scale
0 0 1 0 360 arc tMatrix setmatrix} bdef
/FO {MakeOval stroke} bdef
/PO {MakeOval fill} bdef
/PD {currentlinewidth 2 div 0 360 arc fill
   PDlw -1 eq not {PDlw w /PDlw -1 def} if} def
/FA {newpath tMatrix currentmatrix pop translate scale
  0 0 1 5 -2 roll arc tMatrix setmatrix stroke} bdef
/PA {newpath tMatrix currentmatrix pop	translate 0 0 moveto scale
  0 0 1 5 -2 roll arc closepath tMatrix setmatrix fill} bdef
/FAn {newpath tMatrix currentmatrix pop translate scale
  0 0 1 5 -2 roll arcn tMatrix setmatrix stroke} bdef
/PAn {newpath tMatrix currentmatrix pop translate 0 0 moveto scale
  0 0 1 5 -2 roll arcn closepath tMatrix setmatrix fill} bdef
/vradius 0 def /hradius 0 def /lry 0 def
/lrx 0 def /uly 0 def /ulx 0 def /rad 0 def
/MRR {/vradius xdef /hradius xdef /lry xdef /lrx xdef /uly xdef
  /ulx xdef newpath tMatrix currentmatrix pop ulx hradius add uly
  vradius add translate hradius vradius scale 0 0 1 180 270 arc 
  tMatrix setmatrix lrx hradius sub uly vradius add translate
  hradius vradius scale 0 0 1 270 360 arc tMatrix setmatrix
  lrx hradius sub lry vradius sub translate hradius vradius scale
  0 0 1 0 90 arc tMatrix setmatrix ulx hradius add lry vradius sub
  translate hradius vradius scale 0 0 1 90 180 arc tMatrix setmatrix
  closepath} bdef
/FRR {MRR stroke } bdef
/PRR {MRR fill } bdef
/MlrRR {/lry xdef /lrx xdef /uly xdef /ulx xdef /rad lry uly sub 2 div def
  newpath tMatrix currentmatrix pop ulx rad add uly rad add translate
  rad rad scale 0 0 1 90 270 arc tMatrix setmatrix lrx rad sub lry rad
  sub translate rad rad scale 0 0 1 270 90 arc tMatrix setmatrix
  closepath} bdef
/FlrRR {MlrRR stroke } bdef
/PlrRR {MlrRR fill } bdef
/MtbRR {/lry xdef /lrx xdef /uly xdef /ulx xdef /rad lrx ulx sub 2 div def
  newpath tMatrix currentmatrix pop ulx rad add uly rad add translate
  rad rad scale 0 0 1 180 360 arc tMatrix setmatrix lrx rad sub lry rad
  sub translate rad rad scale 0 0 1 0 180 arc tMatrix setmatrix
  closepath} bdef
/FtbRR {MtbRR stroke } bdef
/PtbRR {MtbRR fill } bdef
/stri 6 array def /dtri 6 array def
/smat 6 array def /dmat 6 array def
/tmat1 6 array def /tmat2 6 array def /dif 3 array def
/asub {/ind2 exch def /ind1 exch def dup dup
  ind1 get exch ind2 get sub exch } bdef
/tri_to_matrix {
  2 0 asub 3 1 asub 4 0 asub 5 1 asub
  dup 0 get exch 1 get 7 -1 roll astore } bdef
/compute_transform {
  dmat dtri tri_to_matrix tmat1 invertmatrix 
  smat stri tri_to_matrix tmat2 concatmatrix } bdef
/ds {stri astore pop} bdef
/dt {dtri astore pop} bdef
/db {2 copy /cols xdef /rows xdef mul dup 3 mul string
  currentfile 
  3 index 0 eq {/ASCIIHexDecode filter}
  {/ASCII85Decode filter 3 index 2 eq {/RunLengthDecode filter} if }
  ifelse exch readstring pop
  dup 0 3 index getinterval /rbmap xdef
  dup 2 index dup getinterval /gbmap xdef
  1 index dup 2 mul exch getinterval /bbmap xdef pop pop}bdef
/it {gs np dtri aload pop moveto lineto lineto cp c
  cols rows 8 compute_transform 
  rbmap gbmap bbmap true 3 colorimage gr}bdef
/il {newpath moveto lineto stroke}bdef
currentdict end def
%%EndProlog

%%BeginSetup
MathWorks begin

0 cap

end
%%EndSetup

%%Page: 1 1
%%BeginPageSetup
%%PageBoundingBox:    91   212   502   628
MathWorks begin
bpage
%%EndPageSetup

%%BeginObject: obj1
bplot

/dpi2point 12 def
portraitMode 1092 7536 csm

    0     0  4937  4988 rc
85 dict begin %Colortable dictionary
/c0 { 0.000000 0.000000 0.000000 sr} bdef
/c1 { 1.000000 1.000000 1.000000 sr} bdef
/c2 { 0.900000 0.000000 0.000000 sr} bdef
/c3 { 0.000000 0.820000 0.000000 sr} bdef
/c4 { 0.000000 0.000000 0.800000 sr} bdef
/c5 { 0.910000 0.820000 0.320000 sr} bdef
/c6 { 1.000000 0.260000 0.820000 sr} bdef
/c7 { 0.000000 0.820000 0.820000 sr} bdef
c0
1 j
1 sg
   0    0 4938 4989 rf
6 w
0 1702 1652 0 0 -1702 642 2076 4 MP
PP
-1652 0 0 1702 1652 0 0 -1702 642 2076 5 MP stroke
4 w
DO
SO
6 w
0 sg
 642  374 mt 2294  374 L
 642 2076 mt 2294 2076 L
2294 2076 mt 2294  374 L
 642 2076 mt  642  374 L
 642 2076 mt 2294 2076 L
 642 2076 mt  642  374 L
 642 2076 mt  642 2058 L
 642  374 mt  642  391 L
%%IncludeResource: font Helvetica
/Helvetica /WindowsLatin1Encoding 120 FMSR

 539 2221 mt 
(-1) s
1055 2076 mt 1055 2058 L
1055  374 mt 1055  391 L
 902 2221 mt 
(-0.5) s
1468 2076 mt 1468 2058 L
1468  374 mt 1468  391 L
1435 2221 mt 
(0) s
1881 2076 mt 1881 2058 L
1881  374 mt 1881  391 L
1798 2221 mt 
(0.5) s
2294 2076 mt 2294 2058 L
2294  374 mt 2294  391 L
2261 2221 mt 
(1) s
 642 2076 mt  659 2076 L
2294 2076 mt 2276 2076 L
 541 2120 mt 
(1) s
 642 1792 mt  659 1792 L
2294 1792 mt 2276 1792 L
 441 1836 mt 
(1.5) s
 642 1508 mt  659 1508 L
2294 1508 mt 2276 1508 L
 541 1552 mt 
(2) s
 642 1225 mt  659 1225 L
2294 1225 mt 2276 1225 L
 441 1269 mt 
(2.5) s
 642  941 mt  659  941 L
2294  941 mt 2276  941 L
 541  985 mt 
(3) s
 642  657 mt  659  657 L
2294  657 mt 2276  657 L
 441  701 mt 
(3.5) s
 642  374 mt  659  374 L
2294  374 mt 2276  374 L
 541  418 mt 
(4) s
 642  374 mt 2294  374 L
 642 2076 mt 2294 2076 L
2294 2076 mt 2294  374 L
 642 2076 mt  642  374 L
gs 642 374 1653 1703 rc
/c8 { 0.000000 0.000000 1.000000 sr} bdef
c8
184 -308 184 -246 183 -197 184 -157 183 -127 184 -101 183 -81 184 -65 
183 -52 642 1867 10 MP stroke
/c9 { 0.000000 0.500000 0.000000 sr} bdef
c9
184 -308 184 -246 183 -197 184 -157 183 -127 184 -101 183 -81 184 -65 
183 -52 642 1867 10 MP stroke
gr

c9
1 sg
0 1702 1652 0 0 -1702 2816 2076 4 MP
PP
-1652 0 0 1702 1652 0 0 -1702 2816 2076 5 MP stroke
4 w
DO
SO
6 w
0 sg
2816  374 mt 4468  374 L
2816 2076 mt 4468 2076 L
4468 2076 mt 4468  374 L
2816 2076 mt 2816  374 L
2816 2076 mt 4468 2076 L
2816 2076 mt 2816  374 L
2816 2076 mt 2816 2058 L
2816  374 mt 2816  391 L
2713 2221 mt 
(-1) s
3229 2076 mt 3229 2058 L
3229  374 mt 3229  391 L
3076 2221 mt 
(-0.5) s
3642 2076 mt 3642 2058 L
3642  374 mt 3642  391 L
3609 2221 mt 
(0) s
4055 2076 mt 4055 2058 L
4055  374 mt 4055  391 L
3972 2221 mt 
(0.5) s
4468 2076 mt 4468 2058 L
4468  374 mt 4468  391 L
4435 2221 mt 
(1) s
2816 2076 mt 2833 2076 L
4468 2076 mt 4450 2076 L
2715 2120 mt 
(1) s
2816 1792 mt 2833 1792 L
4468 1792 mt 4450 1792 L
2615 1836 mt 
(1.5) s
2816 1508 mt 2833 1508 L
4468 1508 mt 4450 1508 L
2715 1552 mt 
(2) s
2816 1225 mt 2833 1225 L
4468 1225 mt 4450 1225 L
2615 1269 mt 
(2.5) s
2816  941 mt 2833  941 L
4468  941 mt 4450  941 L
2715  985 mt 
(3) s
2816  657 mt 2833  657 L
4468  657 mt 4450  657 L
2615  701 mt 
(3.5) s
2816  374 mt 2833  374 L
4468  374 mt 4450  374 L
2715  418 mt 
(4) s
2816  374 mt 4468  374 L
2816 2076 mt 4468 2076 L
4468 2076 mt 4468  374 L
2816 2076 mt 2816  374 L
gs 2816 374 1653 1703 rc
c8
118 -206 118 -178 118 -154 118 -134 118 -116 118 -100 118 -87 118 -76 
118 -65 118 -57 118 -49 118 -43 118 -37 118 -32 2816 1867 15 MP stroke
c9
118 -206 118 -178 118 -154 118 -134 118 -116 118 -100 118 -87 118 -76 
118 -65 118 -57 118 -49 118 -43 118 -37 118 -32 2816 1867 15 MP stroke
gr

c9
1 sg
0 1701 1652 0 0 -1701 642 4439 4 MP
PP
-1652 0 0 1701 1652 0 0 -1701 642 4439 5 MP stroke
4 w
DO
SO
6 w
0 sg
 642 2738 mt 2294 2738 L
 642 4439 mt 2294 4439 L
2294 4439 mt 2294 2738 L
 642 4439 mt  642 2738 L
 642 4439 mt 2294 4439 L
 642 4439 mt  642 2738 L
 642 4439 mt  642 4421 L
 642 2738 mt  642 2755 L
 539 4584 mt 
(-1) s
1055 4439 mt 1055 4421 L
1055 2738 mt 1055 2755 L
 902 4584 mt 
(-0.5) s
1468 4439 mt 1468 4421 L
1468 2738 mt 1468 2755 L
1435 4584 mt 
(0) s
1881 4439 mt 1881 4421 L
1881 2738 mt 1881 2755 L
1798 4584 mt 
(0.5) s
2294 4439 mt 2294 4421 L
2294 2738 mt 2294 2755 L
2261 4584 mt 
(1) s
 642 4439 mt  659 4439 L
2294 4439 mt 2276 4439 L
 541 4483 mt 
(1) s
 642 4155 mt  659 4155 L
2294 4155 mt 2276 4155 L
 441 4199 mt 
(1.5) s
 642 3872 mt  659 3872 L
2294 3872 mt 2276 3872 L
 541 3916 mt 
(2) s
 642 3588 mt  659 3588 L
2294 3588 mt 2276 3588 L
 441 3632 mt 
(2.5) s
 642 3305 mt  659 3305 L
2294 3305 mt 2276 3305 L
 541 3349 mt 
(3) s
 642 3021 mt  659 3021 L
2294 3021 mt 2276 3021 L
 441 3065 mt 
(3.5) s
 642 2738 mt  659 2738 L
2294 2738 mt 2276 2738 L
 541 2782 mt 
(4) s
 642 2738 mt 2294 2738 L
 642 4439 mt 2294 4439 L
2294 4439 mt 2294 2738 L
 642 4439 mt  642 2738 L
gs 642 2738 1653 1702 rc
c8
87 -154 87 -139 87 -125 87 -112 87 -101 87 -91 87 -82 87 -74 
87 -66 87 -60 87 -53 87 -49 87 -43 87 -39 87 -36 87 -31 
87 -29 87 -26 86 -23 642 4230 20 MP stroke
c9
87 -154 87 -139 87 -125 87 -112 87 -101 87 -91 87 -82 87 -74 
87 -66 87 -60 87 -53 87 -49 87 -43 87 -39 87 -36 87 -31 
87 -29 87 -26 86 -23 642 4230 20 MP stroke
gr

c9

end %%Color Dict

eplot
%%EndObject

epage
end

showpage

%%Trailer
%%EOF
