%!PS-Adobe-3.0 EPSF-3.0
%%Creator: MATLAB, The MathWorks, Inc. Version 8.3.0.532 (R2014a). Operating System: Linux 3.19.0-28-generic #30-Ubuntu SMP Mon Aug 31 15:52:51 UTC 2015 x86_64.
%%Title: /home/stamina/Documenti/Matlab/Consegne/esercizi/Esercitazione03/esercitazione03e03confronto.eps
%%CreationDate: 09/29/2015  17:50:39
%%DocumentNeededFonts: Helvetica
%%DocumentProcessColors: Cyan Magenta Yellow Black
%%LanguageLevel: 2
%%Pages: 1
%%BoundingBox:    58   266   536   574
%%EndComments

%%BeginProlog
% MathWorks dictionary
/MathWorks 160 dict begin
% definition operators
/bdef {bind def} bind def
/ldef {load def} bind def
/xdef {exch def} bdef
/xstore {exch store} bdef
% operator abbreviations
/c  /clip ldef
/cc /concat ldef
/cp /closepath ldef
/gr /grestore ldef
/gs /gsave ldef
/mt /moveto ldef
/np /newpath ldef
/cm /currentmatrix ldef
/sm /setmatrix ldef
/rm /rmoveto ldef
/rl /rlineto ldef
/s {show newpath} bdef
/sc {setcmykcolor} bdef
/sr /setrgbcolor ldef
/sg /setgray ldef
/w /setlinewidth ldef
/j /setlinejoin ldef
/cap /setlinecap ldef
/rc {rectclip} bdef
/rf {rectfill} bdef
% page state control
/pgsv () def
/bpage {/pgsv save def} bdef
/epage {pgsv restore} bdef
/bplot /gsave ldef
/eplot {stroke grestore} bdef
% orientation switch
/portraitMode 0 def /landscapeMode 1 def /rotateMode 2 def
% coordinate system mappings
/dpi2point 0 def
% font control
/FontSize 0 def
/FMS {/FontSize xstore findfont [FontSize 0 0 FontSize neg 0 0]
  makefont setfont} bdef
/reencode {exch dup where {pop load} {pop StandardEncoding} ifelse
  exch dup 3 1 roll findfont dup length dict begin
  { 1 index /FID ne {def}{pop pop} ifelse } forall
  /Encoding exch def currentdict end definefont pop} bdef
/isroman {findfont /CharStrings get /Agrave known} bdef
/FMSR {3 1 roll 1 index dup isroman {reencode} {pop pop} ifelse
  exch FMS} bdef
/csm {1 dpi2point div -1 dpi2point div scale neg translate
 dup landscapeMode eq {pop -90 rotate}
  {rotateMode eq {90 rotate} if} ifelse} bdef
% line types: solid, dotted, dashed, dotdash
/SO { [] 0 setdash } bdef
/DO { [.5 dpi2point mul 4 dpi2point mul] 0 setdash } bdef
/DA { [6 dpi2point mul] 0 setdash } bdef
/DD { [.5 dpi2point mul 4 dpi2point mul 6 dpi2point mul 4
  dpi2point mul] 0 setdash } bdef
% macros for lines and objects
/L {lineto stroke} bdef
/MP {3 1 roll moveto 1 sub {rlineto} repeat} bdef
/AP {{rlineto} repeat} bdef
/PDlw -1 def
/W {/PDlw currentlinewidth def setlinewidth} def
/PP {closepath eofill} bdef
/DP {closepath stroke} bdef
/MR {4 -2 roll moveto dup  0 exch rlineto exch 0 rlineto
  neg 0 exch rlineto closepath} bdef
/FR {MR stroke} bdef
/PR {MR fill} bdef
/L1i {{currentfile picstr readhexstring pop} image} bdef
/tMatrix matrix def
/MakeOval {newpath tMatrix currentmatrix pop translate scale
0 0 1 0 360 arc tMatrix setmatrix} bdef
/FO {MakeOval stroke} bdef
/PO {MakeOval fill} bdef
/PD {currentlinewidth 2 div 0 360 arc fill
   PDlw -1 eq not {PDlw w /PDlw -1 def} if} def
/FA {newpath tMatrix currentmatrix pop translate scale
  0 0 1 5 -2 roll arc tMatrix setmatrix stroke} bdef
/PA {newpath tMatrix currentmatrix pop	translate 0 0 moveto scale
  0 0 1 5 -2 roll arc closepath tMatrix setmatrix fill} bdef
/FAn {newpath tMatrix currentmatrix pop translate scale
  0 0 1 5 -2 roll arcn tMatrix setmatrix stroke} bdef
/PAn {newpath tMatrix currentmatrix pop translate 0 0 moveto scale
  0 0 1 5 -2 roll arcn closepath tMatrix setmatrix fill} bdef
/vradius 0 def /hradius 0 def /lry 0 def
/lrx 0 def /uly 0 def /ulx 0 def /rad 0 def
/MRR {/vradius xdef /hradius xdef /lry xdef /lrx xdef /uly xdef
  /ulx xdef newpath tMatrix currentmatrix pop ulx hradius add uly
  vradius add translate hradius vradius scale 0 0 1 180 270 arc 
  tMatrix setmatrix lrx hradius sub uly vradius add translate
  hradius vradius scale 0 0 1 270 360 arc tMatrix setmatrix
  lrx hradius sub lry vradius sub translate hradius vradius scale
  0 0 1 0 90 arc tMatrix setmatrix ulx hradius add lry vradius sub
  translate hradius vradius scale 0 0 1 90 180 arc tMatrix setmatrix
  closepath} bdef
/FRR {MRR stroke } bdef
/PRR {MRR fill } bdef
/MlrRR {/lry xdef /lrx xdef /uly xdef /ulx xdef /rad lry uly sub 2 div def
  newpath tMatrix currentmatrix pop ulx rad add uly rad add translate
  rad rad scale 0 0 1 90 270 arc tMatrix setmatrix lrx rad sub lry rad
  sub translate rad rad scale 0 0 1 270 90 arc tMatrix setmatrix
  closepath} bdef
/FlrRR {MlrRR stroke } bdef
/PlrRR {MlrRR fill } bdef
/MtbRR {/lry xdef /lrx xdef /uly xdef /ulx xdef /rad lrx ulx sub 2 div def
  newpath tMatrix currentmatrix pop ulx rad add uly rad add translate
  rad rad scale 0 0 1 180 360 arc tMatrix setmatrix lrx rad sub lry rad
  sub translate rad rad scale 0 0 1 0 180 arc tMatrix setmatrix
  closepath} bdef
/FtbRR {MtbRR stroke } bdef
/PtbRR {MtbRR fill } bdef
/stri 6 array def /dtri 6 array def
/smat 6 array def /dmat 6 array def
/tmat1 6 array def /tmat2 6 array def /dif 3 array def
/asub {/ind2 exch def /ind1 exch def dup dup
  ind1 get exch ind2 get sub exch } bdef
/tri_to_matrix {
  2 0 asub 3 1 asub 4 0 asub 5 1 asub
  dup 0 get exch 1 get 7 -1 roll astore } bdef
/compute_transform {
  dmat dtri tri_to_matrix tmat1 invertmatrix 
  smat stri tri_to_matrix tmat2 concatmatrix } bdef
/ds {stri astore pop} bdef
/dt {dtri astore pop} bdef
/db {2 copy /cols xdef /rows xdef mul dup 3 mul string
  currentfile 
  3 index 0 eq {/ASCIIHexDecode filter}
  {/ASCII85Decode filter 3 index 2 eq {/RunLengthDecode filter} if }
  ifelse exch readstring pop
  dup 0 3 index getinterval /rbmap xdef
  dup 2 index dup getinterval /gbmap xdef
  1 index dup 2 mul exch getinterval /bbmap xdef pop pop}bdef
/it {gs np dtri aload pop moveto lineto lineto cp c
  cols rows 8 compute_transform 
  rbmap gbmap bbmap true 3 colorimage gr}bdef
/il {newpath moveto lineto stroke}bdef
currentdict end def
%%EndProlog

%%BeginSetup
MathWorks begin

0 cap

end
%%EndSetup

%%Page: 1 1
%%BeginPageSetup
%%PageBoundingBox:    58   266   536   574
MathWorks begin
bpage
%%EndPageSetup

%%BeginObject: obj1
bplot

/dpi2point 12 def
portraitMode 0696 6888 csm

    0     0  5742  3688 rc
85 dict begin %Colortable dictionary
/c0 { 0.000000 0.000000 0.000000 sr} bdef
/c1 { 1.000000 1.000000 1.000000 sr} bdef
/c2 { 0.900000 0.000000 0.000000 sr} bdef
/c3 { 0.000000 0.820000 0.000000 sr} bdef
/c4 { 0.000000 0.000000 0.800000 sr} bdef
/c5 { 0.910000 0.820000 0.320000 sr} bdef
/c6 { 1.000000 0.260000 0.820000 sr} bdef
/c7 { 0.000000 0.820000 0.820000 sr} bdef
c0
1 j
1 sg
   0    0 5743 3689 rf
6 w
0 3005 4451 0 0 -3005 746 3282 4 MP
PP
-4451 0 0 3005 4451 0 0 -3005 746 3282 5 MP stroke
4 w
DO
SO
6 w
0 sg
 746 3282 mt 5197 3282 L
 746  277 mt 5197  277 L
 746 3282 mt  746  277 L
5197 3282 mt 5197  277 L
 746 3282 mt 5197 3282 L
 746 3282 mt  746  277 L
 746 3282 mt  746 3237 L
 746  277 mt  746  321 L
%%IncludeResource: font Helvetica
/Helvetica /ISOLatin1Encoding 120 FMSR

 713 3427 mt 
(0) s
1381 3282 mt 1381 3237 L
1381  277 mt 1381  321 L
1348 3427 mt 
(5) s
2017 3282 mt 2017 3237 L
2017  277 mt 2017  321 L
1951 3427 mt 
(10) s
2653 3282 mt 2653 3237 L
2653  277 mt 2653  321 L
2587 3427 mt 
(15) s
3289 3282 mt 3289 3237 L
3289  277 mt 3289  321 L
3223 3427 mt 
(20) s
3925 3282 mt 3925 3237 L
3925  277 mt 3925  321 L
3859 3427 mt 
(25) s
4561 3282 mt 4561 3237 L
4561  277 mt 4561  321 L
4495 3427 mt 
(30) s
5197 3282 mt 5197 3237 L
5197  277 mt 5197  321 L
5131 3427 mt 
(35) s
 746 3282 mt  790 3282 L
5197 3282 mt 5152 3282 L
 645 3326 mt 
(0) s
 746 2948 mt  790 2948 L
5197 2948 mt 5152 2948 L
 545 2992 mt 
(0.5) s
 746 2614 mt  790 2614 L
5197 2614 mt 5152 2614 L
 645 2658 mt 
(1) s
 746 2280 mt  790 2280 L
5197 2280 mt 5152 2280 L
 545 2324 mt 
(1.5) s
 746 1946 mt  790 1946 L
5197 1946 mt 5152 1946 L
 645 1990 mt 
(2) s
 746 1612 mt  790 1612 L
5197 1612 mt 5152 1612 L
 545 1656 mt 
(2.5) s
 746 1278 mt  790 1278 L
5197 1278 mt 5152 1278 L
 645 1322 mt 
(3) s
 746  944 mt  790  944 L
5197  944 mt 5152  944 L
 545  988 mt 
(3.5) s
 746  610 mt  790  610 L
5197  610 mt 5152  610 L
 645  654 mt 
(4) s
 746  277 mt  790  277 L
5197  277 mt 5152  277 L
 545  321 mt 
(4.5) s
 746  223 mt 
(x 10) s
%%IncludeResource: font Helvetica
/Helvetica /ISOLatin1Encoding 80 FMSR

 972  149 mt 
(6) s
 746 3282 mt 5197 3282 L
 746  277 mt 5197  277 L
 746 3282 mt  746  277 L
5197 3282 mt 5197  277 L
gs 746 277 4452 3006 rc
/c8 { 0.000000 0.000000 1.000000 sr} bdef
c8
127 0 127 0 127 0 127 0 128 0 127 0 127 0 127 0 
127 0 127 0 128 0 127 1 127 2 127 5 127 10 127 23 
128 44 127 83 127 143 127 229 127 339 127 450 128 531 127 533 
127 413 127 164 127 -164 127 -478 128 -664 127 -667 127 -516 127 -306 
127 -132 873 3238 34 MP stroke
/c9 { 1.000000 0.000000 0.000000 sr} bdef
c9
127 0 127 1 127 0 127 0 128 0 127 0 127 0 127 0 
127 0 127 0 128 0 127 0 127 0 127 0 127 0 127 0 
128 0 127 0 127 0 127 0 127 0 127 0 128 0 127 0 
127 0 127 0 127 0 127 0 128 0 127 0 127 0 127 0 
127 0 873 3281 34 MP stroke
gr

c9
0 sg
%%IncludeResource: font Helvetica
/Helvetica /ISOLatin1Encoding 120 FMSR

2721  182 mt 
(confronto) s
 729 3325 mt 
( ) s
5181  319 mt 
( ) s
1 sg
0 342 1393 0 0 -342 3540 829 4 MP
PP
-1393 0 0 342 1393 0 0 -342 3540 829 5 MP stroke
4 w
DO
SO
6 w
0 sg
3540  829 mt 4933  829 L
3540  487 mt 4933  487 L
3540  829 mt 3540  487 L
4933  829 mt 4933  487 L
3540  829 mt 4933  829 L
3540  829 mt 3540  487 L
3540  829 mt 4933  829 L
3540  487 mt 4933  487 L
3540  829 mt 3540  487 L
4933  829 mt 4933  487 L
4031  625 mt 
(primo metodo) s
gs 3540 487 1394 343 rc
c8
377 0 3615 583 2 MP stroke
gr

c8
0 sg
4031  776 mt 
(secondo metodo) s
gs 3540 487 1394 343 rc
c9
377 0 3615 733 2 MP stroke
gr

c9

end %%Color Dict

eplot
%%EndObject

epage
end

showpage

%%Trailer
%%EOF
