[iterazione1, nep1] = esercitazione03es03(-9)
iterazione1 =
    34

nep1 =
     1.226613221354248e-04

[iterazione2, nep2] = esercitazione03es03bis(-9)
iterazione2 =
    35

nep2 =
    1.234098040915845e-04

[nep, e] = esercitazione03es03confronto(-9)
nep =
   1.0e+02 *
  -0.080000000000000   0.001000000000000
   0.325000000000000   0.000198019801980
  -0.890000000000000   0.000058139534884
   1.843750000000000   0.000022452989054
  -3.077000000000000   0.000010667235586
   4.304125000000000   0.000005968145026
  -5.185892857142858   0.000003810156244
   5.490377232142857   0.000002708418715
  -5.185892857142858   0.000002100920531
   4.422750223214285   0.000001748043141
  -3.438866842532468   0.000001536843285
   2.457345956777597   0.000001409152185
  -1.624647519667833   0.000001332504525
   0.999491143761372   0.000001287485326
  -0.574992054296151   0.000001261904948
   0.310654744611206   0.000001247957747
  -0.158217090104454   0.000001240698022
   0.076218827253376   0.000001237099742
  -0.034829765179280   0.000001235402569
   0.015142101415415   0.000001234640359
  -0.006274412839454   0.000001234313985
   0.002486888446629   0.000001234180519
  -0.000941446839230   0.000001234128300
   0.000344178892967   0.000001234108720
  -0.000118646370624   0.000001234101671
   0.000041562374465   0.000001234099231
  -0.000011840540564   0.000001234098418
   0.000005324682124   0.000001234098156
  -0.000000002455952   0.000001234098075
   0.000001595685471   0.000001234098051
   0.000001131708929   0.000001234098044
   0.000001262202331   0.000001234098042
   0.000001226613221   0.000001234098041
   0.000001236033868   0.000001234098041

e =
   1.0e+06 *
   0.064825671420603   0.000809308392758
   0.263349227646200   0.000159457107477
   0.721175469554209   0.000046110953067
   1.494005099146711   0.000017193845473
   2.493319924514945   0.000007643750523
   3.487667610977539   0.000003836038004
   4.202173506084228   0.000002087401582
   4.448897750610261   0.000001194654415
   4.202173506084228   0.000000702393539
   3.583790624940812   0.000000416454028
   2.786543664079675   0.000000245317013
   1.991207052685690   0.000000141847842
   1.316466520459563   0.000000079739600
   0.809895062276671   0.000000043260166
   0.465921887365069   0.000000022532170
   0.251725146808410   0.000000011230636
   0.128205635989315   0.000000005348020
   0.061759755409548   0.000000002432304
   0.028223851042545   0.000000001057070
   0.012268771860897   0.000000000439445
   0.005085209383436   0.000000000174982
   0.002014146580155   0.000000000066832
   0.000763862275163   0.000000000024520
   0.000277891045581   0.000000000008653
   0.000097140149887   0.000000000002941
   0.000032678340852   0.000000000000964
   0.000010594489394   0.000000000000305
   0.000003314634614   0.000000000000093
   0.000001001990078   0.000000000000028
   0.000000292997329   0.000000000000008
   0.000000082966757   0.000000000000002
   0.000000022773142   0.000000000000001
   0.000000006065012   0.000000000000000
   0.000000001568617   0.000000000000000
   
x = 1: length(e);
plot(x, e(:,1)', x, e(:,2)','r')
