%!PS-Adobe-3.0 EPSF-3.0
%%Creator: MATLAB, The MathWorks, Inc. Version 8.0.0.783 (R2012b). Operating System: Microsoft Windows 7.
%%Title: C:\SILVIA\UniversitÓ\Presenti\Calcolo numerico\Silvia Balzani - esercitazioni\esCalcoloNumerico\Consegne\esercizi\Esercitazione09\1\2-ConfrontoNoZoom.eps
%%CreationDate: 11/14/2015  16:04:23
%%DocumentNeededFonts: Helvetica
%%DocumentProcessColors: Cyan Magenta Yellow Black
%%LanguageLevel: 2
%%Pages: 1
%%BoundingBox:    44   266   550   576
%%EndComments

%%BeginProlog
% MathWorks dictionary
/MathWorks 160 dict begin
% definition operators
/bdef {bind def} bind def
/ldef {load def} bind def
/xdef {exch def} bdef
/xstore {exch store} bdef
% operator abbreviations
/c  /clip ldef
/cc /concat ldef
/cp /closepath ldef
/gr /grestore ldef
/gs /gsave ldef
/mt /moveto ldef
/np /newpath ldef
/cm /currentmatrix ldef
/sm /setmatrix ldef
/rm /rmoveto ldef
/rl /rlineto ldef
/s {show newpath} bdef
/sc {setcmykcolor} bdef
/sr /setrgbcolor ldef
/sg /setgray ldef
/w /setlinewidth ldef
/j /setlinejoin ldef
/cap /setlinecap ldef
/rc {rectclip} bdef
/rf {rectfill} bdef
% page state control
/pgsv () def
/bpage {/pgsv save def} bdef
/epage {pgsv restore} bdef
/bplot /gsave ldef
/eplot {stroke grestore} bdef
% orientation switch
/portraitMode 0 def /landscapeMode 1 def /rotateMode 2 def
% coordinate system mappings
/dpi2point 0 def
% font control
/FontSize 0 def
/FMS {/FontSize xstore findfont [FontSize 0 0 FontSize neg 0 0]
  makefont setfont} bdef
/ISOLatin1Encoding where {pop /WindowsLatin1Encoding 256 array bdef
ISOLatin1Encoding WindowsLatin1Encoding copy pop
/.notdef/.notdef/quotesinglbase/florin/quotedblbase/ellipsis/dagger
/daggerdbl/circumflex/perthousand/Scaron/guilsinglleft/OE/.notdef/.notdef
/.notdef/.notdef/quoteleft/quoteright/quotedblleft/quotedblright/bullet
/endash/emdash/tilde/trademark/scaron/guilsinglright/oe/.notdef/.notdef
/Ydieresis WindowsLatin1Encoding 128 32 getinterval astore pop}
{/WindowsLatin1Encoding StandardEncoding bdef} ifelse
/reencode {exch dup where {pop load} {pop StandardEncoding} ifelse
  exch dup 3 1 roll findfont dup length dict begin
  { 1 index /FID ne {def}{pop pop} ifelse } forall
  /Encoding exch def currentdict end definefont pop} bdef
/isroman {findfont /CharStrings get /Agrave known} bdef
/FMSR {3 1 roll 1 index dup isroman {reencode} {pop pop} ifelse
  exch FMS} bdef
/csm {1 dpi2point div -1 dpi2point div scale neg translate
 dup landscapeMode eq {pop -90 rotate}
  {rotateMode eq {90 rotate} if} ifelse} bdef
% line types: solid, dotted, dashed, dotdash
/SO { [] 0 setdash } bdef
/DO { [.5 dpi2point mul 4 dpi2point mul] 0 setdash } bdef
/DA { [6 dpi2point mul] 0 setdash } bdef
/DD { [.5 dpi2point mul 4 dpi2point mul 6 dpi2point mul 4
  dpi2point mul] 0 setdash } bdef
% macros for lines and objects
/L {lineto stroke} bdef
/MP {3 1 roll moveto 1 sub {rlineto} repeat} bdef
/AP {{rlineto} repeat} bdef
/PDlw -1 def
/W {/PDlw currentlinewidth def setlinewidth} def
/PP {closepath eofill} bdef
/DP {closepath stroke} bdef
/MR {4 -2 roll moveto dup  0 exch rlineto exch 0 rlineto
  neg 0 exch rlineto closepath} bdef
/FR {MR stroke} bdef
/PR {MR fill} bdef
/L1i {{currentfile picstr readhexstring pop} image} bdef
/tMatrix matrix def
/MakeOval {newpath tMatrix currentmatrix pop translate scale
0 0 1 0 360 arc tMatrix setmatrix} bdef
/FO {MakeOval stroke} bdef
/PO {MakeOval fill} bdef
/PD {currentlinewidth 2 div 0 360 arc fill
   PDlw -1 eq not {PDlw w /PDlw -1 def} if} def
/FA {newpath tMatrix currentmatrix pop translate scale
  0 0 1 5 -2 roll arc tMatrix setmatrix stroke} bdef
/PA {newpath tMatrix currentmatrix pop	translate 0 0 moveto scale
  0 0 1 5 -2 roll arc closepath tMatrix setmatrix fill} bdef
/FAn {newpath tMatrix currentmatrix pop translate scale
  0 0 1 5 -2 roll arcn tMatrix setmatrix stroke} bdef
/PAn {newpath tMatrix currentmatrix pop translate 0 0 moveto scale
  0 0 1 5 -2 roll arcn closepath tMatrix setmatrix fill} bdef
/vradius 0 def /hradius 0 def /lry 0 def
/lrx 0 def /uly 0 def /ulx 0 def /rad 0 def
/MRR {/vradius xdef /hradius xdef /lry xdef /lrx xdef /uly xdef
  /ulx xdef newpath tMatrix currentmatrix pop ulx hradius add uly
  vradius add translate hradius vradius scale 0 0 1 180 270 arc 
  tMatrix setmatrix lrx hradius sub uly vradius add translate
  hradius vradius scale 0 0 1 270 360 arc tMatrix setmatrix
  lrx hradius sub lry vradius sub translate hradius vradius scale
  0 0 1 0 90 arc tMatrix setmatrix ulx hradius add lry vradius sub
  translate hradius vradius scale 0 0 1 90 180 arc tMatrix setmatrix
  closepath} bdef
/FRR {MRR stroke } bdef
/PRR {MRR fill } bdef
/MlrRR {/lry xdef /lrx xdef /uly xdef /ulx xdef /rad lry uly sub 2 div def
  newpath tMatrix currentmatrix pop ulx rad add uly rad add translate
  rad rad scale 0 0 1 90 270 arc tMatrix setmatrix lrx rad sub lry rad
  sub translate rad rad scale 0 0 1 270 90 arc tMatrix setmatrix
  closepath} bdef
/FlrRR {MlrRR stroke } bdef
/PlrRR {MlrRR fill } bdef
/MtbRR {/lry xdef /lrx xdef /uly xdef /ulx xdef /rad lrx ulx sub 2 div def
  newpath tMatrix currentmatrix pop ulx rad add uly rad add translate
  rad rad scale 0 0 1 180 360 arc tMatrix setmatrix lrx rad sub lry rad
  sub translate rad rad scale 0 0 1 0 180 arc tMatrix setmatrix
  closepath} bdef
/FtbRR {MtbRR stroke } bdef
/PtbRR {MtbRR fill } bdef
/stri 6 array def /dtri 6 array def
/smat 6 array def /dmat 6 array def
/tmat1 6 array def /tmat2 6 array def /dif 3 array def
/asub {/ind2 exch def /ind1 exch def dup dup
  ind1 get exch ind2 get sub exch } bdef
/tri_to_matrix {
  2 0 asub 3 1 asub 4 0 asub 5 1 asub
  dup 0 get exch 1 get 7 -1 roll astore } bdef
/compute_transform {
  dmat dtri tri_to_matrix tmat1 invertmatrix 
  smat stri tri_to_matrix tmat2 concatmatrix } bdef
/ds {stri astore pop} bdef
/dt {dtri astore pop} bdef
/db {2 copy /cols xdef /rows xdef mul dup 3 mul string
  currentfile 
  3 index 0 eq {/ASCIIHexDecode filter}
  {/ASCII85Decode filter 3 index 2 eq {/RunLengthDecode filter} if }
  ifelse exch readstring pop
  dup 0 3 index getinterval /rbmap xdef
  dup 2 index dup getinterval /gbmap xdef
  1 index dup 2 mul exch getinterval /bbmap xdef pop pop}bdef
/it {gs np dtri aload pop moveto lineto lineto cp c
  cols rows 8 compute_transform 
  rbmap gbmap bbmap true 3 colorimage gr}bdef
/il {newpath moveto lineto stroke}bdef
currentdict end def
%%EndProlog

%%BeginSetup
MathWorks begin

0 cap

end
%%EndSetup

%%Page: 1 1
%%BeginPageSetup
%%PageBoundingBox:    44   266   550   576
MathWorks begin
bpage
%%EndPageSetup

%%BeginObject: obj1
bplot

/dpi2point 12 def
portraitMode 0528 6912 csm

    0     0  6080  3719 rc
85 dict begin %Colortable dictionary
/c0 { 0.000000 0.000000 0.000000 sr} bdef
/c1 { 1.000000 1.000000 1.000000 sr} bdef
/c2 { 0.900000 0.000000 0.000000 sr} bdef
/c3 { 0.000000 0.820000 0.000000 sr} bdef
/c4 { 0.000000 0.000000 0.800000 sr} bdef
/c5 { 0.910000 0.820000 0.320000 sr} bdef
/c6 { 1.000000 0.260000 0.820000 sr} bdef
/c7 { 0.000000 0.820000 0.820000 sr} bdef
c0
1 j
1 sg
   0    0 6081 3720 rf
6 w
0 3031 4712 0 0 -3031 790 3309 4 MP
PP
-4712 0 0 3031 4712 0 0 -3031 790 3309 5 MP stroke
4 w
DO
SO
6 w
0 sg
 790  278 mt 5502  278 L
 790 3309 mt 5502 3309 L
5502 3309 mt 5502  278 L
 790 3309 mt  790  278 L
 790 3309 mt 5502 3309 L
 790 3309 mt  790  278 L
 790 3309 mt  790 3262 L
 790  278 mt  790  326 L
%%IncludeResource: font Helvetica
/Helvetica /WindowsLatin1Encoding 120 FMSR

 757 3455 mt 
(0) s
1261 3309 mt 1261 3262 L
1261  278 mt 1261  326 L
1178 3455 mt 
(0.1) s
1732 3309 mt 1732 3262 L
1732  278 mt 1732  326 L
1649 3455 mt 
(0.2) s
2203 3309 mt 2203 3262 L
2203  278 mt 2203  326 L
2120 3455 mt 
(0.3) s
2674 3309 mt 2674 3262 L
2674  278 mt 2674  326 L
2591 3455 mt 
(0.4) s
3146 3309 mt 3146 3262 L
3146  278 mt 3146  326 L
3063 3455 mt 
(0.5) s
3617 3309 mt 3617 3262 L
3617  278 mt 3617  326 L
3534 3455 mt 
(0.6) s
4088 3309 mt 4088 3262 L
4088  278 mt 4088  326 L
4005 3455 mt 
(0.7) s
4559 3309 mt 4559 3262 L
4559  278 mt 4559  326 L
4476 3455 mt 
(0.8) s
5030 3309 mt 5030 3262 L
5030  278 mt 5030  326 L
4947 3455 mt 
(0.9) s
5502 3309 mt 5502 3262 L
5502  278 mt 5502  326 L
5469 3455 mt 
(1) s
 790 3309 mt  837 3309 L
5502 3309 mt 5454 3309 L
 522 3353 mt 
(0.95) s
 790 3000 mt  837 3000 L
5502 3000 mt 5454 3000 L
 689 3044 mt 
(1) s
 790 2691 mt  837 2691 L
5502 2691 mt 5454 2691 L
 522 2735 mt 
(1.05) s
 790 2382 mt  837 2382 L
5502 2382 mt 5454 2382 L
 589 2426 mt 
(1.1) s
 790 2072 mt  837 2072 L
5502 2072 mt 5454 2072 L
 522 2116 mt 
(1.15) s
 790 1763 mt  837 1763 L
5502 1763 mt 5454 1763 L
 589 1807 mt 
(1.2) s
 790 1454 mt  837 1454 L
5502 1454 mt 5454 1454 L
 522 1498 mt 
(1.25) s
 790 1144 mt  837 1144 L
5502 1144 mt 5454 1144 L
 589 1188 mt 
(1.3) s
 790  835 mt  837  835 L
5502  835 mt 5454  835 L
 522  879 mt 
(1.35) s
 790  526 mt  837  526 L
5502  526 mt 5454  526 L
 589  570 mt 
(1.4) s
 790  278 mt 5502  278 L
 790 3309 mt 5502 3309 L
5502 3309 mt 5502  278 L
 790 3309 mt  790  278 L
gs 790 278 4713 3032 rc
/c8 { 0.000000 0.000000 1.000000 sr} bdef
c8
48 -22 47 -22 47 -22 47 -22 47 -22 47 -22 47 -22 47 -23 
48 -22 47 -23 47 -22 47 -23 47 -22 47 -23 47 -22 47 -23 
48 -23 47 -23 47 -23 47 -23 47 -23 47 -23 47 -23 47 -24 
47 -23 48 -23 47 -24 47 -23 47 -24 47 -24 47 -23 47 -24 
47 -24 48 -24 47 -24 47 -24 47 -25 47 -24 47 -24 47 -25 
47 -24 48 -25 47 -24 47 -25 47 -25 47 -25 47 -25 47 -25 
47 -25 47 -25 48 -25 47 -26 47 -25 47 -26 47 -25 47 -26 
47 -26 47 -26 48 -26 47 -26 47 -26 47 -26 47 -27 47 -26 
47 -27 47 -26 48 -27 47 -27 47 -27 47 -27 47 -27 47 -28 
47 -27 47 -27 47 -28 48 -28 47 -28 47 -28 47 -28 47 -28 
47 -28 47 -29 47 -28 48 -29 47 -28 47 -29 47 -29 47 -30 
47 -29 47 -29 47 -30 48 -30 47 -29 47 -30 47 -30 47 -31 
47 -30 47 -31 47 -30 47 -31 790 3000 101 MP stroke
/c9 { 0.000000 0.500000 0.000000 sr} bdef
c9
48 -23 47 -23 47 -23 47 -23 47 -23 47 -23 47 -23 47 -24 
48 -23 47 -23 47 -24 47 -23 47 -23 47 -24 47 -24 47 -23 
48 -24 47 -24 47 -23 47 -24 47 -24 47 -24 47 -24 47 -24 
47 -24 48 -25 47 -24 47 -24 47 -24 47 -25 47 -24 47 -25 
47 -24 48 -25 47 -24 47 -25 47 -25 47 -25 47 -25 47 -25 
47 -25 48 -25 47 -25 47 -25 47 -25 47 -25 47 -26 47 -25 
47 -26 47 -25 48 -26 47 -25 47 -26 47 -26 47 -26 47 -25 
47 -26 47 -26 48 -26 47 -26 47 -27 47 -26 47 -26 47 -26 
47 -27 47 -26 48 -27 47 -26 47 -27 47 -27 47 -27 47 -26 
47 -27 47 -27 47 -27 48 -27 47 -28 47 -27 47 -27 47 -27 
47 -28 47 -27 47 -28 48 -27 47 -28 47 -28 47 -28 47 -28 
47 -28 47 -28 47 -28 48 -28 47 -28 47 -28 47 -29 47 -28 
47 -28 47 -29 47 -29 47 -28 790 3000 101 MP stroke
/c10 { 1.000000 0.000000 0.000000 sr} bdef
c10
48 -22 47 -22 47 -22 47 -22 47 -22 47 -23 47 -22 47 -22 
48 -23 47 -22 47 -23 47 -22 47 -23 47 -22 47 -23 47 -23 
48 -23 47 -23 47 -22 47 -23 47 -24 47 -23 47 -23 47 -23 
47 -23 48 -24 47 -23 47 -24 47 -23 47 -24 47 -24 47 -23 
47 -24 48 -24 47 -24 47 -24 47 -24 47 -25 47 -24 47 -24 
47 -25 48 -24 47 -25 47 -25 47 -24 47 -25 47 -25 47 -25 
47 -25 47 -26 48 -25 47 -25 47 -26 47 -25 47 -26 47 -26 
47 -26 47 -25 48 -26 47 -27 47 -26 47 -26 47 -27 47 -26 
47 -27 47 -26 48 -27 47 -27 47 -27 47 -27 47 -28 47 -27 
47 -27 47 -28 47 -28 48 -27 47 -28 47 -28 47 -28 47 -29 
47 -28 47 -28 47 -29 48 -29 47 -28 47 -29 47 -29 47 -30 
47 -29 47 -29 47 -30 48 -29 47 -30 47 -30 47 -30 47 -30 
47 -31 47 -30 47 -31 47 -30 790 3000 101 MP stroke
gr

c10
0 sg
1363  183 mt 
(Confronto fra funzione effettiva, polin. interpolante e app\
rossimante) s
 773 3352 mt 
( ) s
5486  320 mt 
( ) s
1 sg
0 546 1512 0 0 -546 1134 998 4 MP
PP
-1512 0 0 546 1512 0 0 -546 1134 998 5 MP stroke
4 w
DO
SO
6 w
0 sg
1134  452 mt 2646  452 L
1134  998 mt 2646  998 L
2646  998 mt 2646  452 L
1134  998 mt 1134  452 L
1134  998 mt 2646  998 L
1134  998 mt 1134  452 L
1134  452 mt 2646  452 L
1134  998 mt 2646  998 L
2646  998 mt 2646  452 L
1134  998 mt 1134  452 L
1602  599 mt 
(valori funzione) s
gs 1134 452 1513 547 rc
c8
360 0 1206 557 2 MP stroke
gr

c8
0 sg
1602  768 mt 
(pol. interpolante) s
gs 1134 452 1513 547 rc
c9
360 0 1206 725 2 MP stroke
gr

c9
0 sg
1602  936 mt 
(pol. approssimante) s
gs 1134 452 1513 547 rc
c10
360 0 1206 893 2 MP stroke
gr

c10

end %%Color Dict

eplot
%%EndObject

epage
end

showpage

%%Trailer
%%EOF
