%!PS-Adobe-3.0 EPSF-3.0
%%Creator: MATLAB, The MathWorks, Inc. Version 8.0.0.783 (R2012b). Operating System: Microsoft Windows 7.
%%Title: C:\SILVIA\UniversitÓ\Presenti\Calcolo numerico\Silvia Balzani - esercitazioni\esCalcoloNumerico\Consegne\esercizi\Esercitazione09\1\4-ConfrontoNoZoom.eps
%%CreationDate: 11/14/2015  16:15:14
%%DocumentNeededFonts: Helvetica
%%DocumentProcessColors: Cyan Magenta Yellow Black
%%LanguageLevel: 2
%%Pages: 1
%%BoundingBox:    44   264   550   577
%%EndComments

%%BeginProlog
% MathWorks dictionary
/MathWorks 160 dict begin
% definition operators
/bdef {bind def} bind def
/ldef {load def} bind def
/xdef {exch def} bdef
/xstore {exch store} bdef
% operator abbreviations
/c  /clip ldef
/cc /concat ldef
/cp /closepath ldef
/gr /grestore ldef
/gs /gsave ldef
/mt /moveto ldef
/np /newpath ldef
/cm /currentmatrix ldef
/sm /setmatrix ldef
/rm /rmoveto ldef
/rl /rlineto ldef
/s {show newpath} bdef
/sc {setcmykcolor} bdef
/sr /setrgbcolor ldef
/sg /setgray ldef
/w /setlinewidth ldef
/j /setlinejoin ldef
/cap /setlinecap ldef
/rc {rectclip} bdef
/rf {rectfill} bdef
% page state control
/pgsv () def
/bpage {/pgsv save def} bdef
/epage {pgsv restore} bdef
/bplot /gsave ldef
/eplot {stroke grestore} bdef
% orientation switch
/portraitMode 0 def /landscapeMode 1 def /rotateMode 2 def
% coordinate system mappings
/dpi2point 0 def
% font control
/FontSize 0 def
/FMS {/FontSize xstore findfont [FontSize 0 0 FontSize neg 0 0]
  makefont setfont} bdef
/ISOLatin1Encoding where {pop /WindowsLatin1Encoding 256 array bdef
ISOLatin1Encoding WindowsLatin1Encoding copy pop
/.notdef/.notdef/quotesinglbase/florin/quotedblbase/ellipsis/dagger
/daggerdbl/circumflex/perthousand/Scaron/guilsinglleft/OE/.notdef/.notdef
/.notdef/.notdef/quoteleft/quoteright/quotedblleft/quotedblright/bullet
/endash/emdash/tilde/trademark/scaron/guilsinglright/oe/.notdef/.notdef
/Ydieresis WindowsLatin1Encoding 128 32 getinterval astore pop}
{/WindowsLatin1Encoding StandardEncoding bdef} ifelse
/reencode {exch dup where {pop load} {pop StandardEncoding} ifelse
  exch dup 3 1 roll findfont dup length dict begin
  { 1 index /FID ne {def}{pop pop} ifelse } forall
  /Encoding exch def currentdict end definefont pop} bdef
/isroman {findfont /CharStrings get /Agrave known} bdef
/FMSR {3 1 roll 1 index dup isroman {reencode} {pop pop} ifelse
  exch FMS} bdef
/csm {1 dpi2point div -1 dpi2point div scale neg translate
 dup landscapeMode eq {pop -90 rotate}
  {rotateMode eq {90 rotate} if} ifelse} bdef
% line types: solid, dotted, dashed, dotdash
/SO { [] 0 setdash } bdef
/DO { [.5 dpi2point mul 4 dpi2point mul] 0 setdash } bdef
/DA { [6 dpi2point mul] 0 setdash } bdef
/DD { [.5 dpi2point mul 4 dpi2point mul 6 dpi2point mul 4
  dpi2point mul] 0 setdash } bdef
% macros for lines and objects
/L {lineto stroke} bdef
/MP {3 1 roll moveto 1 sub {rlineto} repeat} bdef
/AP {{rlineto} repeat} bdef
/PDlw -1 def
/W {/PDlw currentlinewidth def setlinewidth} def
/PP {closepath eofill} bdef
/DP {closepath stroke} bdef
/MR {4 -2 roll moveto dup  0 exch rlineto exch 0 rlineto
  neg 0 exch rlineto closepath} bdef
/FR {MR stroke} bdef
/PR {MR fill} bdef
/L1i {{currentfile picstr readhexstring pop} image} bdef
/tMatrix matrix def
/MakeOval {newpath tMatrix currentmatrix pop translate scale
0 0 1 0 360 arc tMatrix setmatrix} bdef
/FO {MakeOval stroke} bdef
/PO {MakeOval fill} bdef
/PD {currentlinewidth 2 div 0 360 arc fill
   PDlw -1 eq not {PDlw w /PDlw -1 def} if} def
/FA {newpath tMatrix currentmatrix pop translate scale
  0 0 1 5 -2 roll arc tMatrix setmatrix stroke} bdef
/PA {newpath tMatrix currentmatrix pop	translate 0 0 moveto scale
  0 0 1 5 -2 roll arc closepath tMatrix setmatrix fill} bdef
/FAn {newpath tMatrix currentmatrix pop translate scale
  0 0 1 5 -2 roll arcn tMatrix setmatrix stroke} bdef
/PAn {newpath tMatrix currentmatrix pop translate 0 0 moveto scale
  0 0 1 5 -2 roll arcn closepath tMatrix setmatrix fill} bdef
/vradius 0 def /hradius 0 def /lry 0 def
/lrx 0 def /uly 0 def /ulx 0 def /rad 0 def
/MRR {/vradius xdef /hradius xdef /lry xdef /lrx xdef /uly xdef
  /ulx xdef newpath tMatrix currentmatrix pop ulx hradius add uly
  vradius add translate hradius vradius scale 0 0 1 180 270 arc 
  tMatrix setmatrix lrx hradius sub uly vradius add translate
  hradius vradius scale 0 0 1 270 360 arc tMatrix setmatrix
  lrx hradius sub lry vradius sub translate hradius vradius scale
  0 0 1 0 90 arc tMatrix setmatrix ulx hradius add lry vradius sub
  translate hradius vradius scale 0 0 1 90 180 arc tMatrix setmatrix
  closepath} bdef
/FRR {MRR stroke } bdef
/PRR {MRR fill } bdef
/MlrRR {/lry xdef /lrx xdef /uly xdef /ulx xdef /rad lry uly sub 2 div def
  newpath tMatrix currentmatrix pop ulx rad add uly rad add translate
  rad rad scale 0 0 1 90 270 arc tMatrix setmatrix lrx rad sub lry rad
  sub translate rad rad scale 0 0 1 270 90 arc tMatrix setmatrix
  closepath} bdef
/FlrRR {MlrRR stroke } bdef
/PlrRR {MlrRR fill } bdef
/MtbRR {/lry xdef /lrx xdef /uly xdef /ulx xdef /rad lrx ulx sub 2 div def
  newpath tMatrix currentmatrix pop ulx rad add uly rad add translate
  rad rad scale 0 0 1 180 360 arc tMatrix setmatrix lrx rad sub lry rad
  sub translate rad rad scale 0 0 1 0 180 arc tMatrix setmatrix
  closepath} bdef
/FtbRR {MtbRR stroke } bdef
/PtbRR {MtbRR fill } bdef
/stri 6 array def /dtri 6 array def
/smat 6 array def /dmat 6 array def
/tmat1 6 array def /tmat2 6 array def /dif 3 array def
/asub {/ind2 exch def /ind1 exch def dup dup
  ind1 get exch ind2 get sub exch } bdef
/tri_to_matrix {
  2 0 asub 3 1 asub 4 0 asub 5 1 asub
  dup 0 get exch 1 get 7 -1 roll astore } bdef
/compute_transform {
  dmat dtri tri_to_matrix tmat1 invertmatrix 
  smat stri tri_to_matrix tmat2 concatmatrix } bdef
/ds {stri astore pop} bdef
/dt {dtri astore pop} bdef
/db {2 copy /cols xdef /rows xdef mul dup 3 mul string
  currentfile 
  3 index 0 eq {/ASCIIHexDecode filter}
  {/ASCII85Decode filter 3 index 2 eq {/RunLengthDecode filter} if }
  ifelse exch readstring pop
  dup 0 3 index getinterval /rbmap xdef
  dup 2 index dup getinterval /gbmap xdef
  1 index dup 2 mul exch getinterval /bbmap xdef pop pop}bdef
/it {gs np dtri aload pop moveto lineto lineto cp c
  cols rows 8 compute_transform 
  rbmap gbmap bbmap true 3 colorimage gr}bdef
/il {newpath moveto lineto stroke}bdef
currentdict end def
%%EndProlog

%%BeginSetup
MathWorks begin

0 cap

end
%%EndSetup

%%Page: 1 1
%%BeginPageSetup
%%PageBoundingBox:    44   264   550   577
MathWorks begin
bpage
%%EndPageSetup

%%BeginObject: obj1
bplot

/dpi2point 12 def
portraitMode 0528 6924 csm

    0     0  6080  3746 rc
86 dict begin %Colortable dictionary
/c0 { 0.000000 0.000000 0.000000 sr} bdef
/c1 { 1.000000 1.000000 1.000000 sr} bdef
/c2 { 0.900000 0.000000 0.000000 sr} bdef
/c3 { 0.000000 0.820000 0.000000 sr} bdef
/c4 { 0.000000 0.000000 0.800000 sr} bdef
/c5 { 0.910000 0.820000 0.320000 sr} bdef
/c6 { 1.000000 0.260000 0.820000 sr} bdef
/c7 { 0.000000 0.820000 0.820000 sr} bdef
c0
1 j
1 sg
   0    0 6081 3747 rf
6 w
0 3054 4712 0 0 -3054 790 3334 4 MP
PP
-4712 0 0 3054 4712 0 0 -3054 790 3334 5 MP stroke
4 w
DO
SO
6 w
0 sg
 790 3334 mt 5502 3334 L
 790 3334 mt  790  280 L
 790 3334 mt  790 3286 L
%%IncludeResource: font Helvetica
/Helvetica /WindowsLatin1Encoding 120 FMSR

 757 3479 mt 
(0) s
1261 3334 mt 1261 3286 L
1178 3479 mt 
(0.1) s
1732 3334 mt 1732 3286 L
1649 3479 mt 
(0.2) s
2203 3334 mt 2203 3286 L
2120 3479 mt 
(0.3) s
2674 3334 mt 2674 3286 L
2591 3479 mt 
(0.4) s
3146 3334 mt 3146 3286 L
3063 3479 mt 
(0.5) s
3617 3334 mt 3617 3286 L
3534 3479 mt 
(0.6) s
4088 3334 mt 4088 3286 L
4005 3479 mt 
(0.7) s
4559 3334 mt 4559 3286 L
4476 3479 mt 
(0.8) s
5030 3334 mt 5030 3286 L
4947 3479 mt 
(0.9) s
5502 3334 mt 5502 3286 L
5469 3479 mt 
(1) s
 790 3334 mt  837 3334 L
 589 3378 mt 
(0.9) s
 790 2825 mt  837 2825 L
 689 2869 mt 
(1) s
 790 2316 mt  837 2316 L
 589 2360 mt 
(1.1) s
 790 1807 mt  837 1807 L
 589 1851 mt 
(1.2) s
 790 1298 mt  837 1298 L
 589 1342 mt 
(1.3) s
 790  789 mt  837  789 L
 589  833 mt 
(1.4) s
 790  281 mt  837  281 L
 589  325 mt 
(1.5) s
gs 790 281 4713 3054 rc
/c8 { 0.000000 0.000000 1.000000 sr} bdef
c8
48 -18 47 -18 47 -18 47 -18 47 -19 47 -18 47 -18 47 -18 
48 -19 47 -18 47 -19 47 -18 47 -19 47 -18 47 -19 47 -19 
48 -19 47 -18 47 -19 47 -19 47 -19 47 -19 47 -19 47 -20 
47 -19 48 -19 47 -19 47 -20 47 -19 47 -20 47 -19 47 -20 
47 -19 48 -20 47 -20 47 -20 47 -20 47 -20 47 -20 47 -20 
47 -20 48 -20 47 -20 47 -21 47 -20 47 -21 47 -20 47 -21 
47 -20 47 -21 48 -21 47 -21 47 -21 47 -21 47 -21 47 -21 
47 -21 47 -22 48 -21 47 -21 47 -22 47 -22 47 -21 47 -22 
47 -22 47 -22 48 -22 47 -22 47 -22 47 -22 47 -23 47 -22 
47 -23 47 -22 47 -23 48 -23 47 -23 47 -23 47 -23 47 -23 
47 -23 47 -24 47 -23 48 -24 47 -23 47 -24 47 -24 47 -24 
47 -24 47 -24 47 -25 48 -24 47 -25 47 -24 47 -25 47 -25 
47 -25 47 -25 47 -25 47 -26 790 2825 101 MP stroke
/c9 { 0.000000 0.500000 0.000000 sr} bdef
c9
48 -19 47 -19 47 -19 47 -19 47 -19 47 -19 47 -19 47 -19 
48 -19 47 -19 47 -19 47 -20 47 -19 47 -19 47 -20 47 -19 
48 -20 47 -19 47 -20 47 -19 47 -20 47 -20 47 -20 47 -19 
47 -20 48 -20 47 -20 47 -20 47 -20 47 -20 47 -20 47 -20 
47 -20 48 -21 47 -20 47 -20 47 -21 47 -20 47 -21 47 -20 
47 -21 48 -20 47 -21 47 -21 47 -20 47 -21 47 -21 47 -21 
47 -21 47 -21 48 -21 47 -21 47 -21 47 -21 47 -21 47 -22 
47 -21 47 -21 48 -22 47 -21 47 -22 47 -21 47 -22 47 -22 
47 -21 47 -22 48 -22 47 -22 47 -22 47 -22 47 -22 47 -22 
47 -22 47 -22 47 -22 48 -23 47 -22 47 -22 47 -23 47 -22 
47 -23 47 -23 47 -22 48 -23 47 -23 47 -22 47 -23 47 -23 
47 -23 47 -23 47 -23 48 -24 47 -23 47 -23 47 -23 47 -24 
47 -23 47 -24 47 -23 47 -24 790 2825 101 MP stroke
/c10 { 1.000000 0.000000 0.000000 sr} bdef
c10
48 -18 47 -18 47 -18 47 -19 47 -18 47 -18 47 -18 47 -19 
48 -18 47 -19 47 -18 47 -19 47 -18 47 -19 47 -19 47 -18 
48 -19 47 -19 47 -19 47 -19 47 -19 47 -19 47 -19 47 -19 
47 -19 48 -19 47 -20 47 -19 47 -19 47 -20 47 -19 47 -20 
47 -19 48 -20 47 -20 47 -20 47 -20 47 -19 47 -20 47 -21 
47 -20 48 -20 47 -20 47 -20 47 -21 47 -20 47 -21 47 -20 
47 -21 47 -21 48 -21 47 -20 47 -21 47 -21 47 -22 47 -21 
47 -21 47 -21 48 -22 47 -21 47 -22 47 -21 47 -22 47 -22 
47 -22 47 -22 48 -22 47 -22 47 -22 47 -23 47 -22 47 -22 
47 -23 47 -23 47 -22 48 -23 47 -23 47 -23 47 -23 47 -24 
47 -23 47 -23 47 -24 48 -23 47 -24 47 -24 47 -24 47 -24 
47 -24 47 -24 47 -24 48 -25 47 -24 47 -25 47 -25 47 -24 
47 -25 47 -25 47 -25 47 -26 790 2825 101 MP stroke
gr

c10
0 sg
2665  186 mt 
(Aggiunta dei punti) s
 773 3377 mt 
( ) s
5486  323 mt 
( ) s
gs 790 281 4713 3054 rc
gr

c10
  36   36  790 2825 FO
  36   36 2360 2037 FO
  36   36 3931 1344 FO
  36   36 5502  717 FO
gs 790 281 4713 3054 rc
gr

/c11 { 0.000000 1.000000 0.000000 sr} bdef
c11
 765 2800 mt  815 2850 L
 815 2800 mt  765 2850 L
2335 2012 mt 2385 2062 L
2385 2012 mt 2335 2062 L
3906 1319 mt 3956 1369 L
3956 1319 mt 3906 1369 L
5477  692 mt 5527  742 L
5527  692 mt 5477  742 L
gs 790 281 4713 3054 rc
gr

1 sg
0 882 1643 0 0 -882 1110 1395 4 MP
PP
-1643 0 0 882 1643 0 0 -882 1110 1395 5 MP stroke
4 w
DO
SO
6 w
0 sg
1110  513 mt 2753  513 L
1110 1395 mt 2753 1395 L
2753 1395 mt 2753  513 L
1110 1395 mt 1110  513 L
1110 1395 mt 2753 1395 L
1110 1395 mt 1110  513 L
1110  513 mt 2753  513 L
1110 1395 mt 2753 1395 L
2753 1395 mt 2753  513 L
1110 1395 mt 1110  513 L
1585  660 mt 
(valori funzione) s
gs 1110 513 1644 883 rc
c8
365 0 1183 618 2 MP stroke
gr

c8
0 sg
1585  828 mt 
(polin. appross.) s
gs 1110 513 1644 883 rc
c9
365 0 1183 786 2 MP stroke
gr

c9
0 sg
1585  997 mt 
(polin. interp.) s
gs 1110 513 1644 883 rc
c10
365 0 1183 954 2 MP stroke
gr

c10
0 sg
1585 1165 mt 
(nodi di interpolazione) s
gs 1110 513 1644 883 rc
gs 1292 1049 147 147 rc
c10
  36   36 1365 1122 FO
gr

c10
gr

c10
0 sg
1585 1333 mt 
(t\(i\) di Bernstein) s
gs 1110 513 1644 883 rc
gs 1292 1217 147 147 rc
c11
1340 1265 mt 1390 1315 L
1390 1265 mt 1340 1315 L
gr

c11
gr

c11

end %%Color Dict

eplot
%%EndObject

epage
end

showpage

%%Trailer
%%EOF
