%!PS-Adobe-3.0 EPSF-3.0
%%Creator: MATLAB, The MathWorks, Inc. Version 8.0.0.783 (R2012b). Operating System: Microsoft Windows 7.
%%Title: C:\SILVIA\UniversitÓ\Presenti\Calcolo numerico\Silvia Balzani - esercitazioni\esCalcoloNumerico\Consegne\esercizi\Esercitazione11\5\fsecondo.eps
%%CreationDate: 12/08/2015  17:24:15
%%DocumentNeededFonts: Helvetica
%%DocumentProcessColors: Cyan Magenta Yellow Black
%%LanguageLevel: 2
%%Pages: 1
%%BoundingBox:    87   262   507   578
%%EndComments

%%BeginProlog
% MathWorks dictionary
/MathWorks 160 dict begin
% definition operators
/bdef {bind def} bind def
/ldef {load def} bind def
/xdef {exch def} bdef
/xstore {exch store} bdef
% operator abbreviations
/c  /clip ldef
/cc /concat ldef
/cp /closepath ldef
/gr /grestore ldef
/gs /gsave ldef
/mt /moveto ldef
/np /newpath ldef
/cm /currentmatrix ldef
/sm /setmatrix ldef
/rm /rmoveto ldef
/rl /rlineto ldef
/s {show newpath} bdef
/sc {setcmykcolor} bdef
/sr /setrgbcolor ldef
/sg /setgray ldef
/w /setlinewidth ldef
/j /setlinejoin ldef
/cap /setlinecap ldef
/rc {rectclip} bdef
/rf {rectfill} bdef
% page state control
/pgsv () def
/bpage {/pgsv save def} bdef
/epage {pgsv restore} bdef
/bplot /gsave ldef
/eplot {stroke grestore} bdef
% orientation switch
/portraitMode 0 def /landscapeMode 1 def /rotateMode 2 def
% coordinate system mappings
/dpi2point 0 def
% font control
/FontSize 0 def
/FMS {/FontSize xstore findfont [FontSize 0 0 FontSize neg 0 0]
  makefont setfont} bdef
/ISOLatin1Encoding where {pop /WindowsLatin1Encoding 256 array bdef
ISOLatin1Encoding WindowsLatin1Encoding copy pop
/.notdef/.notdef/quotesinglbase/florin/quotedblbase/ellipsis/dagger
/daggerdbl/circumflex/perthousand/Scaron/guilsinglleft/OE/.notdef/.notdef
/.notdef/.notdef/quoteleft/quoteright/quotedblleft/quotedblright/bullet
/endash/emdash/tilde/trademark/scaron/guilsinglright/oe/.notdef/.notdef
/Ydieresis WindowsLatin1Encoding 128 32 getinterval astore pop}
{/WindowsLatin1Encoding StandardEncoding bdef} ifelse
/reencode {exch dup where {pop load} {pop StandardEncoding} ifelse
  exch dup 3 1 roll findfont dup length dict begin
  { 1 index /FID ne {def}{pop pop} ifelse } forall
  /Encoding exch def currentdict end definefont pop} bdef
/isroman {findfont /CharStrings get /Agrave known} bdef
/FMSR {3 1 roll 1 index dup isroman {reencode} {pop pop} ifelse
  exch FMS} bdef
/csm {1 dpi2point div -1 dpi2point div scale neg translate
 dup landscapeMode eq {pop -90 rotate}
  {rotateMode eq {90 rotate} if} ifelse} bdef
% line types: solid, dotted, dashed, dotdash
/SO { [] 0 setdash } bdef
/DO { [.5 dpi2point mul 4 dpi2point mul] 0 setdash } bdef
/DA { [6 dpi2point mul] 0 setdash } bdef
/DD { [.5 dpi2point mul 4 dpi2point mul 6 dpi2point mul 4
  dpi2point mul] 0 setdash } bdef
% macros for lines and objects
/L {lineto stroke} bdef
/MP {3 1 roll moveto 1 sub {rlineto} repeat} bdef
/AP {{rlineto} repeat} bdef
/PDlw -1 def
/W {/PDlw currentlinewidth def setlinewidth} def
/PP {closepath eofill} bdef
/DP {closepath stroke} bdef
/MR {4 -2 roll moveto dup  0 exch rlineto exch 0 rlineto
  neg 0 exch rlineto closepath} bdef
/FR {MR stroke} bdef
/PR {MR fill} bdef
/L1i {{currentfile picstr readhexstring pop} image} bdef
/tMatrix matrix def
/MakeOval {newpath tMatrix currentmatrix pop translate scale
0 0 1 0 360 arc tMatrix setmatrix} bdef
/FO {MakeOval stroke} bdef
/PO {MakeOval fill} bdef
/PD {currentlinewidth 2 div 0 360 arc fill
   PDlw -1 eq not {PDlw w /PDlw -1 def} if} def
/FA {newpath tMatrix currentmatrix pop translate scale
  0 0 1 5 -2 roll arc tMatrix setmatrix stroke} bdef
/PA {newpath tMatrix currentmatrix pop	translate 0 0 moveto scale
  0 0 1 5 -2 roll arc closepath tMatrix setmatrix fill} bdef
/FAn {newpath tMatrix currentmatrix pop translate scale
  0 0 1 5 -2 roll arcn tMatrix setmatrix stroke} bdef
/PAn {newpath tMatrix currentmatrix pop translate 0 0 moveto scale
  0 0 1 5 -2 roll arcn closepath tMatrix setmatrix fill} bdef
/vradius 0 def /hradius 0 def /lry 0 def
/lrx 0 def /uly 0 def /ulx 0 def /rad 0 def
/MRR {/vradius xdef /hradius xdef /lry xdef /lrx xdef /uly xdef
  /ulx xdef newpath tMatrix currentmatrix pop ulx hradius add uly
  vradius add translate hradius vradius scale 0 0 1 180 270 arc 
  tMatrix setmatrix lrx hradius sub uly vradius add translate
  hradius vradius scale 0 0 1 270 360 arc tMatrix setmatrix
  lrx hradius sub lry vradius sub translate hradius vradius scale
  0 0 1 0 90 arc tMatrix setmatrix ulx hradius add lry vradius sub
  translate hradius vradius scale 0 0 1 90 180 arc tMatrix setmatrix
  closepath} bdef
/FRR {MRR stroke } bdef
/PRR {MRR fill } bdef
/MlrRR {/lry xdef /lrx xdef /uly xdef /ulx xdef /rad lry uly sub 2 div def
  newpath tMatrix currentmatrix pop ulx rad add uly rad add translate
  rad rad scale 0 0 1 90 270 arc tMatrix setmatrix lrx rad sub lry rad
  sub translate rad rad scale 0 0 1 270 90 arc tMatrix setmatrix
  closepath} bdef
/FlrRR {MlrRR stroke } bdef
/PlrRR {MlrRR fill } bdef
/MtbRR {/lry xdef /lrx xdef /uly xdef /ulx xdef /rad lrx ulx sub 2 div def
  newpath tMatrix currentmatrix pop ulx rad add uly rad add translate
  rad rad scale 0 0 1 180 360 arc tMatrix setmatrix lrx rad sub lry rad
  sub translate rad rad scale 0 0 1 0 180 arc tMatrix setmatrix
  closepath} bdef
/FtbRR {MtbRR stroke } bdef
/PtbRR {MtbRR fill } bdef
/stri 6 array def /dtri 6 array def
/smat 6 array def /dmat 6 array def
/tmat1 6 array def /tmat2 6 array def /dif 3 array def
/asub {/ind2 exch def /ind1 exch def dup dup
  ind1 get exch ind2 get sub exch } bdef
/tri_to_matrix {
  2 0 asub 3 1 asub 4 0 asub 5 1 asub
  dup 0 get exch 1 get 7 -1 roll astore } bdef
/compute_transform {
  dmat dtri tri_to_matrix tmat1 invertmatrix 
  smat stri tri_to_matrix tmat2 concatmatrix } bdef
/ds {stri astore pop} bdef
/dt {dtri astore pop} bdef
/db {2 copy /cols xdef /rows xdef mul dup 3 mul string
  currentfile 
  3 index 0 eq {/ASCIIHexDecode filter}
  {/ASCII85Decode filter 3 index 2 eq {/RunLengthDecode filter} if }
  ifelse exch readstring pop
  dup 0 3 index getinterval /rbmap xdef
  dup 2 index dup getinterval /gbmap xdef
  1 index dup 2 mul exch getinterval /bbmap xdef pop pop}bdef
/it {gs np dtri aload pop moveto lineto lineto cp c
  cols rows 8 compute_transform 
  rbmap gbmap bbmap true 3 colorimage gr}bdef
/il {newpath moveto lineto stroke}bdef
currentdict end def
%%EndProlog

%%BeginSetup
MathWorks begin

0 cap

end
%%EndSetup

%%Page: 1 1
%%BeginPageSetup
%%PageBoundingBox:    87   262   507   578
MathWorks begin
bpage
%%EndPageSetup

%%BeginObject: obj1
bplot

/dpi2point 12 def
portraitMode 1044 6936 csm

    0     0  5045  3782 rc
85 dict begin %Colortable dictionary
/c0 { 0.000000 0.000000 0.000000 sr} bdef
/c1 { 1.000000 1.000000 1.000000 sr} bdef
/c2 { 0.900000 0.000000 0.000000 sr} bdef
/c3 { 0.000000 0.820000 0.000000 sr} bdef
/c4 { 0.000000 0.000000 0.800000 sr} bdef
/c5 { 0.910000 0.820000 0.320000 sr} bdef
/c6 { 1.000000 0.260000 0.820000 sr} bdef
/c7 { 0.000000 0.820000 0.820000 sr} bdef
c0
1 j
1 sg
   0    0 5046 3783 rf
6 w
0 3082 3911 0 0 -3082 655 3366 4 MP
PP
-3911 0 0 3082 3911 0 0 -3082 655 3366 5 MP stroke
4 w
DO
SO
6 w
0 sg
 655  284 mt 4566  284 L
 655 3366 mt 4566 3366 L
4566 3366 mt 4566  284 L
 655 3366 mt  655  284 L
 655 3366 mt 4566 3366 L
 655 3366 mt  655  284 L
 655 3366 mt  655 3326 L
 655  284 mt  655  323 L
%%IncludeResource: font Helvetica
/Helvetica /WindowsLatin1Encoding 120 FMSR

 622 3511 mt 
(0) s
1438 3366 mt 1438 3326 L
1438  284 mt 1438  323 L
1355 3511 mt 
(0.1) s
2220 3366 mt 2220 3326 L
2220  284 mt 2220  323 L
2137 3511 mt 
(0.2) s
3002 3366 mt 3002 3326 L
3002  284 mt 3002  323 L
2919 3511 mt 
(0.3) s
3784 3366 mt 3784 3326 L
3784  284 mt 3784  323 L
3701 3511 mt 
(0.4) s
4566 3366 mt 4566 3326 L
4566  284 mt 4566  323 L
4483 3511 mt 
(0.5) s
 655 3154 mt  695 3154 L
4566 3154 mt 4526 3154 L
 555 3198 mt 
(6) s
 655 2727 mt  695 2727 L
4566 2727 mt 4526 2727 L
 555 2771 mt 
(8) s
 655 2301 mt  695 2301 L
4566 2301 mt 4526 2301 L
 488 2345 mt 
(10) s
 655 1875 mt  695 1875 L
4566 1875 mt 4526 1875 L
 488 1919 mt 
(12) s
 655 1449 mt  695 1449 L
4566 1449 mt 4526 1449 L
 488 1493 mt 
(14) s
 655 1023 mt  695 1023 L
4566 1023 mt 4526 1023 L
 488 1067 mt 
(16) s
 655  597 mt  695  597 L
4566  597 mt 4526  597 L
 488  641 mt 
(18) s
 655  284 mt 4566  284 L
 655 3366 mt 4566 3366 L
4566 3366 mt 4566  284 L
 655 3366 mt  655  284 L
gs 656 283 3911 3083 rc
/c8 { 0.000000 0.000000 1.000000 sr} bdef
c8
10 -21 9 -21 9 -21 9 -21 9 -20 9 -21 9 -20 9 -20 
9 -19 9 -20 9 -19 9 -20 9 -19 9 -19 9 -19 9 -18 
9 -19 9 -18 9 -18 9 -18 9 -18 9 -18 9 -18 9 -17 
9 -18 9 -17 9 -17 9 -17 9 -17 9 -17 9 -16 9 -17 
9 -16 10 -16 9 -16 9 -16 9 -16 9 -15 9 -16 9 -15 
9 -16 9 -15 9 -15 9 -15 9 -15 9 -15 9 -14 9 -15 
9 -14 9 -14 9 -14 9 -15 9 -14 9 -13 9 -14 9 -14 
9 -13 9 -14 9 -13 9 -13 9 -13 9 -13 9 -13 9 -13 
9 -13 9 -13 10 -12 9 -13 9 -12 9 -12 9 -13 9 -12 
9 -12 9 -12 9 -11 9 -12 9 -12 9 -11 9 -12 9 -11 
9 -12 9 -11 9 -11 9 -11 9 -11 9 -11 9 -11 9 -11 
9 -10 9 -11 9 -10 9 -11 9 -10 9 -11 9 -10 9 -10 
9 -10 9 -10 9 -10 10 -10 9 -10 9 -9 9 -10 9 -10 
9 -9 9 -9 9 -10 9 -9 9 -9 9 -10 9 -9 9 -9 
9 -9 9 -9 9 -9 9 -8 9 -9 9 -9 9 -8 9 -9 
9 -8 9 -9 9 -8 9 -9 9 -8 9 -8 9 -8 9 -8 
9 -8 9 -8 9 -8 9 -8 9 -8 10 -8 9 -7 9 -8 
9 -7 9 -8 9 -7 9 -8 9 -7 9 -8 9 -7 9 -7 
9 -7 9 -7 9 -7 9 -7 9 -7 9 -7 9 -7 9 -7 
9 -7 9 -7 9 -6 9 -7 9 -7 9 -6 9 -7 9 -6 
9 -7 9 -6 9 -6 9 -7 9 -6 9 -6 10 -6 9 -6 
9 -6 9 -6 9 -6 9 -6 9 -6 9 -6 9 -6 9 -6 
9 -5 9 -6 9 -6 9 -5 9 -6 9 -6 9 -5 9 -6 
9 -5 9 -5 9 -6 9 -5 9 -5 9 -6 9 -5 9 -5 
9 -5 9 -5 9 -5 9 -5 9 -5 9 -5 9 -5 10 -5 
9 -5 9 -5 9 -5 9 -4 9 -5 9 -5 9 -4 9 -5 
9 -5 9 -4 9 -5 9 -4 9 -5 9 -4 9 -4 9 -5 
9 -4 9 -4 9 -5 9 -4 9 -4 9 -4 9 -5 9 -4 
9 -4 9 -4 9 -4 9 -4 9 -4 9 -4 9 -4 9 -4 
9 -3 10 -4 9 -4 9 -4 9 -4 9 -3 9 -4 9 -4 
9 -3 9 -4 9 -4 9 -3 9 -4 9 -3 9 -4 9 -3 
9 -4 9 -3 9 -3 9 -4 9 -3 9 -3 9 -4 9 -3 
9 -3 9 -3 9 -3 9 -4 9 -3 9 -3 9 -3 9 -3 
9 -3 9 -3 10 -3 9 -3 9 -3 9 -3 9 -3 9 -3 
9 -2 9 -3 9 -3 9 -3 9 -3 9 -2 9 -3 9 -3 
9 -2 9 -3 9 -3 9 -2 9 -3 9 -2 9 -3 9 -2 
9 -3 9 -2 9 -3 9 -2 9 -3 9 -2 9 -2 9 -3 
9 -2 9 -2 9 -3 1866 3009 300 MP stroke
10 -2 9 -2 9 -2 9 -3 9 -2 9 -2 9 -2 9 -2 
9 -2 9 -2 9 -3 9 -2 9 -2 9 -2 9 -2 9 -2 
9 -2 9 -1 9 -2 9 -2 9 -2 9 -2 9 -2 9 -2 
9 -1 9 -2 9 -2 9 -2 9 -1 9 -2 9 -2 9 -1 
9 -2 9 -2 10 -1 9 -2 9 -2 9 -1 9 -2 9 -1 
9 -2 9 -1 9 -2 9 -1 9 -2 9 -1 9 -1 9 -2 
9 -1 9 -1 9 -2 9 -1 9 -1 9 -2 9 -1 9 -1 
9 -1 9 -2 9 -1 9 -1 9 -1 9 -1 9 -1 9 -2 
9 -1 9 -1 9 -1 10 -1 9 -1 9 -1 9 -1 9 -1 
9 -1 9 -1 9 -1 9 -1 9 0 9 -1 9 -1 9 -1 
9 -1 9 -1 9 -1 9 0 9 -1 9 -1 9 -1 9 0 
9 -1 9 -1 9 0 9 -1 9 -1 9 0 9 -1 9 -1 
9 0 9 -1 9 0 9 -1 10 0 9 -1 9 0 9 -1 
9 0 9 -1 9 0 9 0 9 -1 9 0 9 -1 9 0 
9 0 9 -1 9 0 9 0 9 0 9 -1 9 0 9 0 
9 0 9 -1 9 0 9 0 9 0 9 0 9 0 9 0 
9 0 9 -1 9 0 9 0 9 0 9 0 656 3154 135 MP stroke
gr

c8
0 sg
2580 3654 mt 
(x) s
1662  188 mt 
(f'' = \() s
1916  188 mt 
(18) s
2049  188 mt 
( ) s
2082  188 mt 
(x) s
%%IncludeResource: font Helvetica
/Helvetica /WindowsLatin1Encoding 96 FMSR

2142  128 mt 
(2) s
%%IncludeResource: font Helvetica
/Helvetica /WindowsLatin1Encoding 120 FMSR

2195  188 mt 
(\)/\() s
2308  188 mt 
(1) s
2374  188 mt 
( - ) s
2510  188 mt 
(x) s
%%IncludeResource: font Helvetica
/Helvetica /WindowsLatin1Encoding 96 FMSR

2570  128 mt 
(2) s
%%IncludeResource: font Helvetica
/Helvetica /WindowsLatin1Encoding 120 FMSR

2623  188 mt 
(\)) s
%%IncludeResource: font Helvetica
/Helvetica /WindowsLatin1Encoding 96 FMSR

2662  128 mt 
(5) s
2715  128 mt 
(/) s
2741  128 mt 
(2) s
%%IncludeResource: font Helvetica
/Helvetica /WindowsLatin1Encoding 120 FMSR

2794  188 mt 
( + ) s
2930  188 mt 
(6) s
2996  188 mt 
(/\() s
3069  188 mt 
(1) s
3135  188 mt 
( - ) s
3271  188 mt 
(x) s
%%IncludeResource: font Helvetica
/Helvetica /WindowsLatin1Encoding 96 FMSR

3331  128 mt 
(2) s
%%IncludeResource: font Helvetica
/Helvetica /WindowsLatin1Encoding 120 FMSR

3384  188 mt 
(\)) s
%%IncludeResource: font Helvetica
/Helvetica /WindowsLatin1Encoding 96 FMSR

3423  128 mt 
(3) s
3476  128 mt 
(/) s
3502  128 mt 
(2) s

end %%Color Dict

eplot
%%EndObject

epage
end

showpage

%%Trailer
%%EOF
