%!PS-Adobe-3.0 EPSF-3.0
%%Creator: MATLAB, The MathWorks, Inc. Version 8.0.0.783 (R2012b). Operating System: Microsoft Windows 7.
%%Title: C:\SILVIA\UniversitÓ\Presenti\Calcolo numerico\Silvia Balzani - esercitazioni\esCalcoloNumerico\Consegne\esercizi\Esercitazione07\esercitazione07e02.eps
%%CreationDate: 10/31/2015  16:27:06
%%DocumentNeededFonts: Helvetica
%%DocumentProcessColors: Cyan Magenta Yellow Black
%%LanguageLevel: 2
%%Pages: 1
%%BoundingBox:    -1   270   597   571
%%EndComments

%%BeginProlog
% MathWorks dictionary
/MathWorks 160 dict begin
% definition operators
/bdef {bind def} bind def
/ldef {load def} bind def
/xdef {exch def} bdef
/xstore {exch store} bdef
% operator abbreviations
/c  /clip ldef
/cc /concat ldef
/cp /closepath ldef
/gr /grestore ldef
/gs /gsave ldef
/mt /moveto ldef
/np /newpath ldef
/cm /currentmatrix ldef
/sm /setmatrix ldef
/rm /rmoveto ldef
/rl /rlineto ldef
/s {show newpath} bdef
/sc {setcmykcolor} bdef
/sr /setrgbcolor ldef
/sg /setgray ldef
/w /setlinewidth ldef
/j /setlinejoin ldef
/cap /setlinecap ldef
/rc {rectclip} bdef
/rf {rectfill} bdef
% page state control
/pgsv () def
/bpage {/pgsv save def} bdef
/epage {pgsv restore} bdef
/bplot /gsave ldef
/eplot {stroke grestore} bdef
% orientation switch
/portraitMode 0 def /landscapeMode 1 def /rotateMode 2 def
% coordinate system mappings
/dpi2point 0 def
% font control
/FontSize 0 def
/FMS {/FontSize xstore findfont [FontSize 0 0 FontSize neg 0 0]
  makefont setfont} bdef
/ISOLatin1Encoding where {pop /WindowsLatin1Encoding 256 array bdef
ISOLatin1Encoding WindowsLatin1Encoding copy pop
/.notdef/.notdef/quotesinglbase/florin/quotedblbase/ellipsis/dagger
/daggerdbl/circumflex/perthousand/Scaron/guilsinglleft/OE/.notdef/.notdef
/.notdef/.notdef/quoteleft/quoteright/quotedblleft/quotedblright/bullet
/endash/emdash/tilde/trademark/scaron/guilsinglright/oe/.notdef/.notdef
/Ydieresis WindowsLatin1Encoding 128 32 getinterval astore pop}
{/WindowsLatin1Encoding StandardEncoding bdef} ifelse
/reencode {exch dup where {pop load} {pop StandardEncoding} ifelse
  exch dup 3 1 roll findfont dup length dict begin
  { 1 index /FID ne {def}{pop pop} ifelse } forall
  /Encoding exch def currentdict end definefont pop} bdef
/isroman {findfont /CharStrings get /Agrave known} bdef
/FMSR {3 1 roll 1 index dup isroman {reencode} {pop pop} ifelse
  exch FMS} bdef
/csm {1 dpi2point div -1 dpi2point div scale neg translate
 dup landscapeMode eq {pop -90 rotate}
  {rotateMode eq {90 rotate} if} ifelse} bdef
% line types: solid, dotted, dashed, dotdash
/SO { [] 0 setdash } bdef
/DO { [.5 dpi2point mul 4 dpi2point mul] 0 setdash } bdef
/DA { [6 dpi2point mul] 0 setdash } bdef
/DD { [.5 dpi2point mul 4 dpi2point mul 6 dpi2point mul 4
  dpi2point mul] 0 setdash } bdef
% macros for lines and objects
/L {lineto stroke} bdef
/MP {3 1 roll moveto 1 sub {rlineto} repeat} bdef
/AP {{rlineto} repeat} bdef
/PDlw -1 def
/W {/PDlw currentlinewidth def setlinewidth} def
/PP {closepath eofill} bdef
/DP {closepath stroke} bdef
/MR {4 -2 roll moveto dup  0 exch rlineto exch 0 rlineto
  neg 0 exch rlineto closepath} bdef
/FR {MR stroke} bdef
/PR {MR fill} bdef
/L1i {{currentfile picstr readhexstring pop} image} bdef
/tMatrix matrix def
/MakeOval {newpath tMatrix currentmatrix pop translate scale
0 0 1 0 360 arc tMatrix setmatrix} bdef
/FO {MakeOval stroke} bdef
/PO {MakeOval fill} bdef
/PD {currentlinewidth 2 div 0 360 arc fill
   PDlw -1 eq not {PDlw w /PDlw -1 def} if} def
/FA {newpath tMatrix currentmatrix pop translate scale
  0 0 1 5 -2 roll arc tMatrix setmatrix stroke} bdef
/PA {newpath tMatrix currentmatrix pop	translate 0 0 moveto scale
  0 0 1 5 -2 roll arc closepath tMatrix setmatrix fill} bdef
/FAn {newpath tMatrix currentmatrix pop translate scale
  0 0 1 5 -2 roll arcn tMatrix setmatrix stroke} bdef
/PAn {newpath tMatrix currentmatrix pop translate 0 0 moveto scale
  0 0 1 5 -2 roll arcn closepath tMatrix setmatrix fill} bdef
/vradius 0 def /hradius 0 def /lry 0 def
/lrx 0 def /uly 0 def /ulx 0 def /rad 0 def
/MRR {/vradius xdef /hradius xdef /lry xdef /lrx xdef /uly xdef
  /ulx xdef newpath tMatrix currentmatrix pop ulx hradius add uly
  vradius add translate hradius vradius scale 0 0 1 180 270 arc 
  tMatrix setmatrix lrx hradius sub uly vradius add translate
  hradius vradius scale 0 0 1 270 360 arc tMatrix setmatrix
  lrx hradius sub lry vradius sub translate hradius vradius scale
  0 0 1 0 90 arc tMatrix setmatrix ulx hradius add lry vradius sub
  translate hradius vradius scale 0 0 1 90 180 arc tMatrix setmatrix
  closepath} bdef
/FRR {MRR stroke } bdef
/PRR {MRR fill } bdef
/MlrRR {/lry xdef /lrx xdef /uly xdef /ulx xdef /rad lry uly sub 2 div def
  newpath tMatrix currentmatrix pop ulx rad add uly rad add translate
  rad rad scale 0 0 1 90 270 arc tMatrix setmatrix lrx rad sub lry rad
  sub translate rad rad scale 0 0 1 270 90 arc tMatrix setmatrix
  closepath} bdef
/FlrRR {MlrRR stroke } bdef
/PlrRR {MlrRR fill } bdef
/MtbRR {/lry xdef /lrx xdef /uly xdef /ulx xdef /rad lrx ulx sub 2 div def
  newpath tMatrix currentmatrix pop ulx rad add uly rad add translate
  rad rad scale 0 0 1 180 360 arc tMatrix setmatrix lrx rad sub lry rad
  sub translate rad rad scale 0 0 1 0 180 arc tMatrix setmatrix
  closepath} bdef
/FtbRR {MtbRR stroke } bdef
/PtbRR {MtbRR fill } bdef
/stri 6 array def /dtri 6 array def
/smat 6 array def /dmat 6 array def
/tmat1 6 array def /tmat2 6 array def /dif 3 array def
/asub {/ind2 exch def /ind1 exch def dup dup
  ind1 get exch ind2 get sub exch } bdef
/tri_to_matrix {
  2 0 asub 3 1 asub 4 0 asub 5 1 asub
  dup 0 get exch 1 get 7 -1 roll astore } bdef
/compute_transform {
  dmat dtri tri_to_matrix tmat1 invertmatrix 
  smat stri tri_to_matrix tmat2 concatmatrix } bdef
/ds {stri astore pop} bdef
/dt {dtri astore pop} bdef
/db {2 copy /cols xdef /rows xdef mul dup 3 mul string
  currentfile 
  3 index 0 eq {/ASCIIHexDecode filter}
  {/ASCII85Decode filter 3 index 2 eq {/RunLengthDecode filter} if }
  ifelse exch readstring pop
  dup 0 3 index getinterval /rbmap xdef
  dup 2 index dup getinterval /gbmap xdef
  1 index dup 2 mul exch getinterval /bbmap xdef pop pop}bdef
/it {gs np dtri aload pop moveto lineto lineto cp c
  cols rows 8 compute_transform 
  rbmap gbmap bbmap true 3 colorimage gr}bdef
/il {newpath moveto lineto stroke}bdef
currentdict end def
%%EndProlog

%%BeginSetup
MathWorks begin

0 cap

end
%%EndSetup

%%Page: 1 1
%%BeginPageSetup
%%PageBoundingBox:    -1   270   597   571
MathWorks begin
bpage
%%EndPageSetup

%%BeginObject: obj1
bplot

/dpi2point 12 def
portraitMode -0012 6852 csm

    0     0  7179  3611 rc
85 dict begin %Colortable dictionary
/c0 { 0.000000 0.000000 0.000000 sr} bdef
/c1 { 1.000000 1.000000 1.000000 sr} bdef
/c2 { 0.900000 0.000000 0.000000 sr} bdef
/c3 { 0.000000 0.820000 0.000000 sr} bdef
/c4 { 0.000000 0.000000 0.800000 sr} bdef
/c5 { 0.910000 0.820000 0.320000 sr} bdef
/c6 { 1.000000 0.260000 0.820000 sr} bdef
/c7 { 0.000000 0.820000 0.820000 sr} bdef
c0
1 j
1 sg
   0    0 7180 3612 rf
6 w
0 2943 5564 0 0 -2943 933 3214 4 MP
PP
-5564 0 0 2943 5564 0 0 -2943 933 3214 5 MP stroke
4 w
DO
SO
6 w
0 sg
 933  271 mt 6497  271 L
 933 3214 mt 6497 3214 L
6497 3214 mt 6497  271 L
 933 3214 mt  933  271 L
 933 3214 mt 6497 3214 L
 933 3214 mt  933  271 L
 933 3214 mt  933 3158 L
 933  271 mt  933  326 L
%%IncludeResource: font Helvetica
/Helvetica /WindowsLatin1Encoding 120 FMSR

 900 3359 mt 
(1) s
1860 3214 mt 1860 3158 L
1860  271 mt 1860  326 L
1827 3359 mt 
(2) s
2787 3214 mt 2787 3158 L
2787  271 mt 2787  326 L
2754 3359 mt 
(3) s
3715 3214 mt 3715 3158 L
3715  271 mt 3715  326 L
3682 3359 mt 
(4) s
4642 3214 mt 4642 3158 L
4642  271 mt 4642  326 L
4609 3359 mt 
(5) s
5569 3214 mt 5569 3158 L
5569  271 mt 5569  326 L
5536 3359 mt 
(6) s
6497 3214 mt 6497 3158 L
6497  271 mt 6497  326 L
6464 3359 mt 
(7) s
 933 3214 mt  960 3214 L
6497 3214 mt 6469 3214 L
 933 3214 mt  988 3214 L
6497 3214 mt 6441 3214 L
 674 3258 mt 
(10) s
%%IncludeResource: font Helvetica
/Helvetica /WindowsLatin1Encoding 80 FMSR

 807 3184 mt 
(-7) s
 933 3066 mt  960 3066 L
6497 3066 mt 6469 3066 L
 933 2979 mt  960 2979 L
6497 2979 mt 6469 2979 L
 933 2918 mt  960 2918 L
6497 2918 mt 6469 2918 L
 933 2871 mt  960 2871 L
6497 2871 mt 6469 2871 L
 933 2832 mt  960 2832 L
6497 2832 mt 6469 2832 L
 933 2799 mt  960 2799 L
6497 2799 mt 6469 2799 L
 933 2771 mt  960 2771 L
6497 2771 mt 6469 2771 L
 933 2745 mt  960 2745 L
6497 2745 mt 6469 2745 L
 933 2723 mt  960 2723 L
6497 2723 mt 6469 2723 L
 933 2723 mt  988 2723 L
6497 2723 mt 6441 2723 L
%%IncludeResource: font Helvetica
/Helvetica /WindowsLatin1Encoding 120 FMSR

 674 2767 mt 
(10) s
%%IncludeResource: font Helvetica
/Helvetica /WindowsLatin1Encoding 80 FMSR

 807 2693 mt 
(-6) s
 933 2575 mt  960 2575 L
6497 2575 mt 6469 2575 L
 933 2489 mt  960 2489 L
6497 2489 mt 6469 2489 L
 933 2428 mt  960 2428 L
6497 2428 mt 6469 2428 L
 933 2380 mt  960 2380 L
6497 2380 mt 6469 2380 L
 933 2341 mt  960 2341 L
6497 2341 mt 6469 2341 L
 933 2308 mt  960 2308 L
6497 2308 mt 6469 2308 L
 933 2280 mt  960 2280 L
6497 2280 mt 6469 2280 L
 933 2255 mt  960 2255 L
6497 2255 mt 6469 2255 L
 933 2233 mt  960 2233 L
6497 2233 mt 6469 2233 L
 933 2233 mt  988 2233 L
6497 2233 mt 6441 2233 L
%%IncludeResource: font Helvetica
/Helvetica /WindowsLatin1Encoding 120 FMSR

 674 2277 mt 
(10) s
%%IncludeResource: font Helvetica
/Helvetica /WindowsLatin1Encoding 80 FMSR

 807 2203 mt 
(-5) s
 933 2085 mt  960 2085 L
6497 2085 mt 6469 2085 L
 933 1998 mt  960 1998 L
6497 1998 mt 6469 1998 L
 933 1937 mt  960 1937 L
6497 1937 mt 6469 1937 L
 933 1890 mt  960 1890 L
6497 1890 mt 6469 1890 L
 933 1851 mt  960 1851 L
6497 1851 mt 6469 1851 L
 933 1818 mt  960 1818 L
6497 1818 mt 6469 1818 L
 933 1790 mt  960 1790 L
6497 1790 mt 6469 1790 L
 933 1764 mt  960 1764 L
6497 1764 mt 6469 1764 L
 933 1742 mt  960 1742 L
6497 1742 mt 6469 1742 L
 933 1742 mt  988 1742 L
6497 1742 mt 6441 1742 L
%%IncludeResource: font Helvetica
/Helvetica /WindowsLatin1Encoding 120 FMSR

 674 1786 mt 
(10) s
%%IncludeResource: font Helvetica
/Helvetica /WindowsLatin1Encoding 80 FMSR

 807 1712 mt 
(-4) s
 933 1594 mt  960 1594 L
6497 1594 mt 6469 1594 L
 933 1508 mt  960 1508 L
6497 1508 mt 6469 1508 L
 933 1447 mt  960 1447 L
6497 1447 mt 6469 1447 L
 933 1399 mt  960 1399 L
6497 1399 mt 6469 1399 L
 933 1360 mt  960 1360 L
6497 1360 mt 6469 1360 L
 933 1327 mt  960 1327 L
6497 1327 mt 6469 1327 L
 933 1299 mt  960 1299 L
6497 1299 mt 6469 1299 L
 933 1274 mt  960 1274 L
6497 1274 mt 6469 1274 L
 933 1252 mt  960 1252 L
6497 1252 mt 6469 1252 L
 933 1252 mt  988 1252 L
6497 1252 mt 6441 1252 L
%%IncludeResource: font Helvetica
/Helvetica /WindowsLatin1Encoding 120 FMSR

 674 1296 mt 
(10) s
%%IncludeResource: font Helvetica
/Helvetica /WindowsLatin1Encoding 80 FMSR

 807 1222 mt 
(-3) s
 933 1104 mt  960 1104 L
6497 1104 mt 6469 1104 L
 933 1017 mt  960 1017 L
6497 1017 mt 6469 1017 L
 933  956 mt  960  956 L
6497  956 mt 6469  956 L
 933  909 mt  960  909 L
6497  909 mt 6469  909 L
 933  870 mt  960  870 L
6497  870 mt 6469  870 L
 933  837 mt  960  837 L
6497  837 mt 6469  837 L
 933  809 mt  960  809 L
6497  809 mt 6469  809 L
 933  783 mt  960  783 L
6497  783 mt 6469  783 L
 933  761 mt  960  761 L
6497  761 mt 6469  761 L
 933  761 mt  988  761 L
6497  761 mt 6441  761 L
%%IncludeResource: font Helvetica
/Helvetica /WindowsLatin1Encoding 120 FMSR

 674  805 mt 
(10) s
%%IncludeResource: font Helvetica
/Helvetica /WindowsLatin1Encoding 80 FMSR

 807  731 mt 
(-2) s
 933  613 mt  960  613 L
6497  613 mt 6469  613 L
 933  527 mt  960  527 L
6497  527 mt 6469  527 L
 933  466 mt  960  466 L
6497  466 mt 6469  466 L
 933  418 mt  960  418 L
6497  418 mt 6469  418 L
 933  379 mt  960  379 L
6497  379 mt 6469  379 L
 933  346 mt  960  346 L
6497  346 mt 6469  346 L
 933  318 mt  960  318 L
6497  318 mt 6469  318 L
 933  293 mt  960  293 L
6497  293 mt 6469  293 L
 933  271 mt  960  271 L
6497  271 mt 6469  271 L
 933  271 mt  988  271 L
6497  271 mt 6441  271 L
%%IncludeResource: font Helvetica
/Helvetica /WindowsLatin1Encoding 120 FMSR

 674  315 mt 
(10) s
%%IncludeResource: font Helvetica
/Helvetica /WindowsLatin1Encoding 80 FMSR

 807  241 mt 
(-1) s
 933  271 mt 6497  271 L
 933 3214 mt 6497 3214 L
6497 3214 mt 6497  271 L
 933 3214 mt  933  271 L
gs 933 271 5565 2944 rc
/c8 { 0.000000 0.000000 1.000000 sr} bdef
c8
928 107 927 560 927 129 928 611 927 160 927 1102 933 369 7 MP stroke
gr

c8
0 sg
%%IncludeResource: font Helvetica
/Helvetica /WindowsLatin1Encoding 120 FMSR

2980  176 mt 
(Errore \(in scala logaritmica\)) s

end %%Color Dict

eplot
%%EndObject

epage
end

showpage

%%Trailer
%%EOF
