%!PS-Adobe-3.0 EPSF-3.0
%%Creator: MATLAB, The MathWorks, Inc. Version 8.0.0.783 (R2012b). Operating System: Microsoft Windows 7.
%%Title: C:\SILVIA\UniversitÓ\Presenti\Calcolo numerico\Silvia Balzani - esercitazioni\esCalcoloNumerico\Consegne\esercizi\Esercitazione07\3\GraficoIterati.eps
%%CreationDate: 11/12/2015  18:36:44
%%DocumentNeededFonts: Helvetica
%%DocumentProcessColors: Cyan Magenta Yellow Black
%%LanguageLevel: 2
%%Pages: 1
%%BoundingBox:    44   267   550   574
%%EndComments

%%BeginProlog
% MathWorks dictionary
/MathWorks 160 dict begin
% definition operators
/bdef {bind def} bind def
/ldef {load def} bind def
/xdef {exch def} bdef
/xstore {exch store} bdef
% operator abbreviations
/c  /clip ldef
/cc /concat ldef
/cp /closepath ldef
/gr /grestore ldef
/gs /gsave ldef
/mt /moveto ldef
/np /newpath ldef
/cm /currentmatrix ldef
/sm /setmatrix ldef
/rm /rmoveto ldef
/rl /rlineto ldef
/s {show newpath} bdef
/sc {setcmykcolor} bdef
/sr /setrgbcolor ldef
/sg /setgray ldef
/w /setlinewidth ldef
/j /setlinejoin ldef
/cap /setlinecap ldef
/rc {rectclip} bdef
/rf {rectfill} bdef
% page state control
/pgsv () def
/bpage {/pgsv save def} bdef
/epage {pgsv restore} bdef
/bplot /gsave ldef
/eplot {stroke grestore} bdef
% orientation switch
/portraitMode 0 def /landscapeMode 1 def /rotateMode 2 def
% coordinate system mappings
/dpi2point 0 def
% font control
/FontSize 0 def
/FMS {/FontSize xstore findfont [FontSize 0 0 FontSize neg 0 0]
  makefont setfont} bdef
/ISOLatin1Encoding where {pop /WindowsLatin1Encoding 256 array bdef
ISOLatin1Encoding WindowsLatin1Encoding copy pop
/.notdef/.notdef/quotesinglbase/florin/quotedblbase/ellipsis/dagger
/daggerdbl/circumflex/perthousand/Scaron/guilsinglleft/OE/.notdef/.notdef
/.notdef/.notdef/quoteleft/quoteright/quotedblleft/quotedblright/bullet
/endash/emdash/tilde/trademark/scaron/guilsinglright/oe/.notdef/.notdef
/Ydieresis WindowsLatin1Encoding 128 32 getinterval astore pop}
{/WindowsLatin1Encoding StandardEncoding bdef} ifelse
/reencode {exch dup where {pop load} {pop StandardEncoding} ifelse
  exch dup 3 1 roll findfont dup length dict begin
  { 1 index /FID ne {def}{pop pop} ifelse } forall
  /Encoding exch def currentdict end definefont pop} bdef
/isroman {findfont /CharStrings get /Agrave known} bdef
/FMSR {3 1 roll 1 index dup isroman {reencode} {pop pop} ifelse
  exch FMS} bdef
/csm {1 dpi2point div -1 dpi2point div scale neg translate
 dup landscapeMode eq {pop -90 rotate}
  {rotateMode eq {90 rotate} if} ifelse} bdef
% line types: solid, dotted, dashed, dotdash
/SO { [] 0 setdash } bdef
/DO { [.5 dpi2point mul 4 dpi2point mul] 0 setdash } bdef
/DA { [6 dpi2point mul] 0 setdash } bdef
/DD { [.5 dpi2point mul 4 dpi2point mul 6 dpi2point mul 4
  dpi2point mul] 0 setdash } bdef
% macros for lines and objects
/L {lineto stroke} bdef
/MP {3 1 roll moveto 1 sub {rlineto} repeat} bdef
/AP {{rlineto} repeat} bdef
/PDlw -1 def
/W {/PDlw currentlinewidth def setlinewidth} def
/PP {closepath eofill} bdef
/DP {closepath stroke} bdef
/MR {4 -2 roll moveto dup  0 exch rlineto exch 0 rlineto
  neg 0 exch rlineto closepath} bdef
/FR {MR stroke} bdef
/PR {MR fill} bdef
/L1i {{currentfile picstr readhexstring pop} image} bdef
/tMatrix matrix def
/MakeOval {newpath tMatrix currentmatrix pop translate scale
0 0 1 0 360 arc tMatrix setmatrix} bdef
/FO {MakeOval stroke} bdef
/PO {MakeOval fill} bdef
/PD {currentlinewidth 2 div 0 360 arc fill
   PDlw -1 eq not {PDlw w /PDlw -1 def} if} def
/FA {newpath tMatrix currentmatrix pop translate scale
  0 0 1 5 -2 roll arc tMatrix setmatrix stroke} bdef
/PA {newpath tMatrix currentmatrix pop	translate 0 0 moveto scale
  0 0 1 5 -2 roll arc closepath tMatrix setmatrix fill} bdef
/FAn {newpath tMatrix currentmatrix pop translate scale
  0 0 1 5 -2 roll arcn tMatrix setmatrix stroke} bdef
/PAn {newpath tMatrix currentmatrix pop translate 0 0 moveto scale
  0 0 1 5 -2 roll arcn closepath tMatrix setmatrix fill} bdef
/vradius 0 def /hradius 0 def /lry 0 def
/lrx 0 def /uly 0 def /ulx 0 def /rad 0 def
/MRR {/vradius xdef /hradius xdef /lry xdef /lrx xdef /uly xdef
  /ulx xdef newpath tMatrix currentmatrix pop ulx hradius add uly
  vradius add translate hradius vradius scale 0 0 1 180 270 arc 
  tMatrix setmatrix lrx hradius sub uly vradius add translate
  hradius vradius scale 0 0 1 270 360 arc tMatrix setmatrix
  lrx hradius sub lry vradius sub translate hradius vradius scale
  0 0 1 0 90 arc tMatrix setmatrix ulx hradius add lry vradius sub
  translate hradius vradius scale 0 0 1 90 180 arc tMatrix setmatrix
  closepath} bdef
/FRR {MRR stroke } bdef
/PRR {MRR fill } bdef
/MlrRR {/lry xdef /lrx xdef /uly xdef /ulx xdef /rad lry uly sub 2 div def
  newpath tMatrix currentmatrix pop ulx rad add uly rad add translate
  rad rad scale 0 0 1 90 270 arc tMatrix setmatrix lrx rad sub lry rad
  sub translate rad rad scale 0 0 1 270 90 arc tMatrix setmatrix
  closepath} bdef
/FlrRR {MlrRR stroke } bdef
/PlrRR {MlrRR fill } bdef
/MtbRR {/lry xdef /lrx xdef /uly xdef /ulx xdef /rad lrx ulx sub 2 div def
  newpath tMatrix currentmatrix pop ulx rad add uly rad add translate
  rad rad scale 0 0 1 180 360 arc tMatrix setmatrix lrx rad sub lry rad
  sub translate rad rad scale 0 0 1 0 180 arc tMatrix setmatrix
  closepath} bdef
/FtbRR {MtbRR stroke } bdef
/PtbRR {MtbRR fill } bdef
/stri 6 array def /dtri 6 array def
/smat 6 array def /dmat 6 array def
/tmat1 6 array def /tmat2 6 array def /dif 3 array def
/asub {/ind2 exch def /ind1 exch def dup dup
  ind1 get exch ind2 get sub exch } bdef
/tri_to_matrix {
  2 0 asub 3 1 asub 4 0 asub 5 1 asub
  dup 0 get exch 1 get 7 -1 roll astore } bdef
/compute_transform {
  dmat dtri tri_to_matrix tmat1 invertmatrix 
  smat stri tri_to_matrix tmat2 concatmatrix } bdef
/ds {stri astore pop} bdef
/dt {dtri astore pop} bdef
/db {2 copy /cols xdef /rows xdef mul dup 3 mul string
  currentfile 
  3 index 0 eq {/ASCIIHexDecode filter}
  {/ASCII85Decode filter 3 index 2 eq {/RunLengthDecode filter} if }
  ifelse exch readstring pop
  dup 0 3 index getinterval /rbmap xdef
  dup 2 index dup getinterval /gbmap xdef
  1 index dup 2 mul exch getinterval /bbmap xdef pop pop}bdef
/it {gs np dtri aload pop moveto lineto lineto cp c
  cols rows 8 compute_transform 
  rbmap gbmap bbmap true 3 colorimage gr}bdef
/il {newpath moveto lineto stroke}bdef
currentdict end def
%%EndProlog

%%BeginSetup
MathWorks begin

0 cap

end
%%EndSetup

%%Page: 1 1
%%BeginPageSetup
%%PageBoundingBox:    44   267   550   574
MathWorks begin
bpage
%%EndPageSetup

%%BeginObject: obj1
bplot

/dpi2point 12 def
portraitMode 0528 6888 csm

    0     0  6080  3683 rc
85 dict begin %Colortable dictionary
/c0 { 0.000000 0.000000 0.000000 sr} bdef
/c1 { 1.000000 1.000000 1.000000 sr} bdef
/c2 { 0.900000 0.000000 0.000000 sr} bdef
/c3 { 0.000000 0.820000 0.000000 sr} bdef
/c4 { 0.000000 0.000000 0.800000 sr} bdef
/c5 { 0.910000 0.820000 0.320000 sr} bdef
/c6 { 1.000000 0.260000 0.820000 sr} bdef
/c7 { 0.000000 0.820000 0.820000 sr} bdef
c0
1 j
1 sg
   0    0 6081 3684 rf
6 w
0 3002 4712 0 0 -3002 790 3278 4 MP
PP
-4712 0 0 3002 4712 0 0 -3002 790 3278 5 MP stroke
4 w
DO
SO
6 w
0 sg
 790 3278 mt 5502 3278 L
 790 3278 mt  790  276 L
 790 3278 mt  790 3230 L
%%IncludeResource: font Helvetica
/Helvetica /WindowsLatin1Encoding 120 FMSR

 724 3423 mt 
(10) s
1313 3278 mt 1313 3230 L
1247 3423 mt 
(20) s
1837 3278 mt 1837 3230 L
1771 3423 mt 
(30) s
2360 3278 mt 2360 3230 L
2294 3423 mt 
(40) s
2884 3278 mt 2884 3230 L
2818 3423 mt 
(50) s
3407 3278 mt 3407 3230 L
3341 3423 mt 
(60) s
3931 3278 mt 3931 3230 L
3865 3423 mt 
(70) s
4454 3278 mt 4454 3230 L
4388 3423 mt 
(80) s
4978 3278 mt 4978 3230 L
4912 3423 mt 
(90) s
5502 3278 mt 5502 3230 L
5402 3423 mt 
(100) s
 790 3278 mt  790 3278 L
 790 3278 mt  790 3278 L
 790 3278 mt  790 3278 L
 790 3278 mt  790 3278 L
 790 3278 mt  790 3278 L
 790 3278 mt  790 3278 L
 790 3278 mt  790 3278 L
 790 3278 mt  790 3278 L
 790 3278 mt  790 3278 L
 790 3278 mt  837 3278 L
 487 3322 mt 
(10) s
%%IncludeResource: font Helvetica
/Helvetica /WindowsLatin1Encoding 80 FMSR

 620 3248 mt 
(-12) s
 790 3278 mt  790 3278 L
 790 3278 mt  790 3278 L
 790 3278 mt  790 3278 L
 790 3278 mt  790 3278 L
 790 3278 mt  790 3278 L
 790 3278 mt  790 3278 L
 790 3278 mt  790 3278 L
 790 3278 mt  790 3278 L
 790 3278 mt  790 3278 L
 790 2677 mt  837 2677 L
%%IncludeResource: font Helvetica
/Helvetica /WindowsLatin1Encoding 120 FMSR

 487 2721 mt 
(10) s
%%IncludeResource: font Helvetica
/Helvetica /WindowsLatin1Encoding 80 FMSR

 620 2647 mt 
(-10) s
 790 3278 mt  790 3278 L
 790 3278 mt  790 3278 L
 790 3278 mt  790 3278 L
 790 3278 mt  790 3278 L
 790 3278 mt  790 3278 L
 790 3278 mt  790 3278 L
 790 3278 mt  790 3278 L
 790 3278 mt  790 3278 L
 790 3278 mt  790 3278 L
 790 2077 mt  837 2077 L
%%IncludeResource: font Helvetica
/Helvetica /WindowsLatin1Encoding 120 FMSR

 487 2121 mt 
(10) s
%%IncludeResource: font Helvetica
/Helvetica /WindowsLatin1Encoding 80 FMSR

 620 2047 mt 
(-8) s
 790 3278 mt  790 3278 L
 790 3278 mt  790 3278 L
 790 3278 mt  790 3278 L
 790 3278 mt  790 3278 L
 790 3278 mt  790 3278 L
 790 3278 mt  790 3278 L
 790 3278 mt  790 3278 L
 790 3278 mt  790 3278 L
 790 3278 mt  790 3278 L
 790 1476 mt  837 1476 L
%%IncludeResource: font Helvetica
/Helvetica /WindowsLatin1Encoding 120 FMSR

 487 1520 mt 
(10) s
%%IncludeResource: font Helvetica
/Helvetica /WindowsLatin1Encoding 80 FMSR

 620 1446 mt 
(-6) s
 790 3278 mt  790 3278 L
 790 3278 mt  790 3278 L
 790 3278 mt  790 3278 L
 790 3278 mt  790 3278 L
 790 3278 mt  790 3278 L
 790 3278 mt  790 3278 L
 790 3278 mt  790 3278 L
 790 3278 mt  790 3278 L
 790 3278 mt  790 3278 L
 790  876 mt  837  876 L
%%IncludeResource: font Helvetica
/Helvetica /WindowsLatin1Encoding 120 FMSR

 487  920 mt 
(10) s
%%IncludeResource: font Helvetica
/Helvetica /WindowsLatin1Encoding 80 FMSR

 620  846 mt 
(-4) s
 790 3278 mt  790 3278 L
 790 3278 mt  790 3278 L
 790 3278 mt  790 3278 L
 790 3278 mt  790 3278 L
 790 3278 mt  790 3278 L
 790 3278 mt  790 3278 L
 790 3278 mt  790 3278 L
 790 3278 mt  790 3278 L
 790 3278 mt  790 3278 L
 790  276 mt  837  276 L
%%IncludeResource: font Helvetica
/Helvetica /WindowsLatin1Encoding 120 FMSR

 487  320 mt 
(10) s
%%IncludeResource: font Helvetica
/Helvetica /WindowsLatin1Encoding 80 FMSR

 620  246 mt 
(-2) s
 790 3278 mt  790 3278 L
 790 3278 mt  790 3278 L
 790 3278 mt  790 3278 L
 790 3278 mt  790 3278 L
 790 3278 mt  790 3278 L
 790 3278 mt  790 3278 L
 790 3278 mt  790 3278 L
 790 3278 mt  790 3278 L
 790 3278 mt  790 3278 L
gs 790 276 4713 3003 rc
/c8 { 1.000000 0.000000 0.000000 sr} bdef
c8
524 28 524 30 523 35 524 40 523 48 524 58 523 75 524 106 
523 181 790 599 10 MP stroke
/c9 { 0.000000 0.000000 1.000000 sr} bdef
c9
524 55 524 61 523 70 524 80 523 95 524 117 523 150 524 211 
523 362 790 1914 10 MP stroke
gr

c9
0 sg
%%IncludeResource: font Helvetica
/Helvetica /WindowsLatin1Encoding 120 FMSR

2223  181 mt 
(Trapezi e Cavalieri-Simpson iterati) s
 773 3321 mt 
( ) s
5486  318 mt 
( ) s
1 sg
0 378 1505 0 0 -378 3858 839 4 MP
PP
-1505 0 0 378 1505 0 0 -378 3858 839 5 MP stroke
4 w
DO
SO
6 w
0 sg
3858  461 mt 5363  461 L
3858  839 mt 5363  839 L
5363  839 mt 5363  461 L
3858  839 mt 3858  461 L
3858  839 mt 5363  839 L
3858  839 mt 3858  461 L
3858  461 mt 5363  461 L
3858  839 mt 5363  839 L
5363  839 mt 5363  461 L
3858  839 mt 3858  461 L
4344  608 mt 
(Trapezi) s
gs 3858 461 1506 379 rc
c8
374 0 3932 566 2 MP stroke
gr

c8
0 sg
4344  777 mt 
(Cavalieri-Simpson) s
gs 3858 461 1506 379 rc
c9
374 0 3932 734 2 MP stroke
gr

c9

end %%Color Dict

eplot
%%EndObject

epage
end

showpage

%%Trailer
%%EOF
