%!PS-Adobe-3.0 EPSF-3.0
%%Creator: MATLAB, The MathWorks, Inc. Version 8.0.0.783 (R2012b). Operating System: Microsoft Windows 7.
%%Title: C:\SILVIA\UniversitÓ\Presenti\Calcolo numerico\Silvia Balzani - esercitazioni\esCalcoloNumerico\Consegne\esercizi\Esercitazione06\esercitazione06e06.eps
%%CreationDate: 10/30/2015  17:28:54
%%DocumentNeededFonts: Helvetica
%%DocumentProcessColors: Cyan Magenta Yellow Black
%%LanguageLevel: 2
%%Pages: 1
%%BoundingBox:    87   262   507   578
%%EndComments

%%BeginProlog
% MathWorks dictionary
/MathWorks 160 dict begin
% definition operators
/bdef {bind def} bind def
/ldef {load def} bind def
/xdef {exch def} bdef
/xstore {exch store} bdef
% operator abbreviations
/c  /clip ldef
/cc /concat ldef
/cp /closepath ldef
/gr /grestore ldef
/gs /gsave ldef
/mt /moveto ldef
/np /newpath ldef
/cm /currentmatrix ldef
/sm /setmatrix ldef
/rm /rmoveto ldef
/rl /rlineto ldef
/s {show newpath} bdef
/sc {setcmykcolor} bdef
/sr /setrgbcolor ldef
/sg /setgray ldef
/w /setlinewidth ldef
/j /setlinejoin ldef
/cap /setlinecap ldef
/rc {rectclip} bdef
/rf {rectfill} bdef
% page state control
/pgsv () def
/bpage {/pgsv save def} bdef
/epage {pgsv restore} bdef
/bplot /gsave ldef
/eplot {stroke grestore} bdef
% orientation switch
/portraitMode 0 def /landscapeMode 1 def /rotateMode 2 def
% coordinate system mappings
/dpi2point 0 def
% font control
/FontSize 0 def
/FMS {/FontSize xstore findfont [FontSize 0 0 FontSize neg 0 0]
  makefont setfont} bdef
/ISOLatin1Encoding where {pop /WindowsLatin1Encoding 256 array bdef
ISOLatin1Encoding WindowsLatin1Encoding copy pop
/.notdef/.notdef/quotesinglbase/florin/quotedblbase/ellipsis/dagger
/daggerdbl/circumflex/perthousand/Scaron/guilsinglleft/OE/.notdef/.notdef
/.notdef/.notdef/quoteleft/quoteright/quotedblleft/quotedblright/bullet
/endash/emdash/tilde/trademark/scaron/guilsinglright/oe/.notdef/.notdef
/Ydieresis WindowsLatin1Encoding 128 32 getinterval astore pop}
{/WindowsLatin1Encoding StandardEncoding bdef} ifelse
/reencode {exch dup where {pop load} {pop StandardEncoding} ifelse
  exch dup 3 1 roll findfont dup length dict begin
  { 1 index /FID ne {def}{pop pop} ifelse } forall
  /Encoding exch def currentdict end definefont pop} bdef
/isroman {findfont /CharStrings get /Agrave known} bdef
/FMSR {3 1 roll 1 index dup isroman {reencode} {pop pop} ifelse
  exch FMS} bdef
/csm {1 dpi2point div -1 dpi2point div scale neg translate
 dup landscapeMode eq {pop -90 rotate}
  {rotateMode eq {90 rotate} if} ifelse} bdef
% line types: solid, dotted, dashed, dotdash
/SO { [] 0 setdash } bdef
/DO { [.5 dpi2point mul 4 dpi2point mul] 0 setdash } bdef
/DA { [6 dpi2point mul] 0 setdash } bdef
/DD { [.5 dpi2point mul 4 dpi2point mul 6 dpi2point mul 4
  dpi2point mul] 0 setdash } bdef
% macros for lines and objects
/L {lineto stroke} bdef
/MP {3 1 roll moveto 1 sub {rlineto} repeat} bdef
/AP {{rlineto} repeat} bdef
/PDlw -1 def
/W {/PDlw currentlinewidth def setlinewidth} def
/PP {closepath eofill} bdef
/DP {closepath stroke} bdef
/MR {4 -2 roll moveto dup  0 exch rlineto exch 0 rlineto
  neg 0 exch rlineto closepath} bdef
/FR {MR stroke} bdef
/PR {MR fill} bdef
/L1i {{currentfile picstr readhexstring pop} image} bdef
/tMatrix matrix def
/MakeOval {newpath tMatrix currentmatrix pop translate scale
0 0 1 0 360 arc tMatrix setmatrix} bdef
/FO {MakeOval stroke} bdef
/PO {MakeOval fill} bdef
/PD {currentlinewidth 2 div 0 360 arc fill
   PDlw -1 eq not {PDlw w /PDlw -1 def} if} def
/FA {newpath tMatrix currentmatrix pop translate scale
  0 0 1 5 -2 roll arc tMatrix setmatrix stroke} bdef
/PA {newpath tMatrix currentmatrix pop	translate 0 0 moveto scale
  0 0 1 5 -2 roll arc closepath tMatrix setmatrix fill} bdef
/FAn {newpath tMatrix currentmatrix pop translate scale
  0 0 1 5 -2 roll arcn tMatrix setmatrix stroke} bdef
/PAn {newpath tMatrix currentmatrix pop translate 0 0 moveto scale
  0 0 1 5 -2 roll arcn closepath tMatrix setmatrix fill} bdef
/vradius 0 def /hradius 0 def /lry 0 def
/lrx 0 def /uly 0 def /ulx 0 def /rad 0 def
/MRR {/vradius xdef /hradius xdef /lry xdef /lrx xdef /uly xdef
  /ulx xdef newpath tMatrix currentmatrix pop ulx hradius add uly
  vradius add translate hradius vradius scale 0 0 1 180 270 arc 
  tMatrix setmatrix lrx hradius sub uly vradius add translate
  hradius vradius scale 0 0 1 270 360 arc tMatrix setmatrix
  lrx hradius sub lry vradius sub translate hradius vradius scale
  0 0 1 0 90 arc tMatrix setmatrix ulx hradius add lry vradius sub
  translate hradius vradius scale 0 0 1 90 180 arc tMatrix setmatrix
  closepath} bdef
/FRR {MRR stroke } bdef
/PRR {MRR fill } bdef
/MlrRR {/lry xdef /lrx xdef /uly xdef /ulx xdef /rad lry uly sub 2 div def
  newpath tMatrix currentmatrix pop ulx rad add uly rad add translate
  rad rad scale 0 0 1 90 270 arc tMatrix setmatrix lrx rad sub lry rad
  sub translate rad rad scale 0 0 1 270 90 arc tMatrix setmatrix
  closepath} bdef
/FlrRR {MlrRR stroke } bdef
/PlrRR {MlrRR fill } bdef
/MtbRR {/lry xdef /lrx xdef /uly xdef /ulx xdef /rad lrx ulx sub 2 div def
  newpath tMatrix currentmatrix pop ulx rad add uly rad add translate
  rad rad scale 0 0 1 180 360 arc tMatrix setmatrix lrx rad sub lry rad
  sub translate rad rad scale 0 0 1 0 180 arc tMatrix setmatrix
  closepath} bdef
/FtbRR {MtbRR stroke } bdef
/PtbRR {MtbRR fill } bdef
/stri 6 array def /dtri 6 array def
/smat 6 array def /dmat 6 array def
/tmat1 6 array def /tmat2 6 array def /dif 3 array def
/asub {/ind2 exch def /ind1 exch def dup dup
  ind1 get exch ind2 get sub exch } bdef
/tri_to_matrix {
  2 0 asub 3 1 asub 4 0 asub 5 1 asub
  dup 0 get exch 1 get 7 -1 roll astore } bdef
/compute_transform {
  dmat dtri tri_to_matrix tmat1 invertmatrix 
  smat stri tri_to_matrix tmat2 concatmatrix } bdef
/ds {stri astore pop} bdef
/dt {dtri astore pop} bdef
/db {2 copy /cols xdef /rows xdef mul dup 3 mul string
  currentfile 
  3 index 0 eq {/ASCIIHexDecode filter}
  {/ASCII85Decode filter 3 index 2 eq {/RunLengthDecode filter} if }
  ifelse exch readstring pop
  dup 0 3 index getinterval /rbmap xdef
  dup 2 index dup getinterval /gbmap xdef
  1 index dup 2 mul exch getinterval /bbmap xdef pop pop}bdef
/it {gs np dtri aload pop moveto lineto lineto cp c
  cols rows 8 compute_transform 
  rbmap gbmap bbmap true 3 colorimage gr}bdef
/il {newpath moveto lineto stroke}bdef
currentdict end def
%%EndProlog

%%BeginSetup
MathWorks begin

0 cap

end
%%EndSetup

%%Page: 1 1
%%BeginPageSetup
%%PageBoundingBox:    87   262   507   578
MathWorks begin
bpage
%%EndPageSetup

%%BeginObject: obj1
bplot

/dpi2point 12 def
portraitMode 1044 6936 csm

    0     0  5045  3782 rc
86 dict begin %Colortable dictionary
/c0 { 0.000000 0.000000 0.000000 sr} bdef
/c1 { 1.000000 1.000000 1.000000 sr} bdef
/c2 { 0.900000 0.000000 0.000000 sr} bdef
/c3 { 0.000000 0.820000 0.000000 sr} bdef
/c4 { 0.000000 0.000000 0.800000 sr} bdef
/c5 { 0.910000 0.820000 0.320000 sr} bdef
/c6 { 1.000000 0.260000 0.820000 sr} bdef
/c7 { 0.000000 0.820000 0.820000 sr} bdef
c0
1 j
1 sg
   0    0 5046 3783 rf
6 w
0 3083 3910 0 0 -3083 656 3366 4 MP
PP
-3910 0 0 3083 3910 0 0 -3083 656 3366 5 MP stroke
4 w
DO
SO
6 w
0 sg
 656 3366 mt 4566 3366 L
 656 3366 mt  656  283 L
 656 3366 mt  656 3326 L
%%IncludeResource: font Helvetica
/Helvetica /WindowsLatin1Encoding 120 FMSR

 553 3511 mt 
(-3) s
1307 3366 mt 1307 3326 L
1204 3511 mt 
(-2) s
1959 3366 mt 1959 3326 L
1856 3511 mt 
(-1) s
2611 3366 mt 2611 3326 L
2578 3511 mt 
(0) s
3262 3366 mt 3262 3326 L
3229 3511 mt 
(1) s
3914 3366 mt 3914 3326 L
3881 3511 mt 
(2) s
4566 3366 mt 4566 3326 L
4533 3511 mt 
(3) s
 656 3366 mt  695 3366 L
 385 3410 mt 
(-0.4) s
 656 2925 mt  695 2925 L
 385 2969 mt 
(-0.2) s
 656 2485 mt  695 2485 L
 555 2529 mt 
(0) s
 656 2045 mt  695 2045 L
 455 2089 mt 
(0.2) s
 656 1604 mt  695 1604 L
 455 1648 mt 
(0.4) s
 656 1164 mt  695 1164 L
 455 1208 mt 
(0.6) s
 656  724 mt  695  724 L
 455  768 mt 
(0.8) s
 656  283 mt  695  283 L
 555  327 mt 
(1) s
gs 656 284 3911 3083 rc
/c8 { 0.000000 0.000000 1.000000 sr} bdef
c8
1 -1 1 -1 0 -1 1 -1 1 0 -1 0 2 -2 1 -1 
1 -1 1 -1 1 -1 1 -1 0 -1 1 -1 1 0 -1 0 
2 -2 1 0 -1 0 2 -2 1 -1 1 -1 1 -1 1 0 
-1 0 2 -2 1 0 1 -1 1 -1 1 -1 1 -1 1 -1 
1 0 1 -1 1 -1 1 -1 1 -1 1 0 1 -1 1 -1 
1 -1 1 0 1 -1 1 0 1 -1 1 0 1 -1 1 -1 
1 0 1 -1 1 0 1 -1 1 -1 1 0 1 -1 1 0 
1 0 1 -1 1 0 1 -1 1 0 1 -1 1 0 1 -1 
1 0 1 0 1 -1 1 0 1 0 1 -1 1 0 1 0 
1 -1 1 0 1 0 1 0 1 -1 1 0 1 0 1 0 
1 0 1 -1 1 0 1 0 1 0 1 0 1 0 1 -1 
1 0 1 0 1 0 1 0 1 0 1 0 1 0 1 0 
1 0 1 -1 1 0 1 0 1 0 1 0 1 0 1 0 
1 0 1 0 1 0 1 0 1 0 1 0 1 0 1 0 
1 1 1 0 1 0 1 0 1 0 1 0 1 0 1 0 
1 0 1 0 1 0 1 1 1 0 1 0 1 0 1 0 
1 0 1 0 1 1 1 0 1 0 1 0 1 0 1 0 
1 1 1 0 1 0 1 0 1 0 1 1 1 0 1 0 
1 0 1 0 1 1 1 0 1 0 1 0 1 1 1 0 
1 0 1 0 1 1 1 0 1 0 1 0 1 1 1 0 
1 0 1 0 1 1 1 0 1 0 1 1 1 0 1 0 
1 1 1 0 1 0 1 1 1 0 1 0 1 0 1 1 
1 0 1 0 1 1 1 0 1 0 1 1 1 0 1 0 
1 1 1 0 1 0 1 1 1 0 1 0 1 1 1 0 
1 0 1 1 1 0 1 1 1 0 1 0 1 0 1 1 
1 0 1 1 1 0 1 0 1 0 1 1 1 0 1 1 
1 0 1 0 1 1 1 0 1 0 1 1 1 0 1 0 
1 1 1 0 1 1 1 0 1 0 1 1 1 0 1 0 
1 1 1 0 1 0 1 1 1 0 1 1 1 0 1 0 
1 0 1 1 1 0 1 1 1 0 1 0 1 1 1 0 
1 0 1 1 1 0 1 0 1 1 1 0 1 0 1 1 
1 0 1 0 1 1 1 0 1 0 1 1 1 0 1 1 
1 0 1 0 1 0 1 1 1 0 1 0 1 1 1 0 
1 0 1 1 1 0 1 0 1 1 1 0 1 0 1 1 
1 0 1 0 1 1 1 0 1 0 1 0 1 1 1 0 
1 0 1 1 1 0 1 0 1 0 1 1 1 0 1 0 
1 1 1 0 1 0 1 1 1 0 1 0 1 0 1 1 
1 0 1 0 1 0 4273 2458 300 MP stroke
1 1 1 0 1 0 1 0 1 1 1 0 1 0 1 0 
1 1 1 0 1 0 1 0 1 1 1 0 1 0 1 0 
1 1 1 0 1 0 1 0 1 0 1 1 1 0 1 0 
1 0 1 0 1 1 1 0 1 0 1 0 1 0 1 1 
1 0 1 0 1 0 1 0 1 1 1 0 1 0 1 0 
1 0 1 1 1 0 1 0 1 0 1 0 1 0 1 0 
1 1 1 0 1 0 1 0 1 0 1 0 1 1 1 0 
1 0 1 0 1 0 1 0 1 0 1 0 1 1 1 0 
1 0 1 0 1 0 1 0 1 0 1 0 1 0 1 1 
1 0 1 0 1 0 1 0 1 0 1 0 1 0 1 0 
1 0 1 0 1 1 1 0 1 0 1 0 1 0 1 0 
1 0 1 0 1 0 1 0 1 0 1 0 1 0 1 0 
1 0 1 0 1 0 1 0 1 0 1 0 1 1 1 0 
1 0 1 0 1 0 1 0 1 0 1 0 1 0 1 0 
1 0 1 0 1 0 1 0 1 0 1 0 1 0 1 0 
1 0 1 0 1 0 1 0 1 0 1 0 1 0 1 0 
1 0 1 0 1 -1 1 0 1 0 1 0 1 0 1 0 
1 0 1 0 1 0 1 0 1 0 1 0 1 0 1 0 
1 0 1 0 1 0 1 0 1 0 1 0 1 0 1 -1 
1 0 1 0 1 0 1 0 1 0 1 0 1 0 1 0 
1 0 1 0 1 0 1 0 1 -1 1 0 1 0 1 0 
1 0 1 0 1 0 1 0 1 0 1 0 1 -1 1 0 
1 0 1 0 1 0 1 0 1 0 1 0 1 0 1 -1 
1 0 1 0 1 0 1 0 1 0 1 0 1 0 1 0 
1 -1 1 0 1 0 1 0 1 0 1 0 1 0 1 0 
1 -1 1 0 1 0 1 0 1 0 1 0 1 0 1 -1 
1 0 1 0 1 0 1 0 1 0 1 0 1 -1 1 0 
1 0 1 0 1 0 1 0 1 0 1 -1 1 0 1 0 
1 0 1 0 1 0 1 0 1 -1 1 0 1 0 1 0 
1 0 1 0 1 0 1 -1 1 0 1 0 1 0 1 0 
1 0 1 -1 1 0 1 0 1 0 1 0 1 0 1 -1 
1 0 1 0 1 0 1 0 1 0 1 0 1 -1 1 0 
1 0 1 0 1 0 1 0 1 -1 1 0 1 0 1 0 
1 0 1 0 1 0 1 -1 1 0 1 0 1 0 1 0 
1 0 1 -1 1 0 1 0 1 0 1 0 1 0 1 0 
1 -1 1 0 1 0 1 0 1 0 1 0 1 0 1 -1 
1 0 1 0 1 0 1 0 1 0 1 0 1 -1 1 0 
1 0 1 0 1 0 3974 2463 300 MP stroke
1 0 1 0 1 -1 1 0 1 0 1 0 1 0 1 0 
1 0 1 0 1 -1 1 0 1 0 1 0 1 0 1 0 
1 0 1 0 1 0 1 -1 1 0 1 0 1 0 1 0 
1 0 1 0 1 0 1 0 1 -1 1 0 1 0 1 0 
1 0 1 0 1 0 1 0 1 0 1 0 1 0 1 -1 
1 0 1 0 1 0 1 0 1 0 1 0 1 0 1 0 
1 0 1 0 1 0 1 0 1 0 1 0 1 -1 1 0 
1 0 1 0 1 0 1 0 1 0 1 0 1 0 1 0 
1 0 1 0 1 0 1 0 1 0 1 0 1 0 1 0 
1 0 1 0 1 0 1 0 1 0 1 0 1 0 1 0 
1 0 1 0 1 0 1 0 1 0 1 0 1 0 1 0 
1 0 1 0 1 0 1 0 1 0 1 0 1 0 1 0 
1 0 1 0 1 0 1 0 1 0 1 1 1 0 1 0 
1 0 1 0 1 0 1 0 1 0 1 0 1 0 1 0 
1 0 1 0 1 1 1 0 1 0 1 0 1 0 1 0 
1 0 1 0 1 1 1 0 1 0 1 0 1 0 1 0 
1 0 1 0 1 1 1 0 1 0 1 0 1 0 1 0 
1 1 1 0 1 0 1 0 1 0 1 0 1 1 1 0 
1 0 1 0 1 1 1 0 1 0 1 0 1 0 1 1 
1 0 1 0 1 0 1 1 1 0 1 0 1 0 1 1 
1 0 1 0 1 0 1 1 1 0 1 0 1 0 1 1 
1 0 1 0 1 1 1 0 1 0 1 0 1 1 1 0 
1 0 1 1 1 0 1 0 1 1 1 0 1 0 1 1 
1 0 1 1 1 0 1 0 1 0 1 1 1 0 1 1 
1 0 1 0 1 1 1 0 1 1 1 0 1 1 1 0 
1 0 1 1 1 0 1 1 1 0 1 1 1 0 1 1 
1 0 1 0 1 1 1 0 1 1 1 0 1 1 1 0 
1 1 1 0 1 1 1 0 1 1 1 0 1 1 1 0 
1 1 1 0 1 1 1 0 1 1 1 0 1 1 1 0 
1 1 1 1 1 0 1 1 1 0 1 1 1 1 1 0 
1 1 1 1 1 0 1 1 1 0 1 1 1 0 1 1 
1 1 1 0 1 1 1 1 1 1 1 0 1 1 1 0 
1 1 1 1 1 1 1 0 1 1 1 0 1 1 1 1 
1 1 1 1 1 0 1 1 1 1 1 1 1 0 1 1 
1 1 1 1 1 0 1 1 1 1 1 1 1 1 1 0 
1 1 1 1 1 1 1 0 1 1 1 1 1 1 1 1 
1 1 1 0 1 1 1 1 1 1 1 1 1 1 1 1 
1 0 -1 0 2 2 3676 2382 300 MP stroke
1 0 1 1 1 1 1 1 1 1 1 1 1 0 -1 0 
2 2 1 1 1 0 -1 0 2 2 1 0 -1 0 2 2 
1 0 1 1 1 1 1 1 1 1 1 1 1 1 1 1 
1 1 0 1 2 2 1 0 -1 0 2 2 1 0 -1 0 
2 2 1 0 -1 0 2 2 1 0 -1 0 2 2 1 0 
-1 0 2 2 1 0 -1 0 2 2 1 0 -1 0 2 2 
1 1 1 1 1 1 1 1 0 1 1 1 1 0 -1 0 
2 2 1 1 1 1 1 1 1 1 1 1 0 1 1 1 
1 0 -1 0 2 2 1 1 1 1 0 1 1 1 1 0 
-1 0 2 2 1 1 1 1 1 1 0 1 1 1 1 1 
1 1 1 1 0 1 1 1 1 1 1 1 0 1 1 1 
1 0 -1 0 2 2 1 1 0 1 1 1 1 0 -1 0 
2 2 1 1 0 1 1 1 1 0 -1 0 2 2 1 1 
0 1 1 1 1 1 1 1 0 1 1 1 1 1 0 1 
1 1 1 0 -1 0 2 2 1 1 0 1 1 1 1 1 
0 1 1 1 1 1 1 1 1 1 0 1 1 1 0 1 
1 1 1 1 0 1 1 1 1 1 1 1 1 1 0 1 
1 1 1 1 0 1 1 1 1 1 0 1 1 1 1 1 
0 1 1 1 1 1 0 1 1 1 0 1 1 1 1 0 
-1 0 2 2 1 1 0 1 1 1 1 1 0 1 1 1 
1 1 0 1 1 1 1 1 0 1 1 1 1 1 0 1 
1 1 0 1 1 1 1 1 0 1 1 1 1 1 0 1 
1 1 1 1 0 1 1 2 1 1 0 1 1 1 1 1 
0 1 1 1 1 1 0 1 1 1 1 1 0 1 1 1 
0 1 1 1 1 1 0 1 1 1 1 1 0 2 1 1 
1 1 0 1 1 1 1 1 0 1 1 1 1 1 0 1 
1 1 1 1 0 2 1 1 1 1 0 1 1 1 0 1 
1 1 1 1 0 1 1 2 1 1 0 1 1 1 1 1 
0 1 1 1 1 1 0 2 1 1 1 1 0 1 1 1 
1 1 0 1 1 2 1 1 0 1 1 1 0 1 1 1 
1 2 0 1 1 1 1 1 0 1 1 1 1 2 0 1 
1 1 1 1 0 1 1 1 1 2 0 1 1 1 1 1 
0 1 1 2 0 1 1 1 1 1 0 1 1 2 1 1 
0 1 1 1 1 2 0 1 1 1 1 1 0 1 1 2 
1 1 0 1 1 1 1 2 0 1 1 1 1 1 0 2 
1 1 0 1 1 1 1 2 0 1 1 1 1 1 0 2 
1 1 1 1 0 1 1 2 1 1 0 1 1 1 1 2 
0 1 1 1 1 2 3467 2082 300 MP stroke
0 1 1 1 1 1 0 2 1 1 0 1 1 2 1 1 
0 1 1 1 1 2 0 1 1 1 1 2 0 1 1 1 
1 2 0 1 1 1 1 2 0 1 1 1 1 2 0 1 
1 1 1 2 0 1 1 1 0 2 1 1 1 1 0 2 
1 1 1 1 0 2 1 1 1 1 0 2 1 1 1 1 
0 2 1 1 1 2 0 1 1 1 1 2 0 1 1 1 
0 2 1 1 1 2 0 1 1 1 1 2 0 1 1 1 
1 2 0 1 1 2 1 1 0 1 1 2 1 1 0 2 
1 1 1 1 0 2 1 1 1 2 0 1 1 1 0 2 
1 1 1 2 0 1 1 2 1 1 0 1 1 2 1 1 
0 2 1 1 1 2 0 1 1 1 1 2 0 1 1 2 
1 1 0 2 1 1 1 2 0 1 1 2 0 1 1 1 
1 2 0 1 1 2 1 1 0 2 1 1 1 2 0 1 
1 2 1 1 0 2 1 1 1 2 0 1 1 2 1 1 
0 1 1 2 0 1 1 2 1 1 0 2 1 1 1 2 
0 1 1 2 1 1 0 2 1 1 1 2 0 1 1 2 
1 1 0 2 1 2 1 1 0 2 1 1 1 2 0 1 
1 2 0 1 1 2 1 1 0 2 1 1 1 2 0 1 
1 2 1 1 0 2 1 2 1 1 0 2 1 1 1 2 
0 1 1 2 1 1 0 2 1 1 1 2 0 2 1 1 
0 2 1 1 1 2 0 1 1 2 1 2 0 1 1 2 
1 1 0 2 1 1 1 2 0 2 1 1 1 2 0 1 
1 2 1 1 0 2 1 2 1 1 0 2 1 1 0 2 
1 2 1 1 0 2 1 1 1 2 0 2 1 1 1 2 
0 1 1 2 1 2 0 1 1 2 1 1 0 2 1 2 
1 1 0 2 1 1 0 2 1 2 1 1 0 2 1 2 
1 1 0 2 1 1 1 2 0 2 1 1 1 2 0 2 
1 1 1 2 0 1 1 2 1 2 0 1 1 2 1 2 
0 1 1 2 0 2 1 1 1 2 0 2 1 1 1 2 
0 1 1 2 1 2 0 1 1 2 1 2 0 1 1 2 
1 2 0 1 1 2 1 2 0 1 1 2 1 2 0 1 
1 2 0 2 1 1 1 2 0 2 1 1 1 2 0 2 
1 1 1 2 0 2 1 1 1 2 0 2 1 2 1 1 
0 2 1 2 1 1 0 2 1 2 1 1 0 2 1 2 
0 1 1 2 1 2 0 1 1 2 1 2 0 2 1 1 
1 2 0 2 1 1 1 2 0 2 1 1 1 2 0 2 
1 2 1 1 0 2 1 2 0 1 1 2 1 2 0 2 
1 1 1 2 0 2 3273 1625 300 MP stroke
1 1 1 2 0 2 1 2 1 1 0 2 1 2 1 1 
0 2 1 2 1 2 0 1 1 2 1 2 0 1 1 2 
0 2 1 2 1 1 0 2 1 2 1 2 0 1 1 2 
1 2 0 1 1 2 1 2 0 2 1 1 1 2 0 2 
1 2 1 1 0 2 1 2 1 2 0 1 1 2 0 2 
1 2 1 1 0 2 1 2 1 2 0 1 1 2 1 2 
0 2 1 1 1 2 0 2 1 2 1 1 0 2 1 2 
1 2 0 1 1 2 1 2 0 2 1 1 0 2 1 2 
1 2 0 1 1 2 1 2 0 2 1 1 1 2 0 2 
1 2 1 1 0 2 1 2 1 2 0 1 1 2 1 2 
0 2 1 1 0 2 1 2 1 2 0 1 1 2 1 2 
0 2 1 1 1 2 0 2 1 2 1 2 0 1 1 2 
1 2 0 2 1 1 1 2 0 2 1 2 1 1 0 2 
1 2 0 2 1 2 1 1 0 2 1 2 1 2 0 1 
1 2 1 2 0 2 1 1 1 2 0 2 1 2 1 2 
0 1 1 2 1 2 0 2 1 1 1 2 0 2 1 2 
0 1 1 2 1 2 0 2 1 2 1 1 0 2 1 2 
1 2 0 1 1 2 1 2 0 2 1 1 1 2 0 2 
1 2 1 2 0 1 1 2 1 2 0 2 1 1 0 2 
1 2 1 2 0 2 1 1 1 2 0 2 1 2 1 1 
0 2 1 2 1 2 0 1 1 2 1 2 0 2 1 2 
1 1 0 2 1 2 0 2 1 1 1 2 0 2 1 2 
1 1 0 2 1 2 1 2 0 2 1 1 1 2 0 2 
1 2 1 1 0 2 1 2 1 2 0 1 1 2 1 2 
0 2 1 2 0 1 1 2 1 2 0 2 1 1 1 2 
0 2 1 2 1 1 0 2 1 2 1 2 0 1 1 2 
1 2 0 2 1 2 1 1 0 2 1 2 1 2 0 1 
1 2 0 2 1 2 1 1 0 2 1 2 1 2 0 1 
1 2 1 2 0 2 1 1 1 2 0 2 1 2 1 1 
0 2 1 2 1 2 0 1 1 2 1 2 0 2 1 1 
0 2 1 2 1 2 0 1 1 2 1 2 0 2 1 1 
1 2 0 2 1 2 1 1 0 2 1 2 1 2 0 1 
1 2 1 2 0 1 1 2 0 2 1 2 1 1 0 2 
1 2 1 2 0 1 1 2 1 2 0 2 1 1 1 2 
0 2 1 1 1 2 0 2 1 2 1 1 0 2 1 2 
1 2 0 1 1 2 0 2 1 1 1 2 0 2 1 2 
1 1 0 2 1 2 1 1 0 2 1 2 1 2 0 1 
1 2 1 2 0 1 3078 1102 300 MP stroke
1 2 1 2 0 1 1 2 1 2 0 2 1 1 0 2 
1 2 1 1 0 2 1 2 1 1 0 2 1 2 1 2 
0 1 1 2 1 2 0 1 1 2 1 2 0 1 1 2 
1 2 0 1 1 2 1 2 0 1 1 2 0 2 1 2 
1 1 0 2 1 2 1 1 0 2 1 2 1 1 0 2 
1 2 1 1 0 2 1 2 1 1 0 2 1 2 1 1 
0 2 1 2 0 1 1 2 1 1 0 2 1 2 1 1 
0 2 1 2 1 1 0 2 1 2 1 1 0 2 1 2 
1 1 0 2 1 2 1 1 0 2 1 1 1 2 0 2 
1 1 0 2 1 2 1 1 0 2 1 1 1 2 0 2 
1 1 1 2 0 2 1 1 1 2 0 1 1 2 1 2 
0 1 1 2 1 1 0 2 1 2 1 1 0 2 1 1 
0 2 1 2 1 1 0 2 1 1 1 2 0 2 1 1 
1 2 0 1 1 2 1 2 0 1 1 2 1 1 0 2 
1 1 1 2 0 2 1 1 0 2 1 1 1 2 0 1 
1 2 1 2 0 1 1 2 1 1 0 2 1 1 1 2 
0 1 1 2 1 2 0 1 1 2 1 1 0 2 1 1 
1 2 0 1 1 2 0 1 1 2 1 1 0 2 1 2 
1 1 0 2 1 1 1 2 0 1 1 2 1 1 0 2 
1 1 1 2 0 1 1 2 1 1 0 2 1 1 1 2 
0 1 1 2 0 1 1 2 1 1 0 2 1 1 1 2 
0 1 1 2 1 1 0 2 1 1 1 2 0 1 1 2 
1 1 0 2 1 1 1 1 0 2 1 1 1 2 0 1 
1 2 0 1 1 2 1 1 0 2 1 1 1 1 0 2 
1 1 1 2 0 1 1 2 1 1 0 2 1 1 1 1 
0 2 1 1 1 2 0 1 1 2 0 1 1 1 1 2 
0 1 1 2 1 1 0 1 1 2 1 1 0 2 1 1 
1 1 0 2 1 1 1 2 0 1 1 1 1 2 0 1 
1 2 1 1 0 1 1 2 0 1 1 1 1 2 0 1 
1 2 1 1 0 1 1 2 1 1 0 1 1 2 1 1 
0 1 1 2 1 1 0 1 1 2 1 1 0 1 1 2 
1 1 0 1 1 2 0 1 1 1 1 2 0 1 1 1 
1 2 0 1 1 1 1 2 0 1 1 1 1 1 0 2 
1 1 1 1 0 2 1 1 1 1 0 2 1 1 1 1 
0 1 1 2 0 1 1 1 1 1 0 2 1 1 1 1 
0 2 1 1 1 1 0 1 1 2 1 1 0 1 1 1 
1 2 0 1 1 1 1 1 0 2 1 1 0 1 1 1 
1 1 0 2 1 1 2883 653 300 MP stroke
1 1 0 1 1 2 1 1 0 1 1 1 1 1 0 2 
1 1 1 1 0 1 1 1 1 2 0 1 1 1 1 1 
0 1 1 1 0 2 1 1 1 1 0 1 1 1 1 1 
0 2 1 1 1 1 0 1 1 1 1 1 0 2 1 1 
1 1 0 1 1 1 1 1 0 1 1 1 1 2 0 1 
1 1 0 1 1 1 1 1 0 1 1 1 1 2 0 1 
1 1 1 1 0 1 1 1 1 1 0 1 1 1 1 1 
0 1 1 2 1 1 0 1 1 1 1 1 0 1 1 1 
0 1 1 1 1 1 0 1 1 1 1 1 0 1 1 1 
1 1 0 1 1 2 1 1 0 1 1 1 1 1 0 1 
1 1 1 1 0 1 1 1 0 1 1 1 1 1 0 1 
1 1 1 1 0 1 1 1 1 1 0 1 1 1 1 1 
0 1 1 1 1 1 0 1 1 1 1 0 -1 0 2 2 
1 1 0 1 1 1 0 1 1 1 1 1 0 1 1 1 
1 1 0 1 1 1 1 1 0 1 1 1 1 0 -1 0 
2 2 1 1 0 1 1 1 1 1 0 1 1 1 1 1 
1 1 0 1 1 1 1 1 0 1 1 1 1 1 1 1 
1 1 0 1 1 1 1 1 1 1 1 1 0 1 1 1 
1 1 0 1 1 1 1 0 -1 0 2 2 0 1 1 1 
1 0 -1 0 2 2 1 1 1 1 1 1 0 1 1 1 
1 1 1 1 1 1 0 1 1 1 1 0 -1 0 2 2 
1 1 1 1 0 1 1 1 1 0 -1 0 2 2 1 1 
1 1 1 1 1 1 1 1 1 1 1 1 0 1 1 1 
1 0 -1 0 2 2 1 1 1 1 1 1 1 1 1 1 
1 1 1 1 1 1 1 1 1 1 1 1 1 1 1 1 
1 1 1 1 1 1 1 1 1 1 1 1 1 1 1 0 
-1 0 2 2 1 0 1 1 1 1 1 1 1 1 1 1 
1 0 0 1 2 2 1 0 1 1 1 1 1 1 1 0 
1 1 1 1 1 1 1 0 1 1 1 1 1 1 1 1 
1 0 1 1 1 1 1 1 1 0 1 1 1 1 1 1 
1 0 1 1 1 0 1 1 1 1 1 1 1 0 1 1 
1 1 1 0 1 1 1 0 1 1 1 0 1 1 1 1 
1 0 1 1 1 0 1 1 1 1 1 0 1 1 1 0 
1 1 1 0 1 1 1 0 1 1 1 0 1 0 1 1 
1 0 1 1 1 0 1 1 1 0 1 1 1 0 1 0 
1 1 1 0 1 1 1 0 1 0 1 1 1 0 1 0 
1 1 1 0 1 0 1 1 1 0 1 0 1 1 1 0 
1 0 1 0 1 1 2644 389 300 MP stroke
1 0 1 0 1 0 1 1 1 0 1 0 1 0 1 0 
1 1 1 0 1 0 1 0 1 0 1 0 1 1 1 0 
1 0 1 0 1 0 1 0 1 0 1 0 1 1 1 0 
1 0 1 0 1 0 1 0 1 0 1 0 1 0 1 0 
1 0 1 0 1 0 1 0 1 0 1 0 1 0 1 0 
1 0 1 0 1 0 1 0 1 -1 1 0 1 0 1 0 
1 0 1 0 1 0 1 0 1 -1 1 0 1 0 1 0 
1 0 1 0 1 -1 1 0 1 0 1 0 1 0 1 -1 
1 0 1 0 1 0 1 -1 1 0 1 0 1 0 1 -1 
1 0 1 0 1 0 1 -1 1 0 1 -1 1 0 1 0 
1 -1 1 0 1 0 1 -1 1 0 1 0 1 -1 1 0 
1 -1 1 0 1 -1 1 0 1 0 1 -1 1 0 1 -1 
1 0 1 -1 1 0 1 -1 1 0 1 -1 1 0 1 -1 
1 0 1 -1 1 -1 1 0 1 -1 1 0 1 -1 1 0 
1 -1 1 0 1 -1 1 -1 1 0 1 -1 1 -1 1 0 
1 -1 1 -1 1 0 1 -1 1 0 1 -1 1 -1 1 -1 
1 0 1 -1 1 -1 1 -1 1 0 1 -1 1 -1 1 -1 
1 -1 1 0 1 -1 1 -1 1 -1 1 0 1 -1 1 -1 
1 -1 1 0 1 -1 1 -1 1 -1 1 -1 1 -1 1 -1 
1 -1 1 -1 1 0 1 -1 1 -1 1 -1 1 -1 1 -1 
1 -1 1 -1 1 -1 1 -1 1 -1 1 -1 1 -1 1 -1 
1 -1 1 -1 1 -1 1 -1 1 -1 1 -1 1 -1 1 -1 
1 -1 1 -1 1 -1 1 -1 1 -1 0 -1 1 -1 1 0 
-1 0 2 -2 1 0 -1 0 2 -2 1 -1 1 -1 1 -1 
1 -1 1 -1 0 -1 1 -1 1 0 -1 0 2 -2 1 -1 
1 -1 0 -1 1 -1 1 -1 1 -1 1 -1 0 -1 1 -1 
1 0 -1 0 2 -2 1 -1 1 -1 1 -1 0 -1 1 -1 
1 -1 1 -1 0 -1 1 -1 1 -1 0 -1 1 -1 1 0 
-1 0 2 -2 1 -1 0 -1 1 -1 1 -1 1 -1 1 -1 
0 -1 1 -1 1 -1 0 -1 1 -1 1 -1 1 -1 0 -1 
1 -1 1 -1 0 -1 1 -1 1 -1 1 -1 1 -1 0 -1 
1 -1 1 -1 0 -1 1 -1 1 -1 0 -1 1 -1 1 -1 
0 -1 1 -1 0 -1 1 -1 1 -1 1 -1 1 -1 0 -1 
1 -1 1 -1 0 -1 1 -1 1 -1 0 -1 1 -1 1 -1 
0 -1 1 -1 1 -1 0 -1 1 -1 1 -1 0 -1 1 -1 
0 -1 1 -1 1 -1 0 -1 1 -1 1 -1 0 -1 1 -1 
1 -2 0 -1 1 -1 1 -1 0 -1 1 -1 1 -1 0 -1 
1 -1 1 -1 0 -1 2380 580 300 MP stroke
1 -1 0 -1 1 -1 1 -1 0 -1 1 -1 1 -2 0 -1 
1 -1 1 -1 0 -1 1 -1 1 -1 0 -1 1 -1 1 -1 
0 -1 1 -2 1 -1 0 -1 1 -1 1 -1 0 -1 1 -1 
0 -1 1 -2 1 -1 0 -1 1 -1 1 -1 0 -1 1 -1 
1 -1 0 -2 1 -1 1 -1 0 -1 1 -1 1 -1 0 -2 
1 -1 1 -1 0 -1 1 -1 1 -1 0 -2 1 -1 0 -1 
1 -1 1 -1 0 -1 1 -2 1 -1 0 -1 1 -1 1 -1 
0 -2 1 -1 1 -1 0 -1 1 -1 1 -2 0 -1 1 -1 
1 -1 0 -2 1 -1 1 -1 0 -1 1 -1 0 -2 1 -1 
1 -1 0 -1 1 -2 1 -1 0 -1 1 -1 1 -2 0 -1 
1 -1 1 -1 0 -2 1 -1 1 -1 0 -2 1 -1 1 -1 
0 -1 1 -2 0 -1 1 -1 1 -1 0 -2 1 -1 1 -1 
0 -2 1 -1 1 -1 0 -2 1 -1 1 -1 0 -1 1 -2 
1 -1 0 -1 1 -2 1 -1 0 -1 1 -2 1 -1 0 -1 
1 -2 0 -1 1 -1 1 -2 0 -1 1 -1 1 -2 0 -1 
1 -1 1 -2 0 -1 1 -1 1 -2 0 -1 1 -1 1 -2 
0 -1 1 -1 1 -2 0 -1 1 -2 1 -1 0 -1 1 -2 
0 -1 1 -1 1 -2 0 -1 1 -2 1 -1 0 -1 1 -2 
1 -1 0 -2 1 -1 1 -1 0 -2 1 -1 1 -2 0 -1 
1 -1 1 -2 0 -1 1 -2 1 -1 0 -1 1 -2 0 -1 
1 -2 1 -1 0 -2 1 -1 1 -1 0 -2 1 -1 1 -2 
0 -1 1 -2 1 -1 0 -2 1 -1 1 -1 0 -2 1 -1 
1 -2 0 -1 1 -2 0 -1 1 -2 1 -1 0 -2 1 -1 
1 -1 0 -2 1 -1 1 -2 0 -1 1 -2 1 -1 0 -2 
1 -1 1 -2 0 -1 1 -2 1 -1 0 -2 1 -1 1 -2 
0 -1 1 -2 0 -1 1 -2 1 -1 0 -2 1 -1 1 -2 
0 -1 1 -2 1 -1 0 -2 1 -1 1 -2 0 -1 1 -2 
1 -1 0 -2 1 -1 1 -2 0 -2 1 -1 1 -2 0 -1 
1 -2 0 -1 1 -2 1 -1 0 -2 1 -1 1 -2 0 -1 
1 -2 1 -2 0 -1 1 -2 1 -1 0 -2 1 -1 1 -2 
0 -1 1 -2 1 -2 0 -1 1 -2 0 -1 1 -2 1 -1 
0 -2 1 -2 1 -1 0 -2 1 -1 1 -2 0 -1 1 -2 
1 -2 0 -1 1 -2 1 -1 0 -2 1 -2 1 -1 0 -2 
1 -1 1 -2 0 -2 1 -1 0 -2 1 -1 1 -2 0 -2 
1 -1 1 -2 0 -1 1 -2 1 -2 0 -1 1 -2 1 -1 
0 -2 1 -2 1 -1 0 -2 1 -2 1 -1 0 -2 1 -1 
1 -2 0 -2 1 -1 0 -2 1 -2 1 -1 0 -2 1 -1 
1 -2 0 -2 1 -1 2185 994 300 MP stroke
1 -2 0 -2 1 -1 1 -2 0 -2 1 -1 1 -2 0 -2 
1 -1 1 -2 0 -2 1 -1 1 -2 0 -1 1 -2 0 -2 
1 -1 1 -2 0 -2 1 -1 1 -2 0 -2 1 -1 1 -2 
0 -2 1 -1 1 -2 0 -2 1 -1 1 -2 0 -2 1 -1 
1 -2 0 -2 1 -2 0 -1 1 -2 1 -2 0 -1 1 -2 
1 -2 0 -1 1 -2 1 -2 0 -1 1 -2 1 -2 0 -1 
1 -2 1 -2 0 -2 1 -1 1 -2 0 -2 1 -1 1 -2 
0 -2 1 -1 0 -2 1 -2 1 -2 0 -1 1 -2 1 -2 
0 -1 1 -2 1 -2 0 -1 1 -2 1 -2 0 -2 1 -1 
1 -2 0 -2 1 -1 1 -2 0 -2 1 -2 1 -1 0 -2 
1 -2 0 -1 1 -2 1 -2 0 -2 1 -1 1 -2 0 -2 
1 -2 1 -1 0 -2 1 -2 1 -1 0 -2 1 -2 1 -2 
0 -1 1 -2 1 -2 0 -2 1 -1 1 -2 0 -2 1 -2 
0 -1 1 -2 1 -2 0 -1 1 -2 1 -2 0 -2 1 -1 
1 -2 0 -2 1 -2 1 -1 0 -2 1 -2 1 -2 0 -1 
1 -2 1 -2 0 -2 1 -1 0 -2 1 -2 1 -2 0 -1 
1 -2 1 -2 0 -2 1 -1 1 -2 0 -2 1 -2 1 -1 
0 -2 1 -2 1 -2 0 -1 1 -2 1 -2 0 -2 1 -1 
1 -2 0 -2 1 -2 0 -1 1 -2 1 -2 0 -2 1 -1 
1 -2 0 -2 1 -2 1 -2 0 -1 1 -2 1 -2 0 -2 
1 -1 1 -2 0 -2 1 -2 1 -1 0 -2 1 -2 1 -2 
0 -1 1 -2 0 -2 1 -2 1 -2 0 -1 1 -2 1 -2 
0 -2 1 -1 1 -2 0 -2 1 -2 1 -1 0 -2 1 -2 
1 -2 0 -2 1 -1 1 -2 0 -2 1 -2 1 -1 0 -2 
1 -2 0 -2 1 -1 1 -2 0 -2 1 -2 1 -2 0 -1 
1 -2 1 -2 0 -2 1 -1 1 -2 0 -2 1 -2 1 -1 
0 -2 1 -2 1 -2 0 -2 1 -1 0 -2 1 -2 1 -2 
0 -1 1 -2 1 -2 0 -2 1 -2 1 -1 0 -2 1 -2 
1 -2 0 -1 1 -2 1 -2 0 -2 1 -1 1 -2 0 -2 
1 -2 1 -2 0 -1 1 -2 0 -2 1 -2 1 -1 0 -2 
1 -2 1 -2 0 -1 1 -2 1 -2 0 -2 1 -2 1 -1 
0 -2 1 -2 1 -2 0 -1 1 -2 1 -2 0 -2 1 -1 
1 -2 0 -2 1 -2 0 -2 1 -1 1 -2 0 -2 1 -2 
1 -1 0 -2 1 -2 1 -2 0 -1 1 -2 1 -2 0 -2 
1 -2 1 -1 0 -2 1 -2 1 -2 0 -1 1 -2 1 -2 
0 -2 1 -1 0 -2 1 -2 1 -2 0 -1 1 -2 1 -2 
0 -2 1 -1 1 -2 0 -2 1 -2 1 -1 0 -2 1 -2 
1 -2 0 -1 1 -2 1990 1514 300 MP stroke
1 -2 0 -2 1 -1 0 -2 1 -2 1 -2 0 -1 1 -2 
1 -2 0 -2 1 -1 1 -2 0 -2 1 -2 1 -1 0 -2 
1 -2 1 -2 0 -1 1 -2 1 -2 0 -2 1 -1 1 -2 
0 -2 1 -2 0 -1 1 -2 1 -2 0 -2 1 -1 1 -2 
0 -2 1 -2 1 -1 0 -2 1 -2 1 -2 0 -1 1 -2 
1 -2 0 -1 1 -2 1 -2 0 -2 1 -1 1 -2 0 -2 
1 -2 0 -1 1 -2 1 -2 0 -1 1 -2 1 -2 0 -2 
1 -1 1 -2 0 -2 1 -1 1 -2 0 -2 1 -2 1 -1 
0 -2 1 -2 1 -1 0 -2 1 -2 1 -2 0 -1 1 -2 
0 -2 1 -1 1 -2 0 -2 1 -2 1 -1 0 -2 1 -2 
1 -1 0 -2 1 -2 1 -1 0 -2 1 -2 1 -2 0 -1 
1 -2 1 -2 0 -1 1 -2 0 -2 1 -1 1 -2 0 -2 
1 -1 1 -2 0 -2 1 -1 1 -2 0 -2 1 -2 1 -1 
0 -2 1 -2 1 -1 0 -2 1 -2 1 -1 0 -2 1 -2 
1 -1 0 -2 1 -2 0 -1 1 -2 1 -2 0 -1 1 -2 
1 -2 0 -1 1 -2 1 -2 0 -1 1 -2 1 -2 0 -1 
1 -2 1 -2 0 -1 1 -2 1 -1 0 -2 1 -2 1 -1 
0 -2 1 -2 0 -1 1 -2 1 -2 0 -1 1 -2 1 -2 
0 -1 1 -2 1 -1 0 -2 1 -2 1 -1 0 -2 1 -2 
1 -1 0 -2 1 -1 1 -2 0 -2 1 -1 1 -2 0 -2 
1 -1 0 -2 1 -1 1 -2 0 -2 1 -1 1 -2 0 -1 
1 -2 1 -2 0 -1 1 -2 1 -1 0 -2 1 -2 1 -1 
0 -2 1 -1 1 -2 0 -2 1 -1 0 -2 1 -1 1 -2 
0 -2 1 -1 1 -2 0 -1 1 -2 1 -1 0 -2 1 -2 
1 -1 0 -2 1 -1 1 -2 0 -1 1 -2 1 -2 0 -1 
1 -2 1 -1 0 -2 1 -1 0 -2 1 -2 1 -1 0 -2 
1 -1 1 -2 0 -1 1 -2 1 -1 0 -2 1 -1 1 -2 
0 -2 1 -1 1 -2 0 -1 1 -2 1 -1 0 -2 1 -1 
1 -2 0 -1 1 -2 0 -1 1 -2 1 -1 0 -2 1 -1 
1 -2 0 -2 1 -1 1 -2 0 -1 1 -2 1 -1 0 -2 
1 -1 1 -2 0 -1 1 -2 1 -1 0 -2 1 -1 0 -2 
1 -1 1 -2 0 -1 1 -1 1 -2 0 -1 1 -2 1 -1 
0 -2 1 -1 1 -2 0 -1 1 -2 1 -1 0 -2 1 -1 
1 -2 0 -1 1 -2 1 -1 0 -1 1 -2 0 -1 1 -2 
1 -1 0 -2 1 -1 1 -2 0 -1 1 -2 1 -1 0 -1 
1 -2 1 -1 0 -2 1 -1 1 -2 0 -1 1 -1 1 -2 
0 -1 1 -2 1 -1 0 -2 1 -1 0 -1 1 -2 1 -1 
0 -2 1 -1 1 -1 1795 1996 300 MP stroke
0 -2 1 -1 1 -2 0 -1 1 -1 1 -2 0 -1 1 -2 
1 -1 0 -1 1 -2 1 -1 0 -1 1 -2 1 -1 0 -2 
1 -1 0 -1 1 -2 1 -1 0 -1 1 -2 1 -1 0 -2 
1 -1 1 -1 0 -2 1 -1 1 -1 0 -2 1 -1 1 -1 
0 -2 1 -1 1 -1 0 -2 1 -1 0 -1 1 -2 1 -1 
0 -1 1 -2 1 -1 0 -1 1 -2 1 -1 0 -1 1 -2 
1 -1 0 -1 1 -2 1 -1 0 -1 1 -2 1 -1 0 -1 
1 -1 1 -2 0 -1 1 -1 0 -2 1 -1 1 -1 0 -1 
1 -2 1 -1 0 -1 1 -2 1 -1 0 -1 1 -1 1 -2 
0 -1 1 -1 1 -1 0 -2 1 -1 1 -1 0 -1 1 -2 
1 -1 0 -1 1 -1 0 -2 1 -1 1 -1 0 -1 1 -2 
1 -1 0 -1 1 -1 1 -2 0 -1 1 -1 1 -1 0 -1 
1 -2 1 -1 0 -1 1 -1 1 -2 0 -1 1 -1 1 -1 
0 -1 1 -2 0 -1 1 -1 1 -1 0 -1 1 -2 1 -1 
0 -1 1 -1 1 -1 0 -1 1 -2 1 -1 0 -1 1 -1 
1 -1 0 -1 1 -2 1 -1 0 -1 1 -1 0 -1 1 -1 
1 -2 0 -1 1 -1 1 -1 0 -1 1 -1 1 -1 0 -2 
1 -1 1 -1 0 -1 1 -1 1 -1 0 -1 1 -1 1 -2 
0 -1 1 -1 1 -1 0 -1 1 -1 0 -1 1 -1 1 -1 
0 -2 1 -1 1 -1 0 -1 1 -1 1 -1 0 -1 1 -1 
1 -1 0 -1 1 -1 1 -1 0 -2 1 -1 1 -1 0 -1 
1 -1 1 -1 0 -1 1 -1 0 -1 1 -1 1 -1 0 -1 
1 -1 1 -1 0 -1 1 -1 1 -1 0 -1 1 -1 1 -2 
0 -1 1 -1 1 -1 0 -1 1 -1 1 -1 0 -1 1 -1 
1 -1 0 -1 1 -1 0 -1 1 -1 1 -1 0 -1 1 -1 
1 -1 0 -1 1 -1 1 -1 0 -1 1 -1 1 -1 0 -1 
1 -1 1 -1 1 -1 1 -1 0 -1 1 -1 0 -1 1 -1 
1 -1 0 -1 1 -1 1 -1 0 -1 1 -1 1 -1 0 -1 
1 -1 1 -1 0 -1 1 -1 1 -1 1 -1 1 -1 0 -1 
1 -1 1 -1 0 -1 1 -1 0 -1 1 -1 1 -1 1 -1 
1 -1 0 -1 1 -1 1 -1 0 -1 1 -1 1 -1 1 -1 
1 -1 0 -1 1 -1 1 -1 0 -1 1 -1 1 0 -1 0 
2 -2 0 -1 1 -1 1 -1 1 -1 1 -1 0 -1 1 -1 
1 -1 1 -1 1 -1 0 -1 1 -1 1 -1 1 -1 1 -1 
0 -1 1 -1 1 -1 1 -1 0 -1 1 -1 1 -1 1 -1 
1 -1 0 -1 1 -1 1 0 -1 0 2 -2 1 -1 1 -1 
1 -1 0 -1 1 -1 1 0 -1 0 2 -2 1 -1 1 -1 
0 -1 1 -1 1 0 1593 2333 300 MP stroke
-1 0 2 -2 1 -1 1 -1 1 -1 1 -1 1 -1 0 -1 
1 -1 1 0 -1 0 2 -2 1 0 -1 0 2 -2 1 -1 
1 -1 1 -1 1 -1 1 -1 1 -1 1 -1 1 -1 1 -1 
1 -1 1 -1 1 -1 1 -1 1 -1 0 -1 2 -2 1 0 
-1 0 2 -2 1 0 -1 0 2 -2 1 0 -1 0 2 -2 
1 0 1 -1 1 -1 1 -1 1 -1 1 -1 1 -1 1 -1 
1 -1 1 -1 1 -1 1 -1 1 -1 1 0 1 -1 1 -1 
1 -1 1 -1 1 -1 1 0 -1 0 2 -2 1 -1 1 0 
1 -1 1 -1 1 -1 1 -1 1 -1 1 0 1 -1 1 -1 
1 -1 1 0 1 -1 1 -1 1 -1 1 -1 1 0 1 -1 
1 -1 1 -1 1 0 1 -1 1 -1 1 -1 1 0 1 -1 
1 -1 1 -1 1 0 1 -1 1 -1 1 0 1 -1 1 -1 
1 -1 1 0 1 -1 1 0 1 -1 1 -1 1 -1 1 0 
1 -1 1 0 1 -1 1 -1 1 0 1 -1 1 -1 1 0 
1 -1 1 -1 1 0 1 -1 1 0 1 -1 1 0 1 -1 
1 -1 1 0 1 -1 1 0 1 -1 1 0 1 -1 1 0 
1 -1 1 0 1 -1 1 0 1 -1 1 0 1 -1 1 -1 
1 0 1 -1 1 0 1 -1 1 0 1 -1 1 0 1 -1 
1 0 1 0 1 -1 1 0 1 -1 1 0 1 -1 1 0 
1 -1 1 0 1 0 1 -1 1 0 1 0 1 -1 1 0 
1 -1 1 0 1 -1 1 0 1 0 1 -1 1 0 1 0 
1 -1 1 0 1 0 1 -1 1 0 1 -1 1 0 1 0 
1 0 1 -1 1 0 1 0 1 -1 1 0 1 0 1 -1 
1 0 1 0 1 -1 1 0 1 0 1 0 1 -1 1 0 
1 0 1 0 1 -1 1 0 1 0 1 0 1 -1 1 0 
1 0 1 0 1 -1 1 0 1 0 1 0 1 0 1 -1 
1 0 1 0 1 0 1 0 1 -1 1 0 1 0 1 0 
1 0 1 0 1 -1 1 0 1 0 1 0 1 0 1 -1 
1 0 1 0 1 0 1 0 1 0 1 0 1 0 1 -1 
1 0 1 0 1 0 1 0 1 0 1 0 1 0 1 0 
1 -1 1 0 1 0 1 0 1 0 1 0 1 0 1 0 
1 0 1 0 1 0 1 0 1 0 1 -1 1 0 1 0 
1 0 1 0 1 0 1 0 1 0 1 0 1 0 1 0 
1 0 1 0 1 0 1 0 1 0 1 0 1 0 1 0 
1 0 1 0 1 0 1 0 1 0 1 0 1 0 1 0 
1 0 1 0 1 0 1 0 1 0 1 0 1 0 1 0 
1 0 1 0 1 0 1 0 1 0 1 0 1 0 1 0 
1 0 1 0 1 0 1302 2469 300 MP stroke
1 1 1 0 1 0 1 0 1 0 1 0 1 0 1 0 
1 0 1 0 1 0 1 0 1 0 1 0 1 0 1 1 
1 0 1 0 1 0 1 0 1 0 1 0 1 0 1 0 
1 0 1 0 1 1 1 0 1 0 1 0 1 0 1 0 
1 0 1 0 1 0 1 1 1 0 1 0 1 0 1 0 
1 0 1 0 1 0 1 0 1 1 1 0 1 0 1 0 
1 0 1 0 1 0 1 0 1 1 1 0 1 0 1 0 
1 0 1 0 1 0 1 1 1 0 1 0 1 0 1 0 
1 0 1 0 1 0 1 1 1 0 1 0 1 0 1 0 
1 0 1 0 1 1 1 0 1 0 1 0 1 0 1 0 
1 1 1 0 1 0 1 0 1 0 1 0 1 0 1 1 
1 0 1 0 1 0 1 0 1 0 1 1 1 0 1 0 
1 0 1 0 1 0 1 0 1 1 1 0 1 0 1 0 
1 0 1 0 1 1 1 0 1 0 1 0 1 0 1 0 
1 1 1 0 1 0 1 0 1 0 1 0 1 0 1 1 
1 0 1 0 1 0 1 0 1 0 1 1 1 0 1 0 
1 0 1 0 1 0 1 0 1 1 1 0 1 0 1 0 
1 0 1 0 1 0 1 1 1 0 1 0 1 0 1 0 
1 0 1 0 1 1 1 0 1 0 1 0 1 0 1 0 
1 0 1 0 1 1 1 0 1 0 1 0 1 0 1 0 
1 0 1 0 1 1 1 0 1 0 1 0 1 0 1 0 
1 0 1 0 1 1 1 0 1 0 1 0 1 0 1 0 
1 0 1 0 1 0 1 1 1 0 1 0 1 0 1 0 
1 0 1 0 1 0 1 0 1 0 1 0 1 1 1 0 
1 0 1 0 1 0 1 0 1 0 1 0 1 0 1 0 
1 0 1 0 1 0 1 1 1 0 1 0 1 0 1 0 
1 0 1 0 1 0 1 0 1 0 1 0 1 0 1 0 
1 0 1 0 1 0 1 0 1 0 1 0 1 0 1 0 
1 1 1 0 1 0 1 0 1 0 1 0 1 0 1 0 
1 0 1 0 1 0 1 0 1 0 1 0 1 0 1 0 
1 0 1 0 1 0 1 0 1 0 1 0 1 0 1 0 
1 0 1 0 1 0 1 0 1 -1 1 0 1 0 1 0 
1 0 1 0 1 0 1 0 1 0 1 0 1 0 1 0 
1 0 1 0 1 0 1 0 1 0 1 0 1 0 1 -1 
1 0 1 0 1 0 1 0 1 0 1 0 1 0 1 0 
1 0 1 0 1 -1 1 0 1 0 1 0 1 0 1 0 
1 0 1 0 1 0 1 -1 1 0 1 0 1 0 1 0 
1 0 1 0 1 0 1003 2446 300 MP stroke
1 -1 1 0 1 0 1 0 1 0 1 0 1 0 1 -1 
1 0 1 0 1 0 1 0 1 0 1 -1 1 0 1 0 
1 0 1 0 1 -1 1 0 1 0 1 0 1 0 1 0 
1 -1 1 0 1 0 1 0 1 0 1 -1 1 0 1 0 
1 0 1 -1 1 0 1 0 1 0 1 0 1 -1 1 0 
1 0 1 0 1 0 1 -1 1 0 1 0 1 -1 1 0 
1 0 1 0 1 -1 1 0 1 0 1 0 1 -1 1 0 
1 0 1 0 1 -1 1 0 1 0 1 0 1 -1 1 0 
1 0 1 -1 1 0 1 0 1 0 1 -1 1 0 1 0 
1 -1 1 0 1 0 1 0 1 -1 1 0 1 0 1 -1 
1 0 1 0 1 -1 1 0 1 0 1 0 1 -1 1 0 
1 0 1 -1 1 0 1 -1 1 0 1 0 1 0 1 -1 
1 0 1 0 1 -1 1 0 1 0 1 -1 1 0 1 0 
1 -1 1 0 1 -1 1 0 1 0 1 0 1 -1 1 0 
1 -1 1 0 1 0 1 0 1 -1 1 0 1 -1 1 0 
1 0 1 -1 1 0 1 0 1 -1 1 0 1 0 1 -1 
1 0 1 -1 1 0 1 0 1 -1 1 0 1 0 1 -1 
1 0 1 0 1 -1 1 0 1 -1 1 0 1 0 1 0 
1 -1 1 0 1 -1 1 0 1 0 1 -1 1 0 1 0 
1 -1 1 0 1 0 1 -1 1 0 1 0 1 -1 1 0 
1 -1 1 0 1 0 1 0 1 -1 1 0 1 -1 1 0 
1 0 1 0 1 -1 1 0 1 -1 1 0 1 0 1 -1 
1 0 1 0 1 0 1 -1 1 0 1 0 1 -1 1 0 
1 0 1 -1 1 0 1 0 1 -1 1 0 1 0 1 0 
1 -1 1 0 1 0 1 0 1 -1 1 0 1 0 1 0 
1 -1 1 0 1 0 1 -1 1 0 1 0 1 0 1 -1 
1 0 1 0 1 0 1 0 1 -1 1 0 1 0 1 0 
1 0 1 -1 1 0 1 0 1 0 1 0 1 0 1 -1 
1 0 1 0 1 0 1 0 1 0 1 0 1 -1 1 0 
1 0 1 0 1 0 1 0 1 0 1 0 1 0 1 0 
1 0 1 -1 1 0 1 0 1 0 1 0 1 0 1 0 
1 0 1 0 1 0 1 0 1 0 1 0 1 0 1 0 
1 1 1 0 1 0 1 0 1 0 1 0 1 0 1 0 
1 0 1 0 1 0 1 1 1 0 1 0 1 0 1 0 
1 0 1 1 1 0 1 0 1 0 1 1 1 0 1 0 
1 0 1 1 1 0 1 0 1 1 1 0 1 0 1 1 
1 0 1 0 1 1 1 0 1 1 1 0 1 0 1 1 
1 0 1 1 1 0 704 2501 300 MP stroke
1 1 1 0 1 1 1 0 1 1 1 1 1 0 1 1 
1 0 1 1 1 0 1 1 1 1 1 0 1 1 1 1 
1 0 1 1 1 1 1 1 1 1 1 0 1 1 1 1 
1 1 1 0 -1 0 2 2 1 0 1 1 1 1 1 1 
1 1 1 1 1 1 1 1 1 1 1 1 1 1 1 1 
0 1 1 1 1 0 -1 0 2 2 1 0 -1 0 2 2 
1 1 1 1 1 1 0 1 1 1 0 1 656 2459 55 MP stroke
/c9 { 0.000000 1.000000 0.000000 sr} bdef
c9
1 0 1 0 1 0 1 0 1 0 1 0 1 0 1 0 
1 0 1 0 1 0 1 0 1 0 1 -1 1 0 1 0 
1 0 1 0 1 0 1 -1 1 0 1 0 1 0 1 0 
1 -1 1 0 1 0 1 0 1 -1 1 0 1 0 1 -1 
1 0 1 0 1 -1 1 0 1 0 1 -1 1 0 1 -1 
1 0 1 0 1 -1 1 0 1 -1 1 0 1 -1 1 0 
1 -1 1 0 1 0 1 -1 1 0 1 -1 1 -1 1 0 
1 -1 1 0 1 -1 1 0 1 -1 1 -1 1 0 1 -1 
1 0 1 -1 1 -1 1 0 1 -1 1 -1 1 0 1 -1 
1 -1 1 0 1 -1 1 -1 1 -1 1 0 1 -1 1 -1 
1 -1 1 0 1 -1 1 -1 1 -1 1 -1 1 -1 1 -1 
1 0 -1 0 2 -2 1 0 1 -1 1 -1 1 -1 1 -1 
1 -1 1 0 -1 0 2 -2 1 0 -1 0 2 -2 1 0 
0 -1 2 -2 1 0 -1 0 2 -2 1 0 -1 0 2 -2 
1 0 -1 0 2 -2 1 0 -1 0 2 -2 1 -1 1 -1 
1 -1 1 -1 0 -1 1 -1 1 0 -1 0 2 -2 1 0 
-1 0 2 -2 1 -1 1 -1 1 -1 0 -1 1 -1 1 0 
-1 0 2 -2 1 -1 1 -1 1 -1 0 -1 1 -1 1 -1 
1 -1 0 -1 1 -1 1 -1 1 -1 1 -1 0 -1 1 -1 
1 -1 1 -1 1 -1 0 -1 1 -1 1 -1 0 -1 1 -1 
1 -1 1 -1 0 -1 1 -1 1 -1 0 -1 1 -1 1 -1 
0 -1 1 -1 1 -1 1 -1 1 -1 0 -1 1 -1 1 -1 
0 -1 1 -1 1 -1 0 -1 1 -1 1 -1 0 -1 1 -1 
0 -1 1 -1 1 -1 0 -1 1 -1 1 -1 0 -1 1 -1 
1 -1 0 -1 1 -1 1 -1 0 -1 1 -1 1 -1 0 -1 
1 -1 1 -1 0 -1 1 -1 0 -1 1 -1 1 -1 0 -1 
1 -1 1 -2 0 -1 1 -1 1 -1 0 -1 1 -1 1 -1 
0 -1 1 -1 1 -1 0 -1 1 -2 1 -1 0 -1 1 -1 
1 -1 0 -1 1 -1 0 -1 1 -2 1 -1 0 -1 1 -1 
1 -1 0 -1 1 -1 1 -2 0 -1 1 -1 1 -1 0 -1 
1 -1 1 -2 0 -1 1 -1 1 -1 0 -1 1 -2 1 -1 
0 -1 1 -1 0 -1 1 -2 1 -1 0 -1 1 -1 1 -2 
0 -1 1 -1 1 -1 0 -1 1 -2 1 -1 0 -1 1 -1 
1 -2 0 -1 1 -1 1 -2 0 -1 1 -1 1 -1 0 -2 
1 -1 0 -1 1 -1 1 -2 0 -1 1 -1 1 -2 0 -1 
1 -1 1 -2 0 -1 1 -1 1 -1 0 -2 1 -1 1 -1 
0 -2 1 -1 1 -1 0 -2 1 -1 0 -2 1 -1 1 -1 
0 -2 1 -1 1 -1 2375 542 300 MP stroke
0 -2 1 -1 1 -1 0 -2 1 -1 1 -2 0 -1 1 -1 
1 -2 0 -1 1 -1 1 -2 0 -1 1 -2 1 -1 0 -1 
1 -2 0 -1 1 -2 1 -1 0 -2 1 -1 1 -1 0 -2 
1 -1 1 -2 0 -1 1 -2 1 -1 0 -2 1 -1 1 -1 
0 -2 1 -1 1 -2 0 -1 1 -2 1 -1 0 -2 1 -1 
0 -2 1 -1 1 -2 0 -1 1 -2 1 -1 0 -2 1 -1 
1 -2 0 -1 1 -2 1 -1 0 -2 1 -1 1 -2 0 -1 
1 -2 1 -1 0 -2 1 -1 1 -2 0 -1 1 -2 0 -1 
1 -2 1 -2 0 -1 1 -2 1 -1 0 -2 1 -1 1 -2 
0 -1 1 -2 1 -2 0 -1 1 -2 1 -1 0 -2 1 -1 
1 -2 0 -2 1 -1 0 -2 1 -1 1 -2 0 -2 1 -1 
1 -2 0 -1 1 -2 1 -2 0 -1 1 -2 1 -1 0 -2 
1 -2 1 -1 0 -2 1 -2 1 -1 0 -2 1 -1 1 -2 
0 -2 1 -1 0 -2 1 -2 1 -1 0 -2 1 -2 1 -1 
0 -2 1 -2 1 -1 0 -2 1 -2 1 -1 0 -2 1 -2 
1 -1 0 -2 1 -2 1 -1 0 -2 1 -2 1 -1 0 -2 
1 -2 0 -2 1 -1 1 -2 0 -2 1 -1 1 -2 0 -2 
1 -2 1 -1 0 -2 1 -2 1 -1 0 -2 1 -2 1 -2 
0 -1 1 -2 1 -2 0 -1 1 -2 1 -2 0 -2 1 -1 
0 -2 1 -2 1 -2 0 -1 1 -2 1 -2 0 -2 1 -1 
1 -2 0 -2 1 -2 1 -1 0 -2 1 -2 1 -2 0 -2 
1 -1 1 -2 0 -2 1 -2 0 -1 1 -2 1 -2 0 -2 
1 -2 1 -1 0 -2 1 -2 1 -2 0 -2 1 -1 1 -2 
0 -2 1 -2 1 -2 0 -1 1 -2 1 -2 0 -2 1 -2 
1 -1 0 -2 1 -2 0 -2 1 -2 1 -2 0 -1 1 -2 
1 -2 0 -2 1 -2 1 -2 0 -1 1 -2 1 -2 0 -2 
1 -2 1 -2 0 -1 1 -2 1 -2 0 -2 1 -2 1 -2 
0 -2 1 -1 0 -2 1 -2 1 -2 0 -2 1 -2 1 -2 
0 -1 1 -2 1 -2 0 -2 1 -2 1 -2 0 -2 1 -1 
1 -2 0 -2 1 -2 1 -2 0 -2 1 -2 0 -2 1 -2 
1 -1 0 -2 1 -2 1 -2 0 -2 1 -2 1 -2 0 -2 
1 -2 1 -1 0 -2 1 -2 1 -2 0 -2 1 -2 1 -2 
0 -2 1 -2 1 -2 0 -1 1 -2 0 -2 1 -2 1 -2 
0 -2 1 -2 1 -2 0 -2 1 -2 1 -2 0 -2 1 -1 
1 -2 0 -2 1 -2 1 -2 0 -2 1 -2 1 -2 0 -2 
1 -2 1 -2 0 -2 1 -2 0 -1 1 -2 1 -2 0 -2 
1 -2 1 -2 0 -2 1 -2 1 -2 0 -2 1 -2 1 -2 
0 -2 1 -2 1 -2 2180 1054 300 MP stroke
0 -2 1 -1 1 -2 0 -2 1 -2 1 -2 0 -2 1 -2 
0 -2 1 -2 1 -2 0 -2 1 -2 1 -2 0 -2 1 -2 
1 -2 0 -2 1 -2 1 -2 0 -2 1 -2 1 -2 0 -1 
1 -2 1 -2 0 -2 1 -2 0 -2 1 -2 1 -2 0 -2 
1 -2 1 -2 0 -2 1 -2 1 -2 0 -2 1 -2 1 -2 
0 -2 1 -2 1 -2 0 -2 1 -2 1 -2 0 -2 1 -2 
1 -2 0 -2 1 -2 0 -2 1 -1 1 -2 0 -2 1 -2 
1 -2 0 -2 1 -2 1 -2 0 -2 1 -2 1 -2 0 -2 
1 -2 1 -2 0 -2 1 -2 1 -2 0 -2 1 -2 1 -2 
0 -2 1 -2 0 -2 1 -2 1 -2 0 -2 1 -2 1 -2 
0 -2 1 -2 1 -2 0 -2 1 -2 1 -2 0 -2 1 -2 
1 -2 0 -2 1 -2 1 -2 0 -2 1 -2 1 -1 0 -2 
1 -2 0 -2 1 -2 1 -2 0 -2 1 -2 1 -2 0 -2 
1 -2 1 -2 0 -2 1 -2 1 -2 0 -2 1 -2 1 -2 
0 -2 1 -2 1 -2 0 -2 1 -2 0 -2 1 -2 1 -2 
0 -2 1 -2 1 -2 0 -2 1 -2 1 -2 0 -2 1 -2 
1 -2 0 -2 1 -2 1 -2 0 -2 1 -1 1 -2 0 -2 
1 -2 1 -2 0 -2 1 -2 0 -2 1 -2 1 -2 0 -2 
1 -2 1 -2 0 -2 1 -2 1 -2 0 -2 1 -2 1 -2 
0 -2 1 -2 1 -2 0 -2 1 -2 1 -2 0 -2 1 -2 
1 -2 0 -1 1 -2 0 -2 1 -2 1 -2 0 -2 1 -2 
1 -2 0 -2 1 -2 1 -2 0 -2 1 -2 1 -2 0 -2 
1 -2 1 -2 0 -2 1 -2 1 -2 0 -1 1 -2 1 -2 
0 -2 1 -2 0 -2 1 -2 1 -2 0 -2 1 -2 1 -2 
0 -2 1 -2 1 -2 0 -2 1 -2 1 -1 0 -2 1 -2 
1 -2 0 -2 1 -2 1 -2 0 -2 1 -2 0 -2 1 -2 
1 -2 0 -2 1 -1 1 -2 0 -2 1 -2 1 -2 0 -2 
1 -2 1 -2 0 -2 1 -2 1 -2 0 -1 1 -2 1 -2 
0 -2 1 -2 1 -2 0 -2 1 -2 0 -2 1 -2 1 -1 
0 -2 1 -2 1 -2 0 -2 1 -2 1 -2 0 -2 1 -2 
1 -2 0 -1 1 -2 1 -2 0 -2 1 -2 1 -2 0 -2 
1 -2 1 -1 0 -2 1 -2 0 -2 1 -2 1 -2 0 -2 
1 -2 1 -1 0 -2 1 -2 1 -2 0 -2 1 -2 1 -2 
0 -1 1 -2 1 -2 0 -2 1 -2 1 -2 0 -1 1 -2 
1 -2 0 -2 1 -2 0 -2 1 -2 1 -1 0 -2 1 -2 
1 -2 0 -2 1 -2 1 -1 0 -2 1 -2 1 -2 0 -2 
1 -1 1 -2 0 -2 1 -2 1 -2 0 -2 1 -1 0 -2 
1 -2 1 -2 0 -2 1986 1632 300 MP stroke
1 -1 1 -2 0 -2 1 -2 1 -2 0 -1 1 -2 1 -2 
0 -2 1 -2 1 -1 0 -2 1 -2 1 -2 0 -1 1 -2 
1 -2 0 -2 1 -2 0 -1 1 -2 1 -2 0 -2 1 -1 
1 -2 0 -2 1 -2 1 -1 0 -2 1 -2 1 -2 0 -1 
1 -2 1 -2 0 -2 1 -1 1 -2 0 -2 1 -2 1 -1 
0 -2 1 -2 0 -1 1 -2 1 -2 0 -2 1 -1 1 -2 
0 -2 1 -2 1 -1 0 -2 1 -2 1 -1 0 -2 1 -2 
1 -1 0 -2 1 -2 1 -2 0 -1 1 -2 1 -2 0 -1 
1 -2 0 -2 1 -1 1 -2 0 -2 1 -1 1 -2 0 -2 
1 -1 1 -2 0 -2 1 -1 1 -2 0 -2 1 -1 1 -2 
0 -2 1 -1 1 -2 0 -2 1 -1 0 -2 1 -2 1 -1 
0 -2 1 -1 1 -2 0 -2 1 -1 1 -2 0 -2 1 -1 
1 -2 0 -1 1 -2 1 -2 0 -1 1 -2 1 -1 0 -2 
1 -2 1 -1 0 -2 1 -1 0 -2 1 -2 1 -1 0 -2 
1 -1 1 -2 0 -2 1 -1 1 -2 0 -1 1 -2 1 -1 
0 -2 1 -2 1 -1 0 -2 1 -1 1 -2 0 -1 1 -2 
1 -1 0 -2 1 -1 0 -2 1 -2 1 -1 0 -2 1 -1 
1 -2 0 -1 1 -2 1 -1 0 -2 1 -1 1 -2 0 -1 
1 -2 1 -1 0 -2 1 -1 1 -2 0 -1 1 -2 1 -1 
0 -2 1 -1 0 -2 1 -1 1 -2 0 -1 1 -2 1 -1 
0 -2 1 -1 1 -1 0 -2 1 -1 1 -2 0 -1 1 -2 
1 -1 0 -2 1 -1 1 -1 0 -2 1 -1 0 -2 1 -1 
1 -2 0 -1 1 -1 1 -2 0 -1 1 -2 1 -1 0 -2 
1 -1 1 -1 0 -2 1 -1 1 -2 0 -1 1 -1 1 -2 
0 -1 1 -1 1 -2 0 -1 1 -2 0 -1 1 -1 1 -2 
0 -1 1 -1 1 -2 0 -1 1 -1 1 -2 0 -1 1 -2 
1 -1 0 -1 1 -2 1 -1 0 -1 1 -2 1 -1 0 -1 
1 -1 1 -2 0 -1 1 -1 0 -2 1 -1 1 -1 0 -2 
1 -1 1 -1 0 -2 1 -1 1 -1 0 -1 1 -2 1 -1 
0 -1 1 -2 1 -1 0 -1 1 -1 1 -2 0 -1 1 -1 
0 -1 1 -2 1 -1 0 -1 1 -1 1 -2 0 -1 1 -1 
1 -1 0 -2 1 -1 1 -1 0 -1 1 -1 1 -2 0 -1 
1 -1 1 -1 0 -1 1 -2 1 -1 0 -1 1 -1 0 -1 
1 -2 1 -1 0 -1 1 -1 1 -1 0 -1 1 -2 1 -1 
0 -1 1 -1 1 -1 0 -1 1 -2 1 -1 0 -1 1 -1 
1 -1 0 -1 1 -1 1 -2 0 -1 1 -1 0 -1 1 -1 
1 -1 0 -1 1 -1 1 -2 0 -1 1 -1 1 -1 0 -1 
1 -1 1 -1 0 -1 1791 2073 300 MP stroke
1 -1 1 -1 0 -1 1 -2 1 -1 0 -1 1 -1 1 -1 
0 -1 1 -1 0 -1 1 -1 1 -1 0 -1 1 -1 1 -1 
0 -1 1 -1 1 -1 0 -1 1 -1 1 -1 0 -1 1 -2 
1 -1 0 -1 1 -1 1 -1 0 -1 1 -1 0 -1 1 -1 
1 -1 0 -1 1 -1 1 -1 1 -1 1 -1 0 -1 1 -1 
1 -1 0 -1 1 -1 1 -1 0 -1 1 -1 1 -1 0 -1 
1 -1 1 -1 0 -1 1 -1 0 -1 1 -1 1 -1 1 -1 
1 -1 0 -1 1 -1 1 -1 0 -1 1 -1 1 -1 0 -1 
1 -1 1 -1 1 -1 1 -1 0 -1 1 -1 1 -1 0 -1 
1 -1 1 -1 1 -1 0 -1 1 -1 1 -1 1 -1 1 -1 
0 -1 1 -1 1 -1 1 -1 1 -1 0 -1 1 -1 1 -1 
1 -1 1 -1 0 -1 1 -1 1 -1 1 -1 0 -1 1 -1 
1 0 -1 0 2 -2 1 -1 1 -1 1 -1 0 -1 1 -1 
1 0 -1 0 2 -2 1 -1 1 -1 0 -1 1 -1 1 0 
-1 0 2 -2 1 -1 1 -1 1 -1 1 -1 1 -1 1 -1 
1 -1 1 -1 1 -1 1 -1 1 -1 0 -1 1 -1 1 -1 
1 -1 1 -1 1 -1 1 -1 1 -1 1 -1 1 0 -1 0 
2 -2 1 0 -1 0 2 -2 1 0 -1 0 2 -2 1 0 
0 -1 2 -2 1 0 1 -1 1 -1 1 -1 1 -1 1 -1 
1 -1 1 -1 1 0 1 -1 1 -1 1 -1 1 -1 1 -1 
1 -1 1 0 -1 0 2 -2 1 0 1 -1 1 -1 1 -1 
1 0 1 -1 1 -1 1 -1 1 0 1 -1 1 -1 1 -1 
1 -1 1 0 1 -1 1 -1 1 -1 1 0 1 -1 1 -1 
1 0 1 -1 1 -1 1 0 1 -1 1 -1 1 0 1 -1 
1 -1 1 -1 1 0 1 -1 1 0 1 -1 1 -1 1 0 
1 -1 1 -1 1 0 1 -1 1 0 1 -1 1 -1 1 0 
1 -1 1 0 1 -1 1 0 1 -1 1 0 1 -1 1 0 
1 -1 1 0 1 -1 1 -1 1 0 1 -1 1 0 1 -1 
1 0 1 -1 1 0 1 0 1 -1 1 0 1 -1 1 0 
1 -1 1 0 1 -1 1 0 1 0 1 -1 1 0 1 -1 
1 0 1 0 1 -1 1 0 1 -1 1 0 1 0 1 -1 
1 0 1 -1 1 0 1 0 1 0 1 -1 1 0 1 -1 
1 0 1 0 1 0 1 -1 1 0 1 0 1 -1 1 0 
1 0 1 -1 1 0 1 0 1 -1 1 0 1 0 1 0 
1 -1 1 0 1 0 1 0 1 -1 1 0 1 0 1 0 
1 -1 1 0 1 0 1 0 1 0 1 -1 1 0 1 0 
1 0 1 0 1 -1 1 0 1 0 1 0 1 0 1 -1 
1 0 1 0 1 0 1530 2292 300 MP stroke
1 0 1 0 1 -1 1 0 1 0 1 0 1 0 1 0 
1 -1 1 0 1 0 1 0 1 0 1 0 1 0 1 0 
1 -1 1 0 1 0 1 0 1 0 1 0 1 0 1 0 
1 0 1 -1 1 0 1 0 1 0 1 0 1 0 1 0 
1 0 1 0 1 0 1 0 1 -1 1 0 1 0 1 0 
1 0 1 0 1 0 1 0 1 0 1 0 1 0 1 0 
1 0 1 0 1 0 1 0 1 0 1 -1 1 0 1 0 
1 0 1 0 1 0 1 0 1 0 1 0 1 0 1 0 
1 0 1 0 1 0 1 0 1 0 1 0 1 0 1 0 
1 0 1 0 1 0 1 0 1 0 1 0 1 0 1 0 
1 0 1 0 1 0 1 0 1 0 1 -1 1 0 1 0 
1 0 1 0 1 0 1 0 1 0 1 0 1 0 1 0 
1 0 1 0 1 0 1 0 1 0 1 0 1 0 1 0 
1 0 1 0 1 0 1 0 1 0 1 0 1 0 1 0 
1 0 1 0 1 0 1 0 1 0 1 0 1 0 1 0 
1 0 1 -1 1 0 1 0 1 0 1 0 1 0 1 0 
1 0 1 0 1 0 1 0 1 0 1 0 1 0 1 0 
1 0 1 0 1 0 1 -1 1 0 1 0 1 0 1 0 
1 0 1 0 1 0 1 0 1 0 1 0 1 -1 1 0 
1 0 1 0 1 0 1 0 1 0 1 0 1 0 1 0 
1 -1 1 0 1 0 1 0 1 0 1 0 1 0 1 -1 
1 0 1 0 1 0 1 0 1 0 1 0 1 -1 1 0 
1 0 1 0 1 0 1 -1 1 0 1 0 1 0 1 0 
1 -1 1 0 1 0 1 0 1 0 1 -1 1 0 1 0 
1 0 1 0 1 -1 1 0 1 0 1 -1 1 0 1 0 
1 0 1 -1 1 0 1 0 1 0 1 -1 1 0 1 0 
1 -1 1 0 1 0 1 -1 1 0 1 0 1 -1 1 0 
1 0 1 0 1 -1 1 0 1 -1 1 0 1 0 1 -1 
1 0 1 -1 1 0 1 0 1 -1 1 0 1 0 1 -1 
1 0 1 -1 1 0 1 -1 1 0 1 -1 1 0 1 -1 
1 0 1 0 1 -1 1 0 1 -1 1 0 1 -1 1 0 
1 -1 1 0 1 -1 1 0 1 -1 1 -1 1 0 1 -1 
1 0 1 -1 1 -1 1 0 1 -1 1 -1 1 0 1 -1 
1 0 1 -1 1 -1 1 0 1 -1 1 0 1 -1 1 -1 
1 -1 1 0 1 -1 1 0 1 -1 1 -1 1 -1 1 0 
1 -1 1 -1 1 -1 1 -1 1 0 1 -1 1 -1 1 -1 
1 0 1 -1 1 -1 1 -1 1 0 -1 0 2 -2 1 0 
1 -1 1 -1 1 -1 1232 2363 300 MP stroke
1 -1 1 -1 1 -1 1 0 1 -1 1 -1 1 -1 1 -1 
1 -1 1 -1 1 -1 1 -1 1 -1 1 -1 1 -1 1 -1 
1 -1 1 -1 1 -1 1 -1 1 -1 1 -1 1 -1 1 -1 
1 -1 1 -1 0 -1 1 -1 1 0 -1 0 2 -2 1 0 
-1 0 2 -2 1 -1 1 -1 1 -1 1 -1 1 -1 0 -1 
1 -1 1 0 -1 0 2 -2 1 -1 1 -1 0 -1 1 -1 
1 -1 1 -1 1 -1 0 -1 1 -1 1 0 -1 0 2 -2 
1 -1 1 -1 1 -1 0 -1 1 -1 1 -1 0 -1 1 -1 
1 0 -1 0 2 -2 0 -1 1 -1 1 -1 0 -1 1 -1 
1 0 -1 0 2 -2 1 -1 0 -1 1 -1 1 -1 0 -1 
1 -1 1 -1 1 -1 1 -1 0 -1 1 -1 1 -1 0 -1 
1 -1 0 -1 1 -1 1 -1 0 -1 1 -1 1 -1 0 -1 
1 -1 1 -1 0 -1 1 -1 1 -1 0 -1 1 -1 1 -1 
0 -1 1 -1 1 -1 0 -1 1 -1 0 -1 1 -1 1 -1 
0 -1 1 -1 1 -1 0 -1 1 -1 1 -1 0 -1 1 -1 
1 -1 0 -1 1 -1 1 -2 0 -1 1 -1 1 -1 0 -1 
1 -1 1 -1 0 -1 1 -1 0 -1 1 -2 1 -1 0 -1 
1 -1 1 -1 0 -1 1 -1 1 -1 0 -2 1 -1 1 -1 
0 -1 1 -1 1 -1 0 -2 1 -1 1 -1 0 -1 1 -1 
1 -1 0 -2 1 -1 0 -1 1 -1 1 -1 0 -2 1 -1 
1 -1 0 -1 1 -2 1 -1 0 -1 1 -1 1 -1 0 -2 
1 -1 1 -1 0 -1 1 -2 1 -1 0 -1 1 -1 1 -2 
0 -1 1 -1 0 -2 1 -1 1 -1 0 -1 1 -2 1 -1 
0 -1 1 -2 1 -1 0 -1 1 -2 1 -1 0 -1 1 -1 
1 -2 0 -1 1 -1 1 -2 0 -1 1 -1 0 -2 1 -1 
1 -2 0 -1 1 -1 1 -2 0 -1 1 -1 1 -2 0 -1 
1 -1 1 -2 0 -1 1 -2 1 -1 0 -1 1 -2 1 -1 
0 -2 1 -1 1 -1 0 -2 1 -1 0 -2 1 -1 1 -2 
0 -1 1 -1 1 -2 0 -1 1 -2 1 -1 0 -2 1 -1 
1 -2 0 -1 1 -1 1 -2 0 -1 1 -2 1 -1 0 -2 
1 -1 1 -2 0 -1 1 -2 0 -1 1 -2 1 -1 0 -2 
1 -1 1 -2 0 -1 1 -2 1 -1 0 -2 1 -1 1 -2 
0 -1 1 -2 1 -1 0 -2 1 -1 1 -2 0 -2 1 -1 
0 -2 1 -1 1 -2 0 -1 1 -2 1 -1 0 -2 1 -2 
1 -1 0 -2 1 -1 1 -2 0 -1 1 -2 1 -2 0 -1 
1 -2 1 -1 0 -2 1 -1 1 -2 0 -2 1 -1 0 -2 
1 -1 1 -2 0 -2 1 -1 1 -2 0 -2 1 -1 1 -2 
0 -1 1 -2 1 -2 1024 2722 300 MP stroke
0 -1 1 -2 1 -1 0 -2 1 -2 1 -1 0 -2 1 -2 
1 -1 0 -2 1 -2 0 -1 1 -2 1 -1 0 -2 1 -2 
1 -1 0 -2 1 -2 1 -1 0 -2 1 -2 1 -1 0 -2 
1 -2 1 -1 0 -2 1 -2 1 -1 0 -2 1 -2 1 -1 
0 -2 1 -2 0 -1 1 -2 1 -2 0 -1 1 -2 1 -2 
0 -2 1 -1 1 -2 0 -2 1 -1 1 -2 0 -2 1 -1 
1 -2 0 -2 1 -1 1 -2 0 -2 1 -1 0 -2 1 -2 
1 -2 0 -1 1 -2 1 -2 0 -1 1 -2 1 -2 0 -1 
1 -2 1 -2 0 -2 1 -1 1 -2 0 -2 1 -1 1 -2 
0 -2 1 -1 1 -2 0 -2 1 -2 0 -1 1 -2 1 -2 
0 -1 1 -2 1 -2 0 -1 1 -2 1 -2 0 -2 1 -1 
1 -2 0 -2 1 -1 1 -2 0 -2 1 -1 1 -2 0 -2 
1 -1 1 -2 0 -2 1 -2 0 -1 1 -2 1 -2 0 -1 
1 -2 1 -2 0 -1 1 -2 1 -2 0 -1 1 -2 1 -2 
0 -1 1 -2 1 -2 0 -1 1 -2 1 -2 0 -1 1 -2 
1 -2 0 -1 1 -2 0 -2 1 -1 1 -2 0 -2 1 -1 
1 -2 0 -2 1 -1 1 -2 0 -2 1 -1 1 -2 0 -1 
1 -2 1 -2 0 -1 1 -2 1 -2 0 -1 1 -2 0 -1 
1 -2 1 -2 0 -1 1 -2 1 -1 0 -2 1 -2 1 -1 
0 -2 1 -1 1 -2 0 -1 1 -2 1 -2 0 -1 1 -2 
1 -1 0 -2 1 -1 1 -2 0 -1 1 -2 0 -2 1 -1 
1 -2 0 -1 1 -2 1 -1 0 -2 1 -1 1 -2 0 -1 
1 -2 1 -1 0 -2 1 -1 1 -2 0 -1 1 -2 1 -1 
0 -2 1 -1 1 -1 0 -2 1 -1 0 -2 1 -1 1 -2 
0 -1 1 -1 1 -2 0 -1 1 -2 1 -1 0 -1 1 -2 
1 -1 0 -2 1 -1 1 -1 0 -2 1 -1 1 -1 0 -2 
1 -1 1 -1 0 -2 1 -1 0 -1 1 -2 1 -1 0 -1 
1 -1 1 -2 0 -1 1 -1 1 -1 0 -2 1 -1 1 -1 
0 -1 1 -2 1 -1 0 -1 1 -1 1 -1 0 -2 1 -1 
0 -1 1 -1 1 -1 0 -1 1 -1 1 -2 0 -1 1 -1 
1 -1 0 -1 1 -1 1 -1 0 -1 1 -1 1 -1 0 -1 
1 -1 1 -1 0 -1 1 -1 1 -1 0 -1 1 -1 0 -1 
1 -1 1 -1 0 -1 1 -1 1 -1 0 -1 1 -1 1 -1 
0 -1 1 -1 1 0 -1 0 2 -2 1 -1 0 -1 1 -1 
1 0 -1 0 2 -2 1 -1 0 -1 2 -2 1 0 -1 0 
2 -2 1 -1 1 -1 1 -1 1 -1 1 0 -1 0 2 -2 
1 0 1 -1 1 -1 1 -1 1 0 1 -1 1 -1 1 -1 
1 -1 1 0 1 -1 823 3150 300 MP stroke
1 0 1 -1 1 0 1 -1 1 0 1 0 1 -1 1 0 
1 0 1 -1 1 0 1 0 1 0 1 0 1 0 1 0 
1 0 1 0 1 0 1 0 1 0 1 0 1 1 1 0 
1 0 1 1 1 0 1 0 1 1 1 0 1 1 1 1 
1 0 1 1 1 0 1 1 1 1 1 1 1 1 1 1 
1 1 1 1 1 1 1 1 0 1 1 1 1 0 -1 0 
2 2 1 1 0 1 1 1 1 1 0 1 1 1 1 1 
0 1 1 1 0 1 1 1 1 1 0 1 1 1 1 1 
0 1 1 2 1 1 0 1 1 1 1 2 0 1 1 1 
1 2 0 1 1 2 1 1 0 2 1 1 0 2 1 1 
1 2 0 1 1 2 1 2 0 1 1 2 1 2 0 1 
1 2 1 2 0 2 1 2 1 1 0 2 1 2 1 2 
0 2 1 2 1 2 0 2 1 2 0 3 1 2 1 2 
0 2 1 2 1 2 0 3 1 2 1 2 0 3 1 2 
1 3 0 2 1 2 1 3 0 2 1 3 1 3 0 2 
1 3 1 3 0 2 1 3 0 3 1 3 1 2 0 3 
1 3 1 3 0 3 1 3 1 3 0 3 1 3 1 3 
0 3 1 4 1 3 0 3 1 3 1 4 0 3 1 3 
1 4 0 3 1 4 0 3 1 4 1 3 0 4 1 3 
1 4 0 4 1 4 1 3 0 4 1 4 1 4 0 4 
1 4 1 4 0 4 1 4 1 4 0 4 1 4 0 4 
1 5 1 4 0 4 1 5 1 4 0 4 1 5 1 4 
0 5 1 5 1 4 0 5 1 5 1 4 0 5 1 5 
1 5 0 5 1 5 1 4 0 5 1 6 0 5 1 5 
1 5 0 5 1 5 1 6 0 5 1 5 1 6 0 5 
1 6 1 5 0 6 1 6 1 5 0 6 1 6 1 6 
0 5 1 6 1 6 0 6 1 6 0 6 1 6 1 7 
0 6 1 6 1 6 0 7 1 6 1 7 0 6 1 7 
1 6 0 7 1 6 1 7 0 7 1 7 1 6 0 7 
1 7 0 7 656 2485 235 MP stroke
1 -7 1 -7 0 -7 1 -6 1 -7 0 -7 1 -7 1 -6 
0 -7 1 -6 1 -7 0 -6 1 -7 1 -6 0 -7 1 -6 
1 -6 0 -6 1 -7 1 -6 0 -6 1 -6 0 -6 1 -6 
1 -6 0 -5 1 -6 1 -6 0 -6 1 -5 1 -6 0 -6 
1 -5 1 -6 0 -5 1 -6 1 -5 0 -5 1 -6 1 -5 
0 -5 1 -5 1 -5 0 -5 1 -6 0 -5 1 -4 1 -5 
0 -5 1 -5 1 -5 0 -5 1 -4 1 -5 0 -5 1 -4 
1 -5 0 -5 1 -4 1 -5 0 -4 1 -4 1 -5 0 -4 
1 -4 1 -5 0 -4 1 -4 0 -4 1 -4 1 -4 0 -4 
1 -4 1 -4 0 -4 1 -4 1 -4 0 -4 1 -3 1 -4 
0 -4 1 -4 1 -3 0 -4 1 -3 1 -4 0 -3 1 -4 
0 -3 1 -4 1 -3 0 -3 1 -4 1 -3 0 -3 1 -3 
1 -4 0 -3 1 -3 1 -3 0 -3 1 -3 1 -3 0 -3 
1 -3 1 -3 0 -3 1 -2 1 -3 0 -3 1 -3 0 -2 
1 -3 1 -3 0 -2 1 -3 1 -3 0 -2 1 -3 1 -2 
0 -2 1 -3 1 -2 0 -3 1 -2 1 -2 0 -3 1 -2 
1 -2 0 -2 1 -2 1 -2 0 -3 1 -2 0 -2 1 -2 
1 -2 0 -2 1 -2 1 -2 0 -2 1 -1 1 -2 0 -2 
1 -2 1 -2 0 -1 1 -2 1 -2 0 -1 1 -2 1 -2 
0 -1 1 -2 1 -1 0 -2 1 -1 0 -2 1 -1 1 -2 
0 -1 1 -2 1 -1 0 -1 1 -2 1 -1 0 -1 1 -1 
1 -2 0 -1 1 -1 1 -1 0 -1 1 -1 1 -1 0 -1 
1 -1 0 -1 1 -1 1 -1 0 -1 1 -1 1 -1 0 -1 
1 -1 1 -1 1 -1 1 -1 0 -1 1 -1 1 0 -1 0 
2 -2 1 -1 1 -1 1 0 -1 0 2 -2 1 -1 1 0 
1 -1 1 -1 1 0 1 -1 1 -1 1 0 1 -1 1 0 
1 0 1 -1 1 0 1 0 1 -1 1 0 1 0 1 0 
1 0 1 0 1 0 1 0 1 0 1 0 1 0 1 0 
1 0 1 1 1 0 1 0 1 1 1 0 1 0 1 1 
1 0 1 1 1 0 1 1 1 0 1 1 1 1 1 0 
1 1 1 1 1 1 1 1 1 0 1 1 1 1 1 1 
1 1 1 1 1 1 1 1 1 1 1 1 1 1 0 1 
2 2 1 1 1 1 1 1 0 1 1 1 1 1 1 1 
1 1 0 1 1 1 1 1 0 1 1 1 1 1 0 1 
1 1 1 1 0 1 1 1 0 1 1 1 1 1 0 1 
1 1 1 1 0 1 1 1 1 1 0 1 1 1 1 1 
0 1 1 1 1 1 0 1 1 2 1 1 0 1 1 1 
1 1 0 1 1 1 4347 3087 300 MP stroke
0 2 1 1 1 1 0 1 1 1 1 2 0 1 1 1 
1 1 0 2 1 1 1 1 0 1 1 2 1 1 0 1 
1 1 1 2 0 1 1 1 0 2 1 1 1 1 0 2 
1 1 1 1 0 2 1 1 1 1 0 2 1 1 1 2 
0 1 1 1 1 2 0 1 1 2 1 1 0 1 1 2 
1 1 0 2 1 1 0 2 1 1 1 1 0 2 1 1 
1 2 0 1 1 2 1 1 0 2 1 1 1 2 0 1 
1 2 1 1 0 2 1 1 1 2 0 1 1 2 1 1 
0 2 1 2 0 1 1 2 1 1 0 2 1 1 1 2 
0 1 1 2 1 2 0 1 1 2 1 1 0 2 1 1 
1 2 0 2 1 1 1 2 0 1 1 2 1 2 0 1 
1 2 0 1 1 2 1 2 0 1 1 2 1 2 0 1 
1 2 1 1 0 2 1 2 1 1 0 2 1 2 1 1 
0 2 1 2 1 1 0 2 1 2 0 1 1 2 1 2 
0 1 1 2 1 2 0 1 1 2 1 2 0 1 1 2 
1 2 0 1 1 2 1 2 0 1 1 2 1 2 0 1 
1 2 1 2 0 1 1 2 0 2 1 2 1 1 0 2 
1 2 1 1 0 2 1 2 1 1 0 2 1 2 1 1 
0 2 1 2 1 2 0 1 1 2 1 2 0 1 1 2 
1 2 0 1 1 2 0 2 1 2 1 1 0 2 1 2 
1 1 0 2 1 2 1 1 0 2 1 2 1 2 0 1 
1 2 1 2 0 1 1 2 1 2 0 1 1 2 1 2 
0 2 1 1 0 2 1 2 1 1 0 2 1 2 1 1 
0 2 1 2 1 1 0 2 1 2 1 1 0 2 1 2 
1 2 0 1 1 2 1 2 0 1 1 2 0 2 1 1 
1 2 0 2 1 1 1 2 0 2 1 1 1 2 0 2 
1 1 1 2 0 2 1 1 1 2 0 2 1 1 1 2 
0 2 1 1 1 2 0 1 1 2 0 2 1 1 1 2 
0 2 1 1 1 2 0 2 1 1 1 2 0 1 1 2 
1 2 0 1 1 2 1 1 0 2 1 2 1 1 0 2 
1 2 1 1 0 2 1 1 0 2 1 2 1 1 0 2 
1 1 1 2 0 1 1 2 1 2 0 1 1 2 1 1 
0 2 1 1 1 2 0 2 1 1 1 2 0 1 1 2 
0 1 1 2 1 1 0 2 1 2 1 1 0 2 1 1 
1 2 0 1 1 2 1 1 0 2 1 1 1 2 0 1 
1 2 1 1 0 2 1 1 1 2 0 1 1 2 0 1 
1 2 1 1 0 2 1 1 1 2 0 1 1 2 1 1 
0 1 1 2 1 1 4152 2617 300 MP stroke
0 2 1 1 1 2 0 1 1 2 1 1 0 1 1 2 
1 1 0 2 1 1 0 2 1 1 1 1 0 2 1 1 
1 2 0 1 1 1 1 2 0 1 1 2 1 1 0 1 
1 2 1 1 0 1 1 2 1 1 0 1 1 2 1 1 
0 2 1 1 0 1 1 2 1 1 0 1 1 2 1 1 
0 1 1 1 1 2 0 1 1 1 1 2 0 1 1 1 
1 2 0 1 1 1 1 1 0 2 1 1 0 1 1 2 
1 1 0 1 1 1 1 2 0 1 1 1 1 1 0 2 
1 1 1 1 0 1 1 1 1 2 0 1 1 1 1 1 
0 2 1 1 1 1 0 1 1 1 0 2 1 1 1 1 
0 1 1 1 1 1 0 2 1 1 1 1 0 1 1 1 
1 1 0 2 1 1 1 1 0 1 1 1 1 1 0 1 
1 1 1 2 0 1 1 1 0 1 1 1 1 1 0 1 
1 1 1 1 0 1 1 2 1 1 0 1 1 1 1 1 
0 1 1 1 1 1 0 1 1 1 1 1 0 1 1 1 
1 1 0 1 1 1 0 1 1 1 1 1 0 1 1 1 
1 1 0 1 1 1 1 1 0 1 1 1 1 1 0 1 
1 1 1 1 0 1 1 1 1 1 0 1 1 1 0 1 
1 1 1 1 0 1 1 1 1 1 1 1 1 1 0 1 
1 1 1 1 0 1 1 1 1 1 1 1 1 1 0 1 
1 1 1 1 0 1 1 1 1 1 1 1 0 1 1 1 
1 1 0 1 1 1 1 0 -1 0 2 2 1 1 1 1 
1 1 0 1 1 1 1 1 1 1 1 1 0 1 1 1 
1 1 1 1 1 1 1 1 0 1 1 1 1 0 -1 0 
2 2 1 1 1 1 1 1 1 1 1 1 1 1 1 1 
0 1 1 1 1 1 1 1 1 1 1 1 1 1 1 1 
1 1 1 1 1 1 1 1 1 1 1 1 1 1 1 1 
1 1 1 1 1 1 1 1 1 0 -1 0 2 2 1 0 
1 1 1 1 1 1 1 1 1 1 1 0 1 1 1 1 
1 1 1 1 1 1 1 1 1 0 1 1 1 1 1 1 
1 0 1 1 1 1 1 1 1 0 1 1 1 1 1 1 
1 1 1 0 1 1 1 0 1 1 1 1 1 1 1 0 
1 1 1 0 1 1 1 1 1 0 1 1 1 1 1 0 
1 1 1 1 1 0 1 1 1 0 1 1 1 0 1 1 
1 0 1 1 1 1 1 0 1 1 1 0 1 1 1 0 
1 1 1 0 1 1 1 0 1 1 1 0 1 1 1 0 
1 1 1 0 1 1 1 0 1 0 1 1 1 0 1 1 
1 0 1 1 1 0 3918 2319 300 MP stroke
1 0 1 1 1 0 1 0 1 1 1 0 1 1 1 0 
1 0 1 1 1 0 1 0 1 1 1 0 1 0 1 1 
1 0 1 0 1 1 1 0 1 0 1 0 1 1 1 0 
1 0 1 1 1 0 1 0 1 0 1 1 1 0 1 0 
1 0 1 1 1 0 1 0 1 0 1 1 1 0 1 0 
1 0 1 0 1 1 1 0 1 0 1 0 1 0 1 1 
1 0 1 0 1 0 1 0 1 1 1 0 1 0 1 0 
1 0 1 0 1 0 1 1 1 0 1 0 1 0 1 0 
1 0 1 0 1 0 1 1 1 0 1 0 1 0 1 0 
1 0 1 0 1 0 1 0 1 1 1 0 1 0 1 0 
1 0 1 0 1 0 1 0 1 0 1 0 1 0 1 0 
1 1 1 0 1 0 1 0 1 0 1 0 1 0 1 0 
1 0 1 0 1 0 1 0 1 0 1 0 1 0 1 0 
1 0 1 0 1 1 1 0 1 0 1 0 1 0 1 0 
1 0 1 0 1 0 1 0 1 0 1 0 1 0 1 0 
1 0 1 0 1 0 1 0 1 0 1 0 1 0 1 0 
1 0 1 0 1 0 1 0 1 0 1 0 1 0 1 0 
1 0 1 0 1 0 1 0 1 0 1 1 1 0 1 0 
1 0 1 0 1 0 1 0 1 0 1 0 1 0 1 0 
1 0 1 0 1 0 1 0 1 0 1 0 1 0 1 0 
1 0 1 0 1 0 1 0 1 0 1 0 1 0 1 0 
1 0 1 0 1 0 1 0 1 0 1 1 1 0 1 0 
1 0 1 0 1 0 1 0 1 0 1 0 1 0 1 0 
1 0 1 0 1 0 1 0 1 0 1 0 1 1 1 0 
1 0 1 0 1 0 1 0 1 0 1 0 1 0 1 0 
1 0 1 1 1 0 1 0 1 0 1 0 1 0 1 0 
1 0 1 0 1 1 1 0 1 0 1 0 1 0 1 0 
1 0 1 0 1 1 1 0 1 0 1 0 1 0 1 0 
1 1 1 0 1 0 1 0 1 0 1 0 1 1 1 0 
1 0 1 0 1 0 1 0 1 1 1 0 1 0 1 0 
1 0 1 1 1 0 1 0 1 0 1 1 1 0 1 0 
1 0 1 1 1 0 1 0 1 0 1 1 1 0 1 0 
1 0 1 1 1 0 1 0 1 1 1 0 1 0 1 0 
1 1 1 0 1 0 1 1 1 0 1 0 1 1 1 0 
1 0 1 1 1 0 1 0 1 1 1 0 1 0 1 1 
1 0 1 1 1 0 1 0 1 1 1 0 1 1 1 0 
1 1 1 0 1 0 1 1 1 0 1 0 1 1 1 1 
1 0 1 1 1 0 3619 2270 300 MP stroke
1 0 1 1 1 0 1 1 1 0 1 1 1 0 1 1 
1 0 1 1 1 0 1 1 1 0 1 1 1 0 1 1 
1 1 1 0 1 1 1 0 1 1 1 1 1 0 1 1 
1 0 1 1 1 1 1 0 1 1 1 0 1 1 1 1 
1 0 1 1 1 1 1 0 1 1 1 0 1 1 1 1 
1 1 1 1 1 0 1 1 1 0 1 1 1 1 1 1 
1 0 1 1 1 1 1 1 1 0 1 1 1 1 1 1 
1 1 1 0 1 1 1 1 1 1 1 0 1 1 1 1 
1 1 1 1 1 1 1 1 1 0 -1 0 2 2 1 0 
1 1 1 1 1 1 1 1 1 1 1 0 -1 0 2 2 
1 0 1 1 1 1 1 1 1 1 1 1 1 1 1 1 
1 1 1 1 1 1 1 1 1 1 1 1 1 1 1 1 
1 1 1 1 1 1 0 1 1 1 1 0 -1 0 2 2 
1 0 -1 0 2 2 1 0 -1 0 2 2 1 1 1 1 
1 1 1 1 1 1 1 1 1 1 0 1 1 1 1 1 
1 1 1 1 1 1 0 1 1 1 1 0 -1 0 2 2 
1 1 1 1 1 1 0 1 1 1 1 0 -1 0 2 2 
0 1 1 1 1 1 1 1 1 1 0 1 1 1 1 0 
-1 0 2 2 1 1 0 1 1 1 1 0 -1 0 2 2 
1 1 0 1 1 1 1 1 1 1 0 1 1 1 1 1 
0 1 1 1 1 1 1 1 1 1 0 1 1 1 1 1 
0 1 1 1 1 1 0 1 1 1 1 0 -1 0 2 2 
1 1 0 1 1 1 0 1 1 1 1 1 0 1 1 1 
1 1 0 1 1 1 1 1 0 1 1 1 1 1 0 1 
1 1 1 0 -1 0 2 2 1 1 0 1 1 1 1 1 
0 1 1 1 0 1 1 1 1 1 0 1 1 1 1 2 
0 1 1 1 1 1 0 1 1 1 1 1 0 1 1 1 
1 1 0 1 1 1 1 1 0 1 1 1 0 1 1 1 
1 1 0 1 1 1 1 2 0 1 1 1 1 1 0 1 
1 1 1 1 0 1 1 1 1 1 0 1 1 2 1 1 
0 1 1 1 1 1 0 1 1 1 0 1 1 2 1 1 
0 1 1 1 1 1 0 1 1 1 1 2 0 1 1 1 
1 1 0 1 1 1 1 2 0 1 1 1 1 1 0 1 
1 1 1 2 0 1 1 1 0 1 1 1 1 2 0 1 
1 1 1 1 0 1 1 2 1 1 0 1 1 1 1 1 
0 2 1 1 1 1 0 1 1 2 1 1 0 1 1 1 
0 2 1 1 1 1 0 1 1 2 1 1 0 1 1 1 
1 2 0 1 1 1 3386 1993 300 MP stroke
1 2 0 1 1 1 1 1 0 2 1 1 1 1 0 2 
1 1 1 1 0 2 1 1 0 1 1 2 1 1 0 1 
1 1 1 2 0 1 1 1 1 2 0 1 1 1 1 2 
0 1 1 2 1 1 0 1 1 2 1 1 0 1 1 2 
1 1 0 1 1 2 0 1 1 2 1 1 0 1 1 2 
1 1 0 1 1 2 1 1 0 2 1 1 1 1 0 2 
1 1 1 2 0 1 1 2 1 1 0 1 1 2 1 1 
0 2 1 1 0 2 1 1 1 1 0 2 1 1 1 2 
0 1 1 2 1 1 0 2 1 1 1 1 0 2 1 1 
1 2 0 1 1 2 1 1 0 2 1 1 0 2 1 1 
1 2 0 1 1 2 1 1 0 2 1 1 1 2 0 1 
1 2 1 1 0 2 1 1 1 2 0 1 1 2 1 1 
0 2 1 1 1 2 0 2 1 1 0 2 1 1 1 2 
0 1 1 2 1 1 0 2 1 1 1 2 0 2 1 1 
1 2 0 1 1 2 1 1 0 2 1 2 1 1 0 2 
1 1 1 2 0 2 1 1 0 2 1 1 1 2 0 2 
1 1 1 2 0 1 1 2 1 2 0 1 1 2 1 1 
0 2 1 2 1 1 0 2 1 2 1 1 0 2 1 1 
1 2 0 2 1 1 0 2 1 2 1 1 0 2 1 2 
1 1 0 2 1 2 1 1 0 2 1 2 1 1 0 2 
1 2 1 1 0 2 1 2 1 1 0 2 1 2 0 1 
1 2 1 2 0 1 1 2 1 2 0 2 1 1 1 2 
0 2 1 1 1 2 0 2 1 1 1 2 0 2 1 2 
1 1 0 2 1 2 1 2 0 1 1 2 0 2 1 1 
1 2 0 2 1 2 1 1 0 2 1 2 1 2 0 1 
1 2 1 2 0 2 1 1 1 2 0 2 1 2 1 1 
0 2 1 2 1 2 0 1 1 2 0 2 1 2 1 2 
0 1 1 2 1 2 0 2 1 1 1 2 0 2 1 2 
1 2 0 1 1 2 1 2 0 2 1 2 1 1 0 2 
1 2 1 2 0 2 1 1 0 2 1 2 1 2 0 2 
1 2 1 1 0 2 1 2 1 2 0 2 1 1 1 2 
0 2 1 2 1 2 0 2 1 1 1 2 0 2 1 2 
0 2 1 2 1 2 0 1 1 2 1 2 0 2 1 2 
1 2 0 1 1 2 1 2 0 2 1 2 1 2 0 2 
1 1 1 2 0 2 1 2 1 2 0 2 1 2 0 2 
1 1 1 2 0 2 1 2 1 2 0 2 1 2 1 2 
0 1 1 2 1 2 0 2 1 2 1 2 0 2 1 2 
1 2 0 2 1 1 3191 1506 300 MP stroke
1 2 0 2 1 2 0 2 1 2 1 2 0 2 1 2 
1 2 0 1 1 2 1 2 0 2 1 2 1 2 0 2 
1 2 1 2 0 2 1 2 1 1 0 2 1 2 1 2 
0 2 1 2 0 2 1 2 1 2 0 2 1 2 1 2 
0 2 1 1 1 2 0 2 1 2 1 2 0 2 1 2 
1 2 0 2 1 2 1 2 0 2 1 2 0 2 1 2 
1 2 0 1 1 2 1 2 0 2 1 2 1 2 0 2 
1 2 1 2 0 2 1 2 1 2 0 2 1 2 1 2 
0 2 1 2 1 2 0 2 1 2 0 1 1 2 1 2 
0 2 1 2 1 2 0 2 1 2 1 2 0 2 1 2 
1 2 0 2 1 2 1 2 0 2 1 2 1 2 0 2 
1 2 1 2 0 2 1 2 0 2 1 2 1 2 0 2 
1 2 1 1 0 2 1 2 1 2 0 2 1 2 1 2 
0 2 1 2 1 2 0 2 1 2 1 2 0 2 1 2 
1 2 0 2 1 2 0 2 1 2 1 2 0 2 1 2 
1 2 0 2 1 2 1 2 0 2 1 2 1 2 0 2 
1 2 1 2 0 2 1 2 1 2 0 2 1 2 0 2 
1 1 1 2 0 2 1 2 1 2 0 2 1 2 1 2 
0 2 1 2 1 2 0 2 1 2 1 2 0 2 1 2 
1 2 0 2 1 2 1 2 0 2 1 2 0 2 1 2 
1 2 0 2 1 2 1 2 0 2 1 2 1 2 0 2 
1 2 1 2 0 2 1 2 1 2 0 2 1 2 1 2 
0 2 1 2 1 1 0 2 1 2 0 2 1 2 1 2 
0 2 1 2 1 2 0 2 1 2 1 2 0 2 1 2 
1 2 0 2 1 2 1 2 0 2 1 2 1 2 0 2 
1 2 1 2 0 2 1 2 0 2 1 2 1 2 0 1 
1 2 1 2 0 2 1 2 1 2 0 2 1 2 1 2 
0 2 1 2 1 2 0 2 1 2 1 2 0 2 1 2 
0 2 1 2 1 2 0 2 1 2 1 1 0 2 1 2 
1 2 0 2 1 2 1 2 0 2 1 2 1 2 0 2 
1 2 1 2 0 2 1 2 1 2 0 1 1 2 0 2 
1 2 1 2 0 2 1 2 1 2 0 2 1 2 1 2 
0 2 1 2 1 1 0 2 1 2 1 2 0 2 1 2 
1 2 0 2 1 2 1 2 0 2 1 2 0 1 1 2 
1 2 0 2 1 2 1 2 0 2 1 2 1 2 0 2 
1 1 1 2 0 2 1 2 1 2 0 2 1 2 1 2 
0 2 1 1 0 2 1 2 1 2 0 2 1 2 1 2 
0 2 1 2 1 1 2996 924 300 MP stroke
0 2 1 2 1 2 0 2 1 2 1 2 0 1 1 2 
1 2 0 2 1 2 1 2 0 2 1 1 0 2 1 2 
1 2 0 2 1 2 1 2 0 1 1 2 1 2 0 2 
1 2 1 2 0 1 1 2 1 2 0 2 1 2 1 2 
0 1 1 2 1 2 0 2 1 2 0 2 1 1 1 2 
0 2 1 2 1 2 0 1 1 2 1 2 0 2 1 2 
1 1 0 2 1 2 1 2 0 2 1 1 1 2 0 2 
1 2 1 2 0 1 1 2 0 2 1 2 1 1 0 2 
1 2 1 2 0 2 1 1 1 2 0 2 1 2 1 1 
0 2 1 2 1 2 0 1 1 2 1 2 0 2 1 1 
0 2 1 2 1 2 0 1 1 2 1 2 0 1 1 2 
1 2 0 2 1 1 1 2 0 2 1 1 1 2 0 2 
1 2 1 1 0 2 1 2 1 1 0 2 1 2 0 2 
1 1 1 2 0 2 1 1 1 2 0 2 1 1 1 2 
0 2 1 1 1 2 0 2 1 1 1 2 0 2 1 1 
1 2 0 2 1 1 1 2 0 2 1 1 0 2 1 2 
1 1 0 2 1 1 1 2 0 2 1 1 1 2 0 2 
1 1 1 2 0 1 1 2 1 2 0 1 1 2 1 1 
0 2 1 2 1 1 0 2 1 1 0 2 1 2 1 1 
0 2 1 1 1 2 0 1 1 2 1 2 0 1 1 2 
1 1 0 2 1 1 1 2 0 1 1 2 1 2 0 1 
1 2 0 1 1 2 1 1 0 2 1 1 1 2 0 1 
1 2 1 1 0 2 1 1 1 2 0 1 1 2 1 1 
0 2 1 1 1 2 0 1 1 2 1 1 0 2 1 1 
0 2 1 1 1 2 0 1 1 2 1 1 0 2 1 1 
1 1 0 2 1 1 1 2 0 1 1 2 1 1 0 2 
1 1 1 1 0 2 1 1 1 2 0 1 1 2 0 1 
1 1 1 2 0 1 1 2 1 1 0 1 1 2 1 1 
0 1 1 2 1 1 0 2 1 1 1 1 0 2 1 1 
1 1 0 2 1 1 1 1 0 2 1 1 0 2 1 1 
1 1 0 2 1 1 1 1 0 2 1 1 1 1 0 1 
1 2 1 1 0 1 1 2 1 1 0 1 1 2 1 1 
0 1 1 1 0 2 1 1 1 1 0 1 1 2 1 1 
0 1 1 2 1 1 0 1 1 1 1 2 0 1 1 1 
1 1 0 1 1 2 1 1 0 1 1 1 1 2 0 1 
1 1 0 1 1 1 1 2 0 1 1 1 1 1 0 1 
1 2 1 1 0 1 1 1 1 1 0 1 1 2 1 1 
0 1 1 1 1 1 2801 457 300 MP stroke
0 1 1 1 1 2 0 1 1 1 0 1 1 1 1 1 
0 1 1 1 1 2 0 1 1 1 1 1 0 1 1 1 
1 1 0 1 1 1 1 1 0 1 1 2 1 1 0 1 
1 1 1 1 0 1 1 1 0 1 1 1 1 1 0 1 
1 1 1 1 0 1 1 1 1 1 0 1 1 1 1 1 
0 1 1 1 1 1 0 1 1 1 1 1 0 1 1 1 
0 1 1 1 1 1 0 1 1 1 1 1 0 1 1 1 
1 1 0 1 1 1 1 1 1 1 1 1 0 1 1 1 
1 1 0 1 1 1 1 1 0 1 1 1 1 1 1 1 
0 1 1 1 1 1 0 1 1 1 1 0 -1 0 2 2 
1 1 0 1 1 1 1 1 1 1 1 1 0 1 1 1 
1 1 1 1 0 1 1 1 1 1 1 1 1 1 1 1 
1 1 0 1 1 1 1 1 1 1 1 1 1 1 1 1 
1 1 1 1 0 1 1 1 1 1 1 1 1 1 1 1 
1 1 1 1 1 1 1 1 1 1 1 1 1 1 1 1 
1 1 1 1 1 1 1 1 1 1 1 1 1 1 1 1 
1 1 1 1 1 0 1 1 1 1 1 1 1 1 1 1 
1 1 1 0 -1 0 2 2 1 0 1 1 1 1 1 1 
1 0 1 1 1 1 1 1 1 0 1 1 1 0 1 1 
1 1 1 1 1 1 1 0 1 1 1 0 1 1 1 1 
1 0 1 1 1 1 1 0 1 1 1 0 1 1 1 0 
1 1 1 1 1 0 1 1 1 0 1 0 1 1 1 0 
1 1 1 0 1 1 1 0 1 1 1 0 1 0 1 1 
1 0 1 0 1 1 1 0 1 1 1 0 1 0 1 0 
1 1 1 0 1 0 1 1 1 0 1 0 1 0 1 1 
1 0 1 0 1 0 1 1 1 0 1 0 1 0 1 0 
1 0 1 1 1 0 1 0 1 0 1 0 1 0 1 0 
1 0 1 0 1 0 1 0 1 0 1 0 1 0 2611 284 224 MP stroke
/c10 { 1.000000 0.000000 0.000000 sr} bdef
c10
1 0 1 0 1 0 1 0 1 0 1 0 1 0 1 0 
1 0 1 0 1 0 1 0 1 0 1 -1 1 0 1 0 
1 0 1 0 1 0 1 -1 1 0 1 0 1 0 1 -1 
1 0 1 0 1 0 1 -1 1 0 1 0 1 -1 1 0 
1 0 1 -1 1 0 1 0 1 -1 1 0 1 0 1 -1 
1 0 1 -1 1 0 1 -1 1 0 1 -1 1 0 1 -1 
1 0 1 -1 1 0 1 -1 1 0 1 -1 1 0 1 -1 
1 0 1 -1 1 -1 1 0 1 -1 1 -1 1 0 1 -1 
1 0 1 -1 1 -1 1 -1 1 0 1 -1 1 -1 1 0 
1 -1 1 -1 1 -1 1 0 1 -1 1 -1 1 -1 1 -1 
1 -1 1 0 1 -1 1 -1 1 -1 1 -1 1 -1 1 -1 
1 0 -1 0 2 -2 1 0 1 -1 1 -1 1 -1 1 -1 
1 -1 1 -1 1 -1 1 -1 1 -1 1 -1 1 -1 1 -1 
1 -1 0 -1 1 -1 1 0 -1 0 2 -2 1 0 -1 0 
2 -2 1 0 -1 0 2 -2 1 -1 1 -1 1 -1 0 -1 
2 -2 1 -1 1 -1 1 -1 0 -1 1 -1 1 0 -1 0 
2 -2 1 -1 1 -1 1 -1 0 -1 1 -1 1 -1 1 -1 
1 -1 0 -1 1 -1 0 -1 1 -1 1 0 -1 0 2 -2 
1 -1 0 -1 1 -1 1 -1 1 -1 1 -1 0 -1 1 -1 
1 -1 0 -1 1 -1 1 -1 0 -1 1 -1 1 0 -1 0 
2 -2 0 -1 1 -1 1 -1 0 -1 1 -1 1 -1 0 -1 
1 -1 1 -1 0 -1 1 -1 1 -1 0 -1 1 -1 1 -1 
0 -1 1 -1 1 -1 0 -1 1 -1 1 -1 0 -1 1 -1 
0 -1 1 -1 1 -1 0 -1 1 -1 1 -1 0 -1 1 -1 
1 -1 0 -1 1 -1 1 -1 0 -1 1 -1 1 -1 0 -2 
1 -1 1 -1 0 -1 1 -1 0 -1 1 -1 1 -1 0 -1 
1 -1 1 -1 0 -2 1 -1 1 -1 0 -1 1 -1 1 -1 
0 -1 1 -1 1 -2 0 -1 1 -1 1 -1 0 -1 1 -1 
1 -2 0 -1 1 -1 0 -1 1 -1 1 -1 0 -2 1 -1 
1 -1 0 -1 1 -1 1 -2 0 -1 1 -1 1 -1 0 -1 
1 -2 1 -1 0 -1 1 -1 1 -2 0 -1 1 -1 1 -1 
0 -1 1 -2 0 -1 1 -1 1 -1 0 -2 1 -1 1 -1 
0 -1 1 -2 1 -1 0 -1 1 -2 1 -1 0 -1 1 -1 
1 -2 0 -1 1 -1 1 -2 0 -1 1 -1 1 -2 0 -1 
1 -1 0 -2 1 -1 1 -1 0 -1 1 -2 1 -1 0 -1 
1 -2 1 -1 0 -2 1 -1 1 -1 0 -2 1 -1 1 -1 
0 -2 1 -1 1 -1 0 -2 1 -1 0 -2 1 -1 1 -1 
0 -2 1 -1 1 -1 2375 552 300 MP stroke
0 -2 1 -1 1 -2 0 -1 1 -1 1 -2 0 -1 1 -2 
1 -1 0 -2 1 -1 1 -1 0 -2 1 -1 1 -2 0 -1 
1 -2 0 -1 1 -2 1 -1 0 -1 1 -2 1 -1 0 -2 
1 -1 1 -2 0 -1 1 -2 1 -1 0 -2 1 -1 1 -2 
0 -1 1 -2 1 -1 0 -2 1 -1 1 -1 0 -2 1 -1 
0 -2 1 -2 1 -1 0 -2 1 -1 1 -2 0 -1 1 -2 
1 -1 0 -2 1 -1 1 -2 0 -1 1 -2 1 -1 0 -2 
1 -1 1 -2 0 -2 1 -1 1 -2 0 -1 1 -2 0 -1 
1 -2 1 -1 0 -2 1 -2 1 -1 0 -2 1 -1 1 -2 
0 -1 1 -2 1 -2 0 -1 1 -2 1 -1 0 -2 1 -2 
1 -1 0 -2 1 -1 0 -2 1 -2 1 -1 0 -2 1 -1 
1 -2 0 -2 1 -1 1 -2 0 -2 1 -1 1 -2 0 -1 
1 -2 1 -2 0 -1 1 -2 1 -2 0 -1 1 -2 1 -2 
0 -1 1 -2 0 -2 1 -1 1 -2 0 -1 1 -2 1 -2 
0 -1 1 -2 1 -2 0 -1 1 -2 1 -2 0 -2 1 -1 
1 -2 0 -2 1 -1 1 -2 0 -2 1 -1 1 -2 0 -2 
1 -1 0 -2 1 -2 1 -1 0 -2 1 -2 1 -2 0 -1 
1 -2 1 -2 0 -1 1 -2 1 -2 0 -2 1 -1 1 -2 
0 -2 1 -1 1 -2 0 -2 1 -2 1 -1 0 -2 1 -2 
0 -2 1 -1 1 -2 0 -2 1 -2 1 -1 0 -2 1 -2 
1 -2 0 -1 1 -2 1 -2 0 -2 1 -1 1 -2 0 -2 
1 -2 1 -1 0 -2 1 -2 0 -2 1 -1 1 -2 0 -2 
1 -2 1 -2 0 -1 1 -2 1 -2 0 -2 1 -1 1 -2 
0 -2 1 -2 1 -2 0 -1 1 -2 1 -2 0 -2 1 -2 
1 -1 0 -2 1 -2 0 -2 1 -1 1 -2 0 -2 1 -2 
1 -2 0 -2 1 -1 1 -2 0 -2 1 -2 1 -2 0 -1 
1 -2 1 -2 0 -2 1 -2 1 -1 0 -2 1 -2 1 -2 
0 -2 1 -2 0 -1 1 -2 1 -2 0 -2 1 -2 1 -1 
0 -2 1 -2 1 -2 0 -2 1 -2 1 -1 0 -2 1 -2 
1 -2 0 -2 1 -2 1 -2 0 -1 1 -2 0 -2 1 -2 
1 -2 0 -2 1 -1 1 -2 0 -2 1 -2 1 -2 0 -2 
1 -2 1 -1 0 -2 1 -2 1 -2 0 -2 1 -2 1 -1 
0 -2 1 -2 1 -2 0 -2 1 -2 0 -2 1 -2 1 -1 
0 -2 1 -2 1 -2 0 -2 1 -2 1 -2 0 -1 1 -2 
1 -2 0 -2 1 -2 1 -2 0 -2 1 -1 1 -2 0 -2 
1 -2 1 -2 0 -2 1 -2 0 -2 1 -1 1 -2 0 -2 
1 -2 1 -2 0 -2 1 -2 1 -2 0 -1 1 -2 1 -2 
0 -2 1 -2 1 -2 2180 1061 300 MP stroke
0 -2 1 -2 1 -2 0 -1 1 -2 1 -2 0 -2 1 -2 
0 -2 1 -2 1 -2 0 -1 1 -2 1 -2 0 -2 1 -2 
1 -2 0 -2 1 -2 1 -2 0 -1 1 -2 1 -2 0 -2 
1 -2 1 -2 0 -2 1 -2 0 -2 1 -1 1 -2 0 -2 
1 -2 1 -2 0 -2 1 -2 1 -2 0 -1 1 -2 1 -2 
0 -2 1 -2 1 -2 0 -2 1 -2 1 -2 0 -1 1 -2 
1 -2 0 -2 1 -2 0 -2 1 -2 1 -2 0 -2 1 -1 
1 -2 0 -2 1 -2 1 -2 0 -2 1 -2 1 -2 0 -2 
1 -1 1 -2 0 -2 1 -2 1 -2 0 -2 1 -2 1 -2 
0 -2 1 -1 0 -2 1 -2 1 -2 0 -2 1 -2 1 -2 
0 -2 1 -2 1 -1 0 -2 1 -2 1 -2 0 -2 1 -2 
1 -2 0 -2 1 -1 1 -2 0 -2 1 -2 1 -2 0 -2 
1 -2 0 -2 1 -2 1 -1 0 -2 1 -2 1 -2 0 -2 
1 -2 1 -2 0 -2 1 -1 1 -2 0 -2 1 -2 1 -2 
0 -2 1 -2 1 -2 0 -1 1 -2 0 -2 1 -2 1 -2 
0 -2 1 -2 1 -1 0 -2 1 -2 1 -2 0 -2 1 -2 
1 -2 0 -2 1 -1 1 -2 0 -2 1 -2 1 -2 0 -2 
1 -2 1 -1 0 -2 1 -2 0 -2 1 -2 1 -2 0 -2 
1 -1 1 -2 0 -2 1 -2 1 -2 0 -2 1 -2 1 -1 
0 -2 1 -2 1 -2 0 -2 1 -2 1 -1 0 -2 1 -2 
1 -2 0 -2 1 -2 0 -2 1 -1 1 -2 0 -2 1 -2 
1 -2 0 -2 1 -1 1 -2 0 -2 1 -2 1 -2 0 -2 
1 -1 1 -2 0 -2 1 -2 1 -2 0 -1 1 -2 1 -2 
0 -2 1 -2 0 -2 1 -1 1 -2 0 -2 1 -2 1 -2 
0 -2 1 -1 1 -2 0 -2 1 -2 1 -2 0 -1 1 -2 
1 -2 0 -2 1 -2 1 -1 0 -2 1 -2 0 -2 1 -2 
1 -1 0 -2 1 -2 1 -2 0 -2 1 -1 1 -2 0 -2 
1 -2 1 -2 0 -1 1 -2 1 -2 0 -2 1 -1 1 -2 
0 -2 1 -2 1 -2 0 -1 1 -2 0 -2 1 -2 1 -1 
0 -2 1 -2 1 -2 0 -2 1 -1 1 -2 0 -2 1 -2 
1 -1 0 -2 1 -2 1 -2 0 -1 1 -2 1 -2 0 -2 
1 -1 1 -2 0 -2 1 -2 0 -1 1 -2 1 -2 0 -2 
1 -1 1 -2 0 -2 1 -2 1 -1 0 -2 1 -2 1 -2 
0 -1 1 -2 1 -2 0 -1 1 -2 1 -2 0 -2 1 -1 
1 -2 0 -2 1 -2 0 -1 1 -2 1 -2 0 -1 1 -2 
1 -2 0 -2 1 -1 1 -2 0 -2 1 -1 1 -2 0 -2 
1 -1 1 -2 0 -2 1 -2 1 -1 0 -2 1 -2 0 -1 
1 -2 1 -2 0 -1 1986 1607 300 MP stroke
1 -2 1 -2 0 -1 1 -2 1 -2 0 -1 1 -2 1 -2 
0 -1 1 -2 1 -2 0 -1 1 -2 1 -2 0 -1 1 -2 
1 -2 0 -1 1 -2 0 -2 1 -1 1 -2 0 -2 1 -1 
1 -2 0 -2 1 -1 1 -2 0 -2 1 -1 1 -2 0 -1 
1 -2 1 -2 0 -1 1 -2 1 -2 0 -1 1 -2 1 -1 
0 -2 1 -2 0 -1 1 -2 1 -2 0 -1 1 -2 1 -1 
0 -2 1 -2 1 -1 0 -2 1 -1 1 -2 0 -2 1 -1 
1 -2 0 -1 1 -2 1 -2 0 -1 1 -2 1 -1 0 -2 
1 -1 0 -2 1 -2 1 -1 0 -2 1 -1 1 -2 0 -1 
1 -2 1 -2 0 -1 1 -2 1 -1 0 -2 1 -1 1 -2 
0 -2 1 -1 1 -2 0 -1 1 -2 0 -1 1 -2 1 -1 
0 -2 1 -1 1 -2 0 -2 1 -1 1 -2 0 -1 1 -2 
1 -1 0 -2 1 -1 1 -2 0 -1 1 -2 1 -1 0 -2 
1 -1 1 -2 0 -1 1 -2 0 -1 1 -2 1 -1 0 -2 
1 -1 1 -2 0 -1 1 -2 1 -1 0 -2 1 -1 1 -2 
0 -1 1 -2 1 -1 0 -2 1 -1 1 -2 0 -1 1 -2 
1 -1 0 -1 1 -2 0 -1 1 -2 1 -1 0 -2 1 -1 
1 -2 0 -1 1 -2 1 -1 0 -1 1 -2 1 -1 0 -2 
1 -1 1 -2 0 -1 1 -2 1 -1 0 -1 1 -2 1 -1 
0 -2 1 -1 0 -2 1 -1 1 -1 0 -2 1 -1 1 -2 
0 -1 1 -1 1 -2 0 -1 1 -2 1 -1 0 -1 1 -2 
1 -1 0 -2 1 -1 1 -1 0 -2 1 -1 0 -1 1 -2 
1 -1 0 -2 1 -1 1 -1 0 -2 1 -1 1 -1 0 -2 
1 -1 1 -2 0 -1 1 -1 1 -2 0 -1 1 -1 1 -2 
0 -1 1 -1 1 -2 0 -1 1 -1 0 -2 1 -1 1 -1 
0 -2 1 -1 1 -1 0 -2 1 -1 1 -1 0 -2 1 -1 
1 -1 0 -2 1 -1 1 -1 0 -2 1 -1 1 -1 0 -1 
1 -2 1 -1 0 -1 1 -2 0 -1 1 -1 1 -1 0 -2 
1 -1 1 -1 0 -2 1 -1 1 -1 0 -1 1 -2 1 -1 
0 -1 1 -2 1 -1 0 -1 1 -1 1 -2 0 -1 1 -1 
0 -1 1 -2 1 -1 0 -1 1 -1 1 -2 0 -1 1 -1 
1 -1 0 -2 1 -1 1 -1 0 -1 1 -1 1 -2 0 -1 
1 -1 1 -1 0 -2 1 -1 1 -1 0 -1 1 -1 0 -2 
1 -1 1 -1 0 -1 1 -1 1 -2 0 -1 1 -1 1 -1 
0 -1 1 -2 1 -1 0 -1 1 -1 1 -1 0 -1 1 -2 
1 -1 0 -1 1 -1 1 -1 0 -2 1 -1 0 -1 1 -1 
1 -1 0 -1 1 -1 1 -2 0 -1 1 -1 1 -1 0 -1 
1 -1 1 -2 0 -1 1791 2033 300 MP stroke
1 -1 1 -1 0 -1 1 -1 1 -1 0 -1 1 -2 1 -1 
0 -1 1 -1 0 -1 1 -1 1 -1 0 -1 1 -1 1 -2 
0 -1 1 -1 1 -1 0 -1 1 -1 1 -1 0 -1 1 -1 
1 -1 0 -2 1 -1 1 -1 0 -1 1 -1 0 -1 1 -1 
1 -1 0 -1 1 -1 1 -1 0 -1 1 -1 1 -2 0 -1 
1 -1 1 -1 0 -1 1 -1 1 -1 0 -1 1 -1 1 -1 
0 -1 1 -1 1 -1 0 -1 1 -1 0 -1 1 -1 1 -1 
0 -1 1 -1 1 -1 0 -1 1 -1 1 -1 0 -1 1 -1 
1 -2 0 -1 1 -1 1 -1 0 -1 1 -1 1 -1 0 -1 
1 -1 1 -1 0 -1 1 -1 1 -1 1 -1 0 -1 1 -1 
1 -1 0 -1 1 -1 1 -1 0 -1 1 -1 1 -1 0 -1 
1 -1 1 -1 0 -1 1 -1 1 -1 0 -1 1 -1 1 -1 
0 -1 1 -1 0 -1 1 -1 1 -1 0 -1 1 -1 1 0 
-1 0 2 -2 1 -1 0 -1 1 -1 1 -1 0 -1 1 -1 
1 -1 0 -1 1 -1 1 -1 1 -1 0 -1 1 -1 1 -1 
0 -1 1 -1 1 -1 0 -1 1 -1 1 -1 1 -1 1 -1 
0 -1 1 -1 1 -1 0 -1 1 -1 1 0 -1 0 2 -2 
1 -1 0 -1 1 -1 0 -1 1 -1 1 0 -1 0 2 -2 
1 -1 0 -1 1 -1 1 -1 1 -1 1 -1 0 -1 1 -1 
1 -1 1 -1 1 -1 0 -1 1 -1 1 -1 0 -1 2 -2 
1 -1 1 -1 1 -1 0 -1 1 -1 1 -1 1 -1 1 -1 
0 -1 1 -1 1 -1 1 -1 1 -1 0 -1 1 -1 1 0 
-1 0 2 -2 1 -1 1 -1 0 -1 1 -1 1 -1 1 -1 
1 -1 1 -1 1 -1 0 -1 1 -1 1 0 -1 0 2 -2 
1 -1 0 -1 2 -2 1 -1 1 -1 1 -1 1 -1 1 -1 
1 -1 1 -1 0 -1 1 -1 1 0 -1 0 2 -2 1 -1 
1 -1 1 -1 1 -1 0 -1 1 -1 1 0 -1 0 2 -2 
1 0 -1 0 2 -2 1 -1 1 -1 1 -1 1 -1 1 -1 
1 -1 1 -1 1 -1 1 -1 1 -1 1 -1 1 -1 0 -1 
1 -1 1 0 1 -1 1 -1 1 -1 1 -1 1 -1 1 -1 
1 -1 1 -1 1 -1 1 -1 0 -1 2 -2 1 0 1 -1 
1 -1 1 -1 1 -1 1 -1 1 -1 1 -1 1 -1 1 -1 
1 -1 1 -1 1 -1 1 -1 1 -1 1 0 -1 0 2 -2 
1 0 1 -1 1 -1 1 -1 1 -1 1 -1 1 -1 1 -1 
1 0 0 -1 2 -2 1 0 1 -1 1 -1 1 -1 1 -1 
1 -1 1 0 1 -1 1 -1 1 -1 1 -1 1 -1 1 0 
1 -1 1 -1 1 -1 1 -1 1 -1 1 -1 1 0 1 -1 
1 -1 1 -1 1 0 1557 2323 300 MP stroke
1 -1 1 -1 1 -1 1 0 1 -1 1 -1 1 -1 1 -1 
1 0 1 -1 1 -1 1 -1 1 0 1 -1 1 -1 1 -1 
1 0 1 -1 1 -1 1 -1 1 -1 1 0 1 -1 1 -1 
1 -1 1 0 1 -1 1 -1 1 0 1 -1 1 -1 1 0 
1 -1 1 -1 1 -1 1 0 1 -1 1 -1 1 0 1 -1 
1 -1 1 0 1 -1 1 -1 1 0 1 -1 1 -1 1 0 
1 -1 1 -1 1 0 1 -1 1 -1 1 0 1 -1 1 0 
1 -1 1 -1 1 0 1 -1 1 -1 1 0 1 -1 1 -1 
1 0 1 -1 1 0 1 -1 1 0 1 -1 1 -1 1 0 
1 -1 1 -1 1 0 1 -1 1 0 1 -1 1 -1 1 0 
1 -1 1 0 1 -1 1 0 1 -1 1 0 1 -1 1 0 
1 -1 1 0 1 -1 1 -1 1 0 1 -1 1 0 1 -1 
1 0 1 -1 1 0 1 -1 1 0 1 -1 1 0 1 -1 
1 0 1 -1 1 -1 1 0 1 -1 1 0 1 -1 1 0 
1 -1 1 0 1 -1 1 0 1 0 1 -1 1 0 1 -1 
1 0 1 -1 1 0 1 -1 1 0 1 -1 1 0 1 -1 
1 0 1 -1 1 0 1 0 1 -1 1 0 1 -1 1 0 
1 -1 1 0 1 -1 1 0 1 0 1 -1 1 0 1 -1 
1 0 1 0 1 -1 1 0 1 -1 1 0 1 -1 1 0 
1 0 1 -1 1 0 1 -1 1 0 1 0 1 -1 1 0 
1 0 1 -1 1 0 1 -1 1 0 1 0 1 -1 1 0 
1 -1 1 0 1 0 1 -1 1 0 1 0 1 -1 1 0 
1 -1 1 0 1 0 1 -1 1 0 1 0 1 -1 1 0 
1 0 1 -1 1 0 1 0 1 -1 1 0 1 0 1 -1 
1 0 1 0 1 -1 1 0 1 -1 1 0 1 0 1 0 
1 -1 1 0 1 0 1 -1 1 0 1 0 1 -1 1 0 
1 0 1 -1 1 0 1 0 1 0 1 -1 1 0 1 0 
1 -1 1 0 1 0 1 -1 1 0 1 0 1 -1 1 0 
1 0 1 0 1 -1 1 0 1 0 1 0 1 -1 1 0 
1 0 1 0 1 -1 1 0 1 0 1 -1 1 0 1 0 
1 0 1 -1 1 0 1 0 1 0 1 -1 1 0 1 0 
1 0 1 -1 1 0 1 0 1 0 1 -1 1 0 1 0 
1 0 1 -1 1 0 1 0 1 0 1 0 1 -1 1 0 
1 0 1 0 1 -1 1 0 1 0 1 0 1 0 1 -1 
1 0 1 0 1 0 1 -1 1 0 1 0 1 0 1 0 
1 -1 1 0 1 0 1 0 1 -1 1 0 1 0 1 0 
1 0 1 0 1 -1 1 0 1 0 1 0 1 0 1 -1 
1 0 1 0 1 0 1258 2455 300 MP stroke
1 0 1 -1 1 0 1 0 1 0 1 0 1 -1 1 0 
1 0 1 0 1 0 1 0 1 -1 1 0 1 0 1 0 
1 0 1 -1 1 0 1 0 1 0 1 0 1 0 1 0 
1 -1 1 0 1 0 1 0 1 0 1 0 1 -1 1 0 
1 0 1 0 1 0 1 0 1 -1 1 0 1 0 1 0 
1 0 1 0 1 0 1 -1 1 0 1 0 1 0 1 0 
1 0 1 0 1 -1 1 0 1 0 1 0 1 0 1 0 
1 0 1 -1 1 0 1 0 1 0 1 0 1 0 1 0 
1 -1 1 0 1 0 1 0 1 0 1 0 1 0 1 0 
1 -1 1 0 1 0 1 0 1 0 1 0 1 0 1 0 
1 0 1 -1 1 0 1 0 1 0 1 0 1 0 1 0 
1 0 1 0 1 -1 1 0 1 0 1 0 1 0 1 0 
1 0 1 0 1 0 1 -1 1 0 1 0 1 0 1 0 
1 0 1 0 1 0 1 0 1 0 1 -1 1 0 1 0 
1 0 1 0 1 0 1 0 1 0 1 0 1 0 1 -1 
1 0 1 0 1 0 1 0 1 0 1 0 1 0 1 0 
1 0 1 0 1 -1 1 0 1 0 1 0 1 0 1 0 
1 0 1 0 1 0 1 0 1 0 1 0 1 -1 1 0 
1 0 1 0 1 0 1 0 1 0 1 0 1 0 1 0 
1 0 1 0 1 0 1 -1 1 0 1 0 1 0 1 0 
1 0 1 0 1 0 1 0 1 0 1 0 1 0 1 0 
1 0 1 -1 1 0 1 0 1 0 1 0 1 0 1 0 
1 0 1 0 1 0 1 0 1 0 1 0 1 0 1 0 
1 0 1 -1 1 0 1 0 1 0 1 0 1 0 1 0 
1 0 1 0 1 0 1 0 1 0 1 0 1 0 1 0 
1 0 1 0 1 -1 1 0 1 0 1 0 1 0 1 0 
1 0 1 0 1 0 1 0 1 0 1 0 1 0 1 0 
1 0 1 0 1 0 1 0 1 0 1 -1 1 0 1 0 
1 0 1 0 1 0 1 0 1 0 1 0 1 0 1 0 
1 0 1 0 1 0 1 0 1 0 1 0 1 0 1 0 
1 0 1 0 1 0 1 0 1 -1 1 0 1 0 1 0 
1 0 1 0 1 0 1 0 1 0 1 0 1 0 1 0 
1 0 1 0 1 0 1 0 1 0 1 0 1 0 1 0 
1 0 1 0 1 0 1 0 1 0 1 0 1 0 1 -1 
1 0 1 0 1 0 1 0 1 0 1 0 1 0 1 0 
1 0 1 0 1 0 1 0 1 0 1 0 1 0 1 0 
1 0 1 0 1 0 1 0 1 0 1 0 1 0 1 0 
1 0 1 0 1 0 959 2481 300 MP stroke
1 0 1 0 1 0 1 0 1 0 1 -1 1 0 1 0 
1 0 1 0 1 0 1 0 1 0 1 0 1 0 1 0 
1 0 1 0 1 0 1 0 1 0 1 0 1 0 1 0 
1 0 1 0 1 0 1 0 1 0 1 0 1 0 1 0 
1 0 1 0 1 0 1 0 1 0 1 0 1 0 1 0 
1 0 1 0 1 0 1 0 1 0 1 0 1 0 1 0 
1 0 1 -1 1 0 1 0 1 0 1 0 1 0 1 0 
1 0 1 0 1 0 1 0 1 0 1 0 1 0 1 0 
1 0 1 0 1 0 1 0 1 0 1 0 1 0 1 0 
1 0 1 0 1 0 1 0 1 0 1 0 1 0 1 0 
1 0 1 0 1 0 1 0 1 0 1 0 1 0 1 0 
1 0 1 0 1 0 1 0 1 0 1 0 1 0 1 0 
1 0 1 0 1 0 1 0 1 0 1 0 1 0 1 0 
1 0 1 0 1 0 1 0 1 0 1 0 1 0 1 0 
1 0 1 0 1 -1 1 0 1 0 1 0 1 0 1 0 
1 0 1 0 1 0 1 0 1 0 1 0 1 0 1 0 
1 0 1 0 1 0 1 0 1 0 1 0 1 0 1 0 
1 0 1 0 1 0 1 0 1 0 1 0 1 0 1 0 
1 0 1 0 1 0 1 0 1 0 1 0 1 0 1 0 
1 0 1 0 1 0 1 0 1 0 1 0 1 0 1 0 
1 0 1 0 1 0 1 0 1 0 1 0 1 0 1 0 
1 0 1 0 1 0 1 0 1 0 1 0 1 0 1 0 
1 0 1 0 1 0 1 0 1 0 1 0 1 0 1 0 
1 0 1 0 1 0 1 0 1 0 1 0 1 0 1 0 
1 0 1 0 1 0 1 0 1 0 1 0 1 0 1 0 
1 0 1 0 1 0 1 0 1 0 1 0 1 0 1 0 
1 0 1 0 1 0 1 0 1 0 1 0 1 0 1 0 
1 0 1 0 1 0 1 0 1 0 1 0 1 0 1 0 
1 0 1 0 1 0 1 0 1 0 1 0 1 0 1 0 
1 0 1 0 1 0 1 0 1 0 1 0 1 0 1 0 
1 0 1 0 1 0 1 0 1 0 1 0 1 0 1 0 
1 0 1 0 1 0 1 0 1 0 1 -1 1 0 1 0 
1 0 1 0 1 0 1 0 1 0 1 0 1 0 1 0 
1 0 1 0 1 0 1 0 1 0 1 0 1 0 1 0 
1 0 1 0 1 0 1 0 1 0 1 0 1 0 1 0 
1 0 1 0 1 0 1 0 1 0 1 0 1 0 1 0 
1 0 1 0 1 0 1 0 1 0 1 0 1 0 1 0 
1 0 1 0 1 0 660 2485 300 MP stroke
1 0 1 0 1 0 1 0 656 2485 5 MP stroke
1 0 1 0 1 0 1 0 1 0 1 0 1 0 1 0 
1 0 1 0 1 0 1 0 1 0 1 0 1 0 1 0 
1 0 1 0 1 0 1 0 1 0 1 0 1 0 1 0 
1 0 1 0 1 0 1 0 1 0 1 0 1 0 1 0 
1 0 1 0 1 0 1 0 1 0 1 0 1 0 1 0 
1 0 1 0 1 0 1 0 1 0 1 0 1 0 1 0 
1 0 1 0 1 1 1 0 1 0 1 0 1 0 1 0 
1 0 1 0 1 0 1 0 1 0 1 0 1 0 1 0 
1 0 1 0 1 0 1 0 1 0 1 0 1 0 1 0 
1 0 1 0 1 0 1 0 1 0 1 0 1 0 1 0 
1 0 1 0 1 0 1 0 1 0 1 0 1 0 1 0 
1 0 1 0 1 0 1 0 1 0 1 0 1 0 1 0 
1 0 1 0 1 0 1 0 1 0 1 0 1 0 1 0 
1 0 1 0 1 0 1 0 1 0 1 0 1 0 1 0 
1 0 1 0 1 0 1 0 1 0 1 0 1 0 1 0 
1 0 1 0 1 0 1 0 1 0 1 0 1 0 1 0 
1 0 1 0 1 0 1 0 1 0 1 0 1 0 1 0 
1 0 1 0 1 0 1 0 1 0 1 0 1 0 1 0 
1 0 1 0 1 0 1 0 1 0 1 0 1 0 1 0 
1 0 1 0 1 0 1 0 1 0 1 0 1 0 1 0 
1 0 1 0 1 0 1 0 1 0 1 0 1 0 1 0 
1 0 1 0 1 0 1 0 1 0 1 0 1 0 1 0 
1 0 1 0 1 0 1 0 1 0 1 0 1 0 1 0 
1 0 1 0 1 0 1 0 1 0 1 1 1 0 1 0 
1 0 1 0 1 0 1 0 1 0 1 0 1 0 1 0 
1 0 1 0 1 0 1 0 1 0 1 0 1 0 1 0 
1 0 1 0 1 0 1 0 1 0 1 0 1 0 1 0 
1 0 1 0 1 0 1 0 1 0 1 0 1 0 1 0 
1 0 1 0 1 0 1 0 1 0 1 0 1 0 1 0 
1 0 1 0 1 0 1 0 1 0 1 0 1 0 1 0 
1 0 1 0 1 0 1 0 1 0 1 0 1 0 1 0 
1 0 1 0 1 0 1 0 1 0 1 0 1 0 1 1 
1 0 1 0 1 0 1 0 1 0 1 0 1 0 1 0 
1 0 1 0 1 0 1 0 1 0 1 0 1 0 1 0 
1 0 1 0 1 0 1 0 1 0 1 0 1 0 1 0 
1 0 1 0 1 0 1 0 1 0 1 0 1 0 1 0 
1 0 1 0 1 0 1 0 1 0 1 0 1 0 1 0 
1 0 1 0 1 1 4267 2481 300 MP stroke
1 0 1 0 1 0 1 0 1 0 1 0 1 0 1 0 
1 0 1 0 1 0 1 0 1 0 1 0 1 0 1 0 
1 0 1 0 1 0 1 0 1 0 1 0 1 0 1 0 
1 0 1 0 1 0 1 0 1 0 1 0 1 0 1 0 
1 0 1 1 1 0 1 0 1 0 1 0 1 0 1 0 
1 0 1 0 1 0 1 0 1 0 1 0 1 0 1 0 
1 0 1 0 1 0 1 0 1 0 1 0 1 0 1 0 
1 0 1 0 1 0 1 1 1 0 1 0 1 0 1 0 
1 0 1 0 1 0 1 0 1 0 1 0 1 0 1 0 
1 0 1 0 1 0 1 0 1 0 1 0 1 0 1 0 
1 0 1 0 1 1 1 0 1 0 1 0 1 0 1 0 
1 0 1 0 1 0 1 0 1 0 1 0 1 0 1 0 
1 0 1 0 1 0 1 0 1 0 1 0 1 1 1 0 
1 0 1 0 1 0 1 0 1 0 1 0 1 0 1 0 
1 0 1 0 1 0 1 0 1 0 1 0 1 0 1 1 
1 0 1 0 1 0 1 0 1 0 1 0 1 0 1 0 
1 0 1 0 1 0 1 0 1 0 1 0 1 1 1 0 
1 0 1 0 1 0 1 0 1 0 1 0 1 0 1 0 
1 0 1 0 1 0 1 0 1 0 1 1 1 0 1 0 
1 0 1 0 1 0 1 0 1 0 1 0 1 0 1 0 
1 0 1 0 1 1 1 0 1 0 1 0 1 0 1 0 
1 0 1 0 1 0 1 0 1 0 1 1 1 0 1 0 
1 0 1 0 1 0 1 0 1 0 1 0 1 0 1 0 
1 1 1 0 1 0 1 0 1 0 1 0 1 0 1 0 
1 0 1 0 1 0 1 1 1 0 1 0 1 0 1 0 
1 0 1 0 1 0 1 0 1 0 1 1 1 0 1 0 
1 0 1 0 1 0 1 0 1 0 1 0 1 1 1 0 
1 0 1 0 1 0 1 0 1 0 1 0 1 0 1 1 
1 0 1 0 1 0 1 0 1 0 1 0 1 0 1 1 
1 0 1 0 1 0 1 0 1 0 1 0 1 0 1 1 
1 0 1 0 1 0 1 0 1 0 1 0 1 1 1 0 
1 0 1 0 1 0 1 0 1 0 1 1 1 0 1 0 
1 0 1 0 1 0 1 0 1 0 1 1 1 0 1 0 
1 0 1 0 1 0 1 1 1 0 1 0 1 0 1 0 
1 0 1 0 1 1 1 0 1 0 1 0 1 0 1 0 
1 1 1 0 1 0 1 0 1 0 1 0 1 1 1 0 
1 0 1 0 1 0 1 1 1 0 1 0 1 0 1 0 
1 0 1 1 1 0 3968 2456 300 MP stroke
1 0 1 0 1 0 1 1 1 0 1 0 1 0 1 0 
1 0 1 1 1 0 1 0 1 0 1 0 1 1 1 0 
1 0 1 0 1 0 1 1 1 0 1 0 1 0 1 0 
1 1 1 0 1 0 1 0 1 1 1 0 1 0 1 0 
1 0 1 1 1 0 1 0 1 0 1 1 1 0 1 0 
1 0 1 0 1 1 1 0 1 0 1 0 1 1 1 0 
1 0 1 0 1 1 1 0 1 0 1 0 1 1 1 0 
1 0 1 0 1 1 1 0 1 0 1 0 1 1 1 0 
1 0 1 0 1 1 1 0 1 0 1 0 1 1 1 0 
1 0 1 0 1 1 1 0 1 0 1 1 1 0 1 0 
1 0 1 1 1 0 1 0 1 1 1 0 1 0 1 1 
1 0 1 0 1 0 1 1 1 0 1 0 1 1 1 0 
1 0 1 1 1 0 1 0 1 1 1 0 1 0 1 0 
1 1 1 0 1 0 1 1 1 0 1 0 1 1 1 0 
1 0 1 1 1 0 1 1 1 0 1 0 1 0 1 1 
1 0 1 1 1 0 1 0 1 0 1 1 1 0 1 1 
1 0 1 0 1 1 1 0 1 1 1 0 1 0 1 1 
1 0 1 0 1 1 1 0 1 1 1 0 1 0 1 1 
1 0 1 1 1 0 1 0 1 1 1 0 1 0 1 1 
1 0 1 1 1 0 1 1 1 0 1 0 1 1 1 0 
1 1 1 0 1 1 1 0 1 0 1 1 1 0 1 1 
1 0 1 0 1 1 1 1 1 0 1 0 1 1 1 0 
1 1 1 0 1 1 1 0 1 0 1 1 1 0 1 1 
1 0 1 1 1 1 1 0 1 0 1 1 1 0 1 1 
1 0 1 1 1 0 1 1 1 0 1 1 1 0 1 1 
1 0 1 1 1 0 1 1 1 0 1 1 1 0 1 1 
1 0 1 1 1 0 1 1 1 1 1 0 1 1 1 0 
1 1 1 0 1 1 1 0 1 1 1 1 1 0 1 1 
1 0 1 1 1 1 1 0 1 1 1 0 1 1 1 1 
1 0 1 1 1 0 1 1 1 0 1 1 1 1 1 0 
1 1 1 1 1 0 1 1 1 1 1 0 1 1 1 0 
1 1 1 0 1 1 1 1 1 1 1 0 1 1 1 0 
1 1 1 1 1 0 1 1 1 1 1 1 1 0 1 1 
1 0 1 1 1 1 1 1 1 0 1 1 1 0 1 1 
1 1 1 1 1 1 1 0 1 1 1 0 1 1 1 1 
1 1 1 0 1 1 1 1 1 1 1 0 1 1 1 1 
1 1 1 1 1 0 1 1 1 1 1 1 1 0 1 1 
1 1 1 1 1 0 3669 2328 300 MP stroke
1 1 1 1 1 1 1 1 1 0 1 1 1 1 1 1 
1 0 1 1 1 1 1 1 1 1 1 1 1 0 1 1 
1 1 1 1 1 1 1 1 1 1 1 0 1 1 1 1 
1 1 1 1 1 1 1 0 1 1 1 1 1 1 1 1 
1 1 1 1 1 1 1 1 1 0 -1 0 2 2 1 0 
1 1 1 1 1 1 1 1 1 1 1 1 1 1 1 1 
1 1 1 1 1 1 1 1 1 0 -1 0 2 2 1 0 
-1 0 2 2 1 0 1 1 1 1 0 1 2 2 1 0 
-1 0 2 2 1 0 -1 0 2 2 1 0 -1 0 2 2 
1 0 -1 0 2 2 1 0 1 1 1 1 0 1 1 1 
1 0 -1 0 2 2 1 1 1 1 1 1 1 1 1 1 
1 1 1 1 1 1 1 1 1 1 1 1 1 1 1 1 
1 1 0 1 1 1 1 1 1 1 1 1 1 1 1 1 
1 1 0 1 1 1 1 0 -1 0 2 2 1 0 -1 0 
2 2 1 1 1 1 1 1 0 1 2 2 1 1 1 1 
1 1 0 1 1 1 1 0 -1 0 2 2 1 1 1 1 
1 1 0 1 1 1 1 0 -1 0 2 2 1 1 1 1 
0 1 1 1 1 1 1 1 1 1 0 1 1 1 1 0 
-1 0 2 2 1 1 0 1 1 1 1 0 -1 0 2 2 
1 1 0 1 2 2 1 1 0 1 1 1 1 0 -1 0 
2 2 1 1 0 1 1 1 1 1 1 1 1 1 0 1 
1 1 1 1 1 1 1 1 0 1 1 1 0 1 1 1 
1 1 1 1 1 1 0 1 1 1 1 1 0 1 1 1 
1 1 1 1 1 1 0 1 1 1 1 1 0 1 1 1 
1 1 0 1 1 1 1 1 1 1 0 1 1 1 1 1 
0 1 1 1 1 1 0 1 1 1 1 1 1 1 1 1 
0 1 1 1 1 1 0 1 1 1 0 1 1 1 1 1 
0 1 1 1 1 1 0 1 1 1 1 1 0 1 1 1 
1 1 0 1 1 1 1 1 0 1 1 1 1 1 0 1 
1 1 1 0 -1 0 2 2 0 1 1 1 1 1 0 1 
1 1 1 1 0 1 1 1 1 1 0 1 1 2 1 1 
0 1 1 1 1 1 0 1 1 1 1 1 0 1 1 1 
1 1 0 1 1 1 0 1 1 1 1 1 0 1 1 1 
1 1 0 1 1 1 1 1 0 1 1 1 1 1 0 1 
1 2 1 1 0 1 1 1 1 1 0 1 1 1 1 1 
0 1 1 1 0 1 1 1 1 1 0 2 1 1 1 1 
0 1 1 1 1 1 0 1 1 1 1 1 0 1 1 2 
1 1 0 1 1 1 3438 2046 300 MP stroke
1 1 0 1 1 1 0 1 1 1 1 2 0 1 1 1 
1 1 0 1 1 1 1 1 0 1 1 2 1 1 0 1 
1 1 1 1 0 1 1 2 1 1 0 1 1 1 1 1 
0 1 1 1 0 2 1 1 1 1 0 1 1 1 1 2 
0 1 1 1 1 1 0 1 1 1 1 2 0 1 1 1 
1 1 0 1 1 2 1 1 0 1 1 1 1 1 0 2 
1 1 0 1 1 1 1 1 0 2 1 1 1 1 0 1 
1 2 1 1 0 1 1 1 1 1 0 2 1 1 1 1 
0 1 1 2 1 1 0 1 1 1 0 2 1 1 1 1 
0 1 1 2 1 1 0 1 1 1 1 2 0 1 1 1 
1 2 0 1 1 1 1 1 0 2 1 1 1 1 0 2 
1 1 1 1 0 1 1 2 0 1 1 1 1 2 0 1 
1 1 1 1 0 2 1 1 1 1 0 2 1 1 1 1 
0 2 1 1 1 1 0 2 1 1 1 1 0 2 1 1 
1 1 0 2 1 1 0 1 1 2 1 1 0 1 1 2 
1 1 0 1 1 2 1 1 0 1 1 2 1 1 0 2 
1 1 1 1 0 2 1 1 1 1 0 2 1 1 1 2 
0 1 1 1 0 2 1 1 1 1 0 2 1 1 1 2 
0 1 1 1 1 2 0 1 1 2 1 1 0 1 1 2 
1 1 0 2 1 1 1 1 0 2 1 1 0 2 1 1 
1 2 0 1 1 1 1 2 0 1 1 2 1 1 0 2 
1 1 1 2 0 1 1 1 1 2 0 1 1 2 1 1 
0 2 1 1 1 2 0 1 1 2 0 1 1 1 1 2 
0 1 1 2 1 1 0 2 1 1 1 2 0 1 1 2 
1 1 0 2 1 1 1 2 0 1 1 2 1 1 0 2 
1 1 1 2 0 1 1 2 0 1 1 2 1 1 0 2 
1 1 1 2 0 1 1 2 1 1 0 2 1 1 1 2 
0 1 1 2 1 1 0 2 1 2 1 1 0 2 1 1 
1 2 0 1 1 2 0 1 1 2 1 1 0 2 1 2 
1 1 0 2 1 1 1 2 0 1 1 2 1 2 0 1 
1 2 1 1 0 2 1 1 1 2 0 2 1 1 0 2 
1 1 1 2 0 1 1 2 1 2 0 1 1 2 1 1 
0 2 1 2 1 1 0 2 1 1 1 2 0 2 1 1 
1 2 0 1 1 2 1 2 0 1 1 2 0 2 1 1 
1 2 0 1 1 2 1 2 0 1 1 2 1 2 0 1 
1 2 1 1 0 2 1 2 1 1 0 2 1 2 1 1 
0 2 1 2 1 1 0 2 1 2 0 1 1 2 1 2 
0 1 1 2 1 2 3243 1627 300 MP stroke
0 1 1 2 1 2 0 1 1 2 1 2 0 1 1 2 
1 2 0 1 1 2 1 2 0 1 1 2 1 2 0 1 
1 2 0 2 1 1 1 2 0 2 1 2 1 1 0 2 
1 2 1 1 0 2 1 2 1 1 0 2 1 2 1 2 
0 1 1 2 1 2 0 1 1 2 0 2 1 2 1 1 
0 2 1 2 1 2 0 1 1 2 1 2 0 1 1 2 
1 2 0 2 1 1 1 2 0 2 1 2 1 1 0 2 
1 2 1 2 0 1 1 2 0 2 1 2 1 1 0 2 
1 2 1 2 0 1 1 2 1 2 0 2 1 1 1 2 
0 2 1 2 1 1 0 2 1 2 1 2 0 2 1 1 
1 2 0 2 1 2 0 1 1 2 1 2 0 2 1 2 
1 1 0 2 1 2 1 2 0 1 1 2 1 2 0 2 
1 2 1 1 0 2 1 2 1 2 0 2 1 1 1 2 
0 2 1 2 0 2 1 1 1 2 0 2 1 2 1 2 
0 1 1 2 1 2 0 2 1 2 1 1 0 2 1 2 
1 2 0 2 1 2 1 1 0 2 1 2 0 2 1 2 
1 2 0 1 1 2 1 2 0 2 1 2 1 1 0 2 
1 2 1 2 0 2 1 2 1 1 0 2 1 2 1 2 
0 2 1 2 1 1 0 2 1 2 0 2 1 2 1 2 
0 2 1 1 1 2 0 2 1 2 1 2 0 2 1 1 
1 2 0 2 1 2 1 2 0 2 1 2 1 1 0 2 
1 2 1 2 0 2 1 2 0 2 1 1 1 2 0 2 
1 2 1 2 0 2 1 2 1 1 0 2 1 2 1 2 
0 2 1 2 1 2 0 2 1 1 1 2 0 2 1 2 
1 2 0 2 1 2 0 1 1 2 1 2 0 2 1 2 
1 2 0 2 1 2 1 1 0 2 1 2 1 2 0 2 
1 2 1 2 0 2 1 1 1 2 0 2 1 2 0 2 
1 2 1 2 0 2 1 2 1 1 0 2 1 2 1 2 
0 2 1 2 1 2 0 2 1 1 1 2 0 2 1 2 
1 2 0 2 1 2 1 2 0 2 1 1 0 2 1 2 
1 2 0 2 1 2 1 2 0 2 1 2 1 1 0 2 
1 2 1 2 0 2 1 2 1 2 0 2 1 2 1 1 
0 2 1 2 1 2 0 2 1 2 0 2 1 2 1 2 
0 1 1 2 1 2 0 2 1 2 1 2 0 2 1 2 
1 2 0 1 1 2 1 2 0 2 1 2 1 2 0 2 
1 2 1 1 0 2 1 2 0 2 1 2 1 2 0 2 
1 2 1 2 0 1 1 2 1 2 0 2 1 2 1 2 
0 2 1 2 1 2 3048 1083 300 MP stroke
0 1 1 2 1 2 0 2 1 2 0 2 1 2 1 2 
0 1 1 2 1 2 0 2 1 2 1 2 0 2 1 2 
1 2 0 1 1 2 1 2 0 2 1 2 1 2 0 2 
1 2 1 1 0 2 1 2 0 2 1 2 1 2 0 2 
1 2 1 1 0 2 1 2 1 2 0 2 1 2 1 2 
0 1 1 2 1 2 0 2 1 2 1 2 0 2 1 1 
1 2 0 2 1 2 0 2 1 2 1 2 0 2 1 1 
1 2 0 2 1 2 1 2 0 2 1 1 1 2 0 2 
1 2 1 2 0 2 1 2 1 1 0 2 1 2 0 2 
1 2 1 2 0 1 1 2 1 2 0 2 1 2 1 2 
0 2 1 1 1 2 0 2 1 2 1 2 0 2 1 1 
1 2 0 2 1 2 1 2 0 1 1 2 0 2 1 2 
1 2 0 2 1 1 1 2 0 2 1 2 1 2 0 1 
1 2 1 2 0 2 1 2 1 1 0 2 1 2 1 2 
0 2 1 2 1 1 0 2 1 2 0 2 1 1 1 2 
0 2 1 2 1 2 0 1 1 2 1 2 0 2 1 2 
1 1 0 2 1 2 1 2 0 1 1 2 1 2 0 2 
1 2 1 1 0 2 1 2 0 2 1 1 1 2 0 2 
1 2 1 1 0 2 1 2 1 2 0 1 1 2 1 2 
0 2 1 1 1 2 0 2 1 2 1 1 0 2 1 2 
0 2 1 1 1 2 0 2 1 2 1 1 0 2 1 2 
1 1 0 2 1 2 1 2 0 1 1 2 1 2 0 1 
1 2 1 2 0 2 1 1 1 2 0 2 1 1 0 2 
1 2 1 1 0 2 1 2 1 1 0 2 1 2 1 1 
0 2 1 2 1 2 0 1 1 2 1 2 0 1 1 2 
1 2 0 1 1 2 1 1 0 2 1 2 0 1 1 2 
1 2 0 1 1 2 1 2 0 1 1 2 1 2 0 1 
1 2 1 1 0 2 1 2 1 1 0 2 1 2 1 1 
0 2 1 1 1 2 0 2 1 1 0 2 1 1 1 2 
0 2 1 1 1 2 0 1 1 2 1 2 0 1 1 2 
1 1 0 2 1 1 1 2 0 2 1 1 1 2 0 1 
1 2 0 1 1 2 1 1 0 2 1 2 1 1 0 2 
1 1 1 2 0 1 1 2 1 1 0 2 1 1 1 2 
0 1 1 2 1 1 0 2 1 1 1 2 0 2 1 1 
0 2 1 1 1 1 0 2 1 1 1 2 0 1 1 2 
1 1 0 2 1 1 1 2 0 1 1 2 1 1 0 2 
1 1 1 2 0 1 1 1 1 2 0 1 1 2 0 1 
1 2 1 1 0 2 2854 569 300 MP stroke
1 1 1 1 0 2 1 1 1 2 0 1 1 2 1 1 
0 1 1 2 1 1 0 2 1 1 1 1 0 2 1 1 
1 1 0 2 1 1 0 2 1 1 1 1 0 2 1 1 
1 1 0 2 1 1 1 1 0 2 1 1 1 2 0 1 
1 1 1 2 0 1 1 1 1 1 0 2 1 1 0 1 
1 2 1 1 0 1 1 2 1 1 0 1 1 2 1 1 
0 1 1 1 1 2 0 1 1 1 1 2 0 1 1 1 
1 1 0 2 1 1 1 1 0 1 1 2 0 1 1 1 
1 1 0 1 1 2 1 1 0 1 1 1 1 2 0 1 
1 1 1 1 0 1 1 2 1 1 0 1 1 1 1 1 
0 2 1 1 1 1 0 1 1 1 0 1 1 2 1 1 
0 1 1 1 1 1 0 1 1 2 1 1 0 1 1 1 
1 1 0 1 1 1 1 1 0 2 1 1 1 1 0 1 
1 1 1 1 0 1 1 1 0 1 1 1 1 1 0 2 
1 1 1 1 0 1 1 1 1 1 0 1 1 1 1 1 
0 1 1 1 1 1 0 1 1 1 1 1 0 1 1 1 
0 1 1 1 1 1 0 1 1 1 1 1 0 1 1 1 
1 1 0 1 1 1 1 1 0 1 1 1 1 1 0 1 
1 1 1 1 0 1 1 1 1 1 0 1 1 1 1 1 
1 1 0 1 1 1 1 1 0 1 1 1 1 1 0 1 
1 1 1 1 1 1 1 1 0 1 1 1 1 1 1 1 
1 1 0 1 1 1 0 1 1 1 1 1 1 1 1 1 
0 1 1 1 1 0 -1 0 2 2 1 1 1 1 1 1 
0 1 1 1 1 1 1 1 1 1 0 1 2 2 1 1 
1 1 1 1 1 1 1 1 1 1 1 1 1 1 1 1 
0 1 1 1 1 0 -1 0 2 2 1 1 1 1 1 1 
1 1 1 1 1 0 -1 0 2 2 1 0 -1 0 2 2 
1 0 1 1 1 1 1 1 1 1 1 1 1 1 1 1 
1 1 1 0 1 1 1 1 1 1 1 1 1 1 1 0 
1 1 1 1 1 1 1 0 1 1 1 1 1 0 1 1 
1 1 1 1 1 0 1 1 1 0 1 1 1 1 1 1 
1 0 1 1 1 0 1 1 1 1 1 0 1 1 1 0 
1 1 1 0 1 1 1 0 1 1 1 0 1 1 1 0 
1 1 1 0 1 1 1 0 1 0 1 1 1 0 1 1 
1 0 1 0 1 1 1 0 1 0 1 1 1 0 1 0 
1 1 1 0 1 0 1 0 1 1 1 0 1 0 1 0 
1 1 1 0 1 0 1 0 1 0 1 0 1 1 1 0 
1 0 1 0 1 0 2620 284 300 MP stroke
1 0 1 0 1 0 1 0 1 0 1 0 1 0 1 0 
1 0 2611 284 10 MP stroke
gr

c10
0 sg
 639 3409 mt 
( ) s
4550  326 mt 
( ) s
1 sg
0 546 1161 0 0 -546 3301 957 4 MP
PP
-1161 0 0 546 1161 0 0 -546 3301 957 5 MP stroke
4 w
DO
SO
6 w
0 sg
3301  411 mt 4462  411 L
3301  957 mt 4462  957 L
4462  957 mt 4462  411 L
3301  957 mt 3301  411 L
3301  957 mt 4462  957 L
3301  957 mt 3301  411 L
3301  411 mt 4462  411 L
3301  957 mt 4462  957 L
4462  957 mt 4462  411 L
3301  957 mt 3301  411 L
3769  558 mt 
(Chebyshev) s
gs 3301 411 1162 547 rc
c8
360 0 3373 516 2 MP stroke
gr

c8
0 sg
3769  727 mt 
(Equispaziati) s
gs 3301 411 1162 547 rc
c9
360 0 3373 684 2 MP stroke
gr

c9
0 sg
3769  895 mt 
(f\(x\)) s
gs 3301 411 1162 547 rc
c10
360 0 3373 852 2 MP stroke
gr

c10

end %%Color Dict

eplot
%%EndObject

epage
end

showpage

%%Trailer
%%EOF
