%!PS-Adobe-3.0 EPSF-3.0
%%Creator: MATLAB, The MathWorks, Inc. Version 8.0.0.783 (R2012b). Operating System: Microsoft Windows 7.
%%Title: C:\SILVIA\UniversitÓ\Presenti\Calcolo numerico\Silvia Balzani - esercitazioni\esCalcoloNumerico\Consegne\esercizi\Esercitazione08\2\ConfrontoErr.eps
%%CreationDate: 12/01/2015  16:18:36
%%DocumentNeededFonts: Helvetica
%%DocumentProcessColors: Cyan Magenta Yellow Black
%%LanguageLevel: 2
%%Pages: 1
%%BoundingBox:    44   265   550   575
%%EndComments

%%BeginProlog
% MathWorks dictionary
/MathWorks 160 dict begin
% definition operators
/bdef {bind def} bind def
/ldef {load def} bind def
/xdef {exch def} bdef
/xstore {exch store} bdef
% operator abbreviations
/c  /clip ldef
/cc /concat ldef
/cp /closepath ldef
/gr /grestore ldef
/gs /gsave ldef
/mt /moveto ldef
/np /newpath ldef
/cm /currentmatrix ldef
/sm /setmatrix ldef
/rm /rmoveto ldef
/rl /rlineto ldef
/s {show newpath} bdef
/sc {setcmykcolor} bdef
/sr /setrgbcolor ldef
/sg /setgray ldef
/w /setlinewidth ldef
/j /setlinejoin ldef
/cap /setlinecap ldef
/rc {rectclip} bdef
/rf {rectfill} bdef
% page state control
/pgsv () def
/bpage {/pgsv save def} bdef
/epage {pgsv restore} bdef
/bplot /gsave ldef
/eplot {stroke grestore} bdef
% orientation switch
/portraitMode 0 def /landscapeMode 1 def /rotateMode 2 def
% coordinate system mappings
/dpi2point 0 def
% font control
/FontSize 0 def
/FMS {/FontSize xstore findfont [FontSize 0 0 FontSize neg 0 0]
  makefont setfont} bdef
/ISOLatin1Encoding where {pop /WindowsLatin1Encoding 256 array bdef
ISOLatin1Encoding WindowsLatin1Encoding copy pop
/.notdef/.notdef/quotesinglbase/florin/quotedblbase/ellipsis/dagger
/daggerdbl/circumflex/perthousand/Scaron/guilsinglleft/OE/.notdef/.notdef
/.notdef/.notdef/quoteleft/quoteright/quotedblleft/quotedblright/bullet
/endash/emdash/tilde/trademark/scaron/guilsinglright/oe/.notdef/.notdef
/Ydieresis WindowsLatin1Encoding 128 32 getinterval astore pop}
{/WindowsLatin1Encoding StandardEncoding bdef} ifelse
/reencode {exch dup where {pop load} {pop StandardEncoding} ifelse
  exch dup 3 1 roll findfont dup length dict begin
  { 1 index /FID ne {def}{pop pop} ifelse } forall
  /Encoding exch def currentdict end definefont pop} bdef
/isroman {findfont /CharStrings get /Agrave known} bdef
/FMSR {3 1 roll 1 index dup isroman {reencode} {pop pop} ifelse
  exch FMS} bdef
/csm {1 dpi2point div -1 dpi2point div scale neg translate
 dup landscapeMode eq {pop -90 rotate}
  {rotateMode eq {90 rotate} if} ifelse} bdef
% line types: solid, dotted, dashed, dotdash
/SO { [] 0 setdash } bdef
/DO { [.5 dpi2point mul 4 dpi2point mul] 0 setdash } bdef
/DA { [6 dpi2point mul] 0 setdash } bdef
/DD { [.5 dpi2point mul 4 dpi2point mul 6 dpi2point mul 4
  dpi2point mul] 0 setdash } bdef
% macros for lines and objects
/L {lineto stroke} bdef
/MP {3 1 roll moveto 1 sub {rlineto} repeat} bdef
/AP {{rlineto} repeat} bdef
/PDlw -1 def
/W {/PDlw currentlinewidth def setlinewidth} def
/PP {closepath eofill} bdef
/DP {closepath stroke} bdef
/MR {4 -2 roll moveto dup  0 exch rlineto exch 0 rlineto
  neg 0 exch rlineto closepath} bdef
/FR {MR stroke} bdef
/PR {MR fill} bdef
/L1i {{currentfile picstr readhexstring pop} image} bdef
/tMatrix matrix def
/MakeOval {newpath tMatrix currentmatrix pop translate scale
0 0 1 0 360 arc tMatrix setmatrix} bdef
/FO {MakeOval stroke} bdef
/PO {MakeOval fill} bdef
/PD {currentlinewidth 2 div 0 360 arc fill
   PDlw -1 eq not {PDlw w /PDlw -1 def} if} def
/FA {newpath tMatrix currentmatrix pop translate scale
  0 0 1 5 -2 roll arc tMatrix setmatrix stroke} bdef
/PA {newpath tMatrix currentmatrix pop	translate 0 0 moveto scale
  0 0 1 5 -2 roll arc closepath tMatrix setmatrix fill} bdef
/FAn {newpath tMatrix currentmatrix pop translate scale
  0 0 1 5 -2 roll arcn tMatrix setmatrix stroke} bdef
/PAn {newpath tMatrix currentmatrix pop translate 0 0 moveto scale
  0 0 1 5 -2 roll arcn closepath tMatrix setmatrix fill} bdef
/vradius 0 def /hradius 0 def /lry 0 def
/lrx 0 def /uly 0 def /ulx 0 def /rad 0 def
/MRR {/vradius xdef /hradius xdef /lry xdef /lrx xdef /uly xdef
  /ulx xdef newpath tMatrix currentmatrix pop ulx hradius add uly
  vradius add translate hradius vradius scale 0 0 1 180 270 arc 
  tMatrix setmatrix lrx hradius sub uly vradius add translate
  hradius vradius scale 0 0 1 270 360 arc tMatrix setmatrix
  lrx hradius sub lry vradius sub translate hradius vradius scale
  0 0 1 0 90 arc tMatrix setmatrix ulx hradius add lry vradius sub
  translate hradius vradius scale 0 0 1 90 180 arc tMatrix setmatrix
  closepath} bdef
/FRR {MRR stroke } bdef
/PRR {MRR fill } bdef
/MlrRR {/lry xdef /lrx xdef /uly xdef /ulx xdef /rad lry uly sub 2 div def
  newpath tMatrix currentmatrix pop ulx rad add uly rad add translate
  rad rad scale 0 0 1 90 270 arc tMatrix setmatrix lrx rad sub lry rad
  sub translate rad rad scale 0 0 1 270 90 arc tMatrix setmatrix
  closepath} bdef
/FlrRR {MlrRR stroke } bdef
/PlrRR {MlrRR fill } bdef
/MtbRR {/lry xdef /lrx xdef /uly xdef /ulx xdef /rad lrx ulx sub 2 div def
  newpath tMatrix currentmatrix pop ulx rad add uly rad add translate
  rad rad scale 0 0 1 180 360 arc tMatrix setmatrix lrx rad sub lry rad
  sub translate rad rad scale 0 0 1 0 180 arc tMatrix setmatrix
  closepath} bdef
/FtbRR {MtbRR stroke } bdef
/PtbRR {MtbRR fill } bdef
/stri 6 array def /dtri 6 array def
/smat 6 array def /dmat 6 array def
/tmat1 6 array def /tmat2 6 array def /dif 3 array def
/asub {/ind2 exch def /ind1 exch def dup dup
  ind1 get exch ind2 get sub exch } bdef
/tri_to_matrix {
  2 0 asub 3 1 asub 4 0 asub 5 1 asub
  dup 0 get exch 1 get 7 -1 roll astore } bdef
/compute_transform {
  dmat dtri tri_to_matrix tmat1 invertmatrix 
  smat stri tri_to_matrix tmat2 concatmatrix } bdef
/ds {stri astore pop} bdef
/dt {dtri astore pop} bdef
/db {2 copy /cols xdef /rows xdef mul dup 3 mul string
  currentfile 
  3 index 0 eq {/ASCIIHexDecode filter}
  {/ASCII85Decode filter 3 index 2 eq {/RunLengthDecode filter} if }
  ifelse exch readstring pop
  dup 0 3 index getinterval /rbmap xdef
  dup 2 index dup getinterval /gbmap xdef
  1 index dup 2 mul exch getinterval /bbmap xdef pop pop}bdef
/it {gs np dtri aload pop moveto lineto lineto cp c
  cols rows 8 compute_transform 
  rbmap gbmap bbmap true 3 colorimage gr}bdef
/il {newpath moveto lineto stroke}bdef
currentdict end def
%%EndProlog

%%BeginSetup
MathWorks begin

0 cap

end
%%EndSetup

%%Page: 1 1
%%BeginPageSetup
%%PageBoundingBox:    44   265   550   575
MathWorks begin
bpage
%%EndPageSetup

%%BeginObject: obj1
bplot

/dpi2point 12 def
portraitMode 0528 6900 csm

    0     0  6080  3710 rc
85 dict begin %Colortable dictionary
/c0 { 0.000000 0.000000 0.000000 sr} bdef
/c1 { 1.000000 1.000000 1.000000 sr} bdef
/c2 { 0.900000 0.000000 0.000000 sr} bdef
/c3 { 0.000000 0.820000 0.000000 sr} bdef
/c4 { 0.000000 0.000000 0.800000 sr} bdef
/c5 { 0.910000 0.820000 0.320000 sr} bdef
/c6 { 1.000000 0.260000 0.820000 sr} bdef
/c7 { 0.000000 0.820000 0.820000 sr} bdef
c0
1 j
1 sg
   0    0 6081 3711 rf
6 w
0 1164 2035 0 0 -1164 790 1544 4 MP
PP
-2035 0 0 1164 2035 0 0 -1164 790 1544 5 MP stroke
4 w
DO
SO
6 w
0 sg
 790  380 mt 2825  380 L
 790 1544 mt 2825 1544 L
2825 1544 mt 2825  380 L
 790 1544 mt  790  380 L
 790 1544 mt 2825 1544 L
 790 1544 mt  790  380 L
 790 1544 mt  790 1523 L
 790  380 mt  790  400 L
%%IncludeResource: font Helvetica
/Helvetica /WindowsLatin1Encoding 120 FMSR

 757 1689 mt 
(0) s
1468 1544 mt 1468 1523 L
1468  380 mt 1468  400 L
1402 1689 mt 
(10) s
2146 1544 mt 2146 1523 L
2146  380 mt 2146  400 L
2080 1689 mt 
(20) s
2825 1544 mt 2825 1523 L
2825  380 mt 2825  400 L
2759 1689 mt 
(30) s
 790 1544 mt  790 1544 L
 790 1544 mt  790 1544 L
 790 1544 mt  790 1544 L
 790 1544 mt  790 1544 L
 790 1544 mt  790 1544 L
 790 1544 mt  790 1544 L
 790 1544 mt  790 1544 L
 790 1544 mt  790 1544 L
 790 1544 mt  790 1544 L
 790 1544 mt  790 1544 L
 790 1544 mt  790 1544 L
 790 1544 mt  790 1544 L
 790 1544 mt  790 1544 L
 790 1544 mt  790 1544 L
 790 1544 mt  790 1544 L
 790 1544 mt  790 1544 L
 790 1544 mt  790 1544 L
 790 1544 mt  790 1544 L
 790 1544 mt  810 1544 L
2825 1544 mt 2804 1544 L
 531 1588 mt 
(10) s
%%IncludeResource: font Helvetica
/Helvetica /WindowsLatin1Encoding 80 FMSR

 664 1514 mt 
(-4) s
 790 1544 mt  790 1544 L
 790 1544 mt  790 1544 L
 790 1544 mt  790 1544 L
 790 1544 mt  790 1544 L
 790 1544 mt  790 1544 L
 790 1544 mt  790 1544 L
 790 1544 mt  790 1544 L
 790 1544 mt  790 1544 L
 790 1544 mt  790 1544 L
 790 1544 mt  790 1544 L
 790 1544 mt  790 1544 L
 790 1544 mt  790 1544 L
 790 1544 mt  790 1544 L
 790 1544 mt  790 1544 L
 790 1544 mt  790 1544 L
 790 1544 mt  790 1544 L
 790 1544 mt  790 1544 L
 790 1544 mt  790 1544 L
 790 1156 mt  810 1156 L
2825 1156 mt 2804 1156 L
%%IncludeResource: font Helvetica
/Helvetica /WindowsLatin1Encoding 120 FMSR

 531 1200 mt 
(10) s
%%IncludeResource: font Helvetica
/Helvetica /WindowsLatin1Encoding 80 FMSR

 664 1126 mt 
(-2) s
 790 1544 mt  790 1544 L
 790 1544 mt  790 1544 L
 790 1544 mt  790 1544 L
 790 1544 mt  790 1544 L
 790 1544 mt  790 1544 L
 790 1544 mt  790 1544 L
 790 1544 mt  790 1544 L
 790 1544 mt  790 1544 L
 790 1544 mt  790 1544 L
 790 1544 mt  790 1544 L
 790 1544 mt  790 1544 L
 790 1544 mt  790 1544 L
 790 1544 mt  790 1544 L
 790 1544 mt  790 1544 L
 790 1544 mt  790 1544 L
 790 1544 mt  790 1544 L
 790 1544 mt  790 1544 L
 790 1544 mt  790 1544 L
 790  768 mt  810  768 L
2825  768 mt 2804  768 L
%%IncludeResource: font Helvetica
/Helvetica /WindowsLatin1Encoding 120 FMSR

 531  812 mt 
(10) s
%%IncludeResource: font Helvetica
/Helvetica /WindowsLatin1Encoding 80 FMSR

 664  738 mt 
(0) s
 790 1544 mt  790 1544 L
 790 1544 mt  790 1544 L
 790 1544 mt  790 1544 L
 790 1544 mt  790 1544 L
 790 1544 mt  790 1544 L
 790 1544 mt  790 1544 L
 790 1544 mt  790 1544 L
 790 1544 mt  790 1544 L
 790 1544 mt  790 1544 L
 790 1544 mt  790 1544 L
 790 1544 mt  790 1544 L
 790 1544 mt  790 1544 L
 790 1544 mt  790 1544 L
 790 1544 mt  790 1544 L
 790 1544 mt  790 1544 L
 790 1544 mt  790 1544 L
 790 1544 mt  790 1544 L
 790 1544 mt  790 1544 L
 790  380 mt  810  380 L
2825  380 mt 2804  380 L
%%IncludeResource: font Helvetica
/Helvetica /WindowsLatin1Encoding 120 FMSR

 531  424 mt 
(10) s
%%IncludeResource: font Helvetica
/Helvetica /WindowsLatin1Encoding 80 FMSR

 664  350 mt 
(2) s
 790 1544 mt  790 1544 L
 790 1544 mt  790 1544 L
 790 1544 mt  790 1544 L
 790 1544 mt  790 1544 L
 790 1544 mt  790 1544 L
 790 1544 mt  790 1544 L
 790 1544 mt  790 1544 L
 790 1544 mt  790 1544 L
 790 1544 mt  790 1544 L
 790 1544 mt  790 1544 L
 790 1544 mt  790 1544 L
 790 1544 mt  790 1544 L
 790 1544 mt  790 1544 L
 790 1544 mt  790 1544 L
 790 1544 mt  790 1544 L
 790 1544 mt  790 1544 L
 790 1544 mt  790 1544 L
 790 1544 mt  790 1544 L
 790  380 mt 2825  380 L
 790 1544 mt 2825 1544 L
2825 1544 mt 2825  380 L
 790 1544 mt  790  380 L
gs 790 380 2036 1165 rc
/c8 { 0.000000 0.000000 1.000000 sr} bdef
c8
68 18 68 17 68 18 67 17 68 17 68 18 68 16 68 19 
68 16 67 18 68 20 68 11 68 25 68 16 68 5 67 44 
68 -15 68 32 68 53 68 -66 68 133 67 -31 68 14 68 151 
68 16 68 4 68 69 857 703 28 MP stroke
gr

c8
0 sg
%%IncludeResource: font Helvetica
/Helvetica /WindowsLatin1Encoding 120 FMSR

1034  285 mt 
(Errore con Jacobi usando A1) s
1 sg
0 1165 2035 0 0 -1165 819 3282 4 MP
PP
-2035 0 0 1165 2035 0 0 -1165 819 3282 5 MP stroke
4 w
DO
SO
6 w
0 sg
 819 2117 mt 2854 2117 L
 819 3282 mt 2854 3282 L
2854 3282 mt 2854 2117 L
 819 3282 mt  819 2117 L
 819 3282 mt 2854 3282 L
 819 3282 mt  819 2117 L
 819 3282 mt  819 3261 L
 819 2117 mt  819 2137 L
 786 3427 mt 
(0) s
1497 3282 mt 1497 3261 L
1497 2117 mt 1497 2137 L
1464 3427 mt 
(5) s
2175 3282 mt 2175 3261 L
2175 2117 mt 2175 2137 L
2109 3427 mt 
(10) s
2854 3282 mt 2854 3261 L
2854 2117 mt 2854 2137 L
2788 3427 mt 
(15) s
 819 3282 mt  819 3282 L
 819 3282 mt  819 3282 L
 819 3282 mt  819 3282 L
 819 3282 mt  819 3282 L
 819 3282 mt  819 3282 L
 819 3282 mt  819 3282 L
 819 3282 mt  819 3282 L
 819 3282 mt  819 3282 L
 819 3282 mt  819 3282 L
 819 3282 mt  819 3282 L
 819 3282 mt  819 3282 L
 819 3282 mt  819 3282 L
 819 3282 mt  819 3282 L
 819 3282 mt  819 3282 L
 819 3282 mt  819 3282 L
 819 3282 mt  819 3282 L
 819 3282 mt  819 3282 L
 819 3282 mt  819 3282 L
 819 3282 mt  839 3282 L
2854 3282 mt 2833 3282 L
 560 3326 mt 
(10) s
%%IncludeResource: font Helvetica
/Helvetica /WindowsLatin1Encoding 80 FMSR

 693 3252 mt 
(-4) s
 819 3282 mt  819 3282 L
 819 3282 mt  819 3282 L
 819 3282 mt  819 3282 L
 819 3282 mt  819 3282 L
 819 3282 mt  819 3282 L
 819 3282 mt  819 3282 L
 819 3282 mt  819 3282 L
 819 3282 mt  819 3282 L
 819 3282 mt  819 3282 L
 819 3282 mt  819 3282 L
 819 3282 mt  819 3282 L
 819 3282 mt  819 3282 L
 819 3282 mt  819 3282 L
 819 3282 mt  819 3282 L
 819 3282 mt  819 3282 L
 819 3282 mt  819 3282 L
 819 3282 mt  819 3282 L
 819 3282 mt  819 3282 L
 819 2893 mt  839 2893 L
2854 2893 mt 2833 2893 L
%%IncludeResource: font Helvetica
/Helvetica /WindowsLatin1Encoding 120 FMSR

 560 2937 mt 
(10) s
%%IncludeResource: font Helvetica
/Helvetica /WindowsLatin1Encoding 80 FMSR

 693 2863 mt 
(-2) s
 819 3282 mt  819 3282 L
 819 3282 mt  819 3282 L
 819 3282 mt  819 3282 L
 819 3282 mt  819 3282 L
 819 3282 mt  819 3282 L
 819 3282 mt  819 3282 L
 819 3282 mt  819 3282 L
 819 3282 mt  819 3282 L
 819 3282 mt  819 3282 L
 819 3282 mt  819 3282 L
 819 3282 mt  819 3282 L
 819 3282 mt  819 3282 L
 819 3282 mt  819 3282 L
 819 3282 mt  819 3282 L
 819 3282 mt  819 3282 L
 819 3282 mt  819 3282 L
 819 3282 mt  819 3282 L
 819 3282 mt  819 3282 L
 819 2505 mt  839 2505 L
2854 2505 mt 2833 2505 L
%%IncludeResource: font Helvetica
/Helvetica /WindowsLatin1Encoding 120 FMSR

 560 2549 mt 
(10) s
%%IncludeResource: font Helvetica
/Helvetica /WindowsLatin1Encoding 80 FMSR

 693 2475 mt 
(0) s
 819 3282 mt  819 3282 L
 819 3282 mt  819 3282 L
 819 3282 mt  819 3282 L
 819 3282 mt  819 3282 L
 819 3282 mt  819 3282 L
 819 3282 mt  819 3282 L
 819 3282 mt  819 3282 L
 819 3282 mt  819 3282 L
 819 3282 mt  819 3282 L
 819 3282 mt  819 3282 L
 819 3282 mt  819 3282 L
 819 3282 mt  819 3282 L
 819 3282 mt  819 3282 L
 819 3282 mt  819 3282 L
 819 3282 mt  819 3282 L
 819 3282 mt  819 3282 L
 819 3282 mt  819 3282 L
 819 3282 mt  819 3282 L
 819 2117 mt  839 2117 L
2854 2117 mt 2833 2117 L
%%IncludeResource: font Helvetica
/Helvetica /WindowsLatin1Encoding 120 FMSR

 560 2161 mt 
(10) s
%%IncludeResource: font Helvetica
/Helvetica /WindowsLatin1Encoding 80 FMSR

 693 2087 mt 
(2) s
 819 3282 mt  819 3282 L
 819 3282 mt  819 3282 L
 819 3282 mt  819 3282 L
 819 3282 mt  819 3282 L
 819 3282 mt  819 3282 L
 819 3282 mt  819 3282 L
 819 3282 mt  819 3282 L
 819 3282 mt  819 3282 L
 819 3282 mt  819 3282 L
 819 3282 mt  819 3282 L
 819 3282 mt  819 3282 L
 819 3282 mt  819 3282 L
 819 3282 mt  819 3282 L
 819 3282 mt  819 3282 L
 819 3282 mt  819 3282 L
 819 3282 mt  819 3282 L
 819 3282 mt  819 3282 L
 819 3282 mt  819 3282 L
 819 2117 mt 2854 2117 L
 819 3282 mt 2854 3282 L
2854 3282 mt 2854 2117 L
 819 3282 mt  819 2117 L
gs 819 2117 2036 1166 rc
c8
136 121 135 68 136 26 136 115 135 56 136 54 136 94 135 50 
136 82 136 64 954 2416 11 MP stroke
gr

c8
0 sg
%%IncludeResource: font Helvetica
/Helvetica /WindowsLatin1Encoding 120 FMSR

1063 2022 mt 
(Errore con Jacobi usando A2) s
1 sg
0 1165 2034 0 0 -1165 3448 1537 4 MP
PP
-2034 0 0 1165 2034 0 0 -1165 3448 1537 5 MP stroke
4 w
DO
SO
6 w
0 sg
3448  372 mt 5482  372 L
3448 1537 mt 5482 1537 L
5482 1537 mt 5482  372 L
3448 1537 mt 3448  372 L
3448 1537 mt 5482 1537 L
3448 1537 mt 3448  372 L
3448 1537 mt 3448 1516 L
3448  372 mt 3448  392 L
3415 1682 mt 
(0) s
3854 1537 mt 3854 1516 L
3854  372 mt 3854  392 L
3788 1682 mt 
(20) s
4261 1537 mt 4261 1516 L
4261  372 mt 4261  392 L
4195 1682 mt 
(40) s
4668 1537 mt 4668 1516 L
4668  372 mt 4668  392 L
4602 1682 mt 
(60) s
5075 1537 mt 5075 1516 L
5075  372 mt 5075  392 L
5009 1682 mt 
(80) s
5482 1537 mt 5482 1516 L
5482  372 mt 5482  392 L
5382 1682 mt 
(100) s
3448 1537 mt 3448 1537 L
3448 1537 mt 3448 1537 L
3448 1537 mt 3448 1537 L
3448 1537 mt 3448 1537 L
3448 1537 mt 3448 1537 L
3448 1537 mt 3448 1537 L
3448 1537 mt 3448 1537 L
3448 1537 mt 3448 1537 L
3448 1537 mt 3448 1537 L
3448 1537 mt 3448 1537 L
3448 1537 mt 3448 1537 L
3448 1537 mt 3448 1537 L
3448 1537 mt 3448 1537 L
3448 1537 mt 3448 1537 L
3448 1537 mt 3448 1537 L
3448 1537 mt 3448 1537 L
3448 1537 mt 3448 1537 L
3448 1537 mt 3448 1537 L
3448 1537 mt 3468 1537 L
5482 1537 mt 5461 1537 L
3236 1581 mt 
(10) s
%%IncludeResource: font Helvetica
/Helvetica /WindowsLatin1Encoding 80 FMSR

3369 1507 mt 
(0) s
3448 1537 mt 3448 1537 L
3448 1537 mt 3448 1537 L
3448 1537 mt 3448 1537 L
3448 1537 mt 3448 1537 L
3448 1537 mt 3448 1537 L
3448 1537 mt 3448 1537 L
3448 1537 mt 3448 1537 L
3448 1537 mt 3448 1537 L
3448 1537 mt 3448 1537 L
3448 1537 mt 3448 1537 L
3448 1537 mt 3448 1537 L
3448 1537 mt 3448 1537 L
3448 1537 mt 3448 1537 L
3448 1537 mt 3448 1537 L
3448 1537 mt 3448 1537 L
3448 1537 mt 3448 1537 L
3448 1537 mt 3448 1537 L
3448 1537 mt 3448 1537 L
3448  372 mt 3468  372 L
5482  372 mt 5461  372 L
%%IncludeResource: font Helvetica
/Helvetica /WindowsLatin1Encoding 120 FMSR

3236  416 mt 
(10) s
%%IncludeResource: font Helvetica
/Helvetica /WindowsLatin1Encoding 80 FMSR

3369  342 mt 
(5) s
3448 1537 mt 3448 1537 L
3448 1537 mt 3448 1537 L
3448 1537 mt 3448 1537 L
3448 1537 mt 3448 1537 L
3448 1537 mt 3448 1537 L
3448 1537 mt 3448 1537 L
3448 1537 mt 3448 1537 L
3448 1537 mt 3448 1537 L
3448 1537 mt 3448 1537 L
3448 1537 mt 3448 1537 L
3448 1537 mt 3448 1537 L
3448 1537 mt 3448 1537 L
3448 1537 mt 3448 1537 L
3448 1537 mt 3448 1537 L
3448 1537 mt 3448 1537 L
3448 1537 mt 3448 1537 L
3448 1537 mt 3448 1537 L
3448 1537 mt 3448 1537 L
3448  372 mt 5482  372 L
3448 1537 mt 5482 1537 L
5482 1537 mt 5482  372 L
3448 1537 mt 3448  372 L
gs 3448 372 2035 1166 rc
c8
20 -11 21 -11 20 -10 20 -11 21 -11 20 -10 20 -11 21 -11 
20 -10 20 -11 21 -11 20 -10 20 -11 21 -11 20 -10 20 -11 
21 -11 20 -10 20 -11 21 -11 20 -10 20 -11 21 -10 20 -11 
20 -11 21 -10 20 -11 20 -11 21 -10 20 -11 20 -11 21 -10 
20 -11 20 -11 21 -10 20 -11 20 -11 21 -10 20 -11 20 -11 
21 -10 20 -11 20 -11 21 -10 20 -11 20 -11 21 -10 20 -11 
20 -11 21 -10 20 -11 21 -11 20 -10 20 -11 21 -11 20 -10 
20 -11 21 -11 20 -10 20 -11 21 -11 20 -10 20 -11 21 -11 
20 -10 20 -11 21 -11 20 -10 20 -11 21 -11 20 -10 20 -11 
21 -11 20 -10 20 -11 21 -11 20 -10 20 -11 21 -11 20 -10 
20 -11 21 -11 20 -10 20 -11 21 -10 20 -11 20 -11 21 -10 
20 -11 20 -11 21 -10 20 -11 20 -11 21 -10 20 -11 20 -10 
21 -10 20 16 3468 1451 99 MP stroke
gr

c8
0 sg
%%IncludeResource: font Helvetica
/Helvetica /WindowsLatin1Encoding 120 FMSR

3489  277 mt 
(Errore con Gauss-Seidel usando A1) s
1 sg
0 1165 2034 0 0 -1165 3468 3302 4 MP
PP
-2034 0 0 1165 2034 0 0 -1165 3468 3302 5 MP stroke
4 w
DO
SO
6 w
0 sg
3468 2137 mt 5502 2137 L
3468 3302 mt 5502 3302 L
5502 3302 mt 5502 2137 L
3468 3302 mt 3468 2137 L
3468 3302 mt 5502 3302 L
3468 3302 mt 3468 2137 L
3468 3302 mt 3468 3281 L
3468 2137 mt 3468 2157 L
3435 3447 mt 
(1) s
4146 3302 mt 4146 3281 L
4146 2137 mt 4146 2157 L
4113 3447 mt 
(2) s
4824 3302 mt 4824 3281 L
4824 2137 mt 4824 2157 L
4791 3447 mt 
(3) s
5502 3302 mt 5502 3281 L
5502 2137 mt 5502 2157 L
5469 3447 mt 
(4) s
3468 3302 mt 3468 3302 L
3468 3302 mt 3468 3302 L
3468 3302 mt 3468 3302 L
3468 3302 mt 3468 3302 L
3468 3302 mt 3468 3302 L
3468 3302 mt 3468 3302 L
3468 3302 mt 3468 3302 L
3468 3302 mt 3468 3302 L
3468 3302 mt 3468 3302 L
3468 3302 mt 3468 3302 L
3468 3302 mt 3468 3302 L
3468 3302 mt 3468 3302 L
3468 3302 mt 3468 3302 L
3468 3302 mt 3468 3302 L
3468 3302 mt 3468 3302 L
3468 3302 mt 3468 3302 L
3468 3302 mt 3468 3302 L
3468 3302 mt 3468 3302 L
3468 3302 mt 3488 3302 L
5502 3302 mt 5481 3302 L
3209 3346 mt 
(10) s
%%IncludeResource: font Helvetica
/Helvetica /WindowsLatin1Encoding 80 FMSR

3342 3272 mt 
(-4) s
3468 3302 mt 3468 3302 L
3468 3302 mt 3468 3302 L
3468 3302 mt 3468 3302 L
3468 3302 mt 3468 3302 L
3468 3302 mt 3468 3302 L
3468 3302 mt 3468 3302 L
3468 3302 mt 3468 3302 L
3468 3302 mt 3468 3302 L
3468 3302 mt 3468 3302 L
3468 3302 mt 3468 3302 L
3468 3302 mt 3468 3302 L
3468 3302 mt 3468 3302 L
3468 3302 mt 3468 3302 L
3468 3302 mt 3468 3302 L
3468 3302 mt 3468 3302 L
3468 3302 mt 3468 3302 L
3468 3302 mt 3468 3302 L
3468 3302 mt 3468 3302 L
3468 2913 mt 3488 2913 L
5502 2913 mt 5481 2913 L
%%IncludeResource: font Helvetica
/Helvetica /WindowsLatin1Encoding 120 FMSR

3209 2957 mt 
(10) s
%%IncludeResource: font Helvetica
/Helvetica /WindowsLatin1Encoding 80 FMSR

3342 2883 mt 
(-2) s
3468 3302 mt 3468 3302 L
3468 3302 mt 3468 3302 L
3468 3302 mt 3468 3302 L
3468 3302 mt 3468 3302 L
3468 3302 mt 3468 3302 L
3468 3302 mt 3468 3302 L
3468 3302 mt 3468 3302 L
3468 3302 mt 3468 3302 L
3468 3302 mt 3468 3302 L
3468 3302 mt 3468 3302 L
3468 3302 mt 3468 3302 L
3468 3302 mt 3468 3302 L
3468 3302 mt 3468 3302 L
3468 3302 mt 3468 3302 L
3468 3302 mt 3468 3302 L
3468 3302 mt 3468 3302 L
3468 3302 mt 3468 3302 L
3468 3302 mt 3468 3302 L
3468 2525 mt 3488 2525 L
5502 2525 mt 5481 2525 L
%%IncludeResource: font Helvetica
/Helvetica /WindowsLatin1Encoding 120 FMSR

3209 2569 mt 
(10) s
%%IncludeResource: font Helvetica
/Helvetica /WindowsLatin1Encoding 80 FMSR

3342 2495 mt 
(0) s
3468 3302 mt 3468 3302 L
3468 3302 mt 3468 3302 L
3468 3302 mt 3468 3302 L
3468 3302 mt 3468 3302 L
3468 3302 mt 3468 3302 L
3468 3302 mt 3468 3302 L
3468 3302 mt 3468 3302 L
3468 3302 mt 3468 3302 L
3468 3302 mt 3468 3302 L
3468 3302 mt 3468 3302 L
3468 3302 mt 3468 3302 L
3468 3302 mt 3468 3302 L
3468 3302 mt 3468 3302 L
3468 3302 mt 3468 3302 L
3468 3302 mt 3468 3302 L
3468 3302 mt 3468 3302 L
3468 3302 mt 3468 3302 L
3468 3302 mt 3468 3302 L
3468 2137 mt 3488 2137 L
5502 2137 mt 5481 2137 L
%%IncludeResource: font Helvetica
/Helvetica /WindowsLatin1Encoding 120 FMSR

3209 2181 mt 
(10) s
%%IncludeResource: font Helvetica
/Helvetica /WindowsLatin1Encoding 80 FMSR

3342 2107 mt 
(2) s
3468 3302 mt 3468 3302 L
3468 3302 mt 3468 3302 L
3468 3302 mt 3468 3302 L
3468 3302 mt 3468 3302 L
3468 3302 mt 3468 3302 L
3468 3302 mt 3468 3302 L
3468 3302 mt 3468 3302 L
3468 3302 mt 3468 3302 L
3468 3302 mt 3468 3302 L
3468 3302 mt 3468 3302 L
3468 3302 mt 3468 3302 L
3468 3302 mt 3468 3302 L
3468 3302 mt 3468 3302 L
3468 3302 mt 3468 3302 L
3468 3302 mt 3468 3302 L
3468 3302 mt 3468 3302 L
3468 3302 mt 3468 3302 L
3468 3302 mt 3468 3302 L
3468 2137 mt 5502 2137 L
3468 3302 mt 5502 3302 L
5502 3302 mt 5502 2137 L
3468 3302 mt 3468 2137 L
gs 3468 2137 2035 1166 rc
c8
678 336 678 337 678 115 3468 2464 4 MP stroke
gr

c8
0 sg
%%IncludeResource: font Helvetica
/Helvetica /WindowsLatin1Encoding 120 FMSR

3509 2042 mt 
(Errore con Gauss-Seidel usando A2) s

end %%Color Dict

eplot
%%EndObject

epage
end

showpage

%%Trailer
%%EOF
