%!PS-Adobe-3.0 EPSF-3.0
%%Creator: MATLAB, The MathWorks, Inc. Version 8.0.0.783 (R2012b). Operating System: Microsoft Windows 7.
%%Title: C:\SILVIA\UniversitÓ\Presenti\Calcolo numerico\Silvia Balzani - esercitazioni\esCalcoloNumerico\Consegne\esercizi\Esercitazione05\esercitazione05-03_graficoB.eps
%%CreationDate: 10/11/2015  16:20:04
%%DocumentNeededFonts: Helvetica
%%DocumentProcessColors: Cyan Magenta Yellow Black
%%LanguageLevel: 2
%%Pages: 1
%%BoundingBox:    -1   203   597   639
%%EndComments

%%BeginProlog
% MathWorks dictionary
/MathWorks 160 dict begin
% definition operators
/bdef {bind def} bind def
/ldef {load def} bind def
/xdef {exch def} bdef
/xstore {exch store} bdef
% operator abbreviations
/c  /clip ldef
/cc /concat ldef
/cp /closepath ldef
/gr /grestore ldef
/gs /gsave ldef
/mt /moveto ldef
/np /newpath ldef
/cm /currentmatrix ldef
/sm /setmatrix ldef
/rm /rmoveto ldef
/rl /rlineto ldef
/s {show newpath} bdef
/sc {setcmykcolor} bdef
/sr /setrgbcolor ldef
/sg /setgray ldef
/w /setlinewidth ldef
/j /setlinejoin ldef
/cap /setlinecap ldef
/rc {rectclip} bdef
/rf {rectfill} bdef
% page state control
/pgsv () def
/bpage {/pgsv save def} bdef
/epage {pgsv restore} bdef
/bplot /gsave ldef
/eplot {stroke grestore} bdef
% orientation switch
/portraitMode 0 def /landscapeMode 1 def /rotateMode 2 def
% coordinate system mappings
/dpi2point 0 def
% font control
/FontSize 0 def
/FMS {/FontSize xstore findfont [FontSize 0 0 FontSize neg 0 0]
  makefont setfont} bdef
/ISOLatin1Encoding where {pop /WindowsLatin1Encoding 256 array bdef
ISOLatin1Encoding WindowsLatin1Encoding copy pop
/.notdef/.notdef/quotesinglbase/florin/quotedblbase/ellipsis/dagger
/daggerdbl/circumflex/perthousand/Scaron/guilsinglleft/OE/.notdef/.notdef
/.notdef/.notdef/quoteleft/quoteright/quotedblleft/quotedblright/bullet
/endash/emdash/tilde/trademark/scaron/guilsinglright/oe/.notdef/.notdef
/Ydieresis WindowsLatin1Encoding 128 32 getinterval astore pop}
{/WindowsLatin1Encoding StandardEncoding bdef} ifelse
/reencode {exch dup where {pop load} {pop StandardEncoding} ifelse
  exch dup 3 1 roll findfont dup length dict begin
  { 1 index /FID ne {def}{pop pop} ifelse } forall
  /Encoding exch def currentdict end definefont pop} bdef
/isroman {findfont /CharStrings get /Agrave known} bdef
/FMSR {3 1 roll 1 index dup isroman {reencode} {pop pop} ifelse
  exch FMS} bdef
/csm {1 dpi2point div -1 dpi2point div scale neg translate
 dup landscapeMode eq {pop -90 rotate}
  {rotateMode eq {90 rotate} if} ifelse} bdef
% line types: solid, dotted, dashed, dotdash
/SO { [] 0 setdash } bdef
/DO { [.5 dpi2point mul 4 dpi2point mul] 0 setdash } bdef
/DA { [6 dpi2point mul] 0 setdash } bdef
/DD { [.5 dpi2point mul 4 dpi2point mul 6 dpi2point mul 4
  dpi2point mul] 0 setdash } bdef
% macros for lines and objects
/L {lineto stroke} bdef
/MP {3 1 roll moveto 1 sub {rlineto} repeat} bdef
/AP {{rlineto} repeat} bdef
/PDlw -1 def
/W {/PDlw currentlinewidth def setlinewidth} def
/PP {closepath eofill} bdef
/DP {closepath stroke} bdef
/MR {4 -2 roll moveto dup  0 exch rlineto exch 0 rlineto
  neg 0 exch rlineto closepath} bdef
/FR {MR stroke} bdef
/PR {MR fill} bdef
/L1i {{currentfile picstr readhexstring pop} image} bdef
/tMatrix matrix def
/MakeOval {newpath tMatrix currentmatrix pop translate scale
0 0 1 0 360 arc tMatrix setmatrix} bdef
/FO {MakeOval stroke} bdef
/PO {MakeOval fill} bdef
/PD {currentlinewidth 2 div 0 360 arc fill
   PDlw -1 eq not {PDlw w /PDlw -1 def} if} def
/FA {newpath tMatrix currentmatrix pop translate scale
  0 0 1 5 -2 roll arc tMatrix setmatrix stroke} bdef
/PA {newpath tMatrix currentmatrix pop	translate 0 0 moveto scale
  0 0 1 5 -2 roll arc closepath tMatrix setmatrix fill} bdef
/FAn {newpath tMatrix currentmatrix pop translate scale
  0 0 1 5 -2 roll arcn tMatrix setmatrix stroke} bdef
/PAn {newpath tMatrix currentmatrix pop translate 0 0 moveto scale
  0 0 1 5 -2 roll arcn closepath tMatrix setmatrix fill} bdef
/vradius 0 def /hradius 0 def /lry 0 def
/lrx 0 def /uly 0 def /ulx 0 def /rad 0 def
/MRR {/vradius xdef /hradius xdef /lry xdef /lrx xdef /uly xdef
  /ulx xdef newpath tMatrix currentmatrix pop ulx hradius add uly
  vradius add translate hradius vradius scale 0 0 1 180 270 arc 
  tMatrix setmatrix lrx hradius sub uly vradius add translate
  hradius vradius scale 0 0 1 270 360 arc tMatrix setmatrix
  lrx hradius sub lry vradius sub translate hradius vradius scale
  0 0 1 0 90 arc tMatrix setmatrix ulx hradius add lry vradius sub
  translate hradius vradius scale 0 0 1 90 180 arc tMatrix setmatrix
  closepath} bdef
/FRR {MRR stroke } bdef
/PRR {MRR fill } bdef
/MlrRR {/lry xdef /lrx xdef /uly xdef /ulx xdef /rad lry uly sub 2 div def
  newpath tMatrix currentmatrix pop ulx rad add uly rad add translate
  rad rad scale 0 0 1 90 270 arc tMatrix setmatrix lrx rad sub lry rad
  sub translate rad rad scale 0 0 1 270 90 arc tMatrix setmatrix
  closepath} bdef
/FlrRR {MlrRR stroke } bdef
/PlrRR {MlrRR fill } bdef
/MtbRR {/lry xdef /lrx xdef /uly xdef /ulx xdef /rad lrx ulx sub 2 div def
  newpath tMatrix currentmatrix pop ulx rad add uly rad add translate
  rad rad scale 0 0 1 180 360 arc tMatrix setmatrix lrx rad sub lry rad
  sub translate rad rad scale 0 0 1 0 180 arc tMatrix setmatrix
  closepath} bdef
/FtbRR {MtbRR stroke } bdef
/PtbRR {MtbRR fill } bdef
/stri 6 array def /dtri 6 array def
/smat 6 array def /dmat 6 array def
/tmat1 6 array def /tmat2 6 array def /dif 3 array def
/asub {/ind2 exch def /ind1 exch def dup dup
  ind1 get exch ind2 get sub exch } bdef
/tri_to_matrix {
  2 0 asub 3 1 asub 4 0 asub 5 1 asub
  dup 0 get exch 1 get 7 -1 roll astore } bdef
/compute_transform {
  dmat dtri tri_to_matrix tmat1 invertmatrix 
  smat stri tri_to_matrix tmat2 concatmatrix } bdef
/ds {stri astore pop} bdef
/dt {dtri astore pop} bdef
/db {2 copy /cols xdef /rows xdef mul dup 3 mul string
  currentfile 
  3 index 0 eq {/ASCIIHexDecode filter}
  {/ASCII85Decode filter 3 index 2 eq {/RunLengthDecode filter} if }
  ifelse exch readstring pop
  dup 0 3 index getinterval /rbmap xdef
  dup 2 index dup getinterval /gbmap xdef
  1 index dup 2 mul exch getinterval /bbmap xdef pop pop}bdef
/it {gs np dtri aload pop moveto lineto lineto cp c
  cols rows 8 compute_transform 
  rbmap gbmap bbmap true 3 colorimage gr}bdef
/il {newpath moveto lineto stroke}bdef
currentdict end def
%%EndProlog

%%BeginSetup
MathWorks begin

0 cap

end
%%EndSetup

%%Page: 1 1
%%BeginPageSetup
%%PageBoundingBox:    -1   203   597   639
MathWorks begin
bpage
%%EndPageSetup

%%BeginObject: obj1
bplot

/dpi2point 12 def
portraitMode -0012 7668 csm

    0     0  7179  5231 rc
88 dict begin %Colortable dictionary
/c0 { 0.000000 0.000000 0.000000 sr} bdef
/c1 { 1.000000 1.000000 1.000000 sr} bdef
/c2 { 0.900000 0.000000 0.000000 sr} bdef
/c3 { 0.000000 0.820000 0.000000 sr} bdef
/c4 { 0.000000 0.000000 0.800000 sr} bdef
/c5 { 0.910000 0.820000 0.320000 sr} bdef
/c6 { 1.000000 0.260000 0.820000 sr} bdef
/c7 { 0.000000 0.820000 0.820000 sr} bdef
c0
1 j
1 sg
   0    0 7180 5232 rf
6 w
0 4264 5564 0 0 -4264 933 4656 4 MP
PP
-5564 0 0 4264 5564 0 0 -4264 933 4656 5 MP stroke
4 w
DO
0 sg
 933 4656 mt  933  392 L
 933  392 mt  933  392 L
1860 4656 mt 1860  392 L
1860  392 mt 1860  392 L
2787 4656 mt 2787  392 L
2787  392 mt 2787  392 L
3715 4656 mt 3715  392 L
3715  392 mt 3715  392 L
4642 4656 mt 4642  392 L
4642  392 mt 4642  392 L
5569 4656 mt 5569  392 L
5569  392 mt 5569  392 L
6497 4656 mt 6497  392 L
6497  392 mt 6497  392 L
 933 4518 mt 6497 4518 L
6497 4518 mt 6497 4518 L
 933 3830 mt 6497 3830 L
6497 3830 mt 6497 3830 L
 933 3142 mt 6497 3142 L
6497 3142 mt 6497 3142 L
 933 2455 mt 6497 2455 L
6497 2455 mt 6497 2455 L
 933 1767 mt 6497 1767 L
6497 1767 mt 6497 1767 L
 933 1079 mt 6497 1079 L
6497 1079 mt 6497 1079 L
 933  392 mt 6497  392 L
6497  392 mt 6497  392 L
SO
6 w
 933 4656 mt 6497 4656 L
 933 4656 mt  933  392 L
 933 4656 mt  933 4600 L
%%IncludeResource: font Helvetica
/Helvetica /WindowsLatin1Encoding 120 FMSR

 830 4801 mt 
(-6) s
1860 4656 mt 1860 4600 L
1757 4801 mt 
(-4) s
2787 4656 mt 2787 4600 L
2684 4801 mt 
(-2) s
3715 4656 mt 3715 4600 L
3682 4801 mt 
(0) s
4642 4656 mt 4642 4600 L
4609 4801 mt 
(2) s
5569 4656 mt 5569 4600 L
5536 4801 mt 
(4) s
6497 4656 mt 6497 4600 L
6464 4801 mt 
(6) s
 933 4518 mt  988 4518 L
 832 4562 mt 
(0) s
 933 3830 mt  988 3830 L
 732 3874 mt 
(0.5) s
 933 3142 mt  988 3142 L
 832 3186 mt 
(1) s
 933 2455 mt  988 2455 L
 732 2499 mt 
(1.5) s
 933 1767 mt  988 1767 L
 832 1811 mt 
(2) s
 933 1079 mt  988 1079 L
 732 1123 mt 
(2.5) s
 933  392 mt  988  392 L
 832  436 mt 
(3) s
 933  338 mt 
(x 10) s
%%IncludeResource: font Helvetica
/Helvetica /WindowsLatin1Encoding 80 FMSR

1159  264 mt 
(6) s
gs 933 392 5565 4265 rc
/c8 { 1.000000 0.000000 1.000000 sr} bdef
c8
5 0 4 0 5 0 5 0 4 0 5 0 5 0 4 0 
5 0 5 0 4 0 5 0 5 0 4 0 5 0 5 0 
4 0 5 0 5 0 5 0 4 0 5 0 5 0 4 0 
5 0 5 0 4 0 5 0 5 0 4 0 5 0 5 0 
4 0 5 0 5 0 4 0 5 0 5 0 4 0 5 0 
5 0 5 0 4 0 5 0 5 0 4 0 5 0 5 0 
4 0 5 0 5 0 4 0 5 0 5 0 4 0 5 0 
5 0 4 0 5 0 5 0 5 0 4 0 5 0 5 0 
4 0 5 0 5 0 4 0 5 0 5 0 4 0 5 0 
5 0 4 0 5 0 5 0 4 0 5 0 5 0 5 0 
4 0 5 0 5 0 4 0 5 0 5 0 4 0 5 0 
5 0 4 0 5 0 5 0 4 0 5 0 5 0 4 0 
5 0 5 0 4 0 5 0 5 0 5 0 4 0 5 0 
5 0 4 0 5 0 5 0 4 0 5 0 5 0 4 0 
5 0 5 0 4 0 5 0 5 0 4 0 5 0 5 0 
5 0 4 0 5 0 5 0 4 0 5 0 5 0 4 0 
5 0 5 0 4 0 5 0 5 0 4 0 5 0 5 0 
4 0 5 0 5 0 5 0 4 0 5 0 5 0 4 0 
5 0 5 0 4 0 5 0 5 0 4 0 5 0 5 0 
4 0 5 0 5 0 4 0 5 0 5 0 5 0 4 0 
5 0 5 0 4 0 5 0 5 0 4 0 5 0 5 0 
4 0 5 0 5 0 4 0 5 0 5 0 4 0 5 0 
5 0 4 0 5 0 5 0 5 0 4 0 5 0 5 0 
4 0 5 0 5 0 4 0 5 0 5 0 4 0 5 0 
5 0 4 0 5 0 5 0 4 0 5 0 3251 4518 199 MP stroke
/c9 { 0.000000 1.000000 1.000000 sr} bdef
c9
10 0 9 0 9 0 10 0 9 0 9 0 10 0 9 0 
9 0 10 0 9 0 10 0 9 0 9 0 10 0 9 0 
9 0 10 0 9 0 10 0 9 0 9 0 10 0 9 0 
9 0 10 0 9 0 9 0 10 0 9 0 10 0 9 0 
9 0 10 0 9 0 9 0 10 0 9 0 9 0 10 0 
9 0 10 0 9 0 9 0 10 0 9 0 9 0 10 0 
9 0 10 0 9 0 9 0 10 0 9 0 9 0 10 0 
9 0 9 0 10 0 9 0 10 0 9 0 9 0 10 0 
9 0 9 0 10 0 9 0 9 0 10 0 9 0 10 0 
9 0 9 0 10 0 9 0 9 0 10 0 9 0 10 0 
9 0 9 0 10 0 9 0 9 0 10 0 9 0 9 0 
10 0 9 0 10 0 9 0 9 0 10 0 9 0 9 0 
10 0 9 0 9 0 10 0 9 0 10 0 9 0 9 0 
10 0 9 0 9 0 10 0 9 0 10 0 9 0 9 0 
10 0 9 0 9 0 10 0 9 0 9 0 10 0 9 0 
10 0 9 0 9 0 10 0 9 0 9 0 10 0 9 0 
10 0 9 0 9 0 10 0 9 0 9 0 10 0 9 0 
9 0 10 0 9 0 10 0 9 0 9 0 10 0 9 0 
9 0 10 0 9 0 9 0 10 0 9 0 10 0 9 0 
9 0 10 0 9 0 9 0 10 0 9 0 10 0 9 0 
9 0 10 0 9 0 9 0 10 0 9 0 9 0 10 0 
9 0 10 0 9 0 9 0 10 0 9 0 9 0 10 0 
9 0 9 0 10 0 9 0 10 0 9 0 9 0 10 0 
9 0 9 0 10 0 9 0 10 0 9 0 9 0 10 0 
9 0 9 0 10 0 9 0 9 0 10 0 2787 4518 199 MP stroke
/c10 { 0.000000 1.000000 0.000000 sr} bdef
c10
15 0 14 0 14 0 14 0 14 0 14 0 14 0 14 0 
14 0 14 0 14 0 14 0 14 0 14 0 14 0 14 0 
14 0 14 0 14 0 15 0 14 0 14 0 14 0 14 0 
14 0 14 0 14 0 14 0 14 0 14 0 14 0 14 0 
14 0 14 0 14 0 14 0 14 0 14 0 14 0 15 0 
14 0 14 0 14 0 14 0 14 0 14 0 14 0 14 0 
14 0 14 0 14 0 14 0 14 0 14 0 14 0 14 0 
14 0 14 0 14 0 15 0 14 0 14 0 14 0 14 0 
14 0 14 0 14 0 14 0 14 0 14 0 14 0 14 0 
14 0 14 0 14 0 14 0 14 0 14 0 14 0 15 0 
14 0 14 0 14 0 14 0 14 0 14 0 14 0 14 0 
14 0 14 0 14 0 14 0 14 0 14 0 14 0 14 0 
14 0 14 0 14 0 15 0 14 0 14 0 14 0 14 0 
14 0 14 0 14 0 14 0 14 0 14 0 14 0 14 0 
14 0 14 0 14 0 14 0 14 0 14 0 15 0 14 0 
14 0 14 0 14 0 14 0 14 0 14 0 14 0 14 0 
14 0 14 0 14 0 14 0 14 0 14 0 14 0 14 0 
14 0 14 0 15 0 14 0 14 0 14 0 14 0 14 0 
14 0 14 0 14 0 14 0 14 0 14 0 14 0 14 0 
14 0 14 0 14 0 14 0 14 0 14 0 15 0 14 0 
14 0 14 0 14 0 14 0 14 0 14 0 14 0 14 0 
14 0 14 0 14 0 14 0 14 0 14 0 14 0 14 0 
14 0 14 0 15 0 14 0 14 0 14 0 14 0 14 0 
14 0 14 0 14 0 14 0 14 0 14 0 14 0 14 0 
14 0 14 0 14 0 14 0 14 0 14 0 2324 4518 199 MP stroke
/c11 { 0.000000 0.000000 1.000000 sr} bdef
c11
19 -1 18 0 19 0 19 0 19 0 18 -1 19 0 19 0 
18 0 19 0 19 0 19 0 18 -1 19 0 19 0 19 0 
18 0 19 0 19 0 19 0 18 -1 19 0 19 0 18 0 
19 0 19 0 19 0 18 0 19 0 19 0 19 0 18 0 
19 0 19 0 19 -1 18 0 19 0 19 0 18 0 19 0 
19 0 19 0 18 0 19 0 19 0 19 0 18 0 19 0 
19 0 19 0 18 0 19 0 19 0 18 0 19 0 19 0 
19 0 18 0 19 0 19 0 19 0 18 0 19 0 19 0 
19 0 18 0 19 0 19 0 18 0 19 0 19 0 19 0 
18 0 19 -1 19 0 19 0 18 0 19 0 19 0 19 0 
18 0 19 0 19 0 18 0 19 0 19 0 19 0 18 0 
19 0 19 0 19 0 18 0 19 0 19 0 19 0 18 0 
19 0 19 0 18 0 19 0 19 0 19 0 18 0 19 0 
19 0 19 0 18 0 19 0 19 0 19 0 18 0 19 0 
19 0 19 0 18 0 19 0 19 0 18 0 19 0 19 0 
19 0 18 0 19 0 19 0 19 0 18 0 19 0 19 0 
19 0 18 0 19 0 19 0 18 0 19 0 19 0 19 0 
18 0 19 0 19 0 19 0 18 0 19 0 19 0 19 0 
18 0 19 0 19 0 18 0 19 0 19 0 19 0 18 0 
19 0 19 0 19 0 18 0 19 0 19 0 19 0 18 0 
19 0 19 0 18 0 19 0 19 0 19 0 18 0 19 0 
19 0 19 0 18 0 19 0 19 0 19 0 18 0 19 0 
19 0 18 0 19 0 19 0 19 0 18 0 19 0 19 0 
19 0 18 0 19 0 19 0 19 0 18 0 19 0 19 0 
18 0 19 0 19 0 19 0 18 0 19 0 1860 4518 199 MP stroke
0 sg
24 -7 23 -7 23 -6 24 -6 23 -5 24 -5 23 -5 24 -5 
23 -5 23 -4 24 -4 23 -4 24 -3 23 -4 23 -3 24 -3 
23 -3 24 -3 23 -3 24 -2 23 -3 23 -2 24 -2 23 -2 
24 -2 23 -2 23 -2 24 -2 23 -1 24 -2 23 -1 24 -2 
23 -1 23 -1 24 -1 23 -1 24 -1 23 -1 23 -1 24 -1 
23 -1 24 -1 23 -1 24 0 23 -1 23 -1 24 0 23 -1 
24 -1 23 0 23 -1 24 0 23 -1 24 0 23 0 24 -1 
23 0 23 0 24 -1 23 0 24 0 23 -1 23 0 24 0 
23 0 24 -1 23 0 24 0 23 0 23 0 24 -1 23 0 
24 0 23 0 23 0 24 0 23 0 24 -1 23 0 24 0 
23 0 23 0 24 0 23 0 24 0 23 0 23 0 24 0 
23 0 24 0 23 -1 24 0 23 0 23 0 24 0 23 0 
24 0 23 0 23 0 24 0 23 0 24 0 23 0 24 0 
23 0 23 0 24 0 23 0 24 0 23 0 24 0 23 0 
23 0 24 0 23 0 24 0 23 0 23 0 24 0 23 -1 
24 0 23 0 24 0 23 0 23 0 24 0 23 0 24 0 
23 0 23 0 24 0 23 -1 24 0 23 0 24 0 23 0 
23 0 24 0 23 0 24 0 23 0 23 0 24 -1 23 0 
24 0 23 0 24 0 23 0 23 0 24 0 23 0 24 0 
23 0 23 0 24 0 23 0 24 0 23 0 24 -1 23 0 
23 0 24 0 23 0 24 0 23 0 23 0 24 0 23 0 
24 0 23 0 24 0 23 0 23 0 24 0 23 0 24 0 
23 0 23 0 24 0 23 0 24 0 23 0 24 0 23 0 
23 0 24 0 23 0 24 0 23 0 23 0 24 0 23 0 
24 0 23 0 24 0 23 0 23 0 24 0 1396 4518 199 MP stroke
/c12 { 1.000000 0.000000 0.000000 sr} bdef
c12
29 -241 28 -228 28 -213 28 -202 28 -189 28 -178 28 -168 28 -157 
28 -149 29 -139 28 -131 28 -123 28 -116 28 -109 28 -103 28 -96 
28 -91 28 -85 28 -80 29 -75 28 -71 28 -66 28 -63 28 -58 
28 -56 28 -51 28 -49 28 -46 28 -43 29 -41 28 -38 28 -35 
28 -34 28 -32 28 -29 28 -28 28 -27 28 -24 28 -24 29 -21 
28 -21 28 -19 28 -19 28 -17 28 -16 28 -15 28 -14 28 -14 
28 -12 29 -12 28 -11 28 -11 28 -10 28 -9 28 -9 28 -8 
28 -8 28 -7 28 -7 29 -6 28 -7 28 -5 28 -6 28 -5 
28 -5 28 -4 28 -4 28 -4 28 -4 29 -4 28 -3 28 -3 
28 -3 28 -3 28 -3 28 -2 28 -2 28 -2 28 -2 29 -2 
28 -2 28 -2 28 -1 28 -1 28 -2 28 -1 28 -1 28 -1 
28 -1 29 -1 28 0 28 -1 28 0 28 -1 28 0 28 0 
28 -1 28 0 28 0 29 0 28 0 28 0 28 0 28 -1 
28 0 28 -1 28 0 28 -1 29 -1 28 0 28 -1 28 -1 
28 -1 28 -1 28 -1 28 -1 28 -1 28 -2 29 -1 28 -1 
28 -2 28 -1 28 -1 28 -2 28 -1 28 -2 28 -1 28 -1 
29 -2 28 -1 28 -2 28 -1 28 -2 28 -1 28 -2 28 -1 
28 -1 28 -2 29 -1 28 -1 28 -1 28 -2 28 -1 28 -1 
28 -1 28 -1 28 -1 28 -1 29 -1 28 -1 28 -1 28 0 
28 -1 28 -1 28 -1 28 0 28 -1 28 0 29 -1 28 0 
28 -1 28 0 28 0 28 -1 28 0 28 0 28 -1 28 0 
29 0 28 0 28 0 28 0 28 0 28 -1 28 0 28 0 
28 0 28 0 29 0 28 0 28 0 28 0 28 0 28 0 
28 0 28 0 28 0 28 0 29 0 28 0 28 0 28 0 
28 0 28 0 28 0 28 0 28 0 28 0 933 4518 199 MP stroke
gr

c12
0 sg
%%IncludeResource: font Helvetica
/Helvetica /WindowsLatin1Encoding 120 FMSR

2945  297 mt 
(Esercitazione 5 n. 3 \(parte b\)) s
 916 4699 mt 
( ) s
6481  434 mt 
( ) s
1 sg
0 918 1036 0 0 -918 5402 1370 4 MP
PP
-1036 0 0 918 1036 0 0 -918 5402 1370 5 MP stroke
4 w
DO
SO
6 w
0 sg
5402  452 mt 6438  452 L
5402 1370 mt 6438 1370 L
6438 1370 mt 6438  452 L
5402 1370 mt 5402  452 L
5402 1370 mt 6438 1370 L
5402 1370 mt 5402  452 L
5402  452 mt 6438  452 L
5402 1370 mt 6438 1370 L
6438 1370 mt 6438  452 L
5402 1370 mt 5402  452 L
5863  586 mt 
(con m = 1) s
gs 5402 452 1037 919 rc
c8
355 0 5472 543 2 MP stroke
gr

c8
0 sg
5863  733 mt 
(con m = 2) s
gs 5402 452 1037 919 rc
c9
355 0 5472 690 2 MP stroke
gr

c9
0 sg
5863  880 mt 
(con m = 3) s
gs 5402 452 1037 919 rc
c10
355 0 5472 837 2 MP stroke
gr

c10
0 sg
5863 1027 mt 
(con m = 4) s
gs 5402 452 1037 919 rc
c11
355 0 5472 984 2 MP stroke
gr

c11
0 sg
5863 1174 mt 
(con m = 5) s
gs 5402 452 1037 919 rc
355 0 5472 1131 2 MP stroke
gr

5863 1321 mt 
(con m = 6) s
gs 5402 452 1037 919 rc
c12
355 0 5472 1278 2 MP stroke
gr

c12

end %%Color Dict

eplot
%%EndObject

epage
end

showpage

%%Trailer
%%EOF
