%!PS-Adobe-3.0 EPSF-3.0
%%Creator: MATLAB, The MathWorks, Inc. Version 8.0.0.783 (R2012b). Operating System: Microsoft Windows 7.
%%Title: C:\SILVIA\UniversitÓ\Presenti\Calcolo numerico\Silvia Balzani - esercitazioni\esCalcoloNumerico\Consegne\esercizi\Esercitazione05\esercitazione05-03_graficoB2.eps
%%CreationDate: 10/11/2015  16:13:47
%%DocumentNeededFonts: Helvetica
%%DocumentProcessColors: Cyan Magenta Yellow Black
%%LanguageLevel: 2
%%Pages: 1
%%BoundingBox:    -1   250   597   590
%%EndComments

%%BeginProlog
% MathWorks dictionary
/MathWorks 160 dict begin
% definition operators
/bdef {bind def} bind def
/ldef {load def} bind def
/xdef {exch def} bdef
/xstore {exch store} bdef
% operator abbreviations
/c  /clip ldef
/cc /concat ldef
/cp /closepath ldef
/gr /grestore ldef
/gs /gsave ldef
/mt /moveto ldef
/np /newpath ldef
/cm /currentmatrix ldef
/sm /setmatrix ldef
/rm /rmoveto ldef
/rl /rlineto ldef
/s {show newpath} bdef
/sc {setcmykcolor} bdef
/sr /setrgbcolor ldef
/sg /setgray ldef
/w /setlinewidth ldef
/j /setlinejoin ldef
/cap /setlinecap ldef
/rc {rectclip} bdef
/rf {rectfill} bdef
% page state control
/pgsv () def
/bpage {/pgsv save def} bdef
/epage {pgsv restore} bdef
/bplot /gsave ldef
/eplot {stroke grestore} bdef
% orientation switch
/portraitMode 0 def /landscapeMode 1 def /rotateMode 2 def
% coordinate system mappings
/dpi2point 0 def
% font control
/FontSize 0 def
/FMS {/FontSize xstore findfont [FontSize 0 0 FontSize neg 0 0]
  makefont setfont} bdef
/ISOLatin1Encoding where {pop /WindowsLatin1Encoding 256 array bdef
ISOLatin1Encoding WindowsLatin1Encoding copy pop
/.notdef/.notdef/quotesinglbase/florin/quotedblbase/ellipsis/dagger
/daggerdbl/circumflex/perthousand/Scaron/guilsinglleft/OE/.notdef/.notdef
/.notdef/.notdef/quoteleft/quoteright/quotedblleft/quotedblright/bullet
/endash/emdash/tilde/trademark/scaron/guilsinglright/oe/.notdef/.notdef
/Ydieresis WindowsLatin1Encoding 128 32 getinterval astore pop}
{/WindowsLatin1Encoding StandardEncoding bdef} ifelse
/reencode {exch dup where {pop load} {pop StandardEncoding} ifelse
  exch dup 3 1 roll findfont dup length dict begin
  { 1 index /FID ne {def}{pop pop} ifelse } forall
  /Encoding exch def currentdict end definefont pop} bdef
/isroman {findfont /CharStrings get /Agrave known} bdef
/FMSR {3 1 roll 1 index dup isroman {reencode} {pop pop} ifelse
  exch FMS} bdef
/csm {1 dpi2point div -1 dpi2point div scale neg translate
 dup landscapeMode eq {pop -90 rotate}
  {rotateMode eq {90 rotate} if} ifelse} bdef
% line types: solid, dotted, dashed, dotdash
/SO { [] 0 setdash } bdef
/DO { [.5 dpi2point mul 4 dpi2point mul] 0 setdash } bdef
/DA { [6 dpi2point mul] 0 setdash } bdef
/DD { [.5 dpi2point mul 4 dpi2point mul 6 dpi2point mul 4
  dpi2point mul] 0 setdash } bdef
% macros for lines and objects
/L {lineto stroke} bdef
/MP {3 1 roll moveto 1 sub {rlineto} repeat} bdef
/AP {{rlineto} repeat} bdef
/PDlw -1 def
/W {/PDlw currentlinewidth def setlinewidth} def
/PP {closepath eofill} bdef
/DP {closepath stroke} bdef
/MR {4 -2 roll moveto dup  0 exch rlineto exch 0 rlineto
  neg 0 exch rlineto closepath} bdef
/FR {MR stroke} bdef
/PR {MR fill} bdef
/L1i {{currentfile picstr readhexstring pop} image} bdef
/tMatrix matrix def
/MakeOval {newpath tMatrix currentmatrix pop translate scale
0 0 1 0 360 arc tMatrix setmatrix} bdef
/FO {MakeOval stroke} bdef
/PO {MakeOval fill} bdef
/PD {currentlinewidth 2 div 0 360 arc fill
   PDlw -1 eq not {PDlw w /PDlw -1 def} if} def
/FA {newpath tMatrix currentmatrix pop translate scale
  0 0 1 5 -2 roll arc tMatrix setmatrix stroke} bdef
/PA {newpath tMatrix currentmatrix pop	translate 0 0 moveto scale
  0 0 1 5 -2 roll arc closepath tMatrix setmatrix fill} bdef
/FAn {newpath tMatrix currentmatrix pop translate scale
  0 0 1 5 -2 roll arcn tMatrix setmatrix stroke} bdef
/PAn {newpath tMatrix currentmatrix pop translate 0 0 moveto scale
  0 0 1 5 -2 roll arcn closepath tMatrix setmatrix fill} bdef
/vradius 0 def /hradius 0 def /lry 0 def
/lrx 0 def /uly 0 def /ulx 0 def /rad 0 def
/MRR {/vradius xdef /hradius xdef /lry xdef /lrx xdef /uly xdef
  /ulx xdef newpath tMatrix currentmatrix pop ulx hradius add uly
  vradius add translate hradius vradius scale 0 0 1 180 270 arc 
  tMatrix setmatrix lrx hradius sub uly vradius add translate
  hradius vradius scale 0 0 1 270 360 arc tMatrix setmatrix
  lrx hradius sub lry vradius sub translate hradius vradius scale
  0 0 1 0 90 arc tMatrix setmatrix ulx hradius add lry vradius sub
  translate hradius vradius scale 0 0 1 90 180 arc tMatrix setmatrix
  closepath} bdef
/FRR {MRR stroke } bdef
/PRR {MRR fill } bdef
/MlrRR {/lry xdef /lrx xdef /uly xdef /ulx xdef /rad lry uly sub 2 div def
  newpath tMatrix currentmatrix pop ulx rad add uly rad add translate
  rad rad scale 0 0 1 90 270 arc tMatrix setmatrix lrx rad sub lry rad
  sub translate rad rad scale 0 0 1 270 90 arc tMatrix setmatrix
  closepath} bdef
/FlrRR {MlrRR stroke } bdef
/PlrRR {MlrRR fill } bdef
/MtbRR {/lry xdef /lrx xdef /uly xdef /ulx xdef /rad lrx ulx sub 2 div def
  newpath tMatrix currentmatrix pop ulx rad add uly rad add translate
  rad rad scale 0 0 1 180 360 arc tMatrix setmatrix lrx rad sub lry rad
  sub translate rad rad scale 0 0 1 0 180 arc tMatrix setmatrix
  closepath} bdef
/FtbRR {MtbRR stroke } bdef
/PtbRR {MtbRR fill } bdef
/stri 6 array def /dtri 6 array def
/smat 6 array def /dmat 6 array def
/tmat1 6 array def /tmat2 6 array def /dif 3 array def
/asub {/ind2 exch def /ind1 exch def dup dup
  ind1 get exch ind2 get sub exch } bdef
/tri_to_matrix {
  2 0 asub 3 1 asub 4 0 asub 5 1 asub
  dup 0 get exch 1 get 7 -1 roll astore } bdef
/compute_transform {
  dmat dtri tri_to_matrix tmat1 invertmatrix 
  smat stri tri_to_matrix tmat2 concatmatrix } bdef
/ds {stri astore pop} bdef
/dt {dtri astore pop} bdef
/db {2 copy /cols xdef /rows xdef mul dup 3 mul string
  currentfile 
  3 index 0 eq {/ASCIIHexDecode filter}
  {/ASCII85Decode filter 3 index 2 eq {/RunLengthDecode filter} if }
  ifelse exch readstring pop
  dup 0 3 index getinterval /rbmap xdef
  dup 2 index dup getinterval /gbmap xdef
  1 index dup 2 mul exch getinterval /bbmap xdef pop pop}bdef
/it {gs np dtri aload pop moveto lineto lineto cp c
  cols rows 8 compute_transform 
  rbmap gbmap bbmap true 3 colorimage gr}bdef
/il {newpath moveto lineto stroke}bdef
currentdict end def
%%EndProlog

%%BeginSetup
MathWorks begin

0 cap

end
%%EndSetup

%%Page: 1 1
%%BeginPageSetup
%%PageBoundingBox:    -1   250   597   590
MathWorks begin
bpage
%%EndPageSetup

%%BeginObject: obj1
bplot

/dpi2point 12 def
portraitMode -0012 7080 csm

    0     0  7179  4070 rc
88 dict begin %Colortable dictionary
/c0 { 0.000000 0.000000 0.000000 sr} bdef
/c1 { 1.000000 1.000000 1.000000 sr} bdef
/c2 { 0.900000 0.000000 0.000000 sr} bdef
/c3 { 0.000000 0.820000 0.000000 sr} bdef
/c4 { 0.000000 0.000000 0.800000 sr} bdef
/c5 { 0.910000 0.820000 0.320000 sr} bdef
/c6 { 1.000000 0.260000 0.820000 sr} bdef
/c7 { 0.000000 0.820000 0.820000 sr} bdef
c0
1 j
1 sg
   0    0 7180 4071 rf
6 w
0 3318 5564 0 0 -3318 933 3622 4 MP
PP
-5564 0 0 3318 5564 0 0 -3318 933 3622 5 MP stroke
4 w
DO
0 sg
 933 3622 mt  933  304 L
 933  304 mt  933  304 L
1860 3622 mt 1860  304 L
1860  304 mt 1860  304 L
2787 3622 mt 2787  304 L
2787  304 mt 2787  304 L
3715 3622 mt 3715  304 L
3715  304 mt 3715  304 L
4642 3622 mt 4642  304 L
4642  304 mt 4642  304 L
5569 3622 mt 5569  304 L
5569  304 mt 5569  304 L
6497 3622 mt 6497  304 L
6497  304 mt 6497  304 L
 933 3203 mt 6497 3203 L
6497 3203 mt 6497 3203 L
 933 2650 mt 6497 2650 L
6497 2650 mt 6497 2650 L
 933 2097 mt 6497 2097 L
6497 2097 mt 6497 2097 L
 933 1543 mt 6497 1543 L
6497 1543 mt 6497 1543 L
 933  990 mt 6497  990 L
6497  990 mt 6497  990 L
 933  437 mt 6497  437 L
6497  437 mt 6497  437 L
SO
6 w
 933 3622 mt 6497 3622 L
 933 3622 mt  933  304 L
 933 3622 mt  933 3566 L
%%IncludeResource: font Helvetica
/Helvetica /WindowsLatin1Encoding 120 FMSR

 830 3767 mt 
(-6) s
1860 3622 mt 1860 3566 L
1757 3767 mt 
(-4) s
2787 3622 mt 2787 3566 L
2684 3767 mt 
(-2) s
3715 3622 mt 3715 3566 L
3682 3767 mt 
(0) s
4642 3622 mt 4642 3566 L
4609 3767 mt 
(2) s
5569 3622 mt 5569 3566 L
5536 3767 mt 
(4) s
6497 3622 mt 6497 3566 L
6464 3767 mt 
(6) s
 933 3622 mt  933 3622 L
DO
 933 3622 mt  933 3622 L
 933 3622 mt  933 3622 L
SO
 933 3622 mt  933 3622 L
DO
 933 3622 mt  933 3622 L
 933 3622 mt  933 3622 L
SO
 933 3622 mt  933 3622 L
DO
 933 3622 mt  933 3622 L
 933 3622 mt  933 3622 L
SO
 933 3622 mt  933 3622 L
DO
 933 3622 mt  933 3622 L
 933 3622 mt  933 3622 L
SO
 933 3622 mt  933 3622 L
DO
 933 3622 mt  933 3622 L
 933 3622 mt  933 3622 L
SO
 933 3622 mt  933 3622 L
DO
 933 3622 mt  933 3622 L
 933 3622 mt  933 3622 L
SO
 933 3622 mt  933 3622 L
DO
 933 3622 mt  933 3622 L
 933 3622 mt  933 3622 L
SO
 933 3622 mt  933 3622 L
DO
 933 3622 mt  933 3622 L
 933 3622 mt  933 3622 L
SO
 933 3622 mt  933 3622 L
DO
 933 3622 mt  933 3622 L
 933 3622 mt  933 3622 L
SO
 933 3203 mt  988 3203 L
 674 3247 mt 
(10) s
%%IncludeResource: font Helvetica
/Helvetica /WindowsLatin1Encoding 80 FMSR

 807 3173 mt 
(-4) s
 933 3622 mt  933 3622 L
DO
 933 3622 mt  933 3622 L
 933 3622 mt  933 3622 L
SO
 933 3622 mt  933 3622 L
DO
 933 3622 mt  933 3622 L
 933 3622 mt  933 3622 L
SO
 933 3622 mt  933 3622 L
DO
 933 3622 mt  933 3622 L
 933 3622 mt  933 3622 L
SO
 933 3622 mt  933 3622 L
DO
 933 3622 mt  933 3622 L
 933 3622 mt  933 3622 L
SO
 933 3622 mt  933 3622 L
DO
 933 3622 mt  933 3622 L
 933 3622 mt  933 3622 L
SO
 933 3622 mt  933 3622 L
DO
 933 3622 mt  933 3622 L
 933 3622 mt  933 3622 L
SO
 933 3622 mt  933 3622 L
DO
 933 3622 mt  933 3622 L
 933 3622 mt  933 3622 L
SO
 933 3622 mt  933 3622 L
DO
 933 3622 mt  933 3622 L
 933 3622 mt  933 3622 L
SO
 933 3622 mt  933 3622 L
DO
 933 3622 mt  933 3622 L
 933 3622 mt  933 3622 L
SO
 933 2650 mt  988 2650 L
%%IncludeResource: font Helvetica
/Helvetica /WindowsLatin1Encoding 120 FMSR

 674 2694 mt 
(10) s
%%IncludeResource: font Helvetica
/Helvetica /WindowsLatin1Encoding 80 FMSR

 807 2620 mt 
(-2) s
 933 3622 mt  933 3622 L
DO
 933 3622 mt  933 3622 L
 933 3622 mt  933 3622 L
SO
 933 3622 mt  933 3622 L
DO
 933 3622 mt  933 3622 L
 933 3622 mt  933 3622 L
SO
 933 3622 mt  933 3622 L
DO
 933 3622 mt  933 3622 L
 933 3622 mt  933 3622 L
SO
 933 3622 mt  933 3622 L
DO
 933 3622 mt  933 3622 L
 933 3622 mt  933 3622 L
SO
 933 3622 mt  933 3622 L
DO
 933 3622 mt  933 3622 L
 933 3622 mt  933 3622 L
SO
 933 3622 mt  933 3622 L
DO
 933 3622 mt  933 3622 L
 933 3622 mt  933 3622 L
SO
 933 3622 mt  933 3622 L
DO
 933 3622 mt  933 3622 L
 933 3622 mt  933 3622 L
SO
 933 3622 mt  933 3622 L
DO
 933 3622 mt  933 3622 L
 933 3622 mt  933 3622 L
SO
 933 3622 mt  933 3622 L
DO
 933 3622 mt  933 3622 L
 933 3622 mt  933 3622 L
SO
 933 2097 mt  988 2097 L
%%IncludeResource: font Helvetica
/Helvetica /WindowsLatin1Encoding 120 FMSR

 674 2141 mt 
(10) s
%%IncludeResource: font Helvetica
/Helvetica /WindowsLatin1Encoding 80 FMSR

 807 2067 mt 
(0) s
 933 3622 mt  933 3622 L
DO
 933 3622 mt  933 3622 L
 933 3622 mt  933 3622 L
SO
 933 3622 mt  933 3622 L
DO
 933 3622 mt  933 3622 L
 933 3622 mt  933 3622 L
SO
 933 3622 mt  933 3622 L
DO
 933 3622 mt  933 3622 L
 933 3622 mt  933 3622 L
SO
 933 3622 mt  933 3622 L
DO
 933 3622 mt  933 3622 L
 933 3622 mt  933 3622 L
SO
 933 3622 mt  933 3622 L
DO
 933 3622 mt  933 3622 L
 933 3622 mt  933 3622 L
SO
 933 3622 mt  933 3622 L
DO
 933 3622 mt  933 3622 L
 933 3622 mt  933 3622 L
SO
 933 3622 mt  933 3622 L
DO
 933 3622 mt  933 3622 L
 933 3622 mt  933 3622 L
SO
 933 3622 mt  933 3622 L
DO
 933 3622 mt  933 3622 L
 933 3622 mt  933 3622 L
SO
 933 3622 mt  933 3622 L
DO
 933 3622 mt  933 3622 L
 933 3622 mt  933 3622 L
SO
 933 1543 mt  988 1543 L
%%IncludeResource: font Helvetica
/Helvetica /WindowsLatin1Encoding 120 FMSR

 674 1587 mt 
(10) s
%%IncludeResource: font Helvetica
/Helvetica /WindowsLatin1Encoding 80 FMSR

 807 1513 mt 
(2) s
 933 3622 mt  933 3622 L
DO
 933 3622 mt  933 3622 L
 933 3622 mt  933 3622 L
SO
 933 3622 mt  933 3622 L
DO
 933 3622 mt  933 3622 L
 933 3622 mt  933 3622 L
SO
 933 3622 mt  933 3622 L
DO
 933 3622 mt  933 3622 L
 933 3622 mt  933 3622 L
SO
 933 3622 mt  933 3622 L
DO
 933 3622 mt  933 3622 L
 933 3622 mt  933 3622 L
SO
 933 3622 mt  933 3622 L
DO
 933 3622 mt  933 3622 L
 933 3622 mt  933 3622 L
SO
 933 3622 mt  933 3622 L
DO
 933 3622 mt  933 3622 L
 933 3622 mt  933 3622 L
SO
 933 3622 mt  933 3622 L
DO
 933 3622 mt  933 3622 L
 933 3622 mt  933 3622 L
SO
 933 3622 mt  933 3622 L
DO
 933 3622 mt  933 3622 L
 933 3622 mt  933 3622 L
SO
 933 3622 mt  933 3622 L
DO
 933 3622 mt  933 3622 L
 933 3622 mt  933 3622 L
SO
 933  990 mt  988  990 L
%%IncludeResource: font Helvetica
/Helvetica /WindowsLatin1Encoding 120 FMSR

 674 1034 mt 
(10) s
%%IncludeResource: font Helvetica
/Helvetica /WindowsLatin1Encoding 80 FMSR

 807  960 mt 
(4) s
 933 3622 mt  933 3622 L
DO
 933 3622 mt  933 3622 L
 933 3622 mt  933 3622 L
SO
 933 3622 mt  933 3622 L
DO
 933 3622 mt  933 3622 L
 933 3622 mt  933 3622 L
SO
 933 3622 mt  933 3622 L
DO
 933 3622 mt  933 3622 L
 933 3622 mt  933 3622 L
SO
 933 3622 mt  933 3622 L
DO
 933 3622 mt  933 3622 L
 933 3622 mt  933 3622 L
SO
 933 3622 mt  933 3622 L
DO
 933 3622 mt  933 3622 L
 933 3622 mt  933 3622 L
SO
 933 3622 mt  933 3622 L
DO
 933 3622 mt  933 3622 L
 933 3622 mt  933 3622 L
SO
 933 3622 mt  933 3622 L
DO
 933 3622 mt  933 3622 L
 933 3622 mt  933 3622 L
SO
 933 3622 mt  933 3622 L
DO
 933 3622 mt  933 3622 L
 933 3622 mt  933 3622 L
SO
 933 3622 mt  933 3622 L
DO
 933 3622 mt  933 3622 L
 933 3622 mt  933 3622 L
SO
 933  437 mt  988  437 L
%%IncludeResource: font Helvetica
/Helvetica /WindowsLatin1Encoding 120 FMSR

 674  481 mt 
(10) s
%%IncludeResource: font Helvetica
/Helvetica /WindowsLatin1Encoding 80 FMSR

 807  407 mt 
(6) s
 933 3622 mt  933 3622 L
DO
 933 3622 mt  933 3622 L
 933 3622 mt  933 3622 L
SO
 933 3622 mt  933 3622 L
DO
 933 3622 mt  933 3622 L
 933 3622 mt  933 3622 L
SO
 933 3622 mt  933 3622 L
DO
 933 3622 mt  933 3622 L
 933 3622 mt  933 3622 L
SO
 933 3622 mt  933 3622 L
DO
 933 3622 mt  933 3622 L
 933 3622 mt  933 3622 L
SO
 933 3622 mt  933 3622 L
DO
 933 3622 mt  933 3622 L
 933 3622 mt  933 3622 L
SO
 933 3622 mt  933 3622 L
DO
 933 3622 mt  933 3622 L
 933 3622 mt  933 3622 L
SO
 933 3622 mt  933 3622 L
DO
 933 3622 mt  933 3622 L
 933 3622 mt  933 3622 L
SO
 933 3622 mt  933 3622 L
DO
 933 3622 mt  933 3622 L
 933 3622 mt  933 3622 L
SO
 933 3622 mt  933 3622 L
DO
 933 3622 mt  933 3622 L
 933 3622 mt  933 3622 L
SO
gs 933 305 5565 3318 rc
/c8 { 1.000000 0.000000 1.000000 sr} bdef
c8
5 -1 4 -2 5 -1 5 -1 4 -1 5 -2 5 -1 4 -1 
5 -1 5 -1 4 -2 5 -1 5 -1 4 -1 5 -1 5 -2 
4 -1 5 -1 5 -1 5 -1 4 -1 5 -2 5 -1 4 -1 
5 -1 5 -1 4 -2 5 -1 5 -1 4 -1 5 -1 5 -1 
4 -1 5 -1 5 -2 4 -1 5 -1 5 -1 4 -1 5 -1 
5 -1 5 -1 4 -1 5 -1 5 -1 4 -1 5 -1 5 -1 
4 -1 5 -1 5 -1 4 -1 5 -1 5 -1 4 -1 5 -1 
5 -1 4 -1 5 0 5 -1 5 -1 4 -1 5 -1 5 0 
4 -1 5 -1 5 -1 4 0 5 -1 5 -1 4 0 5 -1 
5 -1 4 0 5 -1 5 0 4 -1 5 0 5 -1 5 0 
4 -1 5 0 5 0 4 -1 5 0 5 0 4 -1 5 0 
5 0 4 -1 5 0 5 0 4 0 5 0 5 0 4 0 
5 0 5 -1 4 0 5 0 5 0 5 0 4 0 5 0 
5 0 4 0 5 0 5 -1 4 0 5 0 5 0 4 -1 
5 0 5 0 4 -1 5 0 5 -1 4 0 5 -1 5 0 
5 -1 4 0 5 -1 5 0 4 -1 5 -1 5 -1 4 0 
5 -1 5 -1 4 -1 5 -1 5 -1 4 -1 5 -1 5 -1 
4 -1 5 -1 5 -1 5 -1 4 -1 5 -2 5 -1 4 -1 
5 -2 5 -1 4 -2 5 -1 5 -2 4 -2 5 -1 5 -2 
4 -2 5 -2 5 -2 4 -2 5 -2 5 -2 5 -3 4 -2 
5 -2 5 -3 4 -3 5 -2 5 -3 4 -3 5 -3 5 -3 
4 -4 5 -3 5 -4 4 -4 5 -4 5 -4 4 -4 5 -5 
5 -5 4 -5 5 -6 5 -6 5 -6 4 -6 5 -7 5 -8 
4 -8 5 -9 5 -10 4 -11 5 -12 5 -13 4 -16 5 -18 
5 -21 4 -26 5 -34 5 -48 4 -83 3256 2566 198 MP stroke
/c9 { 0.000000 1.000000 1.000000 sr} bdef
c9
10 -3 9 -2 9 -3 10 -2 9 -3 9 -2 10 -2 9 -3 
9 -2 10 -3 9 -2 10 -2 9 -3 9 -2 10 -3 9 -2 
9 -2 10 -3 9 -2 10 -3 9 -2 9 -2 10 -3 9 -2 
9 -2 10 -3 9 -2 9 -2 10 -3 9 -2 10 -2 9 -2 
9 -3 10 -2 9 -2 9 -2 10 -2 9 -3 9 -2 10 -2 
9 -2 10 -2 9 -2 9 -2 10 -2 9 -2 9 -2 10 -2 
9 -2 10 -2 9 -2 9 -2 10 -2 9 -2 9 -2 10 -1 
9 -2 9 -2 10 -2 9 -1 10 -2 9 -2 9 -1 10 -2 
9 -1 9 -2 10 -1 9 -1 9 -2 10 -1 9 -1 10 -2 
9 -1 9 -1 10 -1 9 -1 9 -1 10 -1 9 -1 10 -1 
9 -1 9 -1 10 -1 9 0 9 -1 10 -1 9 0 9 -1 
10 -1 9 0 10 0 9 -1 9 0 10 0 9 -1 9 0 
10 0 9 0 9 0 10 0 9 0 10 0 9 0 9 -1 
10 0 9 0 9 -1 10 0 9 0 10 -1 9 -1 9 0 
10 -1 9 -1 9 0 10 -1 9 -1 9 -1 10 -1 9 -1 
10 -1 9 -1 9 -2 10 -1 9 -1 9 -2 10 -1 9 -2 
10 -1 9 -2 9 -1 10 -2 9 -2 9 -2 10 -2 9 -2 
9 -2 10 -2 9 -3 10 -2 9 -3 9 -2 10 -3 9 -3 
9 -2 10 -3 9 -3 9 -3 10 -4 9 -3 10 -4 9 -3 
9 -4 10 -4 9 -4 9 -4 10 -4 9 -4 10 -5 9 -5 
9 -5 10 -5 9 -5 9 -5 10 -6 9 -6 9 -6 10 -7 
9 -6 10 -8 9 -7 9 -8 10 -8 9 -8 9 -9 10 -9 
9 -10 9 -10 10 -11 9 -12 10 -12 9 -14 9 -14 10 -15 
9 -17 9 -18 10 -19 9 -22 10 -24 9 -27 9 -31 10 -35 
9 -43 9 -52 10 -68 9 -97 9 -165 2797 2869 198 MP stroke
/c10 { 0.000000 1.000000 0.000000 sr} bdef
c10
15 -3 14 -4 14 -4 14 -3 14 -4 14 -3 14 -4 14 -4 
14 -3 14 -4 14 -4 14 -3 14 -4 14 -3 14 -4 14 -4 
14 -3 14 -4 14 -3 15 -4 14 -3 14 -4 14 -3 14 -4 
14 -4 14 -3 14 -3 14 -4 14 -3 14 -4 14 -3 14 -4 
14 -3 14 -3 14 -4 14 -3 14 -3 14 -3 14 -4 15 -3 
14 -3 14 -3 14 -3 14 -4 14 -3 14 -3 14 -3 14 -3 
14 -3 14 -3 14 -2 14 -3 14 -3 14 -3 14 -3 14 -2 
14 -3 14 -2 14 -3 15 -3 14 -2 14 -2 14 -3 14 -2 
14 -2 14 -3 14 -2 14 -2 14 -2 14 -2 14 -2 14 -2 
14 -1 14 -2 14 -2 14 -2 14 -1 14 -2 14 -1 15 -1 
14 -2 14 -1 14 -1 14 -1 14 -1 14 -1 14 -1 14 -1 
14 -1 14 -1 14 0 14 -1 14 0 14 -1 14 0 14 0 
14 0 14 0 14 -1 15 0 14 0 14 0 14 0 14 0 
14 -1 14 0 14 -1 14 0 14 -1 14 -1 14 -1 14 -1 
14 -1 14 -1 14 -1 14 -1 14 -2 14 -1 15 -2 14 -1 
14 -2 14 -2 14 -1 14 -2 14 -2 14 -2 14 -3 14 -2 
14 -2 14 -3 14 -2 14 -3 14 -3 14 -3 14 -3 14 -3 
14 -3 14 -3 15 -4 14 -3 14 -4 14 -4 14 -4 14 -4 
14 -4 14 -5 14 -4 14 -5 14 -5 14 -5 14 -5 14 -5 
14 -6 14 -6 14 -6 14 -6 14 -6 14 -7 15 -7 14 -7 
14 -7 14 -8 14 -8 14 -8 14 -8 14 -9 14 -10 14 -9 
14 -10 14 -11 14 -11 14 -11 14 -12 14 -13 14 -13 14 -14 
14 -15 14 -16 15 -16 14 -18 14 -18 14 -20 14 -21 14 -23 
14 -25 14 -27 14 -29 14 -33 14 -36 14 -40 14 -47 14 -53 
14 -64 14 -79 14 -102 14 -144 14 -248 2338 3109 198 MP stroke
/c11 { 0.000000 0.000000 1.000000 sr} bdef
c11
19 -5 18 -5 19 -5 19 -5 19 -4 18 -5 19 -5 19 -5 
18 -5 19 -5 19 -4 19 -5 18 -5 19 -5 19 -5 19 -4 
18 -5 19 -5 19 -5 19 -4 18 -5 19 -5 19 -5 18 -4 
19 -5 19 -5 19 -4 18 -5 19 -4 19 -5 19 -4 18 -5 
19 -4 19 -5 19 -4 18 -5 19 -4 19 -5 18 -4 19 -4 
19 -4 19 -5 18 -4 19 -4 19 -4 19 -4 18 -4 19 -4 
19 -4 19 -4 18 -4 19 -4 19 -3 18 -4 19 -4 19 -3 
19 -4 18 -3 19 -4 19 -3 19 -3 18 -3 19 -4 19 -3 
19 -3 18 -3 19 -2 19 -3 18 -3 19 -3 19 -2 19 -3 
18 -2 19 -3 19 -2 19 -2 18 -2 19 -2 19 -2 19 -2 
18 -2 19 -1 19 -2 18 -1 19 -2 19 -1 19 -1 18 -1 
19 -1 19 -1 19 -1 18 -1 19 0 19 -1 19 0 18 -1 
19 0 19 0 18 0 19 0 19 0 19 -1 18 0 19 0 
19 -1 19 -1 18 0 19 -1 19 -1 19 -1 18 -1 19 -2 
19 -1 19 -1 18 -2 19 -2 19 -1 18 -2 19 -2 19 -2 
19 -3 18 -2 19 -2 19 -3 19 -3 18 -2 19 -3 19 -3 
19 -4 18 -3 19 -3 19 -4 18 -4 19 -3 19 -4 19 -5 
18 -4 19 -4 19 -5 19 -5 18 -5 19 -5 19 -5 19 -5 
18 -6 19 -6 19 -6 18 -6 19 -7 19 -6 19 -7 18 -8 
19 -7 19 -8 19 -8 18 -8 19 -8 19 -9 19 -9 18 -10 
19 -10 19 -10 18 -10 19 -11 19 -12 19 -12 18 -12 19 -13 
19 -13 19 -14 18 -15 19 -15 19 -16 19 -17 18 -18 19 -19 
19 -19 18 -21 19 -22 19 -23 19 -25 18 -27 19 -28 19 -30 
19 -33 18 -36 19 -40 19 -43 19 -48 18 -54 19 -62 19 -71 
18 -85 19 -105 19 -136 19 -192 18 -331 1879 3308 198 MP stroke
0 sg
24 -6 23 -6 23 -6 24 -6 23 -7 24 -6 23 -6 24 -6 
23 -6 23 -6 24 -6 23 -6 24 -6 23 -6 23 -6 24 -6 
23 -6 24 -6 23 -6 24 -6 23 -5 23 -6 24 -6 23 -6 
24 -6 23 -6 23 -6 24 -5 23 -6 24 -6 23 -5 24 -6 
23 -6 23 -5 24 -6 23 -5 24 -6 23 -5 23 -6 24 -5 
23 -5 24 -6 23 -5 24 -5 23 -5 23 -5 24 -5 23 -5 
24 -5 23 -5 23 -5 24 -4 23 -5 24 -5 23 -4 24 -5 
23 -4 23 -5 24 -4 23 -4 24 -4 23 -4 23 -4 24 -4 
23 -4 24 -3 23 -4 24 -3 23 -4 23 -3 24 -3 23 -4 
24 -3 23 -2 23 -3 24 -3 23 -3 24 -2 23 -3 24 -2 
23 -2 23 -2 24 -2 23 -2 24 -2 23 -1 23 -2 24 -1 
23 -2 24 -1 23 -1 24 -1 23 0 23 -1 24 -1 23 0 
24 0 23 -1 23 0 24 0 23 0 24 0 23 -1 24 0 
23 -1 23 -1 24 -1 23 -1 24 -1 23 -1 24 -1 23 -2 
23 -2 24 -2 23 -2 24 -2 23 -2 23 -2 24 -3 23 -2 
24 -3 23 -3 24 -3 23 -3 23 -4 24 -3 23 -4 24 -4 
23 -3 23 -5 24 -4 23 -4 24 -5 23 -5 24 -5 23 -5 
23 -5 24 -6 23 -6 24 -6 23 -6 23 -6 24 -7 23 -7 
24 -7 23 -7 24 -8 23 -7 23 -9 24 -8 23 -9 24 -8 
23 -10 23 -9 24 -10 23 -11 24 -10 23 -11 24 -12 23 -11 
23 -13 24 -12 23 -14 24 -13 23 -15 23 -15 24 -15 23 -16 
24 -17 23 -18 24 -18 23 -19 23 -20 24 -21 23 -22 24 -24 
23 -24 23 -26 24 -27 23 -30 24 -31 23 -33 24 -35 23 -38 
23 -42 24 -45 23 -49 24 -54 23 -60 23 -67 24 -77 23 -90 
24 -106 23 -131 24 -170 23 -241 23 -413 1420 3477 198 MP stroke
/c12 { 1.000000 0.000000 0.000000 sr} bdef
c12
29 -7 28 -8 28 -7 28 -7 28 -7 28 -8 28 -7 28 -7 
28 -8 29 -7 28 -7 28 -7 28 -7 28 -8 28 -7 28 -7 
28 -7 28 -7 28 -7 29 -8 28 -7 28 -7 28 -7 28 -7 
28 -7 28 -7 28 -7 28 -7 28 -6 29 -7 28 -7 28 -7 
28 -7 28 -6 28 -7 28 -7 28 -6 28 -7 28 -6 29 -7 
28 -6 28 -6 28 -7 28 -6 28 -6 28 -6 28 -6 28 -6 
28 -6 29 -6 28 -6 28 -5 28 -6 28 -5 28 -6 28 -5 
28 -5 28 -6 28 -5 29 -5 28 -5 28 -5 28 -4 28 -5 
28 -4 28 -5 28 -4 28 -4 28 -4 29 -4 28 -4 28 -4 
28 -4 28 -3 28 -4 28 -3 28 -3 28 -3 28 -3 29 -3 
28 -2 28 -3 28 -2 28 -2 28 -3 28 -1 28 -2 28 -2 
28 -1 29 -2 28 -1 28 -1 28 -1 28 -1 28 -1 28 0 
28 0 28 -1 28 0 29 0 28 0 28 0 28 -1 28 -1 
28 0 28 -1 28 -2 28 -1 29 -1 28 -2 28 -1 28 -2 
28 -2 28 -3 28 -2 28 -2 28 -3 28 -3 29 -3 28 -3 
28 -3 28 -4 28 -3 28 -4 28 -4 28 -4 28 -5 28 -4 
29 -5 28 -5 28 -5 28 -6 28 -5 28 -6 28 -6 28 -6 
28 -7 28 -6 29 -7 28 -7 28 -8 28 -7 28 -8 28 -9 
28 -8 28 -9 28 -9 28 -9 29 -10 28 -10 28 -11 28 -10 
28 -11 28 -12 28 -12 28 -12 28 -13 28 -13 29 -14 28 -14 
28 -15 28 -15 28 -16 28 -16 28 -18 28 -17 28 -19 28 -19 
29 -20 28 -21 28 -22 28 -23 28 -25 28 -25 28 -26 28 -28 
28 -30 28 -31 29 -33 28 -35 28 -37 28 -40 28 -42 28 -46 
28 -50 28 -53 28 -59 28 -65 29 -72 28 -81 28 -93 28 -107 
28 -128 28 -157 28 -204 28 -288 28 -497 961 3622 198 MP stroke
gr

c12
0 sg
%%IncludeResource: font Helvetica
/Helvetica /WindowsLatin1Encoding 120 FMSR

2945  210 mt 
(Esercitazione 5 n. 3 \(parte b\)) s
 916 3665 mt 
( ) s
6481  347 mt 
( ) s
1 sg
0 918 1036 0 0 -918 5402 1283 4 MP
PP
-1036 0 0 918 1036 0 0 -918 5402 1283 5 MP stroke
4 w
DO
SO
6 w
0 sg
5402  365 mt 6438  365 L
5402 1283 mt 6438 1283 L
6438 1283 mt 6438  365 L
5402 1283 mt 5402  365 L
5402 1283 mt 6438 1283 L
5402 1283 mt 5402  365 L
5402  365 mt 6438  365 L
5402 1283 mt 6438 1283 L
6438 1283 mt 6438  365 L
5402 1283 mt 5402  365 L
5863  499 mt 
(con m = 1) s
gs 5402 365 1037 919 rc
c8
355 0 5472 456 2 MP stroke
gr

c8
0 sg
5863  646 mt 
(con m = 2) s
gs 5402 365 1037 919 rc
c9
355 0 5472 603 2 MP stroke
gr

c9
0 sg
5863  793 mt 
(con m = 3) s
gs 5402 365 1037 919 rc
c10
355 0 5472 750 2 MP stroke
gr

c10
0 sg
5863  940 mt 
(con m = 4) s
gs 5402 365 1037 919 rc
c11
355 0 5472 897 2 MP stroke
gr

c11
0 sg
5863 1087 mt 
(con m = 5) s
gs 5402 365 1037 919 rc
355 0 5472 1044 2 MP stroke
gr

5863 1234 mt 
(con m = 6) s
gs 5402 365 1037 919 rc
c12
355 0 5472 1191 2 MP stroke
gr

c12

end %%Color Dict

eplot
%%EndObject

epage
end

showpage

%%Trailer
%%EOF
