%!PS-Adobe-3.0 EPSF-3.0
%%Creator: MATLAB, The MathWorks, Inc. Version 8.0.0.783 (R2012b). Operating System: Microsoft Windows 7.
%%Title: C:\SILVIA\UniversitÓ\Presenti\Calcolo numerico\Silvia Balzani - esercitazioni\esCalcoloNumerico\Consegne\esercizi\Esercitazione05\esercitazione05-03_graficoA.eps
%%CreationDate: 10/11/2015  16:19:41
%%DocumentNeededFonts: Helvetica
%%DocumentProcessColors: Cyan Magenta Yellow Black
%%LanguageLevel: 2
%%Pages: 1
%%BoundingBox:    -1   203   597   639
%%EndComments

%%BeginProlog
% MathWorks dictionary
/MathWorks 160 dict begin
% definition operators
/bdef {bind def} bind def
/ldef {load def} bind def
/xdef {exch def} bdef
/xstore {exch store} bdef
% operator abbreviations
/c  /clip ldef
/cc /concat ldef
/cp /closepath ldef
/gr /grestore ldef
/gs /gsave ldef
/mt /moveto ldef
/np /newpath ldef
/cm /currentmatrix ldef
/sm /setmatrix ldef
/rm /rmoveto ldef
/rl /rlineto ldef
/s {show newpath} bdef
/sc {setcmykcolor} bdef
/sr /setrgbcolor ldef
/sg /setgray ldef
/w /setlinewidth ldef
/j /setlinejoin ldef
/cap /setlinecap ldef
/rc {rectclip} bdef
/rf {rectfill} bdef
% page state control
/pgsv () def
/bpage {/pgsv save def} bdef
/epage {pgsv restore} bdef
/bplot /gsave ldef
/eplot {stroke grestore} bdef
% orientation switch
/portraitMode 0 def /landscapeMode 1 def /rotateMode 2 def
% coordinate system mappings
/dpi2point 0 def
% font control
/FontSize 0 def
/FMS {/FontSize xstore findfont [FontSize 0 0 FontSize neg 0 0]
  makefont setfont} bdef
/ISOLatin1Encoding where {pop /WindowsLatin1Encoding 256 array bdef
ISOLatin1Encoding WindowsLatin1Encoding copy pop
/.notdef/.notdef/quotesinglbase/florin/quotedblbase/ellipsis/dagger
/daggerdbl/circumflex/perthousand/Scaron/guilsinglleft/OE/.notdef/.notdef
/.notdef/.notdef/quoteleft/quoteright/quotedblleft/quotedblright/bullet
/endash/emdash/tilde/trademark/scaron/guilsinglright/oe/.notdef/.notdef
/Ydieresis WindowsLatin1Encoding 128 32 getinterval astore pop}
{/WindowsLatin1Encoding StandardEncoding bdef} ifelse
/reencode {exch dup where {pop load} {pop StandardEncoding} ifelse
  exch dup 3 1 roll findfont dup length dict begin
  { 1 index /FID ne {def}{pop pop} ifelse } forall
  /Encoding exch def currentdict end definefont pop} bdef
/isroman {findfont /CharStrings get /Agrave known} bdef
/FMSR {3 1 roll 1 index dup isroman {reencode} {pop pop} ifelse
  exch FMS} bdef
/csm {1 dpi2point div -1 dpi2point div scale neg translate
 dup landscapeMode eq {pop -90 rotate}
  {rotateMode eq {90 rotate} if} ifelse} bdef
% line types: solid, dotted, dashed, dotdash
/SO { [] 0 setdash } bdef
/DO { [.5 dpi2point mul 4 dpi2point mul] 0 setdash } bdef
/DA { [6 dpi2point mul] 0 setdash } bdef
/DD { [.5 dpi2point mul 4 dpi2point mul 6 dpi2point mul 4
  dpi2point mul] 0 setdash } bdef
% macros for lines and objects
/L {lineto stroke} bdef
/MP {3 1 roll moveto 1 sub {rlineto} repeat} bdef
/AP {{rlineto} repeat} bdef
/PDlw -1 def
/W {/PDlw currentlinewidth def setlinewidth} def
/PP {closepath eofill} bdef
/DP {closepath stroke} bdef
/MR {4 -2 roll moveto dup  0 exch rlineto exch 0 rlineto
  neg 0 exch rlineto closepath} bdef
/FR {MR stroke} bdef
/PR {MR fill} bdef
/L1i {{currentfile picstr readhexstring pop} image} bdef
/tMatrix matrix def
/MakeOval {newpath tMatrix currentmatrix pop translate scale
0 0 1 0 360 arc tMatrix setmatrix} bdef
/FO {MakeOval stroke} bdef
/PO {MakeOval fill} bdef
/PD {currentlinewidth 2 div 0 360 arc fill
   PDlw -1 eq not {PDlw w /PDlw -1 def} if} def
/FA {newpath tMatrix currentmatrix pop translate scale
  0 0 1 5 -2 roll arc tMatrix setmatrix stroke} bdef
/PA {newpath tMatrix currentmatrix pop	translate 0 0 moveto scale
  0 0 1 5 -2 roll arc closepath tMatrix setmatrix fill} bdef
/FAn {newpath tMatrix currentmatrix pop translate scale
  0 0 1 5 -2 roll arcn tMatrix setmatrix stroke} bdef
/PAn {newpath tMatrix currentmatrix pop translate 0 0 moveto scale
  0 0 1 5 -2 roll arcn closepath tMatrix setmatrix fill} bdef
/vradius 0 def /hradius 0 def /lry 0 def
/lrx 0 def /uly 0 def /ulx 0 def /rad 0 def
/MRR {/vradius xdef /hradius xdef /lry xdef /lrx xdef /uly xdef
  /ulx xdef newpath tMatrix currentmatrix pop ulx hradius add uly
  vradius add translate hradius vradius scale 0 0 1 180 270 arc 
  tMatrix setmatrix lrx hradius sub uly vradius add translate
  hradius vradius scale 0 0 1 270 360 arc tMatrix setmatrix
  lrx hradius sub lry vradius sub translate hradius vradius scale
  0 0 1 0 90 arc tMatrix setmatrix ulx hradius add lry vradius sub
  translate hradius vradius scale 0 0 1 90 180 arc tMatrix setmatrix
  closepath} bdef
/FRR {MRR stroke } bdef
/PRR {MRR fill } bdef
/MlrRR {/lry xdef /lrx xdef /uly xdef /ulx xdef /rad lry uly sub 2 div def
  newpath tMatrix currentmatrix pop ulx rad add uly rad add translate
  rad rad scale 0 0 1 90 270 arc tMatrix setmatrix lrx rad sub lry rad
  sub translate rad rad scale 0 0 1 270 90 arc tMatrix setmatrix
  closepath} bdef
/FlrRR {MlrRR stroke } bdef
/PlrRR {MlrRR fill } bdef
/MtbRR {/lry xdef /lrx xdef /uly xdef /ulx xdef /rad lrx ulx sub 2 div def
  newpath tMatrix currentmatrix pop ulx rad add uly rad add translate
  rad rad scale 0 0 1 180 360 arc tMatrix setmatrix lrx rad sub lry rad
  sub translate rad rad scale 0 0 1 0 180 arc tMatrix setmatrix
  closepath} bdef
/FtbRR {MtbRR stroke } bdef
/PtbRR {MtbRR fill } bdef
/stri 6 array def /dtri 6 array def
/smat 6 array def /dmat 6 array def
/tmat1 6 array def /tmat2 6 array def /dif 3 array def
/asub {/ind2 exch def /ind1 exch def dup dup
  ind1 get exch ind2 get sub exch } bdef
/tri_to_matrix {
  2 0 asub 3 1 asub 4 0 asub 5 1 asub
  dup 0 get exch 1 get 7 -1 roll astore } bdef
/compute_transform {
  dmat dtri tri_to_matrix tmat1 invertmatrix 
  smat stri tri_to_matrix tmat2 concatmatrix } bdef
/ds {stri astore pop} bdef
/dt {dtri astore pop} bdef
/db {2 copy /cols xdef /rows xdef mul dup 3 mul string
  currentfile 
  3 index 0 eq {/ASCIIHexDecode filter}
  {/ASCII85Decode filter 3 index 2 eq {/RunLengthDecode filter} if }
  ifelse exch readstring pop
  dup 0 3 index getinterval /rbmap xdef
  dup 2 index dup getinterval /gbmap xdef
  1 index dup 2 mul exch getinterval /bbmap xdef pop pop}bdef
/it {gs np dtri aload pop moveto lineto lineto cp c
  cols rows 8 compute_transform 
  rbmap gbmap bbmap true 3 colorimage gr}bdef
/il {newpath moveto lineto stroke}bdef
currentdict end def
%%EndProlog

%%BeginSetup
MathWorks begin

0 cap

end
%%EndSetup

%%Page: 1 1
%%BeginPageSetup
%%PageBoundingBox:    -1   203   597   639
MathWorks begin
bpage
%%EndPageSetup

%%BeginObject: obj1
bplot

/dpi2point 12 def
portraitMode -0012 7668 csm

    0     0  7179  5231 rc
85 dict begin %Colortable dictionary
/c0 { 0.000000 0.000000 0.000000 sr} bdef
/c1 { 1.000000 1.000000 1.000000 sr} bdef
/c2 { 0.900000 0.000000 0.000000 sr} bdef
/c3 { 0.000000 0.820000 0.000000 sr} bdef
/c4 { 0.000000 0.000000 0.800000 sr} bdef
/c5 { 0.910000 0.820000 0.320000 sr} bdef
/c6 { 1.000000 0.260000 0.820000 sr} bdef
/c7 { 0.000000 0.820000 0.820000 sr} bdef
c0
1 j
1 sg
   0    0 7180 5232 rf
6 w
0 1752 1532 0 0 -1752 951 2364 4 MP
PP
-1532 0 0 1752 1532 0 0 -1752 951 2364 5 MP stroke
4 w
DO
0 sg
 951 2364 mt  951  612 L
 951  612 mt  951  612 L
1717 2364 mt 1717  612 L
1717  612 mt 1717  612 L
2483 2364 mt 2483  612 L
2483  612 mt 2483  612 L
 951 2364 mt 2483 2364 L
2483 2364 mt 2483 2364 L
 951 1926 mt 2483 1926 L
2483 1926 mt 2483 1926 L
 951 1488 mt 2483 1488 L
2483 1488 mt 2483 1488 L
 951 1050 mt 2483 1050 L
2483 1050 mt 2483 1050 L
 951  612 mt 2483  612 L
2483  612 mt 2483  612 L
SO
6 w
 951  612 mt 2483  612 L
 951 2364 mt 2483 2364 L
2483 2364 mt 2483  612 L
 951 2364 mt  951  612 L
 951 2364 mt 2483 2364 L
 951 2364 mt  951  612 L
 951 2364 mt  951 2346 L
 951  612 mt  951  629 L
%%IncludeResource: font Helvetica
/Helvetica /WindowsLatin1Encoding 120 FMSR

 848 2509 mt 
(-1) s
1717 2364 mt 1717 2346 L
1717  612 mt 1717  629 L
1684 2509 mt 
(0) s
2483 2364 mt 2483 2346 L
2483  612 mt 2483  629 L
2450 2509 mt 
(1) s
 951 2364 mt  968 2364 L
2483 2364 mt 2465 2364 L
 850 2408 mt 
(0) s
 951 1926 mt  968 1926 L
2483 1926 mt 2465 1926 L
 750 1970 mt 
(0.5) s
 951 1488 mt  968 1488 L
2483 1488 mt 2465 1488 L
 850 1532 mt 
(1) s
 951 1050 mt  968 1050 L
2483 1050 mt 2465 1050 L
 750 1094 mt 
(1.5) s
 951  612 mt  968  612 L
2483  612 mt 2465  612 L
 850  656 mt 
(2) s
 951  612 mt 2483  612 L
 951 2364 mt 2483 2364 L
2483 2364 mt 2483  612 L
 951 2364 mt  951  612 L
gs 951 612 1533 1753 rc
/c8 { 0.000000 0.000000 1.000000 sr} bdef
c8
8 -17 8 -18 8 -17 7 -17 8 -17 8 -16 8 -17 7 -16 
8 -17 8 -16 8 -15 7 -16 8 -15 8 -16 8 -15 7 -15 
8 -15 8 -14 8 -14 7 -15 8 -14 8 -14 7 -13 8 -14 
8 -13 8 -13 7 -13 8 -13 8 -13 8 -12 7 -12 8 -12 
8 -12 8 -12 7 -11 8 -12 8 -11 8 -11 7 -11 8 -10 
8 -11 7 -10 8 -10 8 -10 8 -10 7 -9 8 -10 8 -9 
8 -9 7 -9 8 -9 8 -8 8 -8 7 -9 8 -7 8 -8 
8 -8 7 -7 8 -7 8 -8 7 -6 8 -7 8 -7 8 -6 
7 -6 8 -6 8 -6 8 -6 7 -5 8 -5 8 -5 8 -5 
7 -5 8 -5 8 -4 8 -4 7 -4 8 -4 8 -4 7 -3 
8 -4 8 -3 8 -3 7 -2 8 -3 8 -2 8 -3 7 -2 
8 -2 8 -1 8 -2 7 -1 8 -1 8 -1 8 -1 7 -1 
8 0 8 0 7 -1 8 0 8 0 8 0 7 -1 8 -1 
8 -1 8 -1 7 -1 8 -2 8 -1 8 -2 7 -2 8 -3 
8 -2 8 -3 7 -2 8 -3 8 -3 8 -4 7 -3 8 -4 
8 -4 7 -4 8 -4 8 -4 8 -5 7 -5 8 -5 8 -5 
8 -5 7 -5 8 -6 8 -6 8 -6 7 -6 8 -6 8 -7 
8 -7 7 -6 8 -8 8 -7 7 -7 8 -8 8 -8 8 -7 
7 -9 8 -8 8 -8 8 -9 7 -9 8 -9 8 -9 8 -10 
7 -9 8 -10 8 -10 8 -10 7 -10 8 -11 8 -10 7 -11 
8 -11 8 -11 8 -12 7 -11 8 -12 8 -12 8 -12 7 -12 
8 -12 8 -13 8 -13 7 -13 8 -13 8 -13 8 -14 7 -13 
8 -14 8 -14 7 -15 8 -14 8 -14 8 -15 7 -15 8 -15 
8 -16 8 -15 7 -16 8 -15 8 -16 8 -17 7 -16 8 -17 
8 -16 8 -17 7 -17 8 -17 8 -18 7 -18 951 2364 199 MP stroke
gr

c8
0 sg
 934 2407 mt 
( ) s
2467  654 mt 
( ) s
1 sg
0 188 1037 0 0 -188 1387 860 4 MP
PP
-1037 0 0 188 1037 0 0 -188 1387 860 5 MP stroke
4 w
DO
SO
6 w
0 sg
1387  672 mt 2424  672 L
1387  860 mt 2424  860 L
2424  860 mt 2424  672 L
1387  860 mt 1387  672 L
1387  860 mt 2424  860 L
1387  860 mt 1387  672 L
1387  672 mt 2424  672 L
1387  860 mt 2424  860 L
2424  860 mt 2424  672 L
1387  860 mt 1387  672 L
1848  809 mt 
(con m = 1) s
gs 1387 672 1038 189 rc
c8
355 0 1457 766 2 MP stroke
gr

c8
1 sg
0 1753 1532 0 0 -1753 2949 2375 4 MP
PP
-1532 0 0 1753 1532 0 0 -1753 2949 2375 5 MP stroke
4 w
DO
0 sg
2949 2375 mt 2949  623 L
2949  623 mt 2949  623 L
3715 2375 mt 3715  623 L
3715  623 mt 3715  623 L
4481 2375 mt 4481  623 L
4481  623 mt 4481  623 L
2949 2375 mt 4481 2375 L
4481 2375 mt 4481 2375 L
2949 1937 mt 4481 1937 L
4481 1937 mt 4481 1937 L
2949 1499 mt 4481 1499 L
4481 1499 mt 4481 1499 L
2949 1061 mt 4481 1061 L
4481 1061 mt 4481 1061 L
2949  623 mt 4481  623 L
4481  623 mt 4481  623 L
SO
6 w
2949  622 mt 4481  622 L
2949 2375 mt 4481 2375 L
4481 2375 mt 4481  622 L
2949 2375 mt 2949  622 L
2949 2375 mt 4481 2375 L
2949 2375 mt 2949  622 L
2949 2375 mt 2949 2357 L
2949  623 mt 2949  640 L
2846 2520 mt 
(-2) s
3715 2375 mt 3715 2357 L
3715  623 mt 3715  640 L
3682 2520 mt 
(0) s
4481 2375 mt 4481 2357 L
4481  623 mt 4481  640 L
4448 2520 mt 
(2) s
2949 2375 mt 2966 2375 L
4481 2375 mt 4463 2375 L
2848 2419 mt 
(0) s
2949 1937 mt 2966 1937 L
4481 1937 mt 4463 1937 L
2848 1981 mt 
(5) s
2949 1499 mt 2966 1499 L
4481 1499 mt 4463 1499 L
2781 1543 mt 
(10) s
2949 1061 mt 2966 1061 L
4481 1061 mt 4463 1061 L
2781 1105 mt 
(15) s
2949  623 mt 2966  623 L
4481  623 mt 4463  623 L
2781  667 mt 
(20) s
2949  622 mt 4481  622 L
2949 2375 mt 4481 2375 L
4481 2375 mt 4481  622 L
2949 2375 mt 2949  622 L
gs 2949 623 1533 1753 rc
c8
8 -28 8 -27 8 -27 7 -27 8 -26 8 -25 8 -25 7 -24 
8 -24 8 -23 8 -23 7 -22 8 -22 8 -21 8 -21 7 -20 
8 -20 8 -20 8 -19 7 -19 8 -18 8 -18 7 -17 8 -17 
8 -17 8 -16 7 -16 8 -16 8 -15 8 -15 7 -14 8 -15 
8 -13 8 -14 7 -13 8 -13 8 -12 8 -13 7 -11 8 -12 
8 -11 7 -11 8 -11 8 -10 8 -11 7 -9 8 -10 8 -9 
8 -10 7 -8 8 -9 8 -8 8 -8 7 -8 8 -8 8 -7 
8 -8 7 -7 8 -6 8 -7 7 -6 8 -6 8 -6 8 -6 
7 -6 8 -5 8 -5 8 -5 7 -5 8 -4 8 -5 8 -4 
7 -4 8 -4 8 -4 8 -3 7 -4 8 -3 8 -3 7 -3 
8 -3 8 -2 8 -3 7 -2 8 -2 8 -2 8 -2 7 -1 
8 -2 8 -1 8 -2 7 -1 8 -1 8 0 8 -1 7 0 
8 -1 8 0 7 0 8 0 8 0 8 -1 7 0 8 -1 
8 -1 8 -1 7 -1 8 -1 8 -1 8 -2 7 -1 8 -2 
8 -2 8 -2 7 -2 8 -2 8 -3 8 -2 7 -3 8 -3 
8 -3 7 -3 8 -3 8 -3 8 -4 7 -3 8 -4 8 -4 
8 -3 7 -4 8 -4 8 -5 8 -4 7 -4 8 -5 8 -4 
8 -5 7 -4 8 -5 8 -5 7 -5 8 -5 8 -5 8 -5 
7 -5 8 -5 8 -5 8 -6 7 -5 8 -5 8 -6 8 -5 
7 -6 8 -5 8 -5 8 -6 7 -5 8 -6 8 -5 7 -6 
8 -5 8 -5 8 -6 7 -5 8 -5 8 -6 8 -5 7 -5 
8 -5 8 -5 8 -5 7 -5 8 -4 8 -5 8 -4 7 -5 
8 -4 8 -4 7 -4 8 -4 8 -4 8 -4 7 -3 8 -3 
8 -3 8 -3 7 -3 8 -3 8 -2 8 -2 7 -2 8 -2 
8 -1 8 -1 7 -1 8 -1 8 0 7 -1 2949 2375 199 MP stroke
gr

c8
0 sg
2945  528 mt 
(Esercitazione 5 n. 3 \(parte 1\)) s
2932 2418 mt 
( ) s
4465  665 mt 
( ) s
1 sg
0 188 1036 0 0 -188 3386 871 4 MP
PP
-1036 0 0 188 1036 0 0 -188 3386 871 5 MP stroke
4 w
DO
SO
6 w
0 sg
3386  683 mt 4422  683 L
3386  871 mt 4422  871 L
4422  871 mt 4422  683 L
3386  871 mt 3386  683 L
3386  871 mt 4422  871 L
3386  871 mt 3386  683 L
3386  683 mt 4422  683 L
3386  871 mt 4422  871 L
4422  871 mt 4422  683 L
3386  871 mt 3386  683 L
3847  820 mt 
(con m = 2) s
gs 3386 683 1037 189 rc
c8
355 0 3456 777 2 MP stroke
gr

c8
1 sg
0 1752 1532 0 0 -1752 4965 2364 4 MP
PP
-1532 0 0 1752 1532 0 0 -1752 4965 2364 5 MP stroke
4 w
DO
0 sg
4965 2364 mt 4965  612 L
4965  612 mt 4965  612 L
5348 2364 mt 5348  612 L
5348  612 mt 5348  612 L
5731 2364 mt 5731  612 L
5731  612 mt 5731  612 L
6114 2364 mt 6114  612 L
6114  612 mt 6114  612 L
6497 2364 mt 6497  612 L
6497  612 mt 6497  612 L
4965 2364 mt 6497 2364 L
6497 2364 mt 6497 2364 L
4965 2013 mt 6497 2013 L
6497 2013 mt 6497 2013 L
4965 1663 mt 6497 1663 L
6497 1663 mt 6497 1663 L
4965 1312 mt 6497 1312 L
6497 1312 mt 6497 1312 L
4965  962 mt 6497  962 L
6497  962 mt 6497  962 L
4965  612 mt 6497  612 L
6497  612 mt 6497  612 L
SO
6 w
4965  612 mt 6497  612 L
4965 2364 mt 6497 2364 L
6497 2364 mt 6497  612 L
4965 2364 mt 4965  612 L
4965 2364 mt 6497 2364 L
4965 2364 mt 4965  612 L
4965 2364 mt 4965 2346 L
4965  612 mt 4965  629 L
4862 2509 mt 
(-4) s
5348 2364 mt 5348 2346 L
5348  612 mt 5348  629 L
5245 2509 mt 
(-2) s
5731 2364 mt 5731 2346 L
5731  612 mt 5731  629 L
5698 2509 mt 
(0) s
6114 2364 mt 6114 2346 L
6114  612 mt 6114  629 L
6081 2509 mt 
(2) s
6497 2364 mt 6497 2346 L
6497  612 mt 6497  629 L
6464 2509 mt 
(4) s
4965 2364 mt 4982 2364 L
6497 2364 mt 6479 2364 L
4864 2408 mt 
(0) s
4965 2013 mt 4982 2013 L
6497 2013 mt 6479 2013 L
4797 2057 mt 
(50) s
4965 1663 mt 4982 1663 L
6497 1663 mt 6479 1663 L
4730 1707 mt 
(100) s
4965 1312 mt 4982 1312 L
6497 1312 mt 6479 1312 L
4730 1356 mt 
(150) s
4965  962 mt 4982  962 L
6497  962 mt 6479  962 L
4730 1006 mt 
(200) s
4965  612 mt 4982  612 L
6497  612 mt 6479  612 L
4730  656 mt 
(250) s
4965  612 mt 6497  612 L
4965 2364 mt 6497 2364 L
6497 2364 mt 6497  612 L
4965 2364 mt 4965  612 L
gs 4965 612 1533 1753 rc
c8
6 -45 6 -44 5 -42 6 -42 6 -40 6 -38 6 -38 5 -36 
6 -36 6 -34 6 -33 6 -32 5 -31 6 -31 6 -29 6 -28 
6 -28 5 -26 6 -26 6 -25 6 -24 6 -23 5 -23 6 -22 
6 -21 6 -20 6 -20 5 -19 6 -19 6 -18 6 -17 6 -17 
5 -16 6 -16 6 -15 6 -15 6 -14 6 -14 5 -13 6 -13 
6 -12 6 -12 6 -11 5 -11 6 -11 6 -11 6 -9 6 -10 
5 -9 6 -9 6 -9 6 -8 6 -8 5 -8 6 -8 6 -7 
6 -7 6 -6 5 -7 6 -6 6 -6 6 -5 6 -6 5 -5 
6 -5 6 -5 6 -5 6 -4 5 -4 6 -4 6 -4 6 -4 
6 -3 5 -4 6 -3 6 -3 6 -3 6 -3 5 -2 6 -3 
6 -2 6 -2 6 -2 5 -2 6 -2 6 -1 6 -2 6 -1 
5 -1 6 -2 6 -1 6 0 6 -1 5 -1 6 0 6 -1 
6 0 6 0 5 0 6 0 6 -1 6 0 6 0 6 -1 
5 0 6 -1 6 -1 6 -1 6 -1 5 -1 6 -2 6 -1 
6 -1 6 -2 5 -2 6 -2 6 -1 6 -2 6 -3 5 -2 
6 -2 6 -2 6 -3 6 -2 5 -3 6 -2 6 -3 6 -3 
6 -3 5 -3 6 -3 6 -3 6 -3 6 -3 5 -3 6 -3 
6 -3 6 -3 6 -4 5 -3 6 -3 6 -3 6 -4 6 -3 
5 -3 6 -4 6 -3 6 -3 6 -3 5 -3 6 -4 6 -3 
6 -3 6 -3 5 -3 6 -3 6 -3 6 -3 6 -3 5 -2 
6 -3 6 -3 6 -2 6 -3 5 -2 6 -2 6 -3 6 -2 
6 -2 6 -2 5 -2 6 -2 6 -1 6 -2 6 -1 5 -2 
6 -1 6 -1 6 -2 6 -1 5 -1 6 -1 6 0 6 -1 
6 -1 5 0 6 -1 6 0 6 -1 6 0 5 0 6 0 
6 0 6 0 6 0 5 0 6 0 6 -1 5156 2364 199 MP stroke
gr

c8
0 sg
4948 2407 mt 
( ) s
6481  654 mt 
( ) s
1 sg
0 188 1036 0 0 -188 5402 860 4 MP
PP
-1036 0 0 188 1036 0 0 -188 5402 860 5 MP stroke
4 w
DO
SO
6 w
0 sg
5402  672 mt 6438  672 L
5402  860 mt 6438  860 L
6438  860 mt 6438  672 L
5402  860 mt 5402  672 L
5402  860 mt 6438  860 L
5402  860 mt 5402  672 L
5402  672 mt 6438  672 L
5402  860 mt 6438  860 L
6438  860 mt 6438  672 L
5402  860 mt 5402  672 L
5863  809 mt 
(con m = 3) s
gs 5402 672 1037 189 rc
c8
355 0 5472 766 2 MP stroke
gr

c8
1 sg
0 1754 1532 0 0 -1754 933 4656 4 MP
PP
-1532 0 0 1754 1532 0 0 -1754 933 4656 5 MP stroke
4 w
DO
0 sg
 933 4656 mt  933 2903 L
 933 2903 mt  933 2903 L
1316 4656 mt 1316 2903 L
1316 2903 mt 1316 2903 L
1699 4656 mt 1699 2903 L
1699 2903 mt 1699 2903 L
2082 4656 mt 2082 2903 L
2082 2903 mt 2082 2903 L
2465 4656 mt 2465 2903 L
2465 2903 mt 2465 2903 L
 933 4656 mt 2465 4656 L
2465 4656 mt 2465 4656 L
 933 4305 mt 2465 4305 L
2465 4305 mt 2465 4305 L
 933 3954 mt 2465 3954 L
2465 3954 mt 2465 3954 L
 933 3604 mt 2465 3604 L
2465 3604 mt 2465 3604 L
 933 3253 mt 2465 3253 L
2465 3253 mt 2465 3253 L
 933 2903 mt 2465 2903 L
2465 2903 mt 2465 2903 L
SO
6 w
 933 2902 mt 2465 2902 L
 933 4656 mt 2465 4656 L
2465 4656 mt 2465 2902 L
 933 4656 mt  933 2902 L
 933 4656 mt 2465 4656 L
 933 4656 mt  933 2902 L
 933 4656 mt  933 4638 L
 933 2903 mt  933 2920 L
 830 4801 mt 
(-4) s
1316 4656 mt 1316 4638 L
1316 2903 mt 1316 2920 L
1213 4801 mt 
(-2) s
1699 4656 mt 1699 4638 L
1699 2903 mt 1699 2920 L
1666 4801 mt 
(0) s
2082 4656 mt 2082 4638 L
2082 2903 mt 2082 2920 L
2049 4801 mt 
(2) s
2465 4656 mt 2465 4638 L
2465 2903 mt 2465 2920 L
2432 4801 mt 
(4) s
 933 4656 mt  950 4656 L
2465 4656 mt 2447 4656 L
 832 4700 mt 
(0) s
 933 4305 mt  950 4305 L
2465 4305 mt 2447 4305 L
 632 4349 mt 
(1000) s
 933 3954 mt  950 3954 L
2465 3954 mt 2447 3954 L
 632 3998 mt 
(2000) s
 933 3604 mt  950 3604 L
2465 3604 mt 2447 3604 L
 632 3648 mt 
(3000) s
 933 3253 mt  950 3253 L
2465 3253 mt 2447 3253 L
 632 3297 mt 
(4000) s
 933 2903 mt  950 2903 L
2465 2903 mt 2447 2903 L
 632 2947 mt 
(5000) s
 933 2902 mt 2465 2902 L
 933 4656 mt 2465 4656 L
2465 4656 mt 2465 2902 L
 933 4656 mt  933 2902 L
gs 933 2903 1533 1754 rc
c8
8 -57 8 -55 8 -52 7 -51 8 -48 8 -46 8 -45 7 -43 
8 -41 8 -39 8 -38 7 -36 8 -35 8 -33 8 -32 7 -31 
8 -29 8 -28 8 -27 7 -26 8 -25 8 -24 7 -23 8 -22 
8 -21 8 -20 7 -19 8 -19 8 -17 8 -17 7 -16 8 -16 
8 -15 8 -14 7 -14 8 -13 8 -12 8 -12 7 -12 8 -11 
8 -10 7 -10 8 -10 8 -9 8 -9 7 -9 8 -8 8 -7 
8 -8 7 -7 8 -7 8 -6 8 -6 7 -6 8 -6 8 -5 
8 -5 7 -5 8 -5 8 -5 7 -4 8 -4 8 -4 8 -4 
7 -3 8 -4 8 -3 8 -3 7 -3 8 -3 8 -2 8 -3 
7 -2 8 -3 8 -2 8 -2 7 -2 8 -1 8 -2 7 -2 
8 -1 8 -2 8 -1 7 -1 8 -1 8 -1 8 -1 7 -1 
8 -1 8 -1 8 0 7 -1 8 0 8 -1 8 0 7 0 
8 -1 8 0 7 0 8 0 8 0 8 0 7 0 8 -1 
8 0 8 -1 7 0 8 -1 8 0 8 -1 7 -1 8 -1 
8 -1 8 -1 7 -1 8 -1 8 -1 8 -1 7 -2 8 -1 
8 -1 7 -2 8 -1 8 -2 8 -1 7 -2 8 -1 8 -2 
8 -1 7 -2 8 -2 8 -1 8 -2 7 -2 8 -2 8 -1 
8 -2 7 -2 8 -2 8 -1 7 -2 8 -2 8 -1 8 -2 
7 -2 8 -1 8 -2 8 -1 7 -2 8 -1 8 -2 8 -1 
7 -2 8 -1 8 -1 8 -2 7 -1 8 -1 8 -1 7 -1 
8 -1 8 -1 8 -1 7 -1 8 -1 8 -1 8 -1 7 0 
8 -1 8 -1 8 0 7 -1 8 0 8 -1 8 0 7 0 
8 -1 8 0 7 0 8 0 8 -1 8 0 7 0 8 0 
8 0 8 0 7 0 8 0 8 0 8 0 7 0 8 0 
8 0 8 0 7 0 8 0 8 0 7 -1 933 4656 199 MP stroke
gr

c8
0 sg
 916 4699 mt 
( ) s
2449 2945 mt 
( ) s
1 sg
0 188 1036 0 0 -188 1370 3151 4 MP
PP
-1036 0 0 188 1036 0 0 -188 1370 3151 5 MP stroke
4 w
DO
SO
6 w
0 sg
1370 2963 mt 2406 2963 L
1370 3151 mt 2406 3151 L
2406 3151 mt 2406 2963 L
1370 3151 mt 1370 2963 L
1370 3151 mt 2406 3151 L
1370 3151 mt 1370 2963 L
1370 2963 mt 2406 2963 L
1370 3151 mt 2406 3151 L
2406 3151 mt 2406 2963 L
1370 3151 mt 1370 2963 L
1831 3100 mt 
(con m = 4) s
gs 1370 2963 1037 189 rc
c8
355 0 1440 3057 2 MP stroke
gr

c8
1 sg
0 1753 1532 0 0 -1753 2949 4656 4 MP
PP
-1532 0 0 1753 1532 0 0 -1753 2949 4656 5 MP stroke
4 w
DO
0 sg
2949 4656 mt 2949 2903 L
2949 2903 mt 2949 2903 L
3715 4656 mt 3715 2903 L
3715 2903 mt 3715 2903 L
4481 4656 mt 4481 2903 L
4481 2903 mt 4481 2903 L
2949 4656 mt 4481 4656 L
4481 4656 mt 4481 4656 L
2949 4305 mt 4481 4305 L
4481 4305 mt 4481 4305 L
2949 3954 mt 4481 3954 L
4481 3954 mt 4481 3954 L
2949 3604 mt 4481 3604 L
4481 3604 mt 4481 3604 L
2949 3253 mt 4481 3253 L
4481 3253 mt 4481 3253 L
2949 2903 mt 4481 2903 L
4481 2903 mt 4481 2903 L
SO
6 w
2949 2903 mt 4481 2903 L
2949 4656 mt 4481 4656 L
4481 4656 mt 4481 2903 L
2949 4656 mt 2949 2903 L
2949 4656 mt 4481 4656 L
2949 4656 mt 2949 2903 L
2949 4656 mt 2949 4638 L
2949 2903 mt 2949 2920 L
2846 4801 mt 
(-5) s
3715 4656 mt 3715 4638 L
3715 2903 mt 3715 2920 L
3682 4801 mt 
(0) s
4481 4656 mt 4481 4638 L
4481 2903 mt 4481 2920 L
4448 4801 mt 
(5) s
2949 4656 mt 2966 4656 L
4481 4656 mt 4463 4656 L
2848 4700 mt 
(0) s
2949 4305 mt 2966 4305 L
4481 4305 mt 4463 4305 L
2848 4349 mt 
(2) s
2949 3954 mt 2966 3954 L
4481 3954 mt 4463 3954 L
2848 3998 mt 
(4) s
2949 3604 mt 2966 3604 L
4481 3604 mt 4463 3604 L
2848 3648 mt 
(6) s
2949 3253 mt 2966 3253 L
4481 3253 mt 4463 3253 L
2848 3297 mt 
(8) s
2949 2903 mt 2966 2903 L
4481 2903 mt 4463 2903 L
2781 2947 mt 
(10) s
2949 2849 mt 
(x 10) s
%%IncludeResource: font Helvetica
/Helvetica /WindowsLatin1Encoding 80 FMSR

3175 2775 mt 
(4) s
2949 2903 mt 4481 2903 L
2949 4656 mt 4481 4656 L
4481 4656 mt 4481 2903 L
2949 4656 mt 2949 2903 L
gs 2949 2903 1533 1754 rc
c8
8 -86 8 -82 8 -78 7 -74 8 -71 8 -67 8 -63 7 -61 
8 -57 8 -55 8 -51 7 -50 8 -46 8 -45 8 -42 7 -40 
8 -38 8 -36 8 -34 7 -33 8 -31 8 -29 7 -28 8 -26 
8 -25 8 -24 7 -23 8 -21 8 -21 8 -19 7 -18 8 -18 
8 -16 8 -16 7 -15 8 -14 8 -13 8 -13 7 -12 8 -11 
8 -11 7 -10 8 -10 8 -9 8 -9 7 -8 8 -8 8 -8 
8 -7 7 -7 8 -6 8 -6 8 -6 7 -5 8 -6 8 -5 
8 -4 7 -5 8 -4 8 -4 7 -4 8 -3 8 -4 8 -3 
7 -3 8 -3 8 -2 8 -3 7 -3 8 -2 8 -2 8 -2 
7 -2 8 -2 8 -2 8 -1 7 -2 8 -1 8 -2 7 -1 
8 -1 8 -1 8 -1 7 -1 8 -1 8 -1 8 -1 7 0 
8 -1 8 0 8 -1 7 0 8 -1 8 0 8 0 7 0 
8 -1 8 0 7 0 8 0 8 0 8 0 7 0 8 0 
8 -1 8 0 7 0 8 -1 8 0 8 -1 7 -1 8 0 
8 -1 8 -1 7 -1 8 0 8 -1 8 -1 7 -1 8 -1 
8 -1 7 -1 8 -1 8 -1 8 -1 7 -1 8 -1 8 -2 
8 -1 7 -1 8 -1 8 -1 8 -1 7 -1 8 -2 8 -1 
8 -1 7 -1 8 -1 8 -1 7 -1 8 -1 8 -1 8 -1 
7 -1 8 -1 8 -1 8 -1 7 -1 8 -1 8 -1 8 0 
7 -1 8 -1 8 -1 8 0 7 -1 8 0 8 -1 7 0 
8 -1 8 0 8 -1 7 0 8 -1 8 0 8 0 7 -1 
8 0 8 0 8 0 7 0 8 -1 8 0 8 0 7 0 
8 0 8 0 7 0 8 0 8 0 8 0 7 0 8 0 
8 0 8 0 7 0 8 0 8 0 8 0 7 0 8 0 
8 0 8 0 7 0 8 0 8 0 7 -1 2949 4656 199 MP stroke
gr

c8
0 sg
%%IncludeResource: font Helvetica
/Helvetica /WindowsLatin1Encoding 120 FMSR

2932 4699 mt 
( ) s
4465 2945 mt 
( ) s
1 sg
0 188 1036 0 0 -188 3386 3151 4 MP
PP
-1036 0 0 188 1036 0 0 -188 3386 3151 5 MP stroke
4 w
DO
SO
6 w
0 sg
3386 2963 mt 4422 2963 L
3386 3151 mt 4422 3151 L
4422 3151 mt 4422 2963 L
3386 3151 mt 3386 2963 L
3386 3151 mt 4422 3151 L
3386 3151 mt 3386 2963 L
3386 2963 mt 4422 2963 L
3386 3151 mt 4422 3151 L
4422 3151 mt 4422 2963 L
3386 3151 mt 3386 2963 L
3847 3100 mt 
(con m = 5) s
gs 3386 2963 1037 189 rc
c8
355 0 3456 3057 2 MP stroke
gr

c8
1 sg
0 1753 1532 0 0 -1753 4965 4656 4 MP
PP
-1532 0 0 1753 1532 0 0 -1753 4965 4656 5 MP stroke
4 w
DO
0 sg
4965 4656 mt 4965 2903 L
4965 2903 mt 4965 2903 L
5731 4656 mt 5731 2903 L
5731 2903 mt 5731 2903 L
6497 4656 mt 6497 2903 L
6497 2903 mt 6497 2903 L
4965 4656 mt 6497 4656 L
6497 4656 mt 6497 4656 L
4965 4363 mt 6497 4363 L
6497 4363 mt 6497 4363 L
4965 4071 mt 6497 4071 L
6497 4071 mt 6497 4071 L
4965 3779 mt 6497 3779 L
6497 3779 mt 6497 3779 L
4965 3487 mt 6497 3487 L
6497 3487 mt 6497 3487 L
4965 3195 mt 6497 3195 L
6497 3195 mt 6497 3195 L
4965 2903 mt 6497 2903 L
6497 2903 mt 6497 2903 L
SO
6 w
4965 2903 mt 6497 2903 L
4965 4656 mt 6497 4656 L
6497 4656 mt 6497 2903 L
4965 4656 mt 4965 2903 L
4965 4656 mt 6497 4656 L
4965 4656 mt 4965 2903 L
4965 4656 mt 4965 4638 L
4965 2903 mt 4965 2920 L
4829 4801 mt 
(-10) s
5731 4656 mt 5731 4638 L
5731 2903 mt 5731 2920 L
5698 4801 mt 
(0) s
6497 4656 mt 6497 4638 L
6497 2903 mt 6497 2920 L
6431 4801 mt 
(10) s
4965 4656 mt 4982 4656 L
6497 4656 mt 6479 4656 L
4864 4700 mt 
(0) s
4965 4363 mt 4982 4363 L
6497 4363 mt 6479 4363 L
4764 4407 mt 
(0.5) s
4965 4071 mt 4982 4071 L
6497 4071 mt 6479 4071 L
4864 4115 mt 
(1) s
4965 3779 mt 4982 3779 L
6497 3779 mt 6479 3779 L
4764 3823 mt 
(1.5) s
4965 3487 mt 4982 3487 L
6497 3487 mt 6479 3487 L
4864 3531 mt 
(2) s
4965 3195 mt 4982 3195 L
6497 3195 mt 6479 3195 L
4764 3239 mt 
(2.5) s
4965 2903 mt 4982 2903 L
6497 2903 mt 6479 2903 L
4864 2947 mt 
(3) s
4965 2849 mt 
(x 10) s
%%IncludeResource: font Helvetica
/Helvetica /WindowsLatin1Encoding 80 FMSR

5191 2775 mt 
(6) s
4965 2903 mt 6497 2903 L
4965 4656 mt 6497 4656 L
6497 4656 mt 6497 2903 L
4965 4656 mt 4965 2903 L
gs 4965 2903 1533 1754 rc
c8
5 -102 4 -97 5 -91 4 -85 5 -81 5 -75 4 -72 5 -66 
5 -63 4 -60 5 -55 5 -53 4 -49 5 -46 5 -44 4 -41 
5 -38 4 -36 5 -34 5 -32 4 -30 5 -29 5 -26 4 -25 
5 -24 5 -22 4 -20 5 -20 5 -18 4 -17 5 -16 4 -16 
5 -14 5 -13 4 -13 5 -12 5 -11 4 -10 5 -10 5 -10 
4 -8 5 -9 5 -7 4 -8 5 -6 4 -7 5 -6 5 -6 
4 -5 5 -5 5 -5 4 -4 5 -4 5 -4 4 -4 5 -4 
5 -3 4 -3 5 -3 4 -3 5 -2 5 -3 4 -2 5 -2 
5 -2 4 -2 5 -2 5 -2 4 -1 5 -2 5 -1 4 -2 
5 -1 4 -1 5 -1 5 -1 4 -1 5 -1 5 -1 4 -1 
5 0 5 -1 4 -1 5 0 5 -1 4 0 5 -1 4 0 
5 -1 5 0 4 0 5 0 5 -1 4 0 5 0 5 0 
4 0 5 0 4 0 5 0 5 0 4 0 5 -1 5 0 
4 0 5 0 5 0 4 -1 5 0 5 0 4 -1 5 0 
4 0 5 -1 5 0 4 -1 5 0 5 -1 4 0 5 -1 
5 0 4 -1 5 -1 5 0 4 -1 5 0 4 -1 5 -1 
5 0 4 -1 5 0 5 -1 4 -1 5 0 5 -1 4 0 
5 -1 5 -1 4 0 5 -1 4 0 5 -1 5 0 4 -1 
5 0 5 -1 4 0 5 0 5 -1 4 0 5 -1 5 0 
4 0 5 -1 4 0 5 0 5 0 4 -1 5 0 5 0 
4 0 5 0 5 0 4 -1 5 0 5 0 4 0 5 0 
4 0 5 0 5 0 4 0 5 0 5 0 4 0 5 0 
5 0 4 0 5 0 5 0 4 0 5 0 4 0 5 0 
5 0 4 0 5 0 5 0 4 0 5 0 5 0 4 0 
5 0 5 0 4 0 5 0 4 0 5 -1 5271 4656 199 MP stroke
gr

c8
0 sg
%%IncludeResource: font Helvetica
/Helvetica /WindowsLatin1Encoding 120 FMSR

4948 4699 mt 
( ) s
6481 2945 mt 
( ) s
1 sg
0 188 1036 0 0 -188 5402 3151 4 MP
PP
-1036 0 0 188 1036 0 0 -188 5402 3151 5 MP stroke
4 w
DO
SO
6 w
0 sg
5402 2963 mt 6438 2963 L
5402 3151 mt 6438 3151 L
6438 3151 mt 6438 2963 L
5402 3151 mt 5402 2963 L
5402 3151 mt 6438 3151 L
5402 3151 mt 5402 2963 L
5402 2963 mt 6438 2963 L
5402 3151 mt 6438 3151 L
6438 3151 mt 6438 2963 L
5402 3151 mt 5402 2963 L
5863 3100 mt 
(con m = 6) s
gs 5402 2963 1037 189 rc
c8
355 0 5472 3057 2 MP stroke
gr

c8

end %%Color Dict

eplot
%%EndObject

epage
end

showpage

%%Trailer
%%EOF
