%!PS-Adobe-3.0 EPSF-3.0
%%Creator: MATLAB, The MathWorks, Inc. Version 8.0.0.783 (R2012b). Operating System: Microsoft Windows 7.
%%Title: C:\SILVIA\UniversitÓ\Presenti\Calcolo numerico\Silvia Balzani - esercitazioni\esCalcoloNumerico\Consegne\esercizi\Esercitazione11\4\grafico.eps
%%CreationDate: 12/08/2015  15:10:10
%%DocumentNeededFonts: Helvetica
%%DocumentProcessColors: Cyan Magenta Yellow Black
%%LanguageLevel: 2
%%Pages: 1
%%BoundingBox:    44   262   550   580
%%EndComments

%%BeginProlog
% MathWorks dictionary
/MathWorks 160 dict begin
% definition operators
/bdef {bind def} bind def
/ldef {load def} bind def
/xdef {exch def} bdef
/xstore {exch store} bdef
% operator abbreviations
/c  /clip ldef
/cc /concat ldef
/cp /closepath ldef
/gr /grestore ldef
/gs /gsave ldef
/mt /moveto ldef
/np /newpath ldef
/cm /currentmatrix ldef
/sm /setmatrix ldef
/rm /rmoveto ldef
/rl /rlineto ldef
/s {show newpath} bdef
/sc {setcmykcolor} bdef
/sr /setrgbcolor ldef
/sg /setgray ldef
/w /setlinewidth ldef
/j /setlinejoin ldef
/cap /setlinecap ldef
/rc {rectclip} bdef
/rf {rectfill} bdef
% page state control
/pgsv () def
/bpage {/pgsv save def} bdef
/epage {pgsv restore} bdef
/bplot /gsave ldef
/eplot {stroke grestore} bdef
% orientation switch
/portraitMode 0 def /landscapeMode 1 def /rotateMode 2 def
% coordinate system mappings
/dpi2point 0 def
% font control
/FontSize 0 def
/FMS {/FontSize xstore findfont [FontSize 0 0 FontSize neg 0 0]
  makefont setfont} bdef
/ISOLatin1Encoding where {pop /WindowsLatin1Encoding 256 array bdef
ISOLatin1Encoding WindowsLatin1Encoding copy pop
/.notdef/.notdef/quotesinglbase/florin/quotedblbase/ellipsis/dagger
/daggerdbl/circumflex/perthousand/Scaron/guilsinglleft/OE/.notdef/.notdef
/.notdef/.notdef/quoteleft/quoteright/quotedblleft/quotedblright/bullet
/endash/emdash/tilde/trademark/scaron/guilsinglright/oe/.notdef/.notdef
/Ydieresis WindowsLatin1Encoding 128 32 getinterval astore pop}
{/WindowsLatin1Encoding StandardEncoding bdef} ifelse
/reencode {exch dup where {pop load} {pop StandardEncoding} ifelse
  exch dup 3 1 roll findfont dup length dict begin
  { 1 index /FID ne {def}{pop pop} ifelse } forall
  /Encoding exch def currentdict end definefont pop} bdef
/isroman {findfont /CharStrings get /Agrave known} bdef
/FMSR {3 1 roll 1 index dup isroman {reencode} {pop pop} ifelse
  exch FMS} bdef
/csm {1 dpi2point div -1 dpi2point div scale neg translate
 dup landscapeMode eq {pop -90 rotate}
  {rotateMode eq {90 rotate} if} ifelse} bdef
% line types: solid, dotted, dashed, dotdash
/SO { [] 0 setdash } bdef
/DO { [.5 dpi2point mul 4 dpi2point mul] 0 setdash } bdef
/DA { [6 dpi2point mul] 0 setdash } bdef
/DD { [.5 dpi2point mul 4 dpi2point mul 6 dpi2point mul 4
  dpi2point mul] 0 setdash } bdef
% macros for lines and objects
/L {lineto stroke} bdef
/MP {3 1 roll moveto 1 sub {rlineto} repeat} bdef
/AP {{rlineto} repeat} bdef
/PDlw -1 def
/W {/PDlw currentlinewidth def setlinewidth} def
/PP {closepath eofill} bdef
/DP {closepath stroke} bdef
/MR {4 -2 roll moveto dup  0 exch rlineto exch 0 rlineto
  neg 0 exch rlineto closepath} bdef
/FR {MR stroke} bdef
/PR {MR fill} bdef
/L1i {{currentfile picstr readhexstring pop} image} bdef
/tMatrix matrix def
/MakeOval {newpath tMatrix currentmatrix pop translate scale
0 0 1 0 360 arc tMatrix setmatrix} bdef
/FO {MakeOval stroke} bdef
/PO {MakeOval fill} bdef
/PD {currentlinewidth 2 div 0 360 arc fill
   PDlw -1 eq not {PDlw w /PDlw -1 def} if} def
/FA {newpath tMatrix currentmatrix pop translate scale
  0 0 1 5 -2 roll arc tMatrix setmatrix stroke} bdef
/PA {newpath tMatrix currentmatrix pop	translate 0 0 moveto scale
  0 0 1 5 -2 roll arc closepath tMatrix setmatrix fill} bdef
/FAn {newpath tMatrix currentmatrix pop translate scale
  0 0 1 5 -2 roll arcn tMatrix setmatrix stroke} bdef
/PAn {newpath tMatrix currentmatrix pop translate 0 0 moveto scale
  0 0 1 5 -2 roll arcn closepath tMatrix setmatrix fill} bdef
/vradius 0 def /hradius 0 def /lry 0 def
/lrx 0 def /uly 0 def /ulx 0 def /rad 0 def
/MRR {/vradius xdef /hradius xdef /lry xdef /lrx xdef /uly xdef
  /ulx xdef newpath tMatrix currentmatrix pop ulx hradius add uly
  vradius add translate hradius vradius scale 0 0 1 180 270 arc 
  tMatrix setmatrix lrx hradius sub uly vradius add translate
  hradius vradius scale 0 0 1 270 360 arc tMatrix setmatrix
  lrx hradius sub lry vradius sub translate hradius vradius scale
  0 0 1 0 90 arc tMatrix setmatrix ulx hradius add lry vradius sub
  translate hradius vradius scale 0 0 1 90 180 arc tMatrix setmatrix
  closepath} bdef
/FRR {MRR stroke } bdef
/PRR {MRR fill } bdef
/MlrRR {/lry xdef /lrx xdef /uly xdef /ulx xdef /rad lry uly sub 2 div def
  newpath tMatrix currentmatrix pop ulx rad add uly rad add translate
  rad rad scale 0 0 1 90 270 arc tMatrix setmatrix lrx rad sub lry rad
  sub translate rad rad scale 0 0 1 270 90 arc tMatrix setmatrix
  closepath} bdef
/FlrRR {MlrRR stroke } bdef
/PlrRR {MlrRR fill } bdef
/MtbRR {/lry xdef /lrx xdef /uly xdef /ulx xdef /rad lrx ulx sub 2 div def
  newpath tMatrix currentmatrix pop ulx rad add uly rad add translate
  rad rad scale 0 0 1 180 360 arc tMatrix setmatrix lrx rad sub lry rad
  sub translate rad rad scale 0 0 1 0 180 arc tMatrix setmatrix
  closepath} bdef
/FtbRR {MtbRR stroke } bdef
/PtbRR {MtbRR fill } bdef
/stri 6 array def /dtri 6 array def
/smat 6 array def /dmat 6 array def
/tmat1 6 array def /tmat2 6 array def /dif 3 array def
/asub {/ind2 exch def /ind1 exch def dup dup
  ind1 get exch ind2 get sub exch } bdef
/tri_to_matrix {
  2 0 asub 3 1 asub 4 0 asub 5 1 asub
  dup 0 get exch 1 get 7 -1 roll astore } bdef
/compute_transform {
  dmat dtri tri_to_matrix tmat1 invertmatrix 
  smat stri tri_to_matrix tmat2 concatmatrix } bdef
/ds {stri astore pop} bdef
/dt {dtri astore pop} bdef
/db {2 copy /cols xdef /rows xdef mul dup 3 mul string
  currentfile 
  3 index 0 eq {/ASCIIHexDecode filter}
  {/ASCII85Decode filter 3 index 2 eq {/RunLengthDecode filter} if }
  ifelse exch readstring pop
  dup 0 3 index getinterval /rbmap xdef
  dup 2 index dup getinterval /gbmap xdef
  1 index dup 2 mul exch getinterval /bbmap xdef pop pop}bdef
/it {gs np dtri aload pop moveto lineto lineto cp c
  cols rows 8 compute_transform 
  rbmap gbmap bbmap true 3 colorimage gr}bdef
/il {newpath moveto lineto stroke}bdef
currentdict end def
%%EndProlog

%%BeginSetup
MathWorks begin

0 cap

end
%%EndSetup

%%Page: 1 1
%%BeginPageSetup
%%PageBoundingBox:    44   262   550   580
MathWorks begin
bpage
%%EndPageSetup

%%BeginObject: obj1
bplot

/dpi2point 12 def
portraitMode 0528 6960 csm

    0     0  6080  3809 rc
88 dict begin %Colortable dictionary
/c0 { 0.000000 0.000000 0.000000 sr} bdef
/c1 { 1.000000 1.000000 1.000000 sr} bdef
/c2 { 0.900000 0.000000 0.000000 sr} bdef
/c3 { 0.000000 0.820000 0.000000 sr} bdef
/c4 { 0.000000 0.000000 0.800000 sr} bdef
/c5 { 0.910000 0.820000 0.320000 sr} bdef
/c6 { 1.000000 0.260000 0.820000 sr} bdef
/c7 { 0.000000 0.820000 0.820000 sr} bdef
c0
1 j
1 sg
   0    0 6081 3810 rf
6 w
0 3105 4713 0 0 -3105 789 3390 4 MP
PP
-4713 0 0 3105 4713 0 0 -3105 789 3390 5 MP stroke
4 w
DO
SO
6 w
0 sg
 789 3390 mt 5502 3390 L
 789 3390 mt  789  285 L
1399 3390 mt 1399 3342 L
%%IncludeResource: font Helvetica
/Helvetica /WindowsLatin1Encoding 120 FMSR

1366 3535 mt 
(1) s
2315 3390 mt 2315 3342 L
2199 3535 mt 
(1.05) s
3230 3390 mt 3230 3342 L
3147 3535 mt 
(1.1) s
4145 3390 mt 4145 3342 L
4029 3535 mt 
(1.15) s
5061 3390 mt 5061 3342 L
4978 3535 mt 
(1.2) s
 789 3112 mt  837 3112 L
 589 3156 mt 
(0.7) s
 789 2737 mt  837 2737 L
 522 2781 mt 
(0.75) s
 789 2363 mt  837 2363 L
 589 2407 mt 
(0.8) s
 789 1988 mt  837 1988 L
 522 2032 mt 
(0.85) s
 789 1613 mt  837 1613 L
 589 1657 mt 
(0.9) s
 789 1238 mt  837 1238 L
 522 1282 mt 
(0.95) s
 789  863 mt  837  863 L
 689  907 mt 
(1) s
 789  488 mt  837  488 L
 522  532 mt 
(1.05) s
gs 789 286 4713 3105 rc
/c8 { 1.000000 0.000000 0.000000 sr} bdef
c8
52 32 147 90 147 90 146 90 147 90 147 90 146 90 147 90 
146 90 147 91 147 90 146 90 147 90 147 90 146 90 147 90 
146 90 147 90 147 90 146 90 147 90 147 90 146 90 147 90 
146 90 147 91 147 90 146 90 147 90 147 90 146 90 147 90 
115 71 789 488 34 MP stroke
/c9 { 0.000000 1.000000 0.000000 sr} bdef
c9
52 30 147 86 147 86 146 86 147 86 147 85 146 86 147 86 
146 86 147 85 147 86 146 86 147 86 147 86 146 85 147 86 
146 86 147 86 147 85 146 86 147 86 147 86 146 85 147 86 
146 86 147 86 147 86 146 85 147 86 147 86 146 86 147 85 
115 68 789 506 34 MP stroke
gr

c9
/c10 { 0.000000 0.000000 1.000000 sr} bdef
c10
  36   36 1399  863 FO
gs 789 286 4713 3105 rc
/c11 { 1.000000 0.000000 1.000000 sr} bdef
c11
52 31 147 91 147 90 146 90 147 90 147 90 146 90 147 90 
146 90 147 90 147 90 146 90 147 90 147 90 146 90 147 90 
146 90 147 91 147 90 146 90 147 90 147 90 146 90 147 90 
146 90 147 90 147 90 146 90 147 90 147 90 146 90 147 90 
115 71 789 376 34 MP stroke
gr

c11
0 sg
2597  191 mt 
(Rette ed intersezioni) s
gs 789 286 4713 3105 rc
gr

/c12 { 0.000000 1.000000 1.000000 sr} bdef
c12
  36   36 5244 3112 FO
gs 789 286 4713 3105 rc
gr

0 sg
 772 3433 mt 
( ) s
5485  328 mt 
( ) s
1 sg
0 882 1809 0 0 -882 3348 1396 4 MP
PP
-1809 0 0 882 1809 0 0 -882 3348 1396 5 MP stroke
4 w
DO
SO
6 w
0 sg
3348  514 mt 5157  514 L
3348 1396 mt 5157 1396 L
5157 1396 mt 5157  514 L
3348 1396 mt 3348  514 L
3348 1396 mt 5157 1396 L
3348 1396 mt 3348  514 L
3348  514 mt 5157  514 L
3348 1396 mt 5157 1396 L
5157 1396 mt 5157  514 L
3348 1396 mt 3348  514 L
3816  661 mt 
(retta 1) s
gs 3348 514 1810 883 rc
c8
360 0 3420 619 2 MP stroke
gr

c8
0 sg
3816  829 mt 
(retta 2) s
gs 3348 514 1810 883 rc
c9
360 0 3420 787 2 MP stroke
gr

c9
0 sg
3816  998 mt 
(intersez. retta 1 e 2) s
gs 3348 514 1810 883 rc
gs 3527 882 147 147 rc
c10
  36   36 3600  955 FO
gr

c10
gr

c10
0 sg
3816 1166 mt 
(retta 1 pert.) s
gs 3348 514 1810 883 rc
c11
360 0 3420 1123 2 MP stroke
gr

c11
0 sg
3816 1334 mt 
(intersez. retta 1 pert. e 2) s
gs 3348 514 1810 883 rc
gs 3527 1218 147 147 rc
c12
  36   36 3600 1291 FO
gr

c12
gr

c12

end %%Color Dict

eplot
%%EndObject

epage
end

showpage

%%Trailer
%%EOF
