%!PS-Adobe-3.0 EPSF-3.0
%%Creator: MATLAB, The MathWorks, Inc. Version 8.0.0.783 (R2012b). Operating System: Microsoft Windows 7.
%%Title: C:\SILVIA\UniversitÓ\Presenti\Calcolo numerico\Silvia Balzani - esercitazioni\esCalcoloNumerico\Consegne\esercizi\Esercitazione10\2\confronto.eps
%%CreationDate: 12/07/2015  12:14:11
%%DocumentNeededFonts: Helvetica
%%DocumentProcessColors: Cyan Magenta Yellow Black
%%LanguageLevel: 2
%%Pages: 1
%%BoundingBox:    87   262   507   578
%%EndComments

%%BeginProlog
% MathWorks dictionary
/MathWorks 160 dict begin
% definition operators
/bdef {bind def} bind def
/ldef {load def} bind def
/xdef {exch def} bdef
/xstore {exch store} bdef
% operator abbreviations
/c  /clip ldef
/cc /concat ldef
/cp /closepath ldef
/gr /grestore ldef
/gs /gsave ldef
/mt /moveto ldef
/np /newpath ldef
/cm /currentmatrix ldef
/sm /setmatrix ldef
/rm /rmoveto ldef
/rl /rlineto ldef
/s {show newpath} bdef
/sc {setcmykcolor} bdef
/sr /setrgbcolor ldef
/sg /setgray ldef
/w /setlinewidth ldef
/j /setlinejoin ldef
/cap /setlinecap ldef
/rc {rectclip} bdef
/rf {rectfill} bdef
% page state control
/pgsv () def
/bpage {/pgsv save def} bdef
/epage {pgsv restore} bdef
/bplot /gsave ldef
/eplot {stroke grestore} bdef
% orientation switch
/portraitMode 0 def /landscapeMode 1 def /rotateMode 2 def
% coordinate system mappings
/dpi2point 0 def
% font control
/FontSize 0 def
/FMS {/FontSize xstore findfont [FontSize 0 0 FontSize neg 0 0]
  makefont setfont} bdef
/ISOLatin1Encoding where {pop /WindowsLatin1Encoding 256 array bdef
ISOLatin1Encoding WindowsLatin1Encoding copy pop
/.notdef/.notdef/quotesinglbase/florin/quotedblbase/ellipsis/dagger
/daggerdbl/circumflex/perthousand/Scaron/guilsinglleft/OE/.notdef/.notdef
/.notdef/.notdef/quoteleft/quoteright/quotedblleft/quotedblright/bullet
/endash/emdash/tilde/trademark/scaron/guilsinglright/oe/.notdef/.notdef
/Ydieresis WindowsLatin1Encoding 128 32 getinterval astore pop}
{/WindowsLatin1Encoding StandardEncoding bdef} ifelse
/reencode {exch dup where {pop load} {pop StandardEncoding} ifelse
  exch dup 3 1 roll findfont dup length dict begin
  { 1 index /FID ne {def}{pop pop} ifelse } forall
  /Encoding exch def currentdict end definefont pop} bdef
/isroman {findfont /CharStrings get /Agrave known} bdef
/FMSR {3 1 roll 1 index dup isroman {reencode} {pop pop} ifelse
  exch FMS} bdef
/csm {1 dpi2point div -1 dpi2point div scale neg translate
 dup landscapeMode eq {pop -90 rotate}
  {rotateMode eq {90 rotate} if} ifelse} bdef
% line types: solid, dotted, dashed, dotdash
/SO { [] 0 setdash } bdef
/DO { [.5 dpi2point mul 4 dpi2point mul] 0 setdash } bdef
/DA { [6 dpi2point mul] 0 setdash } bdef
/DD { [.5 dpi2point mul 4 dpi2point mul 6 dpi2point mul 4
  dpi2point mul] 0 setdash } bdef
% macros for lines and objects
/L {lineto stroke} bdef
/MP {3 1 roll moveto 1 sub {rlineto} repeat} bdef
/AP {{rlineto} repeat} bdef
/PDlw -1 def
/W {/PDlw currentlinewidth def setlinewidth} def
/PP {closepath eofill} bdef
/DP {closepath stroke} bdef
/MR {4 -2 roll moveto dup  0 exch rlineto exch 0 rlineto
  neg 0 exch rlineto closepath} bdef
/FR {MR stroke} bdef
/PR {MR fill} bdef
/L1i {{currentfile picstr readhexstring pop} image} bdef
/tMatrix matrix def
/MakeOval {newpath tMatrix currentmatrix pop translate scale
0 0 1 0 360 arc tMatrix setmatrix} bdef
/FO {MakeOval stroke} bdef
/PO {MakeOval fill} bdef
/PD {currentlinewidth 2 div 0 360 arc fill
   PDlw -1 eq not {PDlw w /PDlw -1 def} if} def
/FA {newpath tMatrix currentmatrix pop translate scale
  0 0 1 5 -2 roll arc tMatrix setmatrix stroke} bdef
/PA {newpath tMatrix currentmatrix pop	translate 0 0 moveto scale
  0 0 1 5 -2 roll arc closepath tMatrix setmatrix fill} bdef
/FAn {newpath tMatrix currentmatrix pop translate scale
  0 0 1 5 -2 roll arcn tMatrix setmatrix stroke} bdef
/PAn {newpath tMatrix currentmatrix pop translate 0 0 moveto scale
  0 0 1 5 -2 roll arcn closepath tMatrix setmatrix fill} bdef
/vradius 0 def /hradius 0 def /lry 0 def
/lrx 0 def /uly 0 def /ulx 0 def /rad 0 def
/MRR {/vradius xdef /hradius xdef /lry xdef /lrx xdef /uly xdef
  /ulx xdef newpath tMatrix currentmatrix pop ulx hradius add uly
  vradius add translate hradius vradius scale 0 0 1 180 270 arc 
  tMatrix setmatrix lrx hradius sub uly vradius add translate
  hradius vradius scale 0 0 1 270 360 arc tMatrix setmatrix
  lrx hradius sub lry vradius sub translate hradius vradius scale
  0 0 1 0 90 arc tMatrix setmatrix ulx hradius add lry vradius sub
  translate hradius vradius scale 0 0 1 90 180 arc tMatrix setmatrix
  closepath} bdef
/FRR {MRR stroke } bdef
/PRR {MRR fill } bdef
/MlrRR {/lry xdef /lrx xdef /uly xdef /ulx xdef /rad lry uly sub 2 div def
  newpath tMatrix currentmatrix pop ulx rad add uly rad add translate
  rad rad scale 0 0 1 90 270 arc tMatrix setmatrix lrx rad sub lry rad
  sub translate rad rad scale 0 0 1 270 90 arc tMatrix setmatrix
  closepath} bdef
/FlrRR {MlrRR stroke } bdef
/PlrRR {MlrRR fill } bdef
/MtbRR {/lry xdef /lrx xdef /uly xdef /ulx xdef /rad lrx ulx sub 2 div def
  newpath tMatrix currentmatrix pop ulx rad add uly rad add translate
  rad rad scale 0 0 1 180 360 arc tMatrix setmatrix lrx rad sub lry rad
  sub translate rad rad scale 0 0 1 0 180 arc tMatrix setmatrix
  closepath} bdef
/FtbRR {MtbRR stroke } bdef
/PtbRR {MtbRR fill } bdef
/stri 6 array def /dtri 6 array def
/smat 6 array def /dmat 6 array def
/tmat1 6 array def /tmat2 6 array def /dif 3 array def
/asub {/ind2 exch def /ind1 exch def dup dup
  ind1 get exch ind2 get sub exch } bdef
/tri_to_matrix {
  2 0 asub 3 1 asub 4 0 asub 5 1 asub
  dup 0 get exch 1 get 7 -1 roll astore } bdef
/compute_transform {
  dmat dtri tri_to_matrix tmat1 invertmatrix 
  smat stri tri_to_matrix tmat2 concatmatrix } bdef
/ds {stri astore pop} bdef
/dt {dtri astore pop} bdef
/db {2 copy /cols xdef /rows xdef mul dup 3 mul string
  currentfile 
  3 index 0 eq {/ASCIIHexDecode filter}
  {/ASCII85Decode filter 3 index 2 eq {/RunLengthDecode filter} if }
  ifelse exch readstring pop
  dup 0 3 index getinterval /rbmap xdef
  dup 2 index dup getinterval /gbmap xdef
  1 index dup 2 mul exch getinterval /bbmap xdef pop pop}bdef
/it {gs np dtri aload pop moveto lineto lineto cp c
  cols rows 8 compute_transform 
  rbmap gbmap bbmap true 3 colorimage gr}bdef
/il {newpath moveto lineto stroke}bdef
currentdict end def
%%EndProlog

%%BeginSetup
MathWorks begin

0 cap

end
%%EndSetup

%%Page: 1 1
%%BeginPageSetup
%%PageBoundingBox:    87   262   507   578
MathWorks begin
bpage
%%EndPageSetup

%%BeginObject: obj1
bplot

/dpi2point 12 def
portraitMode 1044 6936 csm

    0     0  5045  3782 rc
86 dict begin %Colortable dictionary
/c0 { 0.000000 0.000000 0.000000 sr} bdef
/c1 { 1.000000 1.000000 1.000000 sr} bdef
/c2 { 0.900000 0.000000 0.000000 sr} bdef
/c3 { 0.000000 0.820000 0.000000 sr} bdef
/c4 { 0.000000 0.000000 0.800000 sr} bdef
/c5 { 0.910000 0.820000 0.320000 sr} bdef
/c6 { 1.000000 0.260000 0.820000 sr} bdef
/c7 { 0.000000 0.820000 0.820000 sr} bdef
c0
1 j
1 sg
   0    0 5046 3783 rf
6 w
0 3082 3910 0 0 -3082 656 3366 4 MP
PP
-3910 0 0 3082 3910 0 0 -3082 656 3366 5 MP stroke
4 w
DO
SO
6 w
0 sg
 656  284 mt 4566  284 L
 656 3366 mt 4566 3366 L
4566 3366 mt 4566  284 L
 656 3366 mt  656  284 L
 656 3366 mt 4566 3366 L
 656 3366 mt  656  284 L
 656 3366 mt  656 3326 L
 656  284 mt  656  323 L
%%IncludeResource: font Helvetica
/Helvetica /WindowsLatin1Encoding 120 FMSR

 623 3511 mt 
(0) s
1278 3366 mt 1278 3326 L
1278  284 mt 1278  323 L
1195 3511 mt 
(0.5) s
1900 3366 mt 1900 3326 L
1900  284 mt 1900  323 L
1867 3511 mt 
(1) s
2522 3366 mt 2522 3326 L
2522  284 mt 2522  323 L
2439 3511 mt 
(1.5) s
3145 3366 mt 3145 3326 L
3145  284 mt 3145  323 L
3112 3511 mt 
(2) s
3767 3366 mt 3767 3326 L
3767  284 mt 3767  323 L
3684 3511 mt 
(2.5) s
4389 3366 mt 4389 3326 L
4389  284 mt 4389  323 L
4356 3511 mt 
(3) s
 656 3366 mt  695 3366 L
4566 3366 mt 4526 3366 L
 485 3410 mt 
(-1) s
 656 3023 mt  695 3023 L
4566 3023 mt 4526 3023 L
 555 3067 mt 
(0) s
 656 2681 mt  695 2681 L
4566 2681 mt 4526 2681 L
 555 2725 mt 
(1) s
 656 2338 mt  695 2338 L
4566 2338 mt 4526 2338 L
 555 2382 mt 
(2) s
 656 1996 mt  695 1996 L
4566 1996 mt 4526 1996 L
 555 2040 mt 
(3) s
 656 1653 mt  695 1653 L
4566 1653 mt 4526 1653 L
 555 1697 mt 
(4) s
 656 1311 mt  695 1311 L
4566 1311 mt 4526 1311 L
 555 1355 mt 
(5) s
 656  968 mt  695  968 L
4566  968 mt 4526  968 L
 555 1012 mt 
(6) s
 656  626 mt  695  626 L
4566  626 mt 4526  626 L
 555  670 mt 
(7) s
 656  284 mt  695  284 L
4566  284 mt 4526  284 L
 555  328 mt 
(8) s
 656  284 mt 4566  284 L
 656 3366 mt 4566 3366 L
4566 3366 mt 4566  284 L
 656 3366 mt  656  284 L
gs 656 284 3911 3083 rc
/c8 { 0.000000 0.000000 1.000000 sr} bdef
c8
24 147 16 94 15 92 16 90 16 88 15 85 16 83 15 80 
16 79 16 76 15 74 16 71 16 70 15 68 16 65 16 64 
15 61 16 60 15 58 16 55 16 54 15 52 16 51 16 48 
15 47 16 45 31 85 16 40 31 75 16 35 31 66 16 31 
31 57 16 26 31 49 16 22 31 42 31 36 31 31 32 27 
31 22 31 19 32 14 31 10 31 7 31 3 32 0 31 -3 
31 -6 31 -9 32 -12 31 -14 31 -16 32 -19 31 -21 31 -23 
31 -25 32 -27 31 -28 63 -61 31 -32 62 -68 63 -73 63 -75 
62 -78 250 -327 125 -165 63 -82 63 -80 62 -79 63 -77 62 -76 
63 -73 31 -36 63 -70 31 -34 31 -34 31 -33 32 -32 31 -32 
31 -31 32 -30 31 -30 31 -29 31 -28 32 -28 31 -27 31 -26 
32 -26 31 -25 31 -24 31 -24 32 -23 31 -22 31 -22 32 -21 
15 -11 31 -20 16 -9 31 -20 16 -9 31 -18 16 -9 16 -9 
15 -8 16 -9 15 -8 16 -8 16 -8 15 -8 16 -8 16 -7 
15 -8 16 -7 16 -7 15 -7 16 -7 16 -7 15 -7 16 -6 
15 -6 16 -7 16 -6 15 -6 16 -5 8 -3 15 -6 8 -3 
16 -5 8 -3 8 -2 7 -3 8 -3 8 -2 8 -3 8 -2 
7 -3 8 -2 8 -3 8 -2 8 -2 8 -3 7 -2 8 -2 
8 -2 8 -3 8 -2 7 -2 656 3023 149 MP stroke
/c9 { 0.000000 1.000000 0.000000 sr} bdef
c9
1955 1647 1955 -1647 656 3023 3 MP stroke
/c10 { 1.000000 0.000000 0.000000 sr} bdef
c10
2 9 2 8 2 9 2 8 2 9 2 8 2 9 2 8 
2 9 2 8 2 8 2 9 2 8 2 9 2 8 2 8 
2 9 2 8 2 8 2 9 2 8 2 8 2 9 1 8 
2 8 2 8 2 9 2 8 2 8 2 8 2 8 2 8 
2 9 2 8 2 8 2 8 2 8 2 8 2 8 2 8 
2 8 2 8 2 8 2 8 2 8 2 8 1 8 2 8 
2 8 2 8 2 8 2 7 2 8 2 8 2 8 2 8 
2 7 2 8 2 8 2 8 2 8 2 7 2 8 2 8 
2 7 2 8 2 8 2 7 2 8 1 8 2 7 2 8 
2 7 2 8 2 7 2 8 2 8 2 7 2 7 2 8 
2 7 2 8 2 7 2 8 2 7 2 8 2 7 2 7 
2 8 2 7 2 7 2 8 1 7 2 7 2 7 2 8 
2 7 2 7 2 7 2 8 2 7 2 7 2 7 2 7 
2 7 2 8 2 7 2 7 2 7 2 7 2 7 2 7 
2 7 2 7 2 7 2 7 1 7 2 7 2 7 2 7 
2 7 2 6 2 7 2 7 2 7 2 7 2 7 2 7 
2 6 2 7 2 7 2 7 2 6 2 7 2 7 2 7 
2 6 2 7 2 7 1 6 2 7 2 6 2 7 2 7 
2 6 2 7 2 6 2 7 2 6 2 7 2 6 2 7 
2 6 2 7 2 6 2 7 2 6 2 6 2 7 2 6 
2 7 2 6 1 6 2 7 2 6 2 6 2 6 2 7 
2 6 2 6 2 6 2 7 2 6 2 6 2 6 2 6 
2 6 2 6 2 7 2 6 2 6 2 6 2 6 2 6 
2 6 1 6 2 6 2 6 2 6 2 6 2 6 2 6 
2 6 2 5 2 6 2 6 2 6 2 6 2 6 2 6 
2 5 2 6 2 6 2 6 2 5 2 6 2 6 2 5 
2 6 1 6 2 6 2 5 2 6 2 5 2 6 2 6 
2 5 2 6 2 5 2 6 2 5 2 6 2 5 2 6 
2 5 2 6 2 5 2 6 2 5 2 5 2 6 2 5 
1 6 2 5 2 5 2 5 2 6 2 5 2 5 2 6 
2 5 2 5 2 5 2 5 2 6 2 5 2 5 2 5 
2 5 2 5 2 6 2 5 2 5 2 5 2 5 1 5 
2 5 2 5 2 5 2 5 2 5 2 5 2 5 2 5 
2 5 2 4 2 5 2 5 2 5 2 5 2 5 2 4 
2 5 2 5 2 5 2 5 2 4 2 5 1 5 2 5 
2 4 2 5 2 5 2 4 2 5 2 4 2 5 2 5 
2 4 2 5 2 4 2 5 2 4 2 5 2 4 2 5 
2 4 2 5 2 4 3980 1078 300 MP stroke
2 5 2 4 2 4 1 5 2 4 2 5 2 4 2 4 
2 5 2 4 2 4 2 4 2 5 2 4 2 4 2 4 
2 5 2 4 2 4 2 4 2 4 2 4 2 4 2 5 
2 4 2 4 1 4 2 4 2 4 2 4 2 4 2 4 
2 4 2 4 2 4 2 4 2 4 2 4 2 3 2 4 
2 4 2 4 2 4 2 4 2 4 2 3 2 4 2 4 
2 4 1 3 2 4 2 4 2 4 2 3 2 4 2 4 
2 3 2 4 2 3 2 4 2 4 2 3 2 4 2 3 
2 4 2 3 2 4 2 3 2 4 2 3 2 4 2 3 
1 4 2 3 2 4 2 3 2 3 2 4 2 3 2 3 
2 4 2 3 2 3 2 3 2 4 2 3 2 3 2 3 
2 4 2 3 2 3 2 3 2 3 2 3 2 4 1 3 
2 3 2 3 2 3 2 3 2 3 2 3 2 3 2 3 
2 3 2 3 2 3 2 3 2 3 2 3 2 3 2 2 
2 3 2 3 2 3 2 3 2 3 2 2 2 3 1 3 
2 3 2 3 2 2 2 3 2 3 2 2 2 3 2 3 
2 2 2 3 2 3 2 2 2 3 2 2 2 3 2 3 
2 2 2 3 2 2 2 3 2 2 2 3 1 2 2 2 
2 3 2 2 2 3 2 2 2 2 2 3 2 2 2 2 
2 3 2 2 2 2 2 3 2 2 2 2 2 2 2 3 
2 2 2 2 2 2 2 2 2 2 1 3 2 2 2 2 
2 2 2 2 2 2 2 2 2 2 2 2 2 2 2 2 
2 2 2 2 2 2 2 2 2 2 2 2 2 2 2 2 
2 2 2 1 2 2 2 2 1 2 2 2 2 1 2 2 
2 2 2 2 2 1 2 2 2 2 2 2 2 1 2 2 
2 2 2 1 2 2 2 1 2 2 2 2 2 1 2 2 
2 1 2 2 2 1 2 2 1 1 2 2 2 1 2 2 
2 1 2 1 2 2 2 1 2 2 2 1 2 1 2 2 
2 1 2 1 2 2 2 1 2 1 2 1 2 2 2 1 
2 1 2 1 2 1 1 2 2 1 2 1 2 1 2 1 
2 1 2 1 2 1 2 1 2 1 2 1 2 1 2 1 
2 1 2 1 2 1 2 1 2 1 2 1 2 1 2 1 
2 1 2 1 1 0 2 1 2 1 2 1 2 1 2 0 
2 1 2 1 2 1 2 0 2 1 2 1 2 1 2 0 
2 1 2 0 2 1 2 1 2 0 2 1 2 0 2 1 
2 1 1 0 2 1 2 0 2 1 2 0 2 0 2 1 
2 0 2 1 2 0 2 1 2 0 2 0 2 1 2 0 
2 0 2 1 2 0 3395 373 300 MP stroke
2 0 2 0 2 1 2 0 2 0 2 0 1 0 2 1 
2 0 2 0 2 0 2 0 2 0 2 0 2 1 2 0 
2 0 2 0 2 0 2 0 2 0 2 0 2 0 2 0 
2 0 2 -1 2 0 2 0 2 0 1 0 2 0 2 0 
2 0 2 -1 2 0 2 0 2 0 2 0 2 -1 2 0 
2 0 2 -1 2 0 2 0 2 -1 2 0 2 0 2 -1 
2 0 2 0 2 -1 2 0 1 -1 2 0 2 -1 2 0 
2 -1 2 0 2 -1 2 0 2 -1 2 0 2 -1 2 -1 
2 0 2 -1 2 0 2 -1 2 -1 2 0 2 -1 2 -1 
2 -1 2 0 2 -1 1 -1 2 -1 2 0 2 -1 2 -1 
2 -1 2 -1 2 -1 2 0 2 -1 2 -1 2 -1 2 -1 
2 -1 2 -1 2 -1 2 -1 2 -1 2 -1 2 -1 2 -1 
2 -1 2 -1 1 -1 2 -1 2 -1 2 -2 2 -1 2 -1 
2 -1 2 -1 2 -1 2 -2 2 -1 2 -1 2 -1 2 -2 
2 -1 2 -1 2 -1 2 -2 2 -1 2 -1 2 -2 2 -1 
2 -2 2 -1 1 -1 2 -2 2 -1 2 -2 2 -1 2 -2 
2 -1 2 -2 2 -1 2 -2 2 -1 2 -2 2 -2 2 -1 
2 -2 2 -1 2 -2 2 -2 2 -1 2 -2 2 -2 2 -1 
2 -2 1 -2 2 -2 2 -1 2 -2 2 -2 2 -2 2 -2 
2 -1 2 -2 2 -2 2 -2 2 -2 2 -2 2 -2 2 -2 
2 -2 2 -2 2 -2 2 -1 2 -3 2 -2 2 -2 2 -2 
1 -2 2 -2 2 -2 2 -2 2 -2 2 -2 2 -2 2 -2 
2 -3 2 -2 2 -2 2 -2 2 -2 2 -3 2 -2 2 -2 
2 -2 2 -3 2 -2 2 -2 2 -3 2 -2 2 -2 1 -3 
2 -2 2 -3 2 -2 2 -2 2 -3 2 -2 2 -3 2 -2 
2 -3 2 -2 2 -3 2 -2 2 -3 2 -2 2 -3 2 -3 
2 -2 2 -3 2 -3 2 -2 2 -3 2 -3 2 -2 1 -3 
2 -3 2 -2 2 -3 2 -3 2 -3 2 -2 2 -3 2 -3 
2 -3 2 -3 2 -3 2 -3 2 -2 2 -3 2 -3 2 -3 
2 -3 2 -3 2 -3 2 -3 2 -3 2 -3 1 -3 2 -3 
2 -3 2 -3 2 -3 2 -3 2 -4 2 -3 2 -3 2 -3 
2 -3 2 -3 2 -3 2 -4 2 -3 2 -3 2 -3 2 -4 
2 -3 2 -3 2 -4 2 -3 2 -3 1 -4 2 -3 2 -3 
2 -4 2 -3 2 -3 2 -4 2 -3 2 -4 2 -3 2 -4 
2 -3 2 -4 2 -3 2 -4 2 -3 2 -4 2 -4 2 -3 
2 -4 2 -3 2 -4 2 -4 1 -3 2 -4 2 -4 2 -3 
2 -4 2 -4 2 -4 2 -3 2 -4 2 -4 2 -4 2 -4 
2 -3 2 -4 2 -4 2810 909 300 MP stroke
2 -4 2 -4 2 -4 2 -4 2 -4 2 -4 2 -4 2 -3 
2 -4 1 -4 2 -4 2 -5 2 -4 2 -4 2 -4 2 -4 
2 -4 2 -4 2 -4 2 -4 2 -4 2 -5 2 -4 2 -4 
2 -4 2 -4 2 -5 2 -4 2 -4 2 -4 2 -5 2 -4 
1 -4 2 -5 2 -4 2 -4 2 -5 2 -4 2 -4 2 -5 
2 -4 2 -5 2 -4 2 -5 2 -4 2 -5 2 -4 2 -5 
2 -4 2 -5 2 -4 2 -5 2 -5 2 -4 2 -5 1 -4 
2 -5 2 -5 2 -4 2 -5 2 -5 2 -5 2 -4 2 -5 
2 -5 2 -5 2 -4 2 -5 2 -5 2 -5 2 -5 2 -5 
2 -4 2 -5 2 -5 2 -5 2 -5 2 -5 1 -5 2 -5 
2 -5 2 -5 2 -5 2 -5 2 -5 2 -5 2 -5 2 -5 
2 -5 2 -5 2 -5 2 -6 2 -5 2 -5 2 -5 2 -5 
2 -5 2 -6 2 -5 2 -5 2 -5 1 -6 2 -3 2 -2 
2 -3 2 -3 2 -3 2 -3 2 -2 2 -3 2 -3 2 -3 
2 -3 2 -2 2 -3 2 -3 2 -3 2 -3 2 -2 2 -3 
2 -3 2 -3 2 -2 2 -3 2 -3 1 -3 2 -3 2 -2 
2 -3 2 -3 2 -3 2 -2 2 -3 2 -3 2 -3 2 -2 
2 -3 2 -3 2 -2 2 -3 2 -3 2 -3 2 -2 2 -3 
2 -3 2 -3 2 -2 2 -3 1 -3 2 -2 2 -3 2 -3 
2 -3 2 -2 2 -3 2 -3 2 -2 2 -3 2 -3 2 -2 
2 -3 2 -3 2 -2 2 -3 2 -3 2 -2 2 -3 2 -3 
2 -2 2 -3 2 -3 1 -2 2 -3 2 -3 2 -2 2 -3 
2 -3 2 -2 2 -3 2 -3 2 -2 2 -3 2 -2 2 -3 
2 -3 2 -2 2 -3 2 -3 2 -2 2 -3 2 -2 2 -3 
2 -3 2 -2 1 -3 2 -2 2 -3 2 -3 2 -2 2 -3 
2 -2 2 -3 2 -3 2 -2 2 -3 2 -2 2 -3 2 -3 
2 -2 2 -3 2 -2 2 -3 2 -2 2 -3 2 -2 2 -3 
2 -3 2 -2 1 -3 2 -2 2 -3 2 -2 2 -3 2 -2 
2 -3 2 -2 2 -3 2 -2 2 -3 2 -3 2 -2 2 -3 
2 -2 2 -3 2 -2 2 -3 2 -2 2 -3 2 -2 2 -3 
2 -2 1 -3 2 -2 2 -3 2 -2 2 -3 2 -2 2 -3 
2 -2 2 -2 2 -3 2 -2 2 -3 2 -2 2 -3 2 -2 
2 -3 2 -2 2 -3 2 -2 2 -3 2 -2 2 -2 2 -3 
1 -2 2 -3 2 -2 2 -3 2 -2 2 -2 2 -3 2 -2 
2 -3 2 -2 2 -3 2 -2 2 -2 2 -3 2 -2 2 -3 
2 -2 2 -2 2 -3 2 -2 2 -3 2 -2 2 -2 1 -3 
2 -2 2 -3 2 -2 2 -2 2 -3 2 -2 2 -2 2 -3 
2 -2 2 -2 2 -3 2225 1886 300 MP stroke
2 -2 2 -3 2 -2 2 -2 2 -3 2 -2 2 -2 2 -3 
2 -2 2 -2 2 -3 2 -2 1 -2 2 -3 2 -2 2 -2 
2 -3 2 -2 2 -2 2 -3 2 -2 2 -2 2 -2 2 -3 
2 -2 2 -2 2 -3 2 -2 2 -2 2 -3 2 -2 2 -2 
2 -2 2 -3 2 -2 1 -2 2 -3 2 -2 2 -2 2 -2 
2 -3 2 -2 2 -2 2 -2 2 -3 2 -2 2 -2 2 -2 
2 -3 2 -2 2 -2 2 -2 2 -3 2 -2 2 -2 2 -2 
2 -2 2 -3 1 -2 2 -2 2 -2 2 -3 2 -2 2 -2 
2 -2 2 -2 2 -3 2 -2 2 -2 2 -2 2 -2 2 -3 
2 -2 2 -2 2 -2 2 -2 2 -2 2 -3 2 -2 2 -2 
2 -2 1 -2 2 -3 2 -2 2 -2 2 -2 2 -2 2 -2 
2 -2 2 -3 2 -2 2 -2 2 -2 2 -2 2 -2 2 -2 
2 -3 2 -2 2 -2 2 -2 2 -2 2 -2 2 -2 2 -2 
2 -3 1 -2 2 -2 2 -2 2 -2 2 -2 2 -2 2 -2 
2 -2 2 -2 2 -3 2 -2 2 -2 2 -2 2 -2 2 -2 
2 -2 2 -2 2 -2 2 -2 2 -2 2 -2 2 -2 2 -3 
1 -2 2 -2 2 -2 2 -2 2 -2 2 -2 2 -2 2 -2 
2 -2 2 -2 2 -2 2 -2 2 -2 2 -2 2 -2 2 -2 
2 -2 2 -2 2 -2 2 -2 2 -2 2 -2 2 -2 1 -2 
2 -2 2 -2 2 -2 2 -2 2 -2 2 -2 2 -2 2 -2 
2 -2 2 -2 2 -2 2 -2 2 -2 2 -2 2 -2 2 -2 
2 -2 2 -2 2 -2 2 -2 2 -2 2 -2 1 -2 2 -2 
2 -2 2 -1 2 -2 2 -2 2 -2 2 -2 2 -2 2 -2 
2 -2 2 -2 2 -2 2 -2 2 -2 2 -2 2 -2 2 -1 
2 -2 2 -2 2 -2 2 -2 2 -2 1 -2 2 -2 2 -2 
2 -2 2 -1 2 -2 2 -2 2 -2 2 -2 2 -2 2 -2 
2 -2 2 -1 2 -2 2 -2 2 -2 2 -2 2 -2 2 -2 
2 -1 2 -2 2 -2 2 -2 2 -2 1 -2 2 -1 2 -2 
2 -2 2 -2 2 -2 2 -2 2 -1 2 -2 2 -2 2 -2 
2 -2 2 -2 2 -1 2 -2 2 -2 2 -2 2 -2 2 -1 
2 -2 2 -2 2 -2 2 -1 1 -2 2 -2 2 -2 2 -2 
2 -1 2 -2 2 -2 2 -2 2 -1 2 -2 2 -2 2 -2 
2 -2 2 -1 2 -2 2 -2 2 -2 2 -1 2 -2 2 -2 
2 -1 2 -2 2 -2 1 -2 2 -1 2 -2 2 -2 2 -2 
2 -1 2 -2 2 -2 2 -1 2 -2 2 -2 2 -2 2 -1 
2 -2 2 -2 2 -1 2 -2 2 -2 2 -1 2 -2 2 -2 
2 -1 2 -2 1 -2 2 -2 2 -1 2 -2 2 -2 2 -1 
2 -2 2 -2 2 -1 1640 2486 300 MP stroke
2 -2 2 -1 2 -2 2 -2 2 -1 2 -2 2 -2 2 -1 
2 -2 2 -2 2 -1 2 -2 2 -2 2 -1 2 -2 1 -1 
2 -2 2 -2 2 -1 2 -2 2 -1 2 -2 2 -2 2 -1 
2 -2 2 -1 2 -2 2 -2 2 -1 2 -2 2 -1 2 -2 
2 -2 2 -1 2 -2 2 -1 2 -2 2 -1 1 -2 2 -2 
2 -1 2 -2 2 -1 2 -2 2 -1 2 -2 2 -1 2 -2 
2 -2 2 -1 2 -2 2 -1 2 -2 2 -1 2 -2 2 -1 
2 -2 2 -1 2 -2 2 -1 2 -2 1 -1 2 -2 2 -1 
2 -2 2 -1 2 -2 2 -1 2 -2 2 -1 2 -2 2 -1 
2 -2 2 -1 2 -2 2 -1 2 -2 2 -1 2 -2 2 -1 
2 -2 2 -1 2 -2 2 -1 1 -2 2 -1 2 -1 2 -2 
2 -1 2 -2 2 -1 2 -2 2 -1 2 -2 2 -1 2 -1 
2 -2 2 -1 2 -2 2 -1 2 -2 2 -1 2 -1 2 -2 
2 -1 2 -2 2 -1 2 -1 1 -2 2 -1 2 -2 2 -1 
2 -1 2 -2 2 -1 2 -2 2 -1 2 -1 2 -2 2 -1 
2 -2 2 -1 2 -1 2 -2 2 -1 2 -1 2 -2 2 -1 
2 -1 2 -2 2 -1 1 -1 2 -2 2 -1 2 -2 2 -1 
2 -1 2 -2 2 -1 2 -1 2 -2 2 -1 2 -1 2 -1 
2 -2 2 -1 2 -1 2 -2 2 -1 2 -1 2 -2 2 -1 
2 -1 2 -2 1 -1 2 -1 2 -1 2 -2 2 -1 2 -1 
2 -2 2 -1 2 -1 2 -1 2 -2 2 -1 2 -1 2 -1 
2 -2 2 -1 2 -1 2 -2 2 -1 2 -1 2 -1 2 -2 
2 -1 1 -1 2 -1 2 -1 2 -2 2 -1 2 -1 2 -1 
2 -2 2 -1 2 -1 2 -1 2 -1 2 -2 2 -1 2 -1 
2 -1 2 -2 2 -1 2 -1 2 -1 2 -1 2 -2 2 -1 
1 -1 2 -1 2 -1 2 -1 2 -2 2 -1 2 -1 2 -1 
2 -1 2 -1 2 -2 2 -1 2 -1 2 -1 2 -1 2 -1 
2 -2 2 -1 2 -1 2 -1 2 -1 2 -1 2 -1 2 -2 
1 -1 2 -1 2 -1 2 -1 2 -1 2 -1 2 -1 2 -2 
2 -1 2 -1 2 -1 2 -1 2 -1 2 -1 2 -1 2 -1 
2 -1 2 -2 2 -1 2 -1 2 -1 2 -1 2 -1 1 -1 
2 -1 2 -1 2 -1 2 -1 2 -1 2 -1 2 -2 2 -1 
2 -1 2 -1 2 -1 2 -1 2 -1 2 -1 2 -1 2 -1 
2 -1 2 -1 2 -1 2 -1 2 -1 2 -1 1 -1 2 -1 
2 -1 2 -1 2 -1 2 -1 2 -1 2 -1 2 -1 2 -1 
2 -1 2 -1 2 -1 2 -1 2 -1 2 -1 2 -1 2 -1 
2 -1 2 -1 2 -1 2 -1 2 -1 1 -1 2 -1 2 -1 
2 -1 2 -1 2 -1 1055 2877 300 MP stroke
2 -1 2 -1 2 -1 2 -1 2 -1 2 -1 2 0 2 -1 
2 -1 2 -1 2 -1 2 -1 2 -1 2 -1 2 -1 2 -1 
2 -1 2 -1 1 -1 2 0 2 -1 2 -1 2 -1 2 -1 
2 -1 2 -1 2 -1 2 -1 2 -1 2 0 2 -1 2 -1 
2 -1 2 -1 2 -1 2 -1 2 -1 2 0 2 -1 2 -1 
2 -1 1 -1 2 -1 2 -1 2 0 2 -1 2 -1 2 -1 
2 -1 2 -1 2 -1 2 0 2 -1 2 -1 2 -1 2 -1 
2 -1 2 0 2 -1 2 -1 2 -1 2 -1 2 0 2 -1 
1 -1 2 -1 2 -1 2 0 2 -1 2 -1 2 -1 2 -1 
2 0 2 -1 2 -1 2 -1 2 0 2 -1 2 -1 2 -1 
2 -1 2 0 2 -1 2 -1 2 -1 2 0 2 -1 1 -1 
2 -1 2 0 2 -1 2 -1 2 -1 2 0 2 -1 2 -1 
2 -1 2 0 2 -1 2 -1 2 0 2 -1 2 -1 2 -1 
2 0 2 -1 2 -1 2 0 2 -1 2 -1 2 -1 1 0 
2 -1 2 -1 2 0 2 -1 2 -1 2 0 2 -1 2 -1 
2 0 2 -1 2 -1 2 0 2 -1 2 -1 2 0 2 -1 
2 -1 2 0 2 -1 2 -1 2 0 2 -1 1 -1 2 0 
2 -1 2 0 2 -1 2 -1 2 0 2 -1 2 -1 2 0 
2 -1 2 0 2 -1 2 -1 2 0 2 -1 2 0 2 -1 
2 -1 2 0 2 -1 2 0 2 -1 1 -1 2 0 2 -1 
2 0 2 -1 2 -1 2 0 2 -1 2 0 2 -1 2 0 
2 -1 2 0 2 -1 2 -1 2 0 2 -1 2 0 2 -1 
2 0 2 -1 2 0 2 -1 1 0 2 -1 2 -1 2 0 
2 -1 2 0 2 -1 2 0 2 -1 2 0 2 -1 2 0 
2 -1 2 0 2 -1 2 0 2 -1 2 0 2 -1 2 0 
2 -1 2 0 2 -1 1 0 656 3023 205 MP stroke
gr

c10
0 sg
 958  189 mt 
(Confronto funzione polinomi interpolanti relativi ai metodi\
 usati) s
 639 3409 mt 
( ) s
4550  326 mt 
( ) s
1 sg
0 834 1459 0 0 -834 850 1317 4 MP
PP
-1459 0 0 834 1459 0 0 -834 850 1317 5 MP stroke
4 w
DO
SO
6 w
0 sg
 850  483 mt 2309  483 L
 850 1317 mt 2309 1317 L
2309 1317 mt 2309  483 L
 850 1317 mt  850  483 L
 850 1317 mt 2309 1317 L
 850 1317 mt  850  483 L
 850  483 mt 2309  483 L
 850 1317 mt 2309 1317 L
2309 1317 mt 2309  483 L
 850 1317 mt  850  483 L
1334  630 mt 
(f. originale) s
gs 850 483 1460 835 rc
c8
372 0 924 588 2 MP stroke
gr

c8
0 sg
1334  801 mt 
(spezzate usando) s
1334  939 mt 
(trapezi) s
gs 850 483 1460 835 rc
c9
372 0 924 828 2 MP stroke
gr

c9
0 sg
1334 1114 mt 
(spezzate usando) s
1334 1252 mt 
(cavalieri-simpson) s
gs 850 483 1460 835 rc
c10
372 0 924 1140 2 MP stroke
gr

c10

end %%Color Dict

eplot
%%EndObject

epage
end

showpage

%%Trailer
%%EOF
