%!PS-Adobe-3.0 EPSF-3.0
%%Creator: MATLAB, The MathWorks, Inc. Version 8.0.0.783 (R2012b). Operating System: Microsoft Windows 7.
%%Title: C:\SILVIA\UniversitÓ\Presenti\Calcolo numerico\Silvia Balzani - esercitazioni\esCalcoloNumerico\Consegne\esercizi\Esercitazione09\2\Curve.eps
%%CreationDate: 11/14/2015  17:39:25
%%DocumentNeededFonts: Helvetica
%%DocumentProcessColors: Cyan Magenta Yellow Black
%%LanguageLevel: 2
%%Pages: 1
%%BoundingBox:    87   262   507   578
%%EndComments

%%BeginProlog
% MathWorks dictionary
/MathWorks 160 dict begin
% definition operators
/bdef {bind def} bind def
/ldef {load def} bind def
/xdef {exch def} bdef
/xstore {exch store} bdef
% operator abbreviations
/c  /clip ldef
/cc /concat ldef
/cp /closepath ldef
/gr /grestore ldef
/gs /gsave ldef
/mt /moveto ldef
/np /newpath ldef
/cm /currentmatrix ldef
/sm /setmatrix ldef
/rm /rmoveto ldef
/rl /rlineto ldef
/s {show newpath} bdef
/sc {setcmykcolor} bdef
/sr /setrgbcolor ldef
/sg /setgray ldef
/w /setlinewidth ldef
/j /setlinejoin ldef
/cap /setlinecap ldef
/rc {rectclip} bdef
/rf {rectfill} bdef
% page state control
/pgsv () def
/bpage {/pgsv save def} bdef
/epage {pgsv restore} bdef
/bplot /gsave ldef
/eplot {stroke grestore} bdef
% orientation switch
/portraitMode 0 def /landscapeMode 1 def /rotateMode 2 def
% coordinate system mappings
/dpi2point 0 def
% font control
/FontSize 0 def
/FMS {/FontSize xstore findfont [FontSize 0 0 FontSize neg 0 0]
  makefont setfont} bdef
/ISOLatin1Encoding where {pop /WindowsLatin1Encoding 256 array bdef
ISOLatin1Encoding WindowsLatin1Encoding copy pop
/.notdef/.notdef/quotesinglbase/florin/quotedblbase/ellipsis/dagger
/daggerdbl/circumflex/perthousand/Scaron/guilsinglleft/OE/.notdef/.notdef
/.notdef/.notdef/quoteleft/quoteright/quotedblleft/quotedblright/bullet
/endash/emdash/tilde/trademark/scaron/guilsinglright/oe/.notdef/.notdef
/Ydieresis WindowsLatin1Encoding 128 32 getinterval astore pop}
{/WindowsLatin1Encoding StandardEncoding bdef} ifelse
/reencode {exch dup where {pop load} {pop StandardEncoding} ifelse
  exch dup 3 1 roll findfont dup length dict begin
  { 1 index /FID ne {def}{pop pop} ifelse } forall
  /Encoding exch def currentdict end definefont pop} bdef
/isroman {findfont /CharStrings get /Agrave known} bdef
/FMSR {3 1 roll 1 index dup isroman {reencode} {pop pop} ifelse
  exch FMS} bdef
/csm {1 dpi2point div -1 dpi2point div scale neg translate
 dup landscapeMode eq {pop -90 rotate}
  {rotateMode eq {90 rotate} if} ifelse} bdef
% line types: solid, dotted, dashed, dotdash
/SO { [] 0 setdash } bdef
/DO { [.5 dpi2point mul 4 dpi2point mul] 0 setdash } bdef
/DA { [6 dpi2point mul] 0 setdash } bdef
/DD { [.5 dpi2point mul 4 dpi2point mul 6 dpi2point mul 4
  dpi2point mul] 0 setdash } bdef
% macros for lines and objects
/L {lineto stroke} bdef
/MP {3 1 roll moveto 1 sub {rlineto} repeat} bdef
/AP {{rlineto} repeat} bdef
/PDlw -1 def
/W {/PDlw currentlinewidth def setlinewidth} def
/PP {closepath eofill} bdef
/DP {closepath stroke} bdef
/MR {4 -2 roll moveto dup  0 exch rlineto exch 0 rlineto
  neg 0 exch rlineto closepath} bdef
/FR {MR stroke} bdef
/PR {MR fill} bdef
/L1i {{currentfile picstr readhexstring pop} image} bdef
/tMatrix matrix def
/MakeOval {newpath tMatrix currentmatrix pop translate scale
0 0 1 0 360 arc tMatrix setmatrix} bdef
/FO {MakeOval stroke} bdef
/PO {MakeOval fill} bdef
/PD {currentlinewidth 2 div 0 360 arc fill
   PDlw -1 eq not {PDlw w /PDlw -1 def} if} def
/FA {newpath tMatrix currentmatrix pop translate scale
  0 0 1 5 -2 roll arc tMatrix setmatrix stroke} bdef
/PA {newpath tMatrix currentmatrix pop	translate 0 0 moveto scale
  0 0 1 5 -2 roll arc closepath tMatrix setmatrix fill} bdef
/FAn {newpath tMatrix currentmatrix pop translate scale
  0 0 1 5 -2 roll arcn tMatrix setmatrix stroke} bdef
/PAn {newpath tMatrix currentmatrix pop translate 0 0 moveto scale
  0 0 1 5 -2 roll arcn closepath tMatrix setmatrix fill} bdef
/vradius 0 def /hradius 0 def /lry 0 def
/lrx 0 def /uly 0 def /ulx 0 def /rad 0 def
/MRR {/vradius xdef /hradius xdef /lry xdef /lrx xdef /uly xdef
  /ulx xdef newpath tMatrix currentmatrix pop ulx hradius add uly
  vradius add translate hradius vradius scale 0 0 1 180 270 arc 
  tMatrix setmatrix lrx hradius sub uly vradius add translate
  hradius vradius scale 0 0 1 270 360 arc tMatrix setmatrix
  lrx hradius sub lry vradius sub translate hradius vradius scale
  0 0 1 0 90 arc tMatrix setmatrix ulx hradius add lry vradius sub
  translate hradius vradius scale 0 0 1 90 180 arc tMatrix setmatrix
  closepath} bdef
/FRR {MRR stroke } bdef
/PRR {MRR fill } bdef
/MlrRR {/lry xdef /lrx xdef /uly xdef /ulx xdef /rad lry uly sub 2 div def
  newpath tMatrix currentmatrix pop ulx rad add uly rad add translate
  rad rad scale 0 0 1 90 270 arc tMatrix setmatrix lrx rad sub lry rad
  sub translate rad rad scale 0 0 1 270 90 arc tMatrix setmatrix
  closepath} bdef
/FlrRR {MlrRR stroke } bdef
/PlrRR {MlrRR fill } bdef
/MtbRR {/lry xdef /lrx xdef /uly xdef /ulx xdef /rad lrx ulx sub 2 div def
  newpath tMatrix currentmatrix pop ulx rad add uly rad add translate
  rad rad scale 0 0 1 180 360 arc tMatrix setmatrix lrx rad sub lry rad
  sub translate rad rad scale 0 0 1 0 180 arc tMatrix setmatrix
  closepath} bdef
/FtbRR {MtbRR stroke } bdef
/PtbRR {MtbRR fill } bdef
/stri 6 array def /dtri 6 array def
/smat 6 array def /dmat 6 array def
/tmat1 6 array def /tmat2 6 array def /dif 3 array def
/asub {/ind2 exch def /ind1 exch def dup dup
  ind1 get exch ind2 get sub exch } bdef
/tri_to_matrix {
  2 0 asub 3 1 asub 4 0 asub 5 1 asub
  dup 0 get exch 1 get 7 -1 roll astore } bdef
/compute_transform {
  dmat dtri tri_to_matrix tmat1 invertmatrix 
  smat stri tri_to_matrix tmat2 concatmatrix } bdef
/ds {stri astore pop} bdef
/dt {dtri astore pop} bdef
/db {2 copy /cols xdef /rows xdef mul dup 3 mul string
  currentfile 
  3 index 0 eq {/ASCIIHexDecode filter}
  {/ASCII85Decode filter 3 index 2 eq {/RunLengthDecode filter} if }
  ifelse exch readstring pop
  dup 0 3 index getinterval /rbmap xdef
  dup 2 index dup getinterval /gbmap xdef
  1 index dup 2 mul exch getinterval /bbmap xdef pop pop}bdef
/it {gs np dtri aload pop moveto lineto lineto cp c
  cols rows 8 compute_transform 
  rbmap gbmap bbmap true 3 colorimage gr}bdef
/il {newpath moveto lineto stroke}bdef
currentdict end def
%%EndProlog

%%BeginSetup
MathWorks begin

0 cap

end
%%EndSetup

%%Page: 1 1
%%BeginPageSetup
%%PageBoundingBox:    87   262   507   578
MathWorks begin
bpage
%%EndPageSetup

%%BeginObject: obj1
bplot

/dpi2point 12 def
portraitMode 1044 6936 csm

    0     0  5045  3782 rc
85 dict begin %Colortable dictionary
/c0 { 0.000000 0.000000 0.000000 sr} bdef
/c1 { 1.000000 1.000000 1.000000 sr} bdef
/c2 { 0.900000 0.000000 0.000000 sr} bdef
/c3 { 0.000000 0.820000 0.000000 sr} bdef
/c4 { 0.000000 0.000000 0.800000 sr} bdef
/c5 { 0.910000 0.820000 0.320000 sr} bdef
/c6 { 1.000000 0.260000 0.820000 sr} bdef
/c7 { 0.000000 0.820000 0.820000 sr} bdef
c0
1 j
1 sg
   0    0 5046 3783 rf
6 w
0 1264 1688 0 0 -1264 656 1574 4 MP
PP
-1688 0 0 1264 1688 0 0 -1264 656 1574 5 MP stroke
4 w
DO
SO
6 w
0 sg
 656  310 mt 2344  310 L
 656 1574 mt 2344 1574 L
2344 1574 mt 2344  310 L
 656 1574 mt  656  310 L
 656 1574 mt 2344 1574 L
 656 1574 mt  656  310 L
 656 1574 mt  656 1557 L
 656  310 mt  656  326 L
%%IncludeResource: font Helvetica
/Helvetica /WindowsLatin1Encoding 120 FMSR

 623 1719 mt 
(0) s
1218 1574 mt 1218 1557 L
1218  310 mt 1218  326 L
1185 1719 mt 
(5) s
1781 1574 mt 1781 1557 L
1781  310 mt 1781  326 L
1715 1719 mt 
(10) s
2344 1574 mt 2344 1557 L
2344  310 mt 2344  326 L
2278 1719 mt 
(15) s
 656 1574 mt  672 1574 L
2344 1574 mt 2327 1574 L
 555 1618 mt 
(0) s
 656 1152 mt  672 1152 L
2344 1152 mt 2327 1152 L
 555 1196 mt 
(5) s
 656  731 mt  672  731 L
2344  731 mt 2327  731 L
 488  775 mt 
(10) s
 656  310 mt  672  310 L
2344  310 mt 2327  310 L
 488  354 mt 
(15) s
 656  310 mt 2344  310 L
 656 1574 mt 2344 1574 L
2344 1574 mt 2344  310 L
 656 1574 mt  656  310 L
gs 656 310 1689 1265 rc
/c8 { 0.000000 0.000000 1.000000 sr} bdef
c8
-46 7 -33 12 -22 16 -11 18 -3 20 6 21 12 20 18 19 
23 16 26 12 29 7 30 2 30 -4 30 -9 30 -12 27 -16 
24 -19 21 -21 17 -21 12 -23 6 -22 -1 -22 -8 -20 -14 -19 
-20 -17 -23 -17 -25 -15 -27 -15 -27 -14 -25 -13 -23 -13 -19 -13 
-13 -12 -8 -13 -1 -12 4 -13 9 -13 14 -13 18 -13 21 -14 
25 -14 26 -15 29 -15 30 -16 31 -16 31 -17 31 -18 30 -19 
29 -20 27 -21 25 -22 23 -22 22 -22 20 -20 20 -20 19 -17 
18 -15 18 -12 19 -8 18 -3 20 1 20 6 20 11 22 14 
21 18 22 19 22 22 22 22 22 23 22 23 21 21 21 20 
20 18 20 15 18 11 18 7 16 2 16 -3 14 -9 13 -14 
13 -17 12 -21 12 -24 12 -26 13 -28 12 -28 13 -30 14 -28 
15 -29 17 -26 17 -25 20 -22 21 -19 24 -14 25 -11 29 -5 
31 0 33 7 38 14 40 21 768 1489 101 MP stroke
gs 695 574 1610 989 rc
24 W
768 1489 PD
24 W
1106 1321 PD
24 W
1218 1152 PD
24 W
1556 1405 PD
24 W
1781 1236 PD
24 W
2118 984 PD
24 W
1893 815 PD
24 W
2118 647 PD
24 W
2231 731 PD
24 W
2118 815 PD
gr

gr

c8
0 sg
1015  215 mt 
(Curva con x1 e y1) s
1 sg
0 1264 1689 0 0 -1264 2877 1574 4 MP
PP
-1689 0 0 1264 1689 0 0 -1264 2877 1574 5 MP stroke
4 w
DO
SO
6 w
0 sg
2877 1574 mt 4566 1574 L
2877 1574 mt 2877  310 L
2877 1574 mt 2877 1557 L
2774 1719 mt 
(-4) s
3299 1574 mt 3299 1557 L
3196 1719 mt 
(-2) s
3721 1574 mt 3721 1557 L
3688 1719 mt 
(0) s
4143 1574 mt 4143 1557 L
4110 1719 mt 
(2) s
4566 1574 mt 4566 1557 L
4533 1719 mt 
(4) s
2877 1574 mt 2893 1574 L
2706 1618 mt 
(-4) s
2877 1258 mt 2893 1258 L
2706 1302 mt 
(-2) s
2877  942 mt 2893  942 L
2776  986 mt 
(0) s
2877  626 mt 2893  626 L
2776  670 mt 
(2) s
2877  310 mt 2893  310 L
2776  354 mt 
(4) s
gs 2877 310 1690 1265 rc
gs 3226 553 991 779 rc
24 W
c8
3299 942 PD
24 W
3299 784 PD
24 W
3299 626 PD
24 W
3510 626 PD
24 W
3721 626 PD
24 W
3932 626 PD
24 W
4143 626 PD
24 W
4143 784 PD
24 W
4143 942 PD
24 W
4143 1100 PD
24 W
4143 1258 PD
24 W
3932 1258 PD
24 W
3721 1258 PD
24 W
3510 1258 PD
24 W
3299 1258 PD
24 W
3299 1100 PD
24 W
3299 942 PD
gr

c8
-14 -14 -6 -21 -1 -24 4 -28 6 -31 9 -31 9 -32 8 -32 
5 -29 2 -27 -4 -22 -10 -18 -18 -12 -26 -5 -31 -2 -36 2 
-39 4 -40 4 -38 3 -37 2 -35 0 -34 0 -33 -1 -31 -1 
-32 -1 -31 1 -32 1 -33 1 -33 0 -36 0 -37 -2 -39 -3 
-40 -5 -39 -4 -36 -2 -32 2 -25 6 -16 13 -9 18 -2 24 
3 27 5 29 6 30 5 30 2 27 1 27 -1 25 -1 24 
-2 24 0 47 2 24 1 24 1 25 -1 27 -2 27 -5 30 
-6 30 -5 29 -3 27 2 24 9 18 16 13 25 6 32 2 
36 -2 39 -4 40 -5 39 -3 37 -2 36 0 33 0 33 1 
32 1 31 0 32 0 31 -1 33 -1 34 0 35 0 37 2 
38 3 40 4 39 4 36 2 31 -2 26 -5 18 -12 10 -18 
4 -22 -2 -27 -5 -29 -8 -32 -9 -32 -9 -31 -6 -31 -4 -28 
1 -24 6 -21 14 -15 3299 942 100 MP stroke
gr

c8
0 sg
3237  215 mt 
(Curva con x2 e y2) s
1 sg
0 1264 1688 0 0 -1264 656 3366 4 MP
PP
-1688 0 0 1264 1688 0 0 -1264 656 3366 5 MP stroke
4 w
DO
SO
6 w
0 sg
 656 3366 mt 2344 3366 L
 656 3366 mt  656 2102 L
 656 3366 mt  656 3349 L
 553 3511 mt 
(-4) s
1078 3366 mt 1078 3349 L
 975 3511 mt 
(-2) s
1500 3366 mt 1500 3349 L
1467 3511 mt 
(0) s
1922 3366 mt 1922 3349 L
1889 3511 mt 
(2) s
2344 3366 mt 2344 3349 L
2311 3511 mt 
(4) s
 656 3366 mt  672 3366 L
 485 3410 mt 
(-4) s
 656 3050 mt  672 3050 L
 485 3094 mt 
(-2) s
 656 2734 mt  672 2734 L
 555 2778 mt 
(0) s
 656 2418 mt  672 2418 L
 555 2462 mt 
(2) s
 656 2102 mt  672 2102 L
 555 2146 mt 
(4) s
gs 656 2102 1689 1265 rc
c8
-14 -15 -6 -21 -1 -26 5 -30 7 -32 9 -33 9 -33 8 -32 
5 -30 -1 -26 -6 -21 -14 -16 -23 -9 -30 -4 -35 1 -40 3 
-41 5 -40 3 -39 3 -37 0 -35 0 -34 -1 -33 -1 -33 -1 
-33 1 -33 1 -34 1 -35 0 -36 0 -39 -2 -41 -4 -41 -5 
-40 -3 -37 -2 -31 3 -23 9 -13 16 -6 22 1 26 4 30 
6 31 6 31 3 29 2 28 -1 27 -1 25 -2 25 0 48 
1 24 1 25 0 54 -2 30 -4 32 -5 34 -6 35 -6 33 
-3 32 -2 27 3 23 7 16 12 9 20 0 25 -8 29 -12 
34 -16 35 -17 37 -15 38 -11 36 -7 36 -2 36 1 34 3 
34 3 34 3 33 0 34 0 34 -1 35 -1 36 0 39 2 
40 3 41 4 39 4 36 0 30 -3 23 -9 14 -16 6 -21 
1 -26 -5 -30 -8 -32 -9 -33 -9 -33 -7 -32 -5 -30 1 -26 
6 -21 14 -16 1078 2734 99 MP stroke
gs 1005 2266 991 858 rc
24 W
1078 2734 PD
24 W
1078 2576 PD
24 W
1078 2418 PD
24 W
1289 2418 PD
24 W
1500 2418 PD
24 W
1711 2418 PD
24 W
1922 2339 PD
24 W
1922 2576 PD
24 W
1922 2734 PD
24 W
1922 2892 PD
24 W
1922 3050 PD
24 W
1711 3050 PD
24 W
1500 3050 PD
24 W
1289 3050 PD
24 W
1078 3050 PD
24 W
1078 2892 PD
24 W
1078 2734 PD
gr

gr

c8
0 sg
1015 2007 mt 
(Curva con x3 e y3) s
1 sg
0 1264 1689 0 0 -1264 2877 3366 4 MP
PP
-1689 0 0 1264 1689 0 0 -1264 2877 3366 5 MP stroke
4 w
DO
SO
6 w
0 sg
2877 3366 mt 4566 3366 L
2877 3366 mt 2877 2102 L
2877 3366 mt 2877 3349 L
2844 3511 mt 
(0) s
3440 3366 mt 3440 3349 L
3407 3511 mt 
(5) s
4003 3366 mt 4003 3349 L
3937 3511 mt 
(10) s
4566 3366 mt 4566 3349 L
4500 3511 mt 
(15) s
2877 3366 mt 2893 3366 L
2706 3410 mt 
(-5) s
2877 2944 mt 2893 2944 L
2776 2988 mt 
(0) s
2877 2523 mt 2893 2523 L
2776 2567 mt 
(5) s
2877 2102 mt 2893 2102 L
2709 2146 mt 
(10) s
gs 2877 2102 1690 1265 rc
gs 3141 2113 936 737 rc
24 W
c8
3214 2776 PD
24 W
4003 2776 PD
24 W
4003 2186 PD
24 W
3440 2186 PD
24 W
3440 2607 PD
24 W
3890 2607 PD
24 W
3890 2270 PD
24 W
3552 2270 PD
24 W
3552 2523 PD
24 W
3777 2523 PD
24 W
3777 2354 PD
24 W
3665 2354 PD
24 W
3665 2439 PD
gr

c8
28 47 -17 32 -45 15 -53 -1 -42 -19 -24 -34 -4 -42 13 -43 
28 -36 43 -23 52 -10 54 2 52 14 42 24 30 33 17 38 
6 42 -6 42 -17 39 -28 35 -38 28 -46 19 -52 10 -55 3 
-54 -6 -52 -13 -46 -20 -37 -28 -29 -33 -19 -37 -11 -41 -2 -42 
6 -42 15 -40 22 -38 31 -33 38 -27 45 -20 50 -15 53 -8 
55 -2 55 4 54 10 50 15 45 21 39 27 31 32 25 35 
18 39 10 41 4 42 -3 42 -10 41 -16 40 -22 37 -29 33 
-35 29 -41 24 -46 18 -50 13 -53 9 -55 4 -55 -1 -55 -5 
-53 -10 -51 -13 -47 -18 -43 -21 -38 -26 -31 -28 -26 -31 -21 -34 
-16 -36 -10 -38 -6 -40 -1 -40 3 -42 8 -41 12 -42 16 -41 
19 -40 24 -39 27 -38 30 -35 33 -34 36 -31 39 -27 42 -24 
44 -21 46 -16 48 -12 51 -7 52 -1 54 4 55 10 56 17 
58 23 58 31 59 38 60 46 3214 2776 101 MP stroke
gr

c8
0 sg
3237 2007 mt 
(Curva con x4 e y4) s

end %%Color Dict

eplot
%%EndObject

epage
end

showpage

%%Trailer
%%EOF
