A = diag(ones(1, 9)*(-2)) + diag(ones(1, 8), -1) + diag(ones(1, 8), 1)
A =
    -2     1     0     0     0     0     0     0     0
     1    -2     1     0     0     0     0     0     0
     0     1    -2     1     0     0     0     0     0
     0     0     1    -2     1     0     0     0     0
     0     0     0     1    -2     1     0     0     0
     0     0     0     0     1    -2     1     0     0
     0     0     0     0     0     1    -2     1     0
     0     0     0     0     0     0     1    -2     1
     0     0     0     0     0     0     0     1    -2

b = A(3,:)
b =
     0     1    -2     1     0     0     0     0     0

A(3,:) = A(6,:)
A =
    -2     1     0     0     0     0     0     0     0
     1    -2     1     0     0     0     0     0     0
     0     0     0     0     1    -2     1     0     0
     0     0     1    -2     1     0     0     0     0
     0     0     0     1    -2     1     0     0     0
     0     0     0     0     1    -2     1     0     0
     0     0     0     0     0     1    -2     1     0
     0     0     0     0     0     0     1    -2     1
     0     0     0     0     0     0     0     1    -2

A(6,:) = b
A =
    -2     1     0     0     0     0     0     0     0
     1    -2     1     0     0     0     0     0     0
     0     0     0     0     1    -2     1     0     0
     0     0     1    -2     1     0     0     0     0
     0     0     0     1    -2     1     0     0     0
     0     1    -2     1     0     0     0     0     0
     0     0     0     0     0     1    -2     1     0
     0     0     0     0     0     0     1    -2     1
     0     0     0     0     0     0     0     1    -2

b = A(:,1)
b =
    -2
     1
     0
     0
     0
     0
     0
     0
     0

A(:,1) = A(:,4)
A =
     0     1     0     0     0     0     0     0     0
     0    -2     1     0     0     0     0     0     0
     0     0     0     0     1    -2     1     0     0
    -2     0     1    -2     1     0     0     0     0
     1     0     0     1    -2     1     0     0     0
     1     1    -2     1     0     0     0     0     0
     0     0     0     0     0     1    -2     1     0
     0     0     0     0     0     0     1    -2     1
     0     0     0     0     0     0     0     1    -2

A(:,4) = b
A =
     0     1     0    -2     0     0     0     0     0
     0    -2     1     1     0     0     0     0     0
     0     0     0     0     1    -2     1     0     0
    -2     0     1     0     1     0     0     0     0
     1     0     0     0    -2     1     0     0     0
     1     1    -2     0     0     0     0     0     0
     0     0     0     0     0     1    -2     1     0
     0     0     0     0     0     0     1    -2     1
     0     0     0     0     0     0     0     1    -2

