%!PS-Adobe-3.0 EPSF-3.0
%%Creator: MATLAB, The MathWorks, Inc. Version 8.0.0.783 (R2012b). Operating System: Microsoft Windows 7.
%%Title: C:\SILVIA\UniversitÓ\Presenti\Calcolo numerico\Silvia Balzani - esercitazioni\esCalcoloNumerico\Consegne\esercizi\Esercitazione11\1\grafico.eps
%%CreationDate: 12/08/2015  11:01:54
%%DocumentNeededFonts: Helvetica
%%DocumentProcessColors: Cyan Magenta Yellow Black
%%LanguageLevel: 2
%%Pages: 1
%%BoundingBox:    87   262   507   578
%%EndComments

%%BeginProlog
% MathWorks dictionary
/MathWorks 160 dict begin
% definition operators
/bdef {bind def} bind def
/ldef {load def} bind def
/xdef {exch def} bdef
/xstore {exch store} bdef
% operator abbreviations
/c  /clip ldef
/cc /concat ldef
/cp /closepath ldef
/gr /grestore ldef
/gs /gsave ldef
/mt /moveto ldef
/np /newpath ldef
/cm /currentmatrix ldef
/sm /setmatrix ldef
/rm /rmoveto ldef
/rl /rlineto ldef
/s {show newpath} bdef
/sc {setcmykcolor} bdef
/sr /setrgbcolor ldef
/sg /setgray ldef
/w /setlinewidth ldef
/j /setlinejoin ldef
/cap /setlinecap ldef
/rc {rectclip} bdef
/rf {rectfill} bdef
% page state control
/pgsv () def
/bpage {/pgsv save def} bdef
/epage {pgsv restore} bdef
/bplot /gsave ldef
/eplot {stroke grestore} bdef
% orientation switch
/portraitMode 0 def /landscapeMode 1 def /rotateMode 2 def
% coordinate system mappings
/dpi2point 0 def
% font control
/FontSize 0 def
/FMS {/FontSize xstore findfont [FontSize 0 0 FontSize neg 0 0]
  makefont setfont} bdef
/ISOLatin1Encoding where {pop /WindowsLatin1Encoding 256 array bdef
ISOLatin1Encoding WindowsLatin1Encoding copy pop
/.notdef/.notdef/quotesinglbase/florin/quotedblbase/ellipsis/dagger
/daggerdbl/circumflex/perthousand/Scaron/guilsinglleft/OE/.notdef/.notdef
/.notdef/.notdef/quoteleft/quoteright/quotedblleft/quotedblright/bullet
/endash/emdash/tilde/trademark/scaron/guilsinglright/oe/.notdef/.notdef
/Ydieresis WindowsLatin1Encoding 128 32 getinterval astore pop}
{/WindowsLatin1Encoding StandardEncoding bdef} ifelse
/reencode {exch dup where {pop load} {pop StandardEncoding} ifelse
  exch dup 3 1 roll findfont dup length dict begin
  { 1 index /FID ne {def}{pop pop} ifelse } forall
  /Encoding exch def currentdict end definefont pop} bdef
/isroman {findfont /CharStrings get /Agrave known} bdef
/FMSR {3 1 roll 1 index dup isroman {reencode} {pop pop} ifelse
  exch FMS} bdef
/csm {1 dpi2point div -1 dpi2point div scale neg translate
 dup landscapeMode eq {pop -90 rotate}
  {rotateMode eq {90 rotate} if} ifelse} bdef
% line types: solid, dotted, dashed, dotdash
/SO { [] 0 setdash } bdef
/DO { [.5 dpi2point mul 4 dpi2point mul] 0 setdash } bdef
/DA { [6 dpi2point mul] 0 setdash } bdef
/DD { [.5 dpi2point mul 4 dpi2point mul 6 dpi2point mul 4
  dpi2point mul] 0 setdash } bdef
% macros for lines and objects
/L {lineto stroke} bdef
/MP {3 1 roll moveto 1 sub {rlineto} repeat} bdef
/AP {{rlineto} repeat} bdef
/PDlw -1 def
/W {/PDlw currentlinewidth def setlinewidth} def
/PP {closepath eofill} bdef
/DP {closepath stroke} bdef
/MR {4 -2 roll moveto dup  0 exch rlineto exch 0 rlineto
  neg 0 exch rlineto closepath} bdef
/FR {MR stroke} bdef
/PR {MR fill} bdef
/L1i {{currentfile picstr readhexstring pop} image} bdef
/tMatrix matrix def
/MakeOval {newpath tMatrix currentmatrix pop translate scale
0 0 1 0 360 arc tMatrix setmatrix} bdef
/FO {MakeOval stroke} bdef
/PO {MakeOval fill} bdef
/PD {currentlinewidth 2 div 0 360 arc fill
   PDlw -1 eq not {PDlw w /PDlw -1 def} if} def
/FA {newpath tMatrix currentmatrix pop translate scale
  0 0 1 5 -2 roll arc tMatrix setmatrix stroke} bdef
/PA {newpath tMatrix currentmatrix pop	translate 0 0 moveto scale
  0 0 1 5 -2 roll arc closepath tMatrix setmatrix fill} bdef
/FAn {newpath tMatrix currentmatrix pop translate scale
  0 0 1 5 -2 roll arcn tMatrix setmatrix stroke} bdef
/PAn {newpath tMatrix currentmatrix pop translate 0 0 moveto scale
  0 0 1 5 -2 roll arcn closepath tMatrix setmatrix fill} bdef
/vradius 0 def /hradius 0 def /lry 0 def
/lrx 0 def /uly 0 def /ulx 0 def /rad 0 def
/MRR {/vradius xdef /hradius xdef /lry xdef /lrx xdef /uly xdef
  /ulx xdef newpath tMatrix currentmatrix pop ulx hradius add uly
  vradius add translate hradius vradius scale 0 0 1 180 270 arc 
  tMatrix setmatrix lrx hradius sub uly vradius add translate
  hradius vradius scale 0 0 1 270 360 arc tMatrix setmatrix
  lrx hradius sub lry vradius sub translate hradius vradius scale
  0 0 1 0 90 arc tMatrix setmatrix ulx hradius add lry vradius sub
  translate hradius vradius scale 0 0 1 90 180 arc tMatrix setmatrix
  closepath} bdef
/FRR {MRR stroke } bdef
/PRR {MRR fill } bdef
/MlrRR {/lry xdef /lrx xdef /uly xdef /ulx xdef /rad lry uly sub 2 div def
  newpath tMatrix currentmatrix pop ulx rad add uly rad add translate
  rad rad scale 0 0 1 90 270 arc tMatrix setmatrix lrx rad sub lry rad
  sub translate rad rad scale 0 0 1 270 90 arc tMatrix setmatrix
  closepath} bdef
/FlrRR {MlrRR stroke } bdef
/PlrRR {MlrRR fill } bdef
/MtbRR {/lry xdef /lrx xdef /uly xdef /ulx xdef /rad lrx ulx sub 2 div def
  newpath tMatrix currentmatrix pop ulx rad add uly rad add translate
  rad rad scale 0 0 1 180 360 arc tMatrix setmatrix lrx rad sub lry rad
  sub translate rad rad scale 0 0 1 0 180 arc tMatrix setmatrix
  closepath} bdef
/FtbRR {MtbRR stroke } bdef
/PtbRR {MtbRR fill } bdef
/stri 6 array def /dtri 6 array def
/smat 6 array def /dmat 6 array def
/tmat1 6 array def /tmat2 6 array def /dif 3 array def
/asub {/ind2 exch def /ind1 exch def dup dup
  ind1 get exch ind2 get sub exch } bdef
/tri_to_matrix {
  2 0 asub 3 1 asub 4 0 asub 5 1 asub
  dup 0 get exch 1 get 7 -1 roll astore } bdef
/compute_transform {
  dmat dtri tri_to_matrix tmat1 invertmatrix 
  smat stri tri_to_matrix tmat2 concatmatrix } bdef
/ds {stri astore pop} bdef
/dt {dtri astore pop} bdef
/db {2 copy /cols xdef /rows xdef mul dup 3 mul string
  currentfile 
  3 index 0 eq {/ASCIIHexDecode filter}
  {/ASCII85Decode filter 3 index 2 eq {/RunLengthDecode filter} if }
  ifelse exch readstring pop
  dup 0 3 index getinterval /rbmap xdef
  dup 2 index dup getinterval /gbmap xdef
  1 index dup 2 mul exch getinterval /bbmap xdef pop pop}bdef
/it {gs np dtri aload pop moveto lineto lineto cp c
  cols rows 8 compute_transform 
  rbmap gbmap bbmap true 3 colorimage gr}bdef
/il {newpath moveto lineto stroke}bdef
currentdict end def
%%EndProlog

%%BeginSetup
MathWorks begin

0 cap

end
%%EndSetup

%%Page: 1 1
%%BeginPageSetup
%%PageBoundingBox:    87   262   507   578
MathWorks begin
bpage
%%EndPageSetup

%%BeginObject: obj1
bplot

/dpi2point 12 def
portraitMode 1044 6936 csm

    0     0  5045  3782 rc
85 dict begin %Colortable dictionary
/c0 { 0.000000 0.000000 0.000000 sr} bdef
/c1 { 1.000000 1.000000 1.000000 sr} bdef
/c2 { 0.900000 0.000000 0.000000 sr} bdef
/c3 { 0.000000 0.820000 0.000000 sr} bdef
/c4 { 0.000000 0.000000 0.800000 sr} bdef
/c5 { 0.910000 0.820000 0.320000 sr} bdef
/c6 { 1.000000 0.260000 0.820000 sr} bdef
/c7 { 0.000000 0.820000 0.820000 sr} bdef
c0
1 j
1 sg
   0    0 5046 3783 rf
6 w
0 1264 1688 0 0 -1264 656 1574 4 MP
PP
-1688 0 0 1264 1688 0 0 -1264 656 1574 5 MP stroke
4 w
DO
SO
6 w
0 sg
 656  310 mt 2344  310 L
 656 1574 mt 2344 1574 L
2344 1574 mt 2344  310 L
 656 1574 mt  656  310 L
 656 1574 mt 2344 1574 L
 656 1574 mt  656  310 L
1218 1574 mt 1218 1557 L
1218  310 mt 1218  326 L
%%IncludeResource: font Helvetica
/Helvetica /WindowsLatin1Encoding 120 FMSR

1135 1719 mt 
(0.5) s
1781 1574 mt 1781 1557 L
1781  310 mt 1781  326 L
1748 1719 mt 
(1) s
2344 1574 mt 2344 1557 L
2344  310 mt 2344  326 L
2261 1719 mt 
(1.5) s
 656 1374 mt  672 1374 L
2344 1374 mt 2327 1374 L
 555 1418 mt 
(0) s
 656 1123 mt  672 1123 L
2344 1123 mt 2327 1123 L
 555 1167 mt 
(2) s
 656  873 mt  672  873 L
2344  873 mt 2327  873 L
 555  917 mt 
(4) s
 656  622 mt  672  622 L
2344  622 mt 2327  622 L
 555  666 mt 
(6) s
 656  371 mt  672  371 L
2344  371 mt 2327  371 L
 555  415 mt 
(8) s
 656  310 mt 2344  310 L
 656 1574 mt 2344 1574 L
2344 1574 mt 2344  310 L
 656 1574 mt  656  310 L
gs 656 310 1689 1265 rc
/c8 { 0.000000 0.000000 1.000000 sr} bdef
c8
7 -50 9 -63 9 -58 9 -52 9 -48 9 -44 9 -41 9 -37 
9 -35 9 -32 9 -30 9 -28 9 -27 9 -24 10 -23 9 -22 
9 -21 9 -20 9 -18 9 -18 9 -16 9 -16 9 -15 9 -15 
9 -13 9 -13 9 -13 9 -12 9 -11 9 -11 9 -11 9 -10 
10 -10 9 -9 9 -10 9 -8 9 -9 9 -8 9 -8 9 -7 
9 -8 9 -7 9 -6 9 -7 9 -7 9 -6 9 -6 9 -6 
9 -5 9 -6 10 -5 9 -5 9 -6 9 -4 9 -5 9 -5 
9 -4 9 -5 9 -4 9 -4 9 -4 9 -4 9 -4 9 -4 
9 -4 9 -3 9 -4 9 -3 10 -3 9 -4 9 -3 9 -3 
9 -3 9 -3 9 -3 9 -3 9 -3 9 -2 9 -3 9 -2 
9 -3 9 -2 9 -3 9 -2 9 -3 9 -2 10 -2 9 -2 
9 -2 9 -2 9 -2 9 -2 9 -2 9 -2 9 -2 9 -2 
9 -2 9 -2 9 -1 9 -2 9 -2 9 -1 9 -2 9 -1 
10 -2 9 -1 9 -2 9 -1 9 -2 9 -1 9 -1 9 -2 
9 -1 9 -1 9 -1 9 -1 9 -2 9 -1 9 -1 9 -1 
9 -1 9 -1 10 -1 9 -1 9 -1 9 -1 9 -1 9 -1 
9 -1 9 -1 9 0 9 -1 9 -1 9 -1 9 0 9 -1 
9 -1 9 -1 9 0 9 -1 10 -1 9 0 9 -1 9 0 
9 -1 9 0 9 -1 9 0 9 -1 9 0 9 -1 9 0 
9 -1 9 0 9 0 9 -1 9 0 9 0 10 -1 9 0 
9 0 9 -1 9 0 9 0 9 0 9 0 9 -1 9 0 
9 0 9 0 9 0 9 0 9 0 9 0 9 0 9 0 
9 0 656 1499 178 MP stroke
gr

c8
0 sg
1469 1862 mt 
(x) s
1200  215 mt 
(x) s
1260  215 mt 
( ) s
1293  215 mt 
(tan) s
1459  215 mt 
(\() s
1498  215 mt 
(x) s
1558  215 mt 
(\) - ) s
1734  215 mt 
(1) s
1 sg
0 1264 1689 0 0 -1264 2877 1574 4 MP
PP
-1689 0 0 1264 1689 0 0 -1264 2877 1574 5 MP stroke
4 w
DO
SO
6 w
0 sg
2877  310 mt 4566  310 L
2877 1574 mt 4566 1574 L
4566 1574 mt 4566  310 L
2877 1574 mt 2877  310 L
2877 1574 mt 4566 1574 L
2877 1574 mt 2877  310 L
3440 1574 mt 3440 1557 L
3440  310 mt 3440  326 L
3357 1719 mt 
(0.5) s
4003 1574 mt 4003 1557 L
4003  310 mt 4003  326 L
3970 1719 mt 
(1) s
4566 1574 mt 4566 1557 L
4566  310 mt 4566  326 L
4483 1719 mt 
(1.5) s
2877 1381 mt 2893 1381 L
4566 1381 mt 4549 1381 L
2639 1425 mt 
(-10) s
2877 1129 mt 2893 1129 L
4566 1129 mt 4549 1129 L
2706 1173 mt 
(-5) s
2877  877 mt 2893  877 L
4566  877 mt 4549  877 L
2776  921 mt 
(0) s
2877  625 mt 2893  625 L
4566  625 mt 4549  625 L
2776  669 mt 
(5) s
2877  373 mt 2893  373 L
4566  373 mt 4549  373 L
2709  417 mt 
(10) s
2877  310 mt 4566  310 L
2877 1574 mt 4566 1574 L
4566 1574 mt 4566  310 L
2877 1574 mt 2877  310 L
gs 2877 310 1690 1265 rc
c8
6 -37 9 -47 9 -40 9 -35 9 -29 9 -27 10 -23 9 -20 
9 -19 9 -17 9 -15 9 -14 9 -12 9 -12 9 -11 9 -9 
9 -10 9 -8 9 -8 9 -8 9 -7 10 -7 9 -6 9 -6 
9 -5 9 -6 9 -5 9 -5 9 -4 9 -5 9 -4 9 -4 
9 -4 9 -3 9 -4 9 -3 10 -4 9 -3 9 -3 9 -3 
9 -3 9 -3 9 -2 9 -3 9 -3 9 -2 9 -2 9 -3 
9 -2 9 -2 9 -3 10 -2 9 -2 9 -2 9 -2 9 -2 
9 -2 9 -2 9 -2 9 -1 9 -2 9 -2 9 -2 9 -1 
9 -2 9 -2 10 -1 9 -2 9 -2 9 -1 9 -2 9 -1 
9 -2 9 -2 9 -1 9 -2 9 -1 9 -2 9 -1 9 -2 
9 -1 10 -2 9 -1 9 -2 9 -1 9 -1 9 -2 9 -1 
9 -2 9 -1 9 -2 9 -1 9 -2 9 -1 9 -2 10 -1 
9 -2 9 -1 9 -2 9 -1 9 -2 9 -1 9 -2 9 -2 
9 -1 9 -2 9 -2 9 -1 9 -2 9 -2 10 -1 9 -2 
9 -2 9 -2 9 -1 9 -2 9 -2 9 -2 9 -2 9 -2 
9 -2 9 -2 9 -2 9 -2 9 -3 10 -2 9 -2 9 -3 
9 -2 9 -3 9 -2 9 -3 9 -3 9 -3 9 -3 9 -3 
9 -3 9 -3 9 -3 9 -4 10 -3 9 -4 9 -4 9 -4 
9 -4 9 -5 9 -5 9 -4 9 -6 9 -5 9 -6 9 -6 
9 -6 9 -7 9 -7 10 -8 9 -8 9 -8 9 -10 9 -10 
9 -11 9 -11 9 -13 9 -14 9 -15 9 -17 9 -19 9 -21 
9 -23 9 -27 10 -30 9 -35 9 -40 9 -48 9 -57 9 -70 
1 -7 2957 1575 178 MP stroke
gr

c8
0 sg
3690 1862 mt 
(x) s
3422  215 mt 
(tan) s
3588  215 mt 
(\() s
3627  215 mt 
(x) s
3687  215 mt 
(\) - ) s
3863  215 mt 
(1) s
3929  215 mt 
(/) s
3962  215 mt 
(x) s
1 sg
0 1264 1688 0 0 -1264 656 3366 4 MP
PP
-1688 0 0 1264 1688 0 0 -1264 656 3366 5 MP stroke
4 w
DO
SO
6 w
0 sg
 656 2102 mt 2344 2102 L
 656 3366 mt 2344 3366 L
2344 3366 mt 2344 2102 L
 656 3366 mt  656 2102 L
 656 3366 mt 2344 3366 L
 656 3366 mt  656 2102 L
1218 3366 mt 1218 3349 L
1218 2102 mt 1218 2118 L
1135 3511 mt 
(0.5) s
1781 3366 mt 1781 3349 L
1781 2102 mt 1781 2118 L
1748 3511 mt 
(1) s
2344 3366 mt 2344 3349 L
2344 2102 mt 2344 2118 L
2261 3511 mt 
(1.5) s
 656 3200 mt  672 3200 L
2344 3200 mt 2327 3200 L
 418 3244 mt 
(-10) s
 656 2751 mt  672 2751 L
2344 2751 mt 2327 2751 L
 485 2795 mt 
(-5) s
 656 2302 mt  672 2302 L
2344 2302 mt 2327 2302 L
 555 2346 mt 
(0) s
 656 2102 mt 2344 2102 L
 656 3366 mt 2344 3366 L
2344 3366 mt 2344 2102 L
 656 3366 mt  656 2102 L
gs 656 2102 1689 1265 rc
c8
9 -1 9 -2 9 -1 9 -2 9 -1 9 -1 9 -2 9 -1 
10 -2 9 -1 9 -2 9 -1 9 -2 9 -1 9 -2 9 -1 
9 -2 9 -1 9 -2 9 -1 9 -2 9 -1 9 -2 9 -1 
10 -2 9 -1 9 -2 9 -1 9 -2 9 -1 9 -2 9 -1 
9 -2 9 -1 9 -2 9 -1 9 -2 9 -1 9 -2 9 -2 
10 -1 9 -2 9 -1 9 -2 9 -2 9 -1 9 -2 9 -1 
9 -2 9 -2 9 -1 9 -2 9 -2 9 -1 9 -2 9 -2 
10 -1 9 -2 9 -2 9 -1 9 -2 9 -2 9 -2 9 -1 
9 -2 9 -2 9 -2 9 -2 9 -1 9 -2 9 -2 9 -2 
9 -2 10 -2 9 -2 9 -2 9 -1 9 -2 9 -2 9 -2 
9 -2 9 -2 9 -2 9 -2 9 -3 9 -2 9 -2 9 -2 
9 -2 10 -2 9 -3 9 -2 9 -2 9 -2 9 -3 9 -2 
9 -2 9 -3 9 -2 9 -3 9 -2 9 -3 9 -2 9 -3 
9 -3 10 -2 9 -3 9 -3 9 -3 9 -3 9 -3 9 -3 
9 -3 9 -3 9 -3 9 -3 9 -3 9 -4 9 -3 9 -4 
9 -3 10 -4 9 -4 9 -4 9 -3 9 -4 9 -5 9 -4 
9 -4 9 -5 9 -4 9 -5 9 -5 9 -5 9 -5 9 -5 
9 -6 10 -6 9 -6 9 -6 9 -6 9 -7 9 -6 9 -8 
9 -7 9 -8 9 -8 9 -8 9 -9 9 -10 9 -9 9 -11 
9 -11 10 -11 9 -12 9 -13 9 -14 9 -15 9 -16 9 -16 
9 -19 9 -19 9 -21 9 -23 9 -25 9 -28 9 -30 9 -34 
9 -37 10 -42 9 -48 9 -54 9 -62 9 -72 9 -86 5 -62 
750 3367 177 MP stroke
gr

c8
0 sg
1469 3654 mt 
(x) s
1200 2007 mt 
(x) s
1260 2007 mt 
( - ) s
1396 2007 mt 
(1) s
1462 2007 mt 
(/) s
1495 2007 mt 
(tan) s
1661 2007 mt 
(\() s
1700 2007 mt 
(x) s
1760 2007 mt 
(\)) s
1 sg
0 1264 1689 0 0 -1264 2877 3366 4 MP
PP
-1689 0 0 1264 1689 0 0 -1264 2877 3366 5 MP stroke
4 w
DO
SO
6 w
0 sg
2877 2102 mt 4566 2102 L
2877 3366 mt 4566 3366 L
4566 3366 mt 4566 2102 L
2877 3366 mt 2877 2102 L
2877 3366 mt 4566 3366 L
2877 3366 mt 2877 2102 L
3440 3366 mt 3440 3349 L
3440 2102 mt 3440 2118 L
3357 3511 mt 
(0.5) s
4003 3366 mt 4003 3349 L
4003 2102 mt 4003 2118 L
3970 3511 mt 
(1) s
4566 3366 mt 4566 3349 L
4566 2102 mt 4566 2118 L
4483 3511 mt 
(1.5) s
2877 3235 mt 2893 3235 L
4566 3235 mt 4549 3235 L
2606 3279 mt 
(-1.5) s
2877 3020 mt 2893 3020 L
4566 3020 mt 4549 3020 L
2706 3064 mt 
(-1) s
2877 2806 mt 2893 2806 L
4566 2806 mt 4549 2806 L
2606 2850 mt 
(-0.5) s
2877 2592 mt 2893 2592 L
4566 2592 mt 4549 2592 L
2776 2636 mt 
(0) s
2877 2377 mt 2893 2377 L
4566 2377 mt 4549 2377 L
2676 2421 mt 
(0.5) s
2877 2163 mt 2893 2163 L
4566 2163 mt 4549 2163 L
2776 2207 mt 
(1) s
2877 2102 mt 4566 2102 L
2877 3366 mt 4566 3366 L
4566 3366 mt 4566 2102 L
2877 3366 mt 2877 2102 L
gs 2877 2102 1690 1265 rc
c8
9 -4 9 -5 9 -4 9 -5 9 -4 9 -5 9 -5 10 -4 
9 -5 9 -4 9 -5 9 -5 9 -4 9 -5 9 -4 9 -5 
9 -5 9 -4 9 -5 9 -5 9 -4 9 -5 10 -5 9 -5 
9 -4 9 -5 9 -5 9 -5 9 -4 9 -5 9 -5 9 -5 
9 -5 9 -4 9 -5 9 -5 9 -5 10 -5 9 -5 9 -5 
9 -5 9 -4 9 -5 9 -5 9 -5 9 -5 9 -5 9 -5 
9 -5 9 -5 9 -5 9 -5 10 -5 9 -5 9 -6 9 -5 
9 -5 9 -5 9 -5 9 -5 9 -5 9 -6 9 -5 9 -5 
9 -5 9 -5 9 -6 10 -5 9 -5 9 -5 9 -6 9 -5 
9 -5 9 -6 9 -5 9 -5 9 -6 9 -5 9 -6 9 -5 
9 -6 9 -5 10 -6 9 -5 9 -6 9 -5 9 -6 9 -5 
9 -6 9 -5 9 -6 9 -6 9 -5 9 -6 9 -6 9 -5 
10 -6 9 -6 9 -6 9 -6 9 -5 9 -6 9 -6 9 -6 
9 -6 9 -6 9 -5 9 -6 9 -6 9 -6 9 -6 10 -6 
9 -6 9 -6 9 -6 9 -6 9 -6 9 -7 9 -6 9 -6 
9 -6 9 -6 9 -6 9 -7 9 -6 9 -6 10 -6 9 -7 
9 -6 9 -6 9 -7 9 -6 9 -6 9 -7 9 -6 9 -6 
9 -7 9 -6 9 -7 9 -6 9 -7 10 -6 9 -7 9 -6 
9 -7 9 -7 9 -6 9 -7 9 -6 9 -7 9 -7 9 -6 
9 -7 9 -7 9 -6 9 -7 10 -7 9 -6 9 -7 9 -7 
9 -7 9 -7 9 -6 9 -7 9 -7 9 -7 9 -7 9 -6 
9 -7 9 -7 9 -7 10 -7 9 -7 9 -7 9 -6 9 -7 
9 -7 9 -7 9 -7 9 -7 9 -7 9 -7 9 -7 9 -6 
9 -7 9 -7 2877 3265 187 MP stroke
gr

c8
0 sg
3690 3654 mt 
(x) s
3389 2007 mt 
(x) s
3449 2007 mt 
( - ) s
3585 2007 mt 
(atan) s
3818 2007 mt 
(\() s
3857 2007 mt 
(1) s
3923 2007 mt 
(/) s
3956 2007 mt 
(x) s
4016 2007 mt 
(\)) s

end %%Color Dict

eplot
%%EndObject

epage
end

showpage

%%Trailer
%%EOF
