x = 25: 3 : 91
x =
  Columns 1 through 12
    25    28    31    34    37    40    43    46    49    52    55    58
  Columns 13 through 23
    61    64    67    70    73    76    79    82    85    88    91

y = [100: -2 : 10]'
y =
   100
    98
    96
    94
    92
    90
    88
    86
    84
    82
    80
    78
    76
    74
    72
    70
    68
    66
    64
    62
    60
    58
    56
    54
    52
    50
    48
    46
    44
    42
    40
    38
    36
    34
    32
    30
    28
    26
    24
    22
    20
    18
    16
    14
    12
    10

z = linspace(-15, -10, 33)'
z =
  -15.0000
  -14.8438
  -14.6875
  -14.5312
  -14.3750
  -14.2188
  -14.0625
  -13.9062
  -13.7500
  -13.5938
  -13.4375
  -13.2812
  -13.1250
  -12.9688
  -12.8125
  -12.6562
  -12.5000
  -12.3438
  -12.1875
  -12.0312
  -11.8750
  -11.7188
  -11.5625
  -11.4062
  -11.2500
  -11.0938
  -10.9375
  -10.7812
  -10.6250
  -10.4688
  -10.3125
  -10.1562
  -10.0000