%!PS-Adobe-3.0 EPSF-3.0
%%Creator: MATLAB, The MathWorks, Inc. Version 8.0.0.783 (R2012b). Operating System: Microsoft Windows 7.
%%Title: C:\SILVIA\UniversitÓ\Presenti\Calcolo numerico\Silvia Balzani - esercitazioni\esCalcoloNumerico\Consegne\esercizi\Esercitazione09\3\ErroreIntegrale.eps
%%CreationDate: 11/17/2015  16:58:52
%%DocumentNeededFonts: Helvetica
%%DocumentProcessColors: Cyan Magenta Yellow Black
%%LanguageLevel: 2
%%Pages: 1
%%BoundingBox:    44   262   550   578
%%EndComments

%%BeginProlog
% MathWorks dictionary
/MathWorks 160 dict begin
% definition operators
/bdef {bind def} bind def
/ldef {load def} bind def
/xdef {exch def} bdef
/xstore {exch store} bdef
% operator abbreviations
/c  /clip ldef
/cc /concat ldef
/cp /closepath ldef
/gr /grestore ldef
/gs /gsave ldef
/mt /moveto ldef
/np /newpath ldef
/cm /currentmatrix ldef
/sm /setmatrix ldef
/rm /rmoveto ldef
/rl /rlineto ldef
/s {show newpath} bdef
/sc {setcmykcolor} bdef
/sr /setrgbcolor ldef
/sg /setgray ldef
/w /setlinewidth ldef
/j /setlinejoin ldef
/cap /setlinecap ldef
/rc {rectclip} bdef
/rf {rectfill} bdef
% page state control
/pgsv () def
/bpage {/pgsv save def} bdef
/epage {pgsv restore} bdef
/bplot /gsave ldef
/eplot {stroke grestore} bdef
% orientation switch
/portraitMode 0 def /landscapeMode 1 def /rotateMode 2 def
% coordinate system mappings
/dpi2point 0 def
% font control
/FontSize 0 def
/FMS {/FontSize xstore findfont [FontSize 0 0 FontSize neg 0 0]
  makefont setfont} bdef
/ISOLatin1Encoding where {pop /WindowsLatin1Encoding 256 array bdef
ISOLatin1Encoding WindowsLatin1Encoding copy pop
/.notdef/.notdef/quotesinglbase/florin/quotedblbase/ellipsis/dagger
/daggerdbl/circumflex/perthousand/Scaron/guilsinglleft/OE/.notdef/.notdef
/.notdef/.notdef/quoteleft/quoteright/quotedblleft/quotedblright/bullet
/endash/emdash/tilde/trademark/scaron/guilsinglright/oe/.notdef/.notdef
/Ydieresis WindowsLatin1Encoding 128 32 getinterval astore pop}
{/WindowsLatin1Encoding StandardEncoding bdef} ifelse
/reencode {exch dup where {pop load} {pop StandardEncoding} ifelse
  exch dup 3 1 roll findfont dup length dict begin
  { 1 index /FID ne {def}{pop pop} ifelse } forall
  /Encoding exch def currentdict end definefont pop} bdef
/isroman {findfont /CharStrings get /Agrave known} bdef
/FMSR {3 1 roll 1 index dup isroman {reencode} {pop pop} ifelse
  exch FMS} bdef
/csm {1 dpi2point div -1 dpi2point div scale neg translate
 dup landscapeMode eq {pop -90 rotate}
  {rotateMode eq {90 rotate} if} ifelse} bdef
% line types: solid, dotted, dashed, dotdash
/SO { [] 0 setdash } bdef
/DO { [.5 dpi2point mul 4 dpi2point mul] 0 setdash } bdef
/DA { [6 dpi2point mul] 0 setdash } bdef
/DD { [.5 dpi2point mul 4 dpi2point mul 6 dpi2point mul 4
  dpi2point mul] 0 setdash } bdef
% macros for lines and objects
/L {lineto stroke} bdef
/MP {3 1 roll moveto 1 sub {rlineto} repeat} bdef
/AP {{rlineto} repeat} bdef
/PDlw -1 def
/W {/PDlw currentlinewidth def setlinewidth} def
/PP {closepath eofill} bdef
/DP {closepath stroke} bdef
/MR {4 -2 roll moveto dup  0 exch rlineto exch 0 rlineto
  neg 0 exch rlineto closepath} bdef
/FR {MR stroke} bdef
/PR {MR fill} bdef
/L1i {{currentfile picstr readhexstring pop} image} bdef
/tMatrix matrix def
/MakeOval {newpath tMatrix currentmatrix pop translate scale
0 0 1 0 360 arc tMatrix setmatrix} bdef
/FO {MakeOval stroke} bdef
/PO {MakeOval fill} bdef
/PD {currentlinewidth 2 div 0 360 arc fill
   PDlw -1 eq not {PDlw w /PDlw -1 def} if} def
/FA {newpath tMatrix currentmatrix pop translate scale
  0 0 1 5 -2 roll arc tMatrix setmatrix stroke} bdef
/PA {newpath tMatrix currentmatrix pop	translate 0 0 moveto scale
  0 0 1 5 -2 roll arc closepath tMatrix setmatrix fill} bdef
/FAn {newpath tMatrix currentmatrix pop translate scale
  0 0 1 5 -2 roll arcn tMatrix setmatrix stroke} bdef
/PAn {newpath tMatrix currentmatrix pop translate 0 0 moveto scale
  0 0 1 5 -2 roll arcn closepath tMatrix setmatrix fill} bdef
/vradius 0 def /hradius 0 def /lry 0 def
/lrx 0 def /uly 0 def /ulx 0 def /rad 0 def
/MRR {/vradius xdef /hradius xdef /lry xdef /lrx xdef /uly xdef
  /ulx xdef newpath tMatrix currentmatrix pop ulx hradius add uly
  vradius add translate hradius vradius scale 0 0 1 180 270 arc 
  tMatrix setmatrix lrx hradius sub uly vradius add translate
  hradius vradius scale 0 0 1 270 360 arc tMatrix setmatrix
  lrx hradius sub lry vradius sub translate hradius vradius scale
  0 0 1 0 90 arc tMatrix setmatrix ulx hradius add lry vradius sub
  translate hradius vradius scale 0 0 1 90 180 arc tMatrix setmatrix
  closepath} bdef
/FRR {MRR stroke } bdef
/PRR {MRR fill } bdef
/MlrRR {/lry xdef /lrx xdef /uly xdef /ulx xdef /rad lry uly sub 2 div def
  newpath tMatrix currentmatrix pop ulx rad add uly rad add translate
  rad rad scale 0 0 1 90 270 arc tMatrix setmatrix lrx rad sub lry rad
  sub translate rad rad scale 0 0 1 270 90 arc tMatrix setmatrix
  closepath} bdef
/FlrRR {MlrRR stroke } bdef
/PlrRR {MlrRR fill } bdef
/MtbRR {/lry xdef /lrx xdef /uly xdef /ulx xdef /rad lrx ulx sub 2 div def
  newpath tMatrix currentmatrix pop ulx rad add uly rad add translate
  rad rad scale 0 0 1 180 360 arc tMatrix setmatrix lrx rad sub lry rad
  sub translate rad rad scale 0 0 1 0 180 arc tMatrix setmatrix
  closepath} bdef
/FtbRR {MtbRR stroke } bdef
/PtbRR {MtbRR fill } bdef
/stri 6 array def /dtri 6 array def
/smat 6 array def /dmat 6 array def
/tmat1 6 array def /tmat2 6 array def /dif 3 array def
/asub {/ind2 exch def /ind1 exch def dup dup
  ind1 get exch ind2 get sub exch } bdef
/tri_to_matrix {
  2 0 asub 3 1 asub 4 0 asub 5 1 asub
  dup 0 get exch 1 get 7 -1 roll astore } bdef
/compute_transform {
  dmat dtri tri_to_matrix tmat1 invertmatrix 
  smat stri tri_to_matrix tmat2 concatmatrix } bdef
/ds {stri astore pop} bdef
/dt {dtri astore pop} bdef
/db {2 copy /cols xdef /rows xdef mul dup 3 mul string
  currentfile 
  3 index 0 eq {/ASCIIHexDecode filter}
  {/ASCII85Decode filter 3 index 2 eq {/RunLengthDecode filter} if }
  ifelse exch readstring pop
  dup 0 3 index getinterval /rbmap xdef
  dup 2 index dup getinterval /gbmap xdef
  1 index dup 2 mul exch getinterval /bbmap xdef pop pop}bdef
/it {gs np dtri aload pop moveto lineto lineto cp c
  cols rows 8 compute_transform 
  rbmap gbmap bbmap true 3 colorimage gr}bdef
/il {newpath moveto lineto stroke}bdef
currentdict end def
%%EndProlog

%%BeginSetup
MathWorks begin

0 cap

end
%%EndSetup

%%Page: 1 1
%%BeginPageSetup
%%PageBoundingBox:    44   262   550   578
MathWorks begin
bpage
%%EndPageSetup

%%BeginObject: obj1
bplot

/dpi2point 12 def
portraitMode 0528 6936 csm

    0     0  6080  3782 rc
85 dict begin %Colortable dictionary
/c0 { 0.000000 0.000000 0.000000 sr} bdef
/c1 { 1.000000 1.000000 1.000000 sr} bdef
/c2 { 0.900000 0.000000 0.000000 sr} bdef
/c3 { 0.000000 0.820000 0.000000 sr} bdef
/c4 { 0.000000 0.000000 0.800000 sr} bdef
/c5 { 0.910000 0.820000 0.320000 sr} bdef
/c6 { 1.000000 0.260000 0.820000 sr} bdef
/c7 { 0.000000 0.820000 0.820000 sr} bdef
c0
1 j
1 sg
   0    0 6081 3783 rf
6 w
0 3083 4712 0 0 -3083 790 3366 4 MP
PP
-4712 0 0 3083 4712 0 0 -3083 790 3366 5 MP stroke
4 w
DO
SO
6 w
0 sg
 790  283 mt 5502  283 L
 790 3366 mt 5502 3366 L
5502 3366 mt 5502  283 L
 790 3366 mt  790  283 L
 790 3366 mt 5502 3366 L
 790 3366 mt  790  283 L
 790 3366 mt  790 3318 L
 790  284 mt  790  331 L
%%IncludeResource: font Helvetica
/Helvetica /WindowsLatin1Encoding 120 FMSR

 757 3511 mt 
(0) s
1261 3366 mt 1261 3318 L
1261  284 mt 1261  331 L
1195 3511 mt 
(10) s
1732 3366 mt 1732 3318 L
1732  284 mt 1732  331 L
1666 3511 mt 
(20) s
2203 3366 mt 2203 3318 L
2203  284 mt 2203  331 L
2137 3511 mt 
(30) s
2674 3366 mt 2674 3318 L
2674  284 mt 2674  331 L
2608 3511 mt 
(40) s
3146 3366 mt 3146 3318 L
3146  284 mt 3146  331 L
3080 3511 mt 
(50) s
3617 3366 mt 3617 3318 L
3617  284 mt 3617  331 L
3551 3511 mt 
(60) s
4088 3366 mt 4088 3318 L
4088  284 mt 4088  331 L
4022 3511 mt 
(70) s
4559 3366 mt 4559 3318 L
4559  284 mt 4559  331 L
4493 3511 mt 
(80) s
5030 3366 mt 5030 3318 L
5030  284 mt 5030  331 L
4964 3511 mt 
(90) s
5502 3366 mt 5502 3318 L
5502  284 mt 5502  331 L
5402 3511 mt 
(100) s
 790 3366 mt  813 3366 L
5502 3366 mt 5478 3366 L
 790 3366 mt  837 3366 L
5502 3366 mt 5454 3366 L
 531 3410 mt 
(10) s
%%IncludeResource: font Helvetica
/Helvetica /WindowsLatin1Encoding 80 FMSR

 664 3336 mt 
(-6) s
 790 3180 mt  813 3180 L
5502 3180 mt 5478 3180 L
 790 3071 mt  813 3071 L
5502 3071 mt 5478 3071 L
 790 2994 mt  813 2994 L
5502 2994 mt 5478 2994 L
 790 2935 mt  813 2935 L
5502 2935 mt 5478 2935 L
 790 2886 mt  813 2886 L
5502 2886 mt 5478 2886 L
 790 2845 mt  813 2845 L
5502 2845 mt 5478 2845 L
 790 2809 mt  813 2809 L
5502 2809 mt 5478 2809 L
 790 2777 mt  813 2777 L
5502 2777 mt 5478 2777 L
 790 2749 mt  813 2749 L
5502 2749 mt 5478 2749 L
 790 2749 mt  837 2749 L
5502 2749 mt 5454 2749 L
%%IncludeResource: font Helvetica
/Helvetica /WindowsLatin1Encoding 120 FMSR

 531 2793 mt 
(10) s
%%IncludeResource: font Helvetica
/Helvetica /WindowsLatin1Encoding 80 FMSR

 664 2719 mt 
(-5) s
 790 2564 mt  813 2564 L
5502 2564 mt 5478 2564 L
 790 2455 mt  813 2455 L
5502 2455 mt 5478 2455 L
 790 2378 mt  813 2378 L
5502 2378 mt 5478 2378 L
 790 2318 mt  813 2318 L
5502 2318 mt 5478 2318 L
 790 2269 mt  813 2269 L
5502 2269 mt 5478 2269 L
 790 2228 mt  813 2228 L
5502 2228 mt 5478 2228 L
 790 2192 mt  813 2192 L
5502 2192 mt 5478 2192 L
 790 2161 mt  813 2161 L
5502 2161 mt 5478 2161 L
 790 2133 mt  813 2133 L
5502 2133 mt 5478 2133 L
 790 2133 mt  837 2133 L
5502 2133 mt 5454 2133 L
%%IncludeResource: font Helvetica
/Helvetica /WindowsLatin1Encoding 120 FMSR

 531 2177 mt 
(10) s
%%IncludeResource: font Helvetica
/Helvetica /WindowsLatin1Encoding 80 FMSR

 664 2103 mt 
(-4) s
 790 1947 mt  813 1947 L
5502 1947 mt 5478 1947 L
 790 1839 mt  813 1839 L
5502 1839 mt 5478 1839 L
 790 1762 mt  813 1762 L
5502 1762 mt 5478 1762 L
 790 1702 mt  813 1702 L
5502 1702 mt 5478 1702 L
 790 1653 mt  813 1653 L
5502 1653 mt 5478 1653 L
 790 1612 mt  813 1612 L
5502 1612 mt 5478 1612 L
 790 1576 mt  813 1576 L
5502 1576 mt 5478 1576 L
 790 1545 mt  813 1545 L
5502 1545 mt 5478 1545 L
 790 1516 mt  813 1516 L
5502 1516 mt 5478 1516 L
 790 1516 mt  837 1516 L
5502 1516 mt 5454 1516 L
%%IncludeResource: font Helvetica
/Helvetica /WindowsLatin1Encoding 120 FMSR

 531 1560 mt 
(10) s
%%IncludeResource: font Helvetica
/Helvetica /WindowsLatin1Encoding 80 FMSR

 664 1486 mt 
(-3) s
 790 1331 mt  813 1331 L
5502 1331 mt 5478 1331 L
 790 1222 mt  813 1222 L
5502 1222 mt 5478 1222 L
 790 1145 mt  813 1145 L
5502 1145 mt 5478 1145 L
 790 1085 mt  813 1085 L
5502 1085 mt 5478 1085 L
 790 1037 mt  813 1037 L
5502 1037 mt 5478 1037 L
 790  995 mt  813  995 L
5502  995 mt 5478  995 L
 790  960 mt  813  960 L
5502  960 mt 5478  960 L
 790  928 mt  813  928 L
5502  928 mt 5478  928 L
 790  900 mt  813  900 L
5502  900 mt 5478  900 L
 790  900 mt  837  900 L
5502  900 mt 5454  900 L
%%IncludeResource: font Helvetica
/Helvetica /WindowsLatin1Encoding 120 FMSR

 531  944 mt 
(10) s
%%IncludeResource: font Helvetica
/Helvetica /WindowsLatin1Encoding 80 FMSR

 664  870 mt 
(-2) s
 790  714 mt  813  714 L
5502  714 mt 5478  714 L
 790  606 mt  813  606 L
5502  606 mt 5478  606 L
 790  529 mt  813  529 L
5502  529 mt 5478  529 L
 790  469 mt  813  469 L
5502  469 mt 5478  469 L
 790  420 mt  813  420 L
5502  420 mt 5478  420 L
 790  379 mt  813  379 L
5502  379 mt 5478  379 L
 790  343 mt  813  343 L
5502  343 mt 5478  343 L
 790  312 mt  813  312 L
5502  312 mt 5478  312 L
 790  284 mt  813  284 L
5502  284 mt 5478  284 L
 790  284 mt  837  284 L
5502  284 mt 5454  284 L
%%IncludeResource: font Helvetica
/Helvetica /WindowsLatin1Encoding 120 FMSR

 531  328 mt 
(10) s
%%IncludeResource: font Helvetica
/Helvetica /WindowsLatin1Encoding 80 FMSR

 664  254 mt 
(-1) s
 790  283 mt 5502  283 L
 790 3366 mt 5502 3366 L
5502 3366 mt 5502  283 L
 790 3366 mt  790  283 L
gs 790 284 4713 3083 rc
/c8 { 0.000000 0.000000 1.000000 sr} bdef
c8
48 5 47 5 47 6 47 5 47 6 47 6 47 5 47 6 
48 6 47 6 47 6 47 6 47 6 47 6 47 7 47 6 
48 6 47 7 47 6 47 7 47 7 47 7 47 6 47 7 
47 8 48 7 47 7 47 7 47 8 47 8 47 7 47 8 
47 8 48 8 47 8 47 8 47 9 47 8 47 9 47 9 
47 9 48 9 47 10 47 9 47 10 47 9 47 10 47 11 
47 10 47 11 48 10 47 12 47 11 47 11 47 12 47 12 
47 12 47 13 48 13 47 13 47 14 47 14 47 14 47 15 
47 15 47 15 48 16 47 17 47 17 47 17 47 18 47 19 
47 20 47 20 47 21 48 22 47 22 47 24 47 25 47 26 
47 28 47 29 47 30 48 33 47 34 47 37 47 40 47 43 
47 47 47 51 47 56 48 63 47 72 47 83 47 98 47 120 
47 155 47 221 47 385 837 420 100 MP stroke
gr

c8
0 sg
%%IncludeResource: font Helvetica
/Helvetica /WindowsLatin1Encoding 120 FMSR

2186  189 mt 
(Errore dell'integrale al crescere di m) s
3028 3654 mt 
(m, n) s
 449 1993 mt  -90 rotate
(Errore) s
90 rotate

end %%Color Dict

eplot
%%EndObject

epage
end

showpage

%%Trailer
%%EOF
