n = 1: 1000 :100000
format long

%%%%%%%%%%%%%%%%%%%%%%%%%%%%%%%%%%%%%%%%%%%%%%%%%%%

y1 = (1 + 1./n).^n
y1 =
  Columns 1 through 3
   2.000000000000000   2.716925287534764   2.717602908627517
  Columns 4 through 6
   2.717829070747809   2.717942205965361   2.718010104437913
  Columns 7 through 9
   2.718055377311837   2.718087718618940   2.718111976537746
  Columns 10 through 12
   2.718130844953494   2.718145940413236   2.718158291716402
  Columns 13 through 15
   2.718168584802523   2.718177294568530   2.718184760251396
  Columns 16 through 18
   2.718191230641136   2.718196892326009   2.718201888002868
  Columns 19 through 21
   2.718206328673164   2.718210301946421   2.718213877920689
  Columns 22 through 24
   2.718217113368368   2.718220054702912   2.718222740297355
  Columns 25 through 27
   2.718225202107175   2.718227466995695   2.718229557660532
  Columns 28 through 30
   2.718231493472676   2.718233291042549   2.718234964620750
  Columns 31 through 33
   2.718236526652110   2.718237987919521   2.718239357844428
  Columns 34 through 36
   2.718240644754914   2.718241855982243   2.718242997989898
  Columns 37 through 39
   2.718244076554850   2.718245096834294   2.718246063387415
  Columns 40 through 42
   2.718246980410761   2.718247851567573   2.718248680218069
  Columns 43 through 45
   2.718249469432392   2.718250221939577   2.718250940236091
  Columns 46 through 48
   2.718251626615364   2.718252283162320   2.718252911734086
  Columns 49 through 51
   2.718253514146148   2.718254091976290   2.718254646695191
  Columns 52 through 54
   2.718255179648421   2.718255692085751   2.718256185214661
  Columns 55 through 57
   2.718256660084741   2.718257117655318   2.718257558911010
  Columns 58 through 60
   2.718257984673805   2.718258395761034   2.718258792922403
  Columns 61 through 63
   2.718259176817358   2.718259548154052   2.718259907502782
  Columns 64 through 66
   2.718260255442939   2.718260592509895   2.718260919213385
  Columns 67 through 69
   2.718261236016299   2.718261543362596   2.718261841642638
  Columns 70 through 72
   2.718262131310813   2.718262412690655   2.718262686159775
  Columns 73 through 75
   2.718262952016226   2.718263210561066   2.718263462166551
  Columns 76 through 78
   2.718263707027542   2.718263945476742   2.718264177697645
  Columns 79 through 81
   2.718264404002510   2.718264624563555   2.718264839581203
  Columns 82 through 84
   2.718265049318398   2.718265253978027   2.718265453623862
  Columns 85 through 87
   2.718265648601295   2.718265838945319   2.718266024849622
  Columns 88 through 90
   2.718266206482056   2.718266384034310   2.718266557540449
  Columns 91 through 93
   2.718266727220588   2.718266893162469   2.718267055512476
  Columns 94 through 96
   2.718267214347985   2.718267369833406   2.718267522029806
  Columns 97 through 99
   2.718267671041323   2.718267816990801   2.718267959964045
  Column 100
   2.718268100057296

%%%%%%%%%%%%%%%%%%%%%%%%%%%%%%%%%%%%%%%%%%%%%%%%%%%

y2 = (4.*n)./(n + 2)
y2 =
  Columns 1 through 3
   1.333333333333333   3.992023928215354   3.996005991013480
  Columns 4 through 6
   3.997335997335997   3.998001498875843   3.998400959424345
  Columns 7 through 9
   3.998667333000167   3.998857632443239   3.999000374859428
  Columns 10 through 12
   3.999111407308675   3.999200239928022   3.999272925565755
  Columns 13 through 15
   3.999333499958344   3.999384757363685   3.999428693851318
  Columns 16 through 18
   3.999466773312004   3.999500093732425   3.999529494795036
  Columns 19 through 21
   3.999555629617286   3.999579013839920   3.999600059991002
  Columns 22 through 24
   3.999619102033043   3.999636413216380   3.999652219275747
  Columns 25 through 27
   3.999666708328125   3.999680038395393   3.999692343191170
  Columns 28 through 30
   3.999703736621857   3.999714316323251   3.999724166465538
  Columns 31 through 33
   3.999733359997334   3.999741960455440   3.999750023435303
  Columns 34 through 36
   3.999757597794140   3.999764726641767   3.999771448161586
  Columns 37 through 39
   3.999777796294753   3.999783801313407   3.999789490303397
  Columns 40 through 42
   3.999794887572751   3.999800014998875   3.999804892324952
  Columns 43 through 45
   3.999809537413994   3.999813966467456   3.999818194214031
  Columns 46 through 48
   3.999822234073284   3.999826098297937   3.999829798097994
  Columns 49 through 51
   3.999833343749349   3.999836744689101   3.999840009599424
  Columns 52 through 54
   3.999843146481580   3.999846162721381   3.999849065147256
  Columns 55 through 57
   3.999851860081847   3.999854553387997   3.999857150509794
  Columns 58 through 60
   3.999859656509307   3.999862076099512   3.999864413673881
  Columns 61 through 63
   3.999866673333000   3.999868858908578   3.999870973985130
  Columns 64 through 66
   3.999873021919591   3.999875005859100   3.999876928757134
  Columns 67 through 69
   3.999878793388179   3.999880602361088   3.999882358131259
  Columns 70 through 72
   3.999884063011753   3.999885719183463   3.999887328704421
  Columns 73 through 75
   3.999888893518325   3.999890415462378   3.999891896274475
  Columns 76 through 78
   3.999893337599829   3.999894740997066   3.999896107943846
  Columns 79 through 81
   3.999897439842057   3.999898738022607   3.999900003749859
  Columns 82 through 84
   3.999901238225745   3.999902442593564   3.999903617941520
  Columns 85 through 87
   3.999904765306001   3.999905885674623   3.999906979989070
  Columns 88 through 90
   3.999908049147730   3.999909094008159   3.999910115389369
  Columns 91 through 93
   3.999911114073975   3.999912090810193   3.999913046313707
  Columns 94 through 96
   3.999913981269422   3.999914896333096   3.999915792132880
  Columns 97 through 99
   3.999916669270752   3.999917528323866   3.999918369845821
  Column 100
   3.999919194367847

%%%%%%%%%%%%%%%%%%%%%%%%%%%%%%%%%%%%%%%%%%%%%%%%%%%

y3 = log(1 + sqrt(n./(n+1)))
y3 =
  Columns 1 through 3
   0.534799996739570   0.692897586134013   0.693022282037882
  Columns 4 through 6
   0.693063892340438   0.693084705939995   0.693097196804531
  Columns 7 through 9
   0.693105525174867   0.693111474563074   0.693115936906279
  Columns 10 through 12
   0.693119407796671   0.693122184621768   0.693124456644147
  Columns 13 through 15
   0.693126350047401   0.693127952194253   0.693129325489546
  Columns 16 through 18
   0.693130515698634   0.693131557146694   0.693132476083164
  Columns 19 through 21
   0.693133292924798   0.693134023790456   0.693134681575486
  Columns 22 through 24
   0.693135276719169   0.693135817762878   0.693136311762631
  Columns 25 through 27
   0.693136764598525   0.693137181209902   0.693137565776253
  Columns 28 through 30
   0.693137921857922   0.693138252506662   0.693138560353318
  Columns 31 through 33
   0.693138847677976   0.693139116466530   0.693139368456653
  Columns 34 through 36
   0.693139605175399   0.693139827970179   0.693140038034419
  Columns 37 through 39
   0.693140236428951   0.693140424099925   0.693140601893901
  Columns 40 through 42
   0.693140770570618   0.693140930813841   0.693141083240632
  Columns 43 through 45
   0.693141228409284   0.693141366826162   0.693141498951595
  Columns 46 through 48
   0.693141625205000   0.693141745969319   0.693141861594909
  Columns 49 through 51
   0.693141972402930   0.693142078688324   0.693142180722440
  Columns 52 through 54
   0.693142278755346   0.693142373017873   0.693142463723433
  Columns 55 through 57
   0.693142551069629   0.693142635239693   0.693142716403771
  Columns 58 through 60
   0.693142794720068   0.693142870335878   0.693142943388511
  Columns 61 through 63
   0.693143014006123   0.693143082308464   0.693143148407562
  Columns 64 through 66
   0.693143212408330   0.693143274409125   0.693143334502251
  Columns 67 through 69
   0.693143392774417   0.693143449307159   0.693143504177212
  Columns 70 through 72
   0.693143557456866   0.693143609214280   0.693143659513772
  Columns 73 through 75
   0.693143708416087   0.693143755978643   0.693143802255753
  Columns 76 through 78
   0.693143847298833   0.693143891156594   0.693143933875216
  Columns 79 through 81
   0.693143975498512   0.693144016068076   0.693144055623421
  Columns 82 through 84
   0.693144094202110   0.693144131839874   0.693144168570722
  Columns 85 through 87
   0.693144204427043   0.693144239439702   0.693144273638128
  Columns 88 through 90
   0.693144307050399   0.693144339703313   0.693144371622468
  Columns 91 through 93
   0.693144402832321   0.693144433356255   0.693144463216637
  Columns 94 through 96
   0.693144492434872   0.693144521031453   0.693144549026011
  Columns 97 through 99
   0.693144576437359   0.693144603283534   0.693144629581836
  Column 100
   0.693144655348869

log(2)
ans =
   0.693147180559945

